{
	"frames": [
		{ "frame": { "w": 95, "h": 74, "x": 0, "y": 0 } },
		{ "frame": { "w": 95, "h": 74, "x": 96, "y": 0 } },
		{ "frame": { "w": 95, "h": 74, "x": 192, "y": 0 } },
		{ "frame": { "w": 95, "h": 74, "x": 288, "y": 0 } },
		{ "frame": { "w": 95, "h": 74, "x": 0, "y": 75 } },
		{ "frame": { "w": 95, "h": 74, "x": 96, "y": 75 } },
		{ "frame": { "w": 95, "h": 74, "x": 192, "y": 75 } },
		{ "frame": { "w": 95, "h": 74, "x": 288, "y": 75 } },
		{ "frame": { "w": 95, "h": 74, "x": 0, "y": 150 } },
		{ "frame": { "w": 95, "h": 74, "x": 96, "y": 150 } },
		{ "frame": { "w": 95, "h": 74, "x": 192, "y": 150 } },
		{ "frame": { "w": 95, "h": 74, "x": 288, "y": 150 } }
	],
	"meta": {
		"size": { "w": 384, "h": 300 }
	}
}