{
    "particleeffect": {
        "colorfade": [
            {
                "color": "1.0000 0.9176 0.2941 1.0000",
                "time": "0.0%"
            },
            {
                "color": "1.0000 0.5216 0.1333 1.0000",
                "time": "51.8%"
            },
            {
                "color": "1.0000 0.5529 0.1020 1.0000",
                "time": "100.0%"
            }
        ],
        "direction": {
            "max": "0.0 -1.0 0.0",
            "min": "0.0 0.0 0.0",
            "value": "Direction"
        },
        "disorder": {
            "increment": "0.01",
            "interval": "1.0",
            "max": "0.1 0.1 0.1",
            "min": "-0.1 -0.1 -0.1"
        },
        "emissionrate": {
            "max": "40.0",
            "min": "30.0"
        },
        "emitterScaleCurve": [

        ],
        "emitterscale": [

        ],
        "emittersize": {
            "value": "6.0 10.0 20.0"
        },
        "emittertype": {
            "value": "Box"
        },
        "enableloop": {
            "enable": "true"
        },
        "enabletexture": {
            "enable": true
        },
        "numparticles": {
            "value": "40"
        },
        "particlesize": {
            "max": "0.1 0.1",
            "min": "0.15 0.15"
        },
        "pointFiltering": true,
        "relative": {
            "enable": "true"
        },
        "sizedelta": [
            {
                "scale": "1.02 1.02",
                "time": "0.3%"
            },
            {
                "scale": "0.24 0.24",
                "time": "32.7%"
            },
            {
                "scale": "0.87 0.87",
                "time": "67.7%"
            },
            {
                "scale": "0.0 0.0",
                "time": "100.0%"
            }
        ],
        "texture": {
            "name": "textures/sfxs/fangkuailizi"
        },
        "thickness": {
            "value": "0.0"
        },
        "timetolive": {
            "max": "4.0",
            "min": "2.0"
        },
        "velocity": {
            "max": "0.4",
            "min": "0.3"
        }
    }
}