{
    "particleeffect": {
        "activetime": {
            "value": "1.0"
        },
        "blend": {
            "name": "add"
        },
        "constantforce": {
            "value": "0.0 -0.8 0.0"
        },
        "dampingforce": {
            "value": "3.0"
        },
        "delay": 2.66,
        "direction": {
            "max": "0.0 1.0 0.0",
            "min": "0.0 1.0 0.0",
            "value": "Direction"
        },
        "emissionrate": {
            "max": "50.0",
            "min": "30.0"
        },
        "inactivetime": {
            "value": "1.5"
        },
        "layer": 7,
        "numparticles": {
            "value": "1"
        },
        "particlesize": {
            "max": "1.5 1.5",
            "min": "1.5 1.5"
        },
        "relative": {
            "enable": "true"
        },
        "sizedelta": [
            {
                "scale": "1.0 1.0",
                "time": "0.0%"
            },
            {
                "scale": "1.4 1.4",
                "time": "30.0%"
            },
            {
                "scale": "1.55 1.55",
                "time": "100.0%"
            }
        ],
        "texture": {
            "ani": {
                "fps": "16",
                "name": "textures/sfxs/2024_Q2_yanhua_chunhua02",
                "shuffle": false
            },
            "name": "textures/sfxs/2024_Q2_yanhua_chunhua02"
        }
    }
}