{
    "particleeffect": {
        "colorfade": [

        ],
        "dampingforce": {
            "value": "0.05"
        },
        "depthtest": {
            "enable": "true"
        },
        "direction": {
            "max": "1.0 1.0 1.0",
            "min": "-1.0 -1.0 -1.0",
            "value": "Direction"
        },
        "disorder": {
            "increment": "0.0",
            "interval": "3.0",
            "max": "0.02 0.02 0.02",
            "min": "-0.02 -0.02 -0.02"
        },
        "emissionrate": {
            "max": "100.0",
            "min": "100.0"
        },
        "emitterscale": [

        ],
        "emittersize": {
            "value": "35.0 35.0 35.0"
        },
        "emittertype": {
            "value": "Sphere"
        },
        "enableloop": {
            "enable": "true"
        },
        "particlesize": {
            "max": "0.2 0.2",
            "min": "0.2 0.2"
        },
        "relative": {
            "enable": "true"
        },
        "texture": {
            "ani": {
                "fps": "16",
                "name": "textures/sfxs/yanhua",
                "shuffle": false
            },
            "name": "textures/sfxs/yanhua"
        },
        "thickness": {
            "value": "1.0"
        },
        "timetolive": {
            "max": "100.0",
            "min": "50.0"
        },
        "velocity": {
            "max": "0.1",
            "min": "0.1"
        }
    }
}