{
    "particleeffect": {
        "activetime": {
            "value": "0.20000000000000004"
        },
        "blend": {
            "name": "add"
        },
        "colorfade": [
            {
                "color": "1.0000 1.0000 1.0000 1.0000",
                "time": "0.00"
            },
            {
                "color": "0.8784 1.0000 0.8235 1.0000",
                "time": "0.09"
            },
            {
                "color": "0.5020 1.0000 0.2706 1.0000",
                "time": "0.22"
            },
            {
                "color": "0.1647 1.0000 0.1922 0.8750",
                "time": "0.67"
            },
            {
                "color": "0.1255 1.0000 0.4157 0.3750",
                "time": "0.76"
            },
            {
                "color": "0.2000 1.0000 0.0588 0.8036",
                "time": "0.90"
            },
            {
                "color": "0.4627 1.0000 0.3804 0.0357",
                "time": "0.98"
            },
            {
                "color": "0.2157 1.0000 0.0784 0.5089",
                "time": "1.07"
            },
            {
                "color": "0.3725 1.0000 0.1804 0.0000",
                "time": "1.20"
            },
            {
                "color": "0.3294 1.0000 0.1451 0.3125",
                "time": "1.31"
            },
            {
                "color": "0.0627 1.0000 0.0471 0.0000",
                "time": "1.38"
            },
            {
                "color": "0.0000 1.0000 0.2510 0.2321",
                "time": "1.43"
            },
            {
                "color": "0.2235 0.9098 0.0706 0.0000",
                "time": "1.50"
            }
        ],
        "constantforce": {
            "value": "0.0 -0.30000000000000004 0.0"
        },
        "dampingforce": {
            "value": "2.0"
        },
        "delay": 3.0,
        "depthtest": {
            "enable": "true"
        },
        "direction": {
            "max": "1.0 1.0 1.0",
            "min": "-1.0 -1.0 -1.0",
            "value": "Direction"
        },
        "emissionrate": {
            "max": "750.0",
            "min": "500.0"
        },
        "emitterScaleCurve": [

        ],
        "emitterpath": [

        ],
        "emitterscale": [

        ],
        "emittersize": {
            "value": "0.0 0.0 0.0"
        },
        "emittertype": {
            "value": "Sphere"
        },
        "faceCameraMode": {
            "value": "Direction"
        },
        "inactivetime": {
            "value": "2.8"
        },
        "independent": false,
        "layer": 13,
        "numparticles": {
            "value": "70"
        },
        "relative": {
            "enable": "true"
        },
        "sizedelta": [
            {
                "scale": "1.0 1.0",
                "time": "0.00"
            },
            {
                "scale": "0.58 0.58",
                "time": "1.50"
            },
            {
                "scale": "0.5 0.5",
                "time": "2.50"
            }
        ],
        "texture": {
            "name": "textures/sfxs/fangkuai"
        },
        "thickness": {
            "value": "0.0"
        },
        "timetolive": {
            "max": "1.4",
            "min": "1.2"
        },
        "velocity": {
            "max": "5.0",
            "min": "4.0"
        }
    }
}