{
    "particleeffect": {
        "activetime": {
            "value": "0.2"
        },
        "blend": {
            "name": "add"
        },
        "colorfade": [
            {
                "color": "1.0000 1.0000 1.0000 0.0000",
                "time": "0%"
            },
            {
                "color": "0.1608 0.7765 1.0000 1.0000",
                "time": "2.5%"
            },
            {
                "color": "0.0275 0.3686 1.0000 0.9643",
                "time": "54%"
            },
            {
                "color": "0.6196 0.1529 1.0000 0.5000",
                "time": "44%"
            },
            {
                "color": "0.6510 0.0902 1.0000 0.0000",
                "time": "100%"
            }
        ],
        "constantforce": {
            "value": "0.0 -0.30000000000000004 0.0"
        },
        "dampingforce": {
            "value": "3.0"
        },
        "delay": 2.3,
        "depthtest": {
            "enable": "true"
        },
        "direction": {
            "max": "1.0 1.0 1.0",
            "min": "-1.0 -1.0 -1.0",
            "value": "Direction"
        },
        "emissionrate": {
            "max": "300.0",
            "min": "250.0"
        },
        "emitterScaleCurve": [

        ],
        "emitterpath": [

        ],
        "emitterscale": [

        ],
        "emittersize": {
            "value": "0.0 0.0 0.0"
        },
        "emittertype": {
            "value": "Sphere"
        },
        "faceCameraMode": {
            "value": "Direction"
        },
        "inactivetime": {
            "value": "4.0"
        },
        "independent": false,
        "numparticles": {
            "value": "50"
        },
        "particlesize": {
            "max": "0.05 0.5",
            "min": "0.05 0.2"
        },
        "relative": {
            "enable": "true"
        },
        "sizedelta": [
            {
                "scale": "0.0 0.0",
                "time": "0%"
            },
            {
                "scale": "0.7 0.7",
                "time": "30%"
            },
            {
                "scale": "0.2 0.2",
                "time": "60%"
            },
            {
                "scale": "0.0 0.0",
                "time": "100%"
            }
        ],
        "texture": {
            "name": "textures/sfxs/fangkuai"
        },
        "thickness": {
            "value": "0.0"
        },
        "timetolive": {
            "max": "1.5",
            "min": "1.0"
        },
        "velocity": {
            "max": "2.0",
            "min": "2.0"
        }
    }
}