{
    "particleeffect": {
        "activetime": {
            "value": "0.2"
        },
        "blend": {
            "name": "add"
        },
        "colorfade": [
            {
                "color": "1.0000 1.0000 1.0000 1.0000",
                "time": "0.00"
            },
            {
                "color": "1.0000 1.0000 0.0000 1.0000",
                "time": "0.10"
            },
            {
                "color": "1.0000 0.3608 0.3608 1.0000",
                "time": "0.24"
            },
            {
                "color": "1.0000 0.3137 1.0000 0.7143",
                "time": "1.21"
            },
            {
                "color": "1.0000 0.4196 0.3804 0.0000",
                "time": "1.36"
            },
            {
                "color": "1.0000 0.2275 1.0000 0.6339",
                "time": "1.50"
            },
            {
                "color": "1.0000 0.7490 0.8471 0.0000",
                "time": "1.59"
            },
            {
                "color": "0.7294 0.2627 1.0000 0.4286",
                "time": "1.67"
            },
            {
                "color": "1.0000 0.7490 0.8471 0.0000",
                "time": "1.79"
            },
            {
                "color": "0.5216 0.2000 1.0000 0.2857",
                "time": "1.87"
            },
            {
                "color": "1.0000 0.7490 0.8471 0.0000",
                "time": "2.00"
            }
        ],
        "constantforce": {
            "value": "0.0 -0.30000000000000004 0.0"
        },
        "dampingforce": {
            "value": "1.8000000000000003"
        },
        "delay": 2.1,
        "depthtest": {
            "enable": "true"
        },
        "direction": {
            "max": "1.0 1.0 1.0",
            "min": "-1.0 -1.0 -1.0",
            "value": "Direction"
        },
        "emissionrate": {
            "max": "750.0",
            "min": "500.0"
        },
        "emitterScaleCurve": [

        ],
        "emitterpath": [

        ],
        "emitterscale": [

        ],
        "emittersize": {
            "value": "0.0 0.0 0.0"
        },
        "emittertype": {
            "value": "Sphere"
        },
        "faceCameraMode": {
            "value": "Direction"
        },
        "inactivetime": {
            "value": "2.3"
        },
        "numparticles": {
            "value": "150"
        },
        "relative": {
            "enable": "true"
        },
        "sizedelta": [
            {
                "scale": "1.0 1.0",
                "time": "0.00"
            },
            {
                "scale": "0.58 0.58",
                "time": "1.00"
            },
            {
                "scale": "0.5 0.5",
                "time": "2.00"
            }
        ],
        "texture": {
            "name": "textures/sfxs/fangkuai"
        },
        "thickness": {
            "value": "0.0"
        },
        "timetolive": {
            "max": "2.0",
            "min": "2.0"
        },
        "velocity": {
            "max": "3.5000000000000013",
            "min": "2.999999999999999"
        }
    }
}