{"frames": [

{
	"filename": "合成 1_00006.png",
	"frame": {"x":128,"y":0,"w":64,"h":128},
	"rotated": false,
	"trimmed": false,
	"spriteSourceSize": {"x":0,"y":0,"w":64,"h":128},
	"sourceSize": {"w":64,"h":128}
},
{
	"filename": "合成 1_00007.png",
	"frame": {"x":64,"y":128,"w":64,"h":128},
	"rotated": false,
	"trimmed": false,
	"spriteSourceSize": {"x":0,"y":0,"w":64,"h":128},
	"sourceSize": {"w":64,"h":128}
},
{
	"filename": "合成 1_00008.png",
	"frame": {"x":64,"y":0,"w":64,"h":128},
	"rotated": false,
	"trimmed": false,
	"spriteSourceSize": {"x":0,"y":0,"w":64,"h":128},
	"sourceSize": {"w":64,"h":128}
},
{
	"filename": "合成 1_00009.png",
	"frame": {"x":0,"y":128,"w":64,"h":128},
	"rotated": false,
	"trimmed": false,
	"spriteSourceSize": {"x":0,"y":0,"w":64,"h":128},
	"sourceSize": {"w":64,"h":128}
},
{
	"filename": "合成 1_00010.png",
	"frame": {"x":0,"y":0,"w":64,"h":128},
	"rotated": false,
	"trimmed": false,
	"spriteSourceSize": {"x":0,"y":0,"w":64,"h":128},
	"sourceSize": {"w":64,"h":128}
}],
"meta": {
	"app": "http://www.texturepacker.com",
	"version": "1.0",
	"image": "m_mc_liuguang_16.png",
	"format": "RGBA8888",
	"size": {"w":256,"h":256},
	"scale": "1",
	"smartupdate": "$TexturePacker:SmartUpdate:80b094cb35f8cec786aca9a976152ecc$"
}
}
