{
    "frames": [
        {
            "filename": "00_00.png",
            "frame": {
                "h": 120,
                "w": 120,
                "x": 2,
                "y": 2
            },
            "rotated": false,
            "scale": {
                "x": 1.0,
                "y": 1.0,
                "z": 1.0
            },
            "sourceSize": {
                "h": 120,
                "w": 120
            },
            "spriteSourceSize": {
                "h": 120,
                "w": 120,
                "x": 0,
                "y": 0
            },
            "trimmed": false
        },
        {
            "filename": "00_01.png",
            "frame": {
                "h": 120,
                "w": 120,
                "x": 124,
                "y": 2
            },
            "rotated": false,
            "scale": {
                "x": 1.0,
                "y": 1.0,
                "z": 1.0
            },
            "sourceSize": {
                "h": 120,
                "w": 120
            },
            "spriteSourceSize": {
                "h": 120,
                "w": 120,
                "x": 0,
                "y": 0
            },
            "trimmed": false
        },
        {
            "filename": "00_02.png",
            "frame": {
                "h": 120,
                "w": 120,
                "x": 246,
                "y": 2
            },
            "rotated": false,
            "scale": {
                "x": 1.0,
                "y": 1.0,
                "z": 1.0
            },
            "sourceSize": {
                "h": 120,
                "w": 120
            },
            "spriteSourceSize": {
                "h": 120,
                "w": 120,
                "x": 0,
                "y": 0
            },
            "trimmed": false
        },
        {
            "filename": "00_03.png",
            "frame": {
                "h": 120,
                "w": 120,
                "x": 368,
                "y": 2
            },
            "rotated": false,
            "scale": {
                "x": 1.0,
                "y": 1.0,
                "z": 1.0
            },
            "sourceSize": {
                "h": 120,
                "w": 120
            },
            "spriteSourceSize": {
                "h": 120,
                "w": 120,
                "x": 0,
                "y": 0
            },
            "trimmed": false
        },
        {
            "filename": "00_04.png",
            "frame": {
                "h": 120,
                "w": 120,
                "x": 2,
                "y": 124
            },
            "rotated": false,
            "scale": {
                "x": 1.0,
                "y": 1.0,
                "z": 1.0
            },
            "sourceSize": {
                "h": 120,
                "w": 120
            },
            "spriteSourceSize": {
                "h": 120,
                "w": 120,
                "x": 0,
                "y": 0
            },
            "trimmed": false
        },
        {
            "filename": "00_05.png",
            "frame": {
                "h": 120,
                "w": 120,
                "x": 124,
                "y": 124
            },
            "rotated": false,
            "scale": {
                "x": 1.0,
                "y": 1.0,
                "z": 1.0
            },
            "sourceSize": {
                "h": 120,
                "w": 120
            },
            "spriteSourceSize": {
                "h": 120,
                "w": 120,
                "x": 0,
                "y": 0
            },
            "trimmed": false
        },
        {
            "filename": "00_06.png",
            "frame": {
                "h": 120,
                "w": 120,
                "x": 246,
                "y": 124
            },
            "rotated": false,
            "scale": {
                "x": 1.0,
                "y": 1.0,
                "z": 1.0
            },
            "sourceSize": {
                "h": 120,
                "w": 120
            },
            "spriteSourceSize": {
                "h": 120,
                "w": 120,
                "x": 0,
                "y": 0
            },
            "trimmed": false
        }
    ],
    "meta": {
        "app": "http://www.texturepacker.com",
        "format": "RGBA8888",
        "image": "fz_36.png",
        "scale": "0.9375",
        "size": {
            "h": 256,
            "w": 512
        },
        "smartupdate": "$TexturePacker:SmartUpdate:461d16b856ffae5876de0549fe4bcb92$",
        "version": "1.0"
    }
}