{
  "frames": [
    {
      "filename": "5752fc62e7d04ab30fa7916b90a5496d[1]_00000.png",
      "frame": {
        "h": 100,
        "w": 100,
        "x": 102,
        "y": 405
      },
      "rotated": false,
      "scale": {
        "x": 1.0,
        "y": 1.0,
        "z": 1.0
      },
      "sourceSize": {
        "h": 100,
        "w": 100
      },
      "spriteSourceSize": {
        "h": 100,
        "w": 100,
        "x": 0,
        "y": 0
      },
      "trimmed": false
    },
    {
      "filename": "5752fc62e7d04ab30fa7916b90a5496d[1]_00001.png",
      "frame": {
        "h": 100,
        "w": 100,
        "x": 102,
        "y": 304
      },
      "rotated": false,
      "scale": {
        "x": 1.0,
        "y": 1.0,
        "z": 1.0
      },
      "sourceSize": {
        "h": 100,
        "w": 100
      },
      "spriteSourceSize": {
        "h": 100,
        "w": 100,
        "x": 0,
        "y": 0
      },
      "trimmed": false
    },
    {
      "filename": "5752fc62e7d04ab30fa7916b90a5496d[1]_00002.png",
      "frame": {
        "h": 100,
        "w": 100,
        "x": 1,
        "y": 405
      },
      "rotated": false,
      "scale": {
        "x": 1.0,
        "y": 1.0,
        "z": 1.0
      },
      "sourceSize": {
        "h": 100,
        "w": 100
      },
      "spriteSourceSize": {
        "h": 100,
        "w": 100,
        "x": 0,
        "y": 0
      },
      "trimmed": false
    },
    {
      "filename": "5752fc62e7d04ab30fa7916b90a5496d[1]_00003.png",
      "frame": {
        "h": 100,
        "w": 100,
        "x": 1,
        "y": 304
      },
      "rotated": false,
      "scale": {
        "x": 1.0,
        "y": 1.0,
        "z": 1.0
      },
      "sourceSize": {
        "h": 100,
        "w": 100
      },
      "spriteSourceSize": {
        "h": 100,
        "w": 100,
        "x": 0,
        "y": 0
      },
      "trimmed": false
    },
    {
      "filename": "5752fc62e7d04ab30fa7916b90a5496d[1]_00004.png",
      "frame": {
        "h": 100,
        "w": 100,
        "x": 102,
        "y": 203
      },
      "rotated": false,
      "scale": {
        "x": 1.0,
        "y": 1.0,
        "z": 1.0
      },
      "sourceSize": {
        "h": 100,
        "w": 100
      },
      "spriteSourceSize": {
        "h": 100,
        "w": 100,
        "x": 0,
        "y": 0
      },
      "trimmed": false
    },
    {
      "filename": "5752fc62e7d04ab30fa7916b90a5496d[1]_00005.png",
      "frame": {
        "h": 100,
        "w": 100,
        "x": 1,
        "y": 203
      },
      "rotated": false,
      "scale": {
        "x": 1.0,
        "y": 1.0,
        "z": 1.0
      },
      "sourceSize": {
        "h": 100,
        "w": 100
      },
      "spriteSourceSize": {
        "h": 100,
        "w": 100,
        "x": 0,
        "y": 0
      },
      "trimmed": false
    },
    {
      "filename": "5752fc62e7d04ab30fa7916b90a5496d[1]_00006.png",
      "frame": {
        "h": 100,
        "w": 100,
        "x": 102,
        "y": 102
      },
      "rotated": false,
      "scale": {
        "x": 1.0,
        "y": 1.0,
        "z": 1.0
      },
      "sourceSize": {
        "h": 100,
        "w": 100
      },
      "spriteSourceSize": {
        "h": 100,
        "w": 100,
        "x": 0,
        "y": 0
      },
      "trimmed": false
    },
    {
      "filename": "5752fc62e7d04ab30fa7916b90a5496d[1]_00007.png",
      "frame": {
        "h": 100,
        "w": 100,
        "x": 1,
        "y": 102
      },
      "rotated": false,
      "scale": {
        "x": 1.0,
        "y": 1.0,
        "z": 1.0
      },
      "sourceSize": {
        "h": 100,
        "w": 100
      },
      "spriteSourceSize": {
        "h": 100,
        "w": 100,
        "x": 0,
        "y": 0
      },
      "trimmed": false
    },
    {
      "filename": "5752fc62e7d04ab30fa7916b90a5496d[1]_00008.png",
      "frame": {
        "h": 100,
        "w": 100,
        "x": 102,
        "y": 1
      },
      "rotated": false,
      "scale": {
        "x": 1.0,
        "y": 1.0,
        "z": 1.0
      },
      "sourceSize": {
        "h": 100,
        "w": 100
      },
      "spriteSourceSize": {
        "h": 100,
        "w": 100,
        "x": 0,
        "y": 0
      },
      "trimmed": false
    },
    {
      "filename": "5752fc62e7d04ab30fa7916b90a5496d[1]_00009.png",
      "frame": {
        "h": 100,
        "w": 100,
        "x": 1,
        "y": 1
      },
      "rotated": false,
      "scale": {
        "x": 1.0,
        "y": 1.0,
        "z": 1.0
      },
      "sourceSize": {
        "h": 100,
        "w": 100
      },
      "spriteSourceSize": {
        "h": 100,
        "w": 100,
        "x": 0,
        "y": 0
      },
      "trimmed": false
    }
  ],
  "meta": {
    "app": "http://www.texturepacker.com",
    "format": "RGBA8888",
    "image": "sg_zq_huo_27.png",
    "scale": "1",
    "size": {
      "h": 512,
      "w": 256
    },
    "smartupdate": "$TexturePacker:SmartUpdate:dffc2af56e31ff5c7e2d199d3e0ab796$",
    "version": "1.0"
  }
}