{
    "frames": [
        {
            "filename": "0000.png",
            "frame": {
                "h": 120,
                "w": 120,
                "x": 2,
                "y": 2
            },
            "rotated": false,
            "scale": {
                "x": 1.0,
                "y": 1.0,
                "z": 1.0
            },
            "sourceSize": {
                "h": 120,
                "w": 120
            },
            "spriteSourceSize": {
                "h": 120,
                "w": 120,
                "x": 0,
                "y": 0
            },
            "trimmed": false
        },
        {
            "filename": "0001.png",
            "frame": {
                "h": 120,
                "w": 120,
                "x": 124,
                "y": 2
            },
            "rotated": false,
            "scale": {
                "x": 1.0,
                "y": 1.0,
                "z": 1.0
            },
            "sourceSize": {
                "h": 120,
                "w": 120
            },
            "spriteSourceSize": {
                "h": 120,
                "w": 120,
                "x": 0,
                "y": 0
            },
            "trimmed": false
        },
        {
            "filename": "0002.png",
            "frame": {
                "h": 120,
                "w": 120,
                "x": 246,
                "y": 2
            },
            "rotated": false,
            "scale": {
                "x": 1.0,
                "y": 1.0,
                "z": 1.0
            },
            "sourceSize": {
                "h": 120,
                "w": 120
            },
            "spriteSourceSize": {
                "h": 120,
                "w": 120,
                "x": 0,
                "y": 0
            },
            "trimmed": false
        },
        {
            "filename": "0003.png",
            "frame": {
                "h": 120,
                "w": 120,
                "x": 368,
                "y": 2
            },
            "rotated": false,
            "scale": {
                "x": 1.0,
                "y": 1.0,
                "z": 1.0
            },
            "sourceSize": {
                "h": 120,
                "w": 120
            },
            "spriteSourceSize": {
                "h": 120,
                "w": 120,
                "x": 0,
                "y": 0
            },
            "trimmed": false
        },
        {
            "filename": "0004.png",
            "frame": {
                "h": 120,
                "w": 120,
                "x": 2,
                "y": 124
            },
            "rotated": false,
            "scale": {
                "x": 1.0,
                "y": 1.0,
                "z": 1.0
            },
            "sourceSize": {
                "h": 120,
                "w": 120
            },
            "spriteSourceSize": {
                "h": 120,
                "w": 120,
                "x": 0,
                "y": 0
            },
            "trimmed": false
        },
        {
            "filename": "0005.png",
            "frame": {
                "h": 120,
                "w": 120,
                "x": 124,
                "y": 124
            },
            "rotated": false,
            "scale": {
                "x": 1.0,
                "y": 1.0,
                "z": 1.0
            },
            "sourceSize": {
                "h": 120,
                "w": 120
            },
            "spriteSourceSize": {
                "h": 120,
                "w": 120,
                "x": 0,
                "y": 0
            },
            "trimmed": false
        },
        {
            "filename": "0006.png",
            "frame": {
                "h": 120,
                "w": 120,
                "x": 246,
                "y": 124
            },
            "rotated": false,
            "scale": {
                "x": 1.0,
                "y": 1.0,
                "z": 1.0
            },
            "sourceSize": {
                "h": 120,
                "w": 120
            },
            "spriteSourceSize": {
                "h": 120,
                "w": 120,
                "x": 0,
                "y": 0
            },
            "trimmed": false
        },
        {
            "filename": "0007.png",
            "frame": {
                "h": 120,
                "w": 120,
                "x": 368,
                "y": 124
            },
            "rotated": false,
            "scale": {
                "x": 1.0,
                "y": 1.0,
                "z": 1.0
            },
            "sourceSize": {
                "h": 120,
                "w": 120
            },
            "spriteSourceSize": {
                "h": 120,
                "w": 120,
                "x": 0,
                "y": 0
            },
            "trimmed": false
        },
        {
            "filename": "0008.png",
            "frame": {
                "h": 120,
                "w": 120,
                "x": 2,
                "y": 246
            },
            "rotated": false,
            "scale": {
                "x": 1.0,
                "y": 1.0,
                "z": 1.0
            },
            "sourceSize": {
                "h": 120,
                "w": 120
            },
            "spriteSourceSize": {
                "h": 120,
                "w": 120,
                "x": 0,
                "y": 0
            },
            "trimmed": false
        },
        {
            "filename": "0009.png",
            "frame": {
                "h": 120,
                "w": 120,
                "x": 124,
                "y": 246
            },
            "rotated": false,
            "scale": {
                "x": 1.0,
                "y": 1.0,
                "z": 1.0
            },
            "sourceSize": {
                "h": 120,
                "w": 120
            },
            "spriteSourceSize": {
                "h": 120,
                "w": 120,
                "x": 0,
                "y": 0
            },
            "trimmed": false
        },
        {
            "filename": "0010.png",
            "frame": {
                "h": 120,
                "w": 120,
                "x": 246,
                "y": 246
            },
            "rotated": false,
            "scale": {
                "x": 1.0,
                "y": 1.0,
                "z": 1.0
            },
            "sourceSize": {
                "h": 120,
                "w": 120
            },
            "spriteSourceSize": {
                "h": 120,
                "w": 120,
                "x": 0,
                "y": 0
            },
            "trimmed": false
        },
        {
            "filename": "0011.png",
            "frame": {
                "h": 120,
                "w": 120,
                "x": 368,
                "y": 246
            },
            "rotated": false,
            "scale": {
                "x": 1.0,
                "y": 1.0,
                "z": 1.0
            },
            "sourceSize": {
                "h": 120,
                "w": 120
            },
            "spriteSourceSize": {
                "h": 120,
                "w": 120,
                "x": 0,
                "y": 0
            },
            "trimmed": false
        },
        {
            "filename": "0012.png",
            "frame": {
                "h": 120,
                "w": 120,
                "x": 2,
                "y": 368
            },
            "rotated": false,
            "scale": {
                "x": 1.0,
                "y": 1.0,
                "z": 1.0
            },
            "sourceSize": {
                "h": 120,
                "w": 120
            },
            "spriteSourceSize": {
                "h": 120,
                "w": 120,
                "x": 0,
                "y": 0
            },
            "trimmed": false
        },
        {
            "filename": "0013.png",
            "frame": {
                "h": 120,
                "w": 120,
                "x": 124,
                "y": 368
            },
            "rotated": false,
            "scale": {
                "x": 1.0,
                "y": 1.0,
                "z": 1.0
            },
            "sourceSize": {
                "h": 120,
                "w": 120
            },
            "spriteSourceSize": {
                "h": 120,
                "w": 120,
                "x": 0,
                "y": 0
            },
            "trimmed": false
        },
        {
            "filename": "0014.png",
            "frame": {
                "h": 120,
                "w": 120,
                "x": 246,
                "y": 368
            },
            "rotated": false,
            "scale": {
                "x": 1.0,
                "y": 1.0,
                "z": 1.0
            },
            "sourceSize": {
                "h": 120,
                "w": 120
            },
            "spriteSourceSize": {
                "h": 120,
                "w": 120,
                "x": 0,
                "y": 0
            },
            "trimmed": false
        }
    ],
    "meta": {
        "app": "http://www.texturepacker.com",
        "format": "RGBA8888",
        "image": "yx_electro_fza_neiquan2.png",
        "scale": "0.9375",
        "size": {
            "h": 512,
            "w": 512
        },
        "smartupdate": "$TexturePacker:SmartUpdate:878eaafb6484e672c2f6a32e8a49b03d$",
        "version": "1.0"
    }
}