{
  "format_version": "1.14.0",
  "minecraft:feature_rules": {
    "description": {
      "identifier": "minecraft:flower_forest_first_foliage_feature",
      "places_feature": "minecraft:legacy:flower_forest_foliage_feature"
    },
    "conditions": {
      "placement_pass": "first_pass",
      "minecraft:biome_filter": [
        {
          "test": "has_biome_tag",
          "operator": "==",
          "value": "flower_forest"
        }
      ]
    },
    "distribution": {
      "iterations": 1,
      "x": 0,
      "y": 0,
      "z": 0
    }
  }
}
