{
  "format_version": "1.14.0",
  "minecraft:feature_rules": {
    "description": {
      "identifier": "minecraft:jungle_after_surface_bamboo_feature",
      "places_feature": "minecraft:bamboo_feature"
    },
    "conditions": {
      "placement_pass": "after_surface_pass",
      "minecraft:biome_filter": [
        {
          "test": "has_biome_tag",
          "operator": "!=",
          "value": "bamboo"
        },
        {
          "test": "has_biome_tag",
          "operator": "==",
          "value": "jungle"
        }
      ]
    },
    "distribution": {
      "iterations": 16,
      "x": {
        "distribution": "uniform",
        "extent": [ 0, 16 ]
      },
      "y": {
        "distribution": "uniform",
        "extent": [ 0, "query.heightmap(variable.worldx, variable.worldz) * 2"]
      },
      "z": {
        "distribution": "uniform",
        "extent": [ 0, 16 ]
      }
    }
  }
}
