{
  "frames": [
    {
      "filename": "shou2_00000.png",
      "frame": {
        "h": 128,
        "w": 128,
        "x": 384,
        "y": 384
      },
      "rotated": false,
      "sourceSize": {
        "h": 128,
        "w": 128
      },
      "spriteSourceSize": {
        "h": 128,
        "w": 128,
        "x": 0,
        "y": 0
      },
      "trimmed": false
    },
    {
      "filename": "shou2_00001.png",
      "frame": {
        "h": 128,
        "w": 128,
        "x": 384,
        "y": 256
      },
      "rotated": false,
      "sourceSize": {
        "h": 128,
        "w": 128
      },
      "spriteSourceSize": {
        "h": 128,
        "w": 128,
        "x": 0,
        "y": 0
      },
      "trimmed": false
    },
    {
      "filename": "shou2_00002.png",
      "frame": {
        "h": 128,
        "w": 128,
        "x": 256,
        "y": 384
      },
      "rotated": false,
      "sourceSize": {
        "h": 128,
        "w": 128
      },
      "spriteSourceSize": {
        "h": 128,
        "w": 128,
        "x": 0,
        "y": 0
      },
      "trimmed": false
    },
    {
      "filename": "shou2_00003.png",
      "frame": {
        "h": 128,
        "w": 128,
        "x": 256,
        "y": 256
      },
      "rotated": false,
      "sourceSize": {
        "h": 128,
        "w": 128
      },
      "spriteSourceSize": {
        "h": 128,
        "w": 128,
        "x": 0,
        "y": 0
      },
      "trimmed": false
    },
    {
      "filename": "shou2_00004.png",
      "frame": {
        "h": 128,
        "w": 128,
        "x": 384,
        "y": 128
      },
      "rotated": false,
      "sourceSize": {
        "h": 128,
        "w": 128
      },
      "spriteSourceSize": {
        "h": 128,
        "w": 128,
        "x": 0,
        "y": 0
      },
      "trimmed": false
    },
    {
      "filename": "shou2_00005.png",
      "frame": {
        "h": 128,
        "w": 128,
        "x": 256,
        "y": 128
      },
      "rotated": false,
      "sourceSize": {
        "h": 128,
        "w": 128
      },
      "spriteSourceSize": {
        "h": 128,
        "w": 128,
        "x": 0,
        "y": 0
      },
      "trimmed": false
    },
    {
      "filename": "shou2_00006.png",
      "frame": {
        "h": 128,
        "w": 128,
        "x": 128,
        "y": 384
      },
      "rotated": false,
      "sourceSize": {
        "h": 128,
        "w": 128
      },
      "spriteSourceSize": {
        "h": 128,
        "w": 128,
        "x": 0,
        "y": 0
      },
      "trimmed": false
    },
    {
      "filename": "shou2_00007.png",
      "frame": {
        "h": 128,
        "w": 128,
        "x": 128,
        "y": 256
      },
      "rotated": false,
      "sourceSize": {
        "h": 128,
        "w": 128
      },
      "spriteSourceSize": {
        "h": 128,
        "w": 128,
        "x": 0,
        "y": 0
      },
      "trimmed": false
    },
    {
      "filename": "shou2_00008.png",
      "frame": {
        "h": 128,
        "w": 128,
        "x": 128,
        "y": 128
      },
      "rotated": false,
      "sourceSize": {
        "h": 128,
        "w": 128
      },
      "spriteSourceSize": {
        "h": 128,
        "w": 128,
        "x": 0,
        "y": 0
      },
      "trimmed": false
    },
    {
      "filename": "shou2_00009.png",
      "frame": {
        "h": 128,
        "w": 128,
        "x": 384,
        "y": 0
      },
      "rotated": false,
      "sourceSize": {
        "h": 128,
        "w": 128
      },
      "spriteSourceSize": {
        "h": 128,
        "w": 128,
        "x": 0,
        "y": 0
      },
      "trimmed": false
    },
    {
      "filename": "shou2_00010.png",
      "frame": {
        "h": 128,
        "w": 128,
        "x": 256,
        "y": 0
      },
      "rotated": false,
      "sourceSize": {
        "h": 128,
        "w": 128
      },
      "spriteSourceSize": {
        "h": 128,
        "w": 128,
        "x": 0,
        "y": 0
      },
      "trimmed": false
    },
    {
      "filename": "shou2_00011.png",
      "frame": {
        "h": 128,
        "w": 128,
        "x": 128,
        "y": 0
      },
      "rotated": false,
      "sourceSize": {
        "h": 128,
        "w": 128
      },
      "spriteSourceSize": {
        "h": 128,
        "w": 128,
        "x": 0,
        "y": 0
      },
      "trimmed": false
    },
    {
      "filename": "shou2_00012.png",
      "frame": {
        "h": 128,
        "w": 128,
        "x": 0,
        "y": 384
      },
      "rotated": false,
      "sourceSize": {
        "h": 128,
        "w": 128
      },
      "spriteSourceSize": {
        "h": 128,
        "w": 128,
        "x": 0,
        "y": 0
      },
      "trimmed": false
    },
    {
      "filename": "shou2_00013.png",
      "frame": {
        "h": 128,
        "w": 128,
        "x": 0,
        "y": 256
      },
      "rotated": false,
      "sourceSize": {
        "h": 128,
        "w": 128
      },
      "spriteSourceSize": {
        "h": 128,
        "w": 128,
        "x": 0,
        "y": 0
      },
      "trimmed": false
    },
    {
      "filename": "shou2_00014.png",
      "frame": {
        "h": 128,
        "w": 128,
        "x": 0,
        "y": 128
      },
      "rotated": false,
      "sourceSize": {
        "h": 128,
        "w": 128
      },
      "spriteSourceSize": {
        "h": 128,
        "w": 128,
        "x": 0,
        "y": 0
      },
      "trimmed": false
    },
    {
      "filename": "shou2_00015.png",
      "frame": {
        "h": 128,
        "w": 128,
        "x": 0,
        "y": 0
      },
      "rotated": false,
      "sourceSize": {
        "h": 128,
        "w": 128
      },
      "spriteSourceSize": {
        "h": 128,
        "w": 128,
        "x": 0,
        "y": 0
      },
      "trimmed": false
    }
  ],
  "meta": {
    "app": "http://www.texturepacker.com",
    "format": "RGBA8888",
    "image": "ss_spaceskin_shou_03.png",
    "scale": "1",
    "size": {
      "h": 512,
      "w": 512
    },
    "smartupdate": "$TexturePacker:SmartUpdate:215a3650d4c2ede0fb7423cac4d7c1aa$",
    "version": "1.0"
  }
}