{
    "particleeffect": {
        "activetime": {
            "value": "1.0"
        },
        "colorfade": [
            {
                "color": "1.0000 1.0000 1.0000 0.0000",
                "time": "0%"
            },
            {
                "color": "1.0000 1.0000 1.0000 1.0000",
                "time": "30%"
            },
            {
                "color": "1.0000 1.0000 1.0000 1.0000",
                "time": "80%"
            },
            {
                "color": "1.0000 1.0000 1.0000 0.0000",
                "time": "100%"
            }
        ],
        "constantforce": {
            "value": "-0.8 0.0 0.0"
        },
        "dampingforce": {
            "value": "0.02"
        },
        "depthtest": {
            "enable": "true"
        },
        "direction": {
            "max": "1.0 0.0 0.0",
            "min": "0.0 0.0 0.0",
            "value": "Direction"
        },
        "emissionrate": {
            "max": "1.0",
            "min": "1.0"
        },
        "emittersize": {
            "value": "0.0 0.0 0.0"
        },
        "emittertype": {
            "value": "Sphere"
        },
        "enablecolor": {
            "enable": "true"
        },
        "faceCameraMode": {
            "value": "None"
        },
        "inactivetime": {
            "value": "0.5"
        },
        "numparticles": {
            "value": "1"
        },
        "particlesize": {
            "max": "16.2 1.05",
            "min": "16.2 1.05"
        },
        "relative": {
            "enable": "true"
        },
        "rotationRange": {
            "max": "-90.0 0.0 90.0",
            "min": "-90.0 0.0 90.0"
        },
        "texture": {
            "name": "textures/sfxs/home/ass_effect/back_stdj/0_hailang_chang"
        },
        "thickness": {
            "value": "0.0"
        },
        "timetolive": {
            "max": "3.5",
            "min": "3.5"
        },
        "velocity": {
            "max": "2.1",
            "min": "2.0"
        }
    }
}