{
    "particleeffect": {
        "activetime": {
            "value": "1.0"
        },
        "colorfade": [
            {
                "color": "1.0000 1.0000 1.0000 1.0000",
                "time": "0.0%"
            },
            {
                "color": "1.0000 1.0000 1.0000 1.0000",
                "time": "80.0%"
            },
            {
                "color": "1.0000 1.0000 1.0000 0.2321",
                "time": "88.4%"
            },
            {
                "color": "1.0000 1.0000 1.0000 0.0982",
                "time": "94.5%"
            },
            {
                "color": "1.0000 1.0000 1.0000 0.0000",
                "time": "100.0%"
            }
        ],
        "direction": {
            "max": "0.0 0.0 0.0",
            "min": "0.0 0.0 0.0",
            "value": "Direction"
        },
        "emissionrate": {
            "max": "20.0",
            "min": "20.0"
        },
        "enableloop": {
            "enable": "true"
        },
        "enabletexture": {
            "enable": true
        },
        "numparticles": {
            "value": "1"
        },
        "particlesize": {
            "max": "0.57 1.14",
            "min": "0.57 1.14"
        },
        "pointFiltering": true,
        "relative": {
            "enable": "true"
        },
        "sizedelta": [
            {
                "scale": "0.0 0.0",
                "time": "0.0%"
            },
            {
                "scale": "1.0 1.0",
                "time": "20.0%"
            },
            {
                "scale": "1.0 1.0",
                "time": "60.0%"
            },
            {
                "scale": "1.35 1.35",
                "time": "100.0%"
            },
            {
                "scale": "1.35 1.35",
                "time": "100.0%"
            },
            {
                "scale": "1.35 1.35",
                "time": "100.0%"
            }
        ],
        "texture": {
            "ani": {
                "fps": "12",
                "name": "textures/sfxs/emote/cs_conan_s1skind_emotes",
                "shuffle": false
            },
            "name": "textures/sfxs/emote/cs_conan_s1skind_emotes"
        },
        "timetolive": {
            "max": "2.0",
            "min": "2.0"
        },
        "velocity": {
            "max": "0.0",
            "min": "0.0"
        }
    }
}