{
    "particleeffect": {
        "activetime": {
            "value": "0.1"
        },
        "colorfade": [
            {
                "color": "1.0000 1.0000 1.0000 0.9911",
                "time": "0.0%"
            },
            {
                "color": "1.0000 1.0000 1.0000 0.9821",
                "time": "80.0%"
            },
            {
                "color": "1.0000 1.0000 1.0000 0.3750",
                "time": "87.1%"
            },
            {
                "color": "1.0000 1.0000 1.0000 0.1161",
                "time": "95.3%"
            },
            {
                "color": "1.0000 1.0000 1.0000 0.0000",
                "time": "100.0%"
            }
        ],
        "direction": {
            "max": "1.0 1.0 1.0",
            "min": "-1.0 -1.0 -1.0",
            "value": "Direction"
        },
        "emissionrate": {
            "max": "20.0",
            "min": "20.0"
        },
        "enableloop": {
            "enable": "true"
        },
        "enabletexture": {
            "enable": true
        },
        "numparticles": {
            "value": "1"
        },
        "particlesize": {
            "max": "0.7 1.3",
            "min": "0.7 1.3"
        },
        "pointFiltering": true,
        "relative": {
            "enable": "true"
        },
        "sizedelta": [
            {
                "scale": "0.0 0.0",
                "time": "0.0%"
            },
            {
                "scale": "1.08 1.08",
                "time": "10.0%"
            },
            {
                "scale": "1.08 1.08",
                "time": "28.0%"
            },
            {
                "scale": "1.12 1.12",
                "time": "45.0%"
            },
            {
                "scale": "1.08 1.08",
                "time": "69.0%"
            },
            {
                "scale": "1.35 1.35",
                "time": "84.0%"
            },
            {
                "scale": "1.41 1.41",
                "time": "100.0%"
            }
        ],
        "texture": {
            "ani": {
                "fps": "8",
                "name": "textures/sfxs/emote/sh_nether_skin_emotes_bq",
                "shuffle": false
            },
            "name": "textures/sfxs/emote/sh_nether_skin_emotes_bq"
        },
        "timetolive": {
            "max": "2.5000000000000013",
            "min": "2.5000000000000013"
        },
        "velocity": {
            "max": "1.3877787807814457e-16",
            "min": "1.3877787807814457e-16"
        }
    }
}