{
    "particleeffect": {
        "activetime": {
            "value": "2.0"
        },
        "colorfade": [
            {
                "color": "1.0000 1.0000 1.0000 1.0000",
                "time": "0.0%"
            },
            {
                "color": "1.0000 1.0000 1.0000 1.0000",
                "time": "80.0%"
            },
            {
                "color": "1.0000 1.0000 1.0000 0.4286",
                "time": "86.6%"
            },
            {
                "color": "1.0000 1.0000 1.0000 0.0893",
                "time": "94.5%"
            },
            {
                "color": "1.0000 1.0000 1.0000 0.0000",
                "time": "100.0%"
            }
        ],
        "direction": {
            "max": "0.0 0.0 0.0",
            "min": "0.0 0.0 0.0",
            "value": "Direction"
        },
        "emissionrate": {
            "max": "20.0",
            "min": "20.0"
        },
        "enableloop": {
            "enable": "true"
        },
        "enabletexture": {
            "enable": true
        },
        "numparticles": {
            "value": "1"
        },
        "particlesize": {
            "max": "0.5 1.0",
            "min": "0.5 0.9999999999999999"
        },
        "pointFiltering": true,
        "relative": {
            "enable": "true"
        },
        "sizedelta": [
            {
                "scale": "0.01 0.01",
                "time": "0.0%"
            },
            {
                "scale": "1.1 1.1",
                "time": "11.0%"
            },
            {
                "scale": "1.07 1.07",
                "time": "28.0%"
            },
            {
                "scale": "1.12 1.12",
                "time": "45.0%"
            },
            {
                "scale": "1.08 1.08",
                "time": "70.0%"
            },
            {
                "scale": "1.35 1.35",
                "time": "83.7%"
            },
            {
                "scale": "1.41 1.41",
                "time": "100.0%"
            }
        ],
        "texture": {
            "ani": {
                "fps": "4",
                "name": "textures/sfxs/emote/ss_tntB_xinyun",
                "shuffle": false
            },
            "name": "textures/sfxs/emote/ss_tntB_xinyun"
        },
        "timetolive": {
            "max": "2.5",
            "min": "2.5"
        },
        "velocity": {
            "max": "0.0",
            "min": "0.0"
        }
    }
}