{
    "content": [
        {
            "path": "manifest.json"
        }, 
        {
            "path": "netease_config.json"
        }, 
        {
            "path": "sounds/random/toast.fsb"
        }, 
        {
            "path": "texts/bg_BG.lang"
        }, 
        {
            "path": "texts/cs_CZ.lang"
        }, 
        {
            "path": "texts/da_DK.lang"
        }, 
        {
            "path": "texts/de_DE.lang"
        }, 
        {
            "path": "texts/el_GR.lang"
        }, 
        {
            "path": "texts/en_GB.lang"
        }, 
        {
            "path": "texts/en_US.lang"
        }, 
        {
            "path": "texts/es_ES.lang"
        }, 
        {
            "path": "texts/es_MX.lang"
        }, 
        {
            "path": "texts/fi_FI.lang"
        }, 
        {
            "path": "texts/fr_CA.lang"
        }, 
        {
            "path": "texts/fr_FR.lang"
        }, 
        {
            "path": "texts/hu_HU.lang"
        }, 
        {
            "path": "texts/id_ID.lang"
        }, 
        {
            "path": "texts/it_IT.lang"
        }, 
        {
            "path": "texts/ja_JP.lang"
        }, 
        {
            "path": "texts/ko_KR.lang"
        }, 
        {
            "path": "texts/nb_NO.lang"
        }, 
        {
            "path": "texts/nl_NL.lang"
        }, 
        {
            "path": "texts/pl_PL.lang"
        }, 
        {
            "path": "texts/pt_BR.lang"
        }, 
        {
            "path": "texts/pt_PT.lang"
        }, 
        {
            "path": "texts/ru_RU.lang"
        }, 
        {
            "path": "texts/sk_SK.lang"
        }, 
        {
            "path": "texts/sv_SE.lang"
        }, 
        {
            "path": "texts/tr_TR.lang"
        }, 
        {
            "path": "texts/uk_UA.lang"
        }, 
        {
            "path": "texts/zh_CN.lang"
        }, 
        {
            "path": "texts/zh_TW.lang"
        }, 
        {
            "path": "textures/textures_list.json"
        }, 
        {
            "path": "textures/ui/achievement_third_party.png"
        }, 
        {
            "path": "textures/ui/invite_third_party.png"
        }, 
        {
            "path": "textures/ui/third_party_copyright.png"
        }, 
        {
            "path": "textures/ui/third_party_patch_notice_welcome.png"
        }, 
        {
            "path": "textures/ui/xbox4.png"
        }, 
        {
            "path": "textures/ui/xboxconversionkeyart.png"
        }
    ]
}
