{
    "frameeffect": {
        "blend_mode": 1,
        "cylinder_enable": false,
        "delay": 0.0,
        "depth_test": true,
        "face_camera": false,
        "fade_distance": 0.0,
        "fps": 17,
        "loop": true,
        "rot_speed": [
            0,
            0,
            0
        ],
        "scale": [
            0.15,
            0.15,
            1.0
        ],
        "shuffle": false,
        "tex_repeat_num": [
            1,
            1
        ],
        "texture": "textures/sfxs/pet_panda/xy_panda_music_star_02"
    }
}