{"frames": [

{
	"filename": "科技线条_0000.png",
	"frame": {"x":260,"y":2,"w":256,"h":512},
	"rotated": false,
	"trimmed": false,
	"spriteSourceSize": {"x":0,"y":0,"w":256,"h":512},
	"sourceSize": {"w":256,"h":512}
},
{
	"filename": "科技线条_0001.png",
	"frame": {"x":2,"y":2,"w":256,"h":512},
	"rotated": false,
	"trimmed": false,
	"spriteSourceSize": {"x":0,"y":0,"w":256,"h":512},
	"sourceSize": {"w":256,"h":512}
}],
"meta": {
	"app": "http://www.texturepacker.com",
	"version": "1.0",
	"image": "wanggeliuguang.png",
	"format": "RGBA8888",
	"size": {"w":518,"h":516},
	"scale": "1",
	"smartupdate": "$TexturePacker:SmartUpdate:dd1da5e363f296d7ec4151e8d421ce24$"
}
}
