{
  "namespace": "netease_editor_template_namespace",

  "main": {
    "type": "screen"
  },

  "label": {
    "type": "label",
    "size": [ 100, 100 ],
    "color": [ 1 ,1, 1],
    "anchor_from": "center",
    "anchor_to": "center",
    "offset": [ 0, 0 ],
    "text": "Hello World!",
    "font_type": "smooth",
    "font_size": "normal",
    "font_scale_factor": 1.0,
    "shadow": true,
    "text_alignment": "center",
    "layer": 1,
    "visible": true
  },

  "image": {
    "type": "image",
    "anchor_from": "center",
    "anchor_to": "center",
    "size": [100, 100],
    "offset": [ 0, 0 ],
    "layer": 1,
    "visible": true,
    "texture": "textures/netease/common/image/default",
    "uv": [0, 0],
    "uv_size": [107, 107]
  },

  "netease_editor_template_image": {
    "type": "image",
    "anchor_from": "center",
    "anchor_to": "center",
    "size": ["50%", "50%"],
    "offset": [ 0, 0 ],
    "layer": 1,
    "visible": true,
    "texture": "textures/netease/common/image/default",
    "uv": [0, 0],
    "uv_size": [107, 107]
  },

  "panel": {
    "type": "panel",
    "anchor_from": "center",
    "anchor_to": "center",
    "size": [100, 100],
    "offset": [ 0, 0 ],
    "layer": 1,
    "visible": true
  },

  "default": {
    "type": "image",
    "layer": "$texture_layer",
    "texture": "$default_texture"
  },

  "hover": {
    "type": "image",
    "layer": "$texture_layer",
    "texture": "$hover_texture"
  },

  "pressed": {
    "type": "image",
    "layer": "$texture_layer",
    "texture": "$pressed_texture"
  },

  "button_label": {
    "type": "label",
    "layer": "$label_layer",
    "color": "$label_color",
    "shadow": false,
    "font_type": "smooth",
    "font_size": "$label_font_size",
    "text": "$label_text",
    "max_size": [ "100%", "100%" ],
    "offset": "$label_offset",
    "font_scale_factor":"$label_font_scale_factor",
    "text_alignment": "center"
  },

  "button@common.button": {
    "type": "button",
    "anchor_from": "center",
    "anchor_to": "center",
    "size": [100, 100],
    "offset": [ 0, 0 ],
    "layer": 1,
    "visible": true,
    "default_control": "default",
    "hover_control": "hover",
    "pressed_control": "pressed",
    "$pressed_button_name": "%netease_editor_template_namespace.click",
    "$default_texture" : "textures/netease/common/button/default",
    "$hover_texture": "textures/netease/common/button/hover",
    "$pressed_texture": "textures/netease/common/button/pressed",
    "$texture_layer": 2,
    "$label_text": "Button",
    "$label_layer": 3,
    "$label_color": [1, 1, 1],
    "$label_font_size": "large",
    "$label_offset": [0, 0],
    "$label_font_scale_factor":1.0,
    "controls": [
      { "default@netease_editor_template_namespace.default": {} },
      { "hover@netease_editor_template_namespace.hover": {} },
      { "pressed@netease_editor_template_namespace.pressed": {} },
      { "button_label@netease_editor_template_namespace.button_label": {} }
    ]
  },

  "grid": {
    "type": "grid",
    "anchor_from": "center",
    "anchor_to": "center",
    "size": [200, 200],
    "offset": [ 0, 0 ],
    "layer": 1,
    "visible": true,
    "grid_dimensions" : [ 2, 2 ],
    "collection_name" : "test_grid",
    "grid_item_template" : "netease_editor_template_namespace.netease_editor_template_image"
  },

  "scroll_view@common.scrolling_panel": {
    "type": "panel",
    "anchor_from": "center",
    "anchor_to": "center",
    "size": [200, 100],
    "offset": [ 0, 0 ],
    "layer": 1,
    "visible": true,
    "$scrolling_content": "netease_editor_template_namespace.grid",
    "$show_background": true,
    "$scroll_box_touch_image_control": "common.new_touch_scrollbar_box_image",
    "$scroll_background_image_control": "common.scroll_indent_image"
  },

  "stack_grid": {
    "type": "stack_grid",
    "anchor_from": "center",
    "anchor_to": "center",
    "size": [200, 200],
    "offset": [ 0, 0 ],
    "layer": 1,
    "visible": true,
    "orientation": "vertical",
    "collection_name": "my_stackgrid",
    "item_count": 2,
    "controls":[
      {
        "button@netease_editor_template_namespace.button": {}
      }
    ]
  }
}