{
    "frameeffect": {
        "cylinder_enable": true,
        "cylinder_frac_num": 12,
        "cylinder_height": 2.0,
        "cylinder_radius_down": 2.0,
        "cylinder_radius_up": 0.0,
        "depth_test": true,
        "face_camera": false,
        "fps": 8,
        "loop": true,
        "rot_speed": [
            0,
            0,
            0
        ],
        "scale": [
            0.5,
            0.8,
            0.5
        ],
        "shuffle": false,
        "tex_repeat_num": [
            1,
            1
        ],
        "texture": "textures/sfxs/pet_camera/ss_camera_sakura_take_02"
    }
}