{
	"frames": [
		{ "frame": { "h": 120, "w": 99, "x": 0, "y": 0 } },
		{ "frame": { "h": 120, "w": 99, "x": 99, "y": 0 } },
		{ "frame": { "h": 120, "w": 99, "x": 198, "y": 0 } },
		{ "frame": { "h": 120, "w": 99, "x": 297, "y": 0 } },
		{ "frame": { "h": 120, "w": 99, "x": 0, "y": 120 } },
		{ "frame": { "h": 120, "w": 99, "x": 99, "y": 120 } },
		{ "frame": { "h": 120, "w": 99, "x": 198, "y": 120 } },
		{ "frame": { "h": 120, "w": 99, "x": 297, "y": 120 } },
		{ "frame": { "h": 120, "w": 99, "x": 0, "y": 240 } },
		{ "frame": { "h": 120, "w": 99, "x": 99, "y": 240 } },
		{ "frame": { "h": 120, "w": 99, "x": 198, "y": 240 } },
		{ "frame": { "h": 120, "w": 99, "x": 297, "y": 240 } },
		{ "frame": { "h": 120, "w": 99, "x": 0, "y": 360 } },
		{ "frame": { "h": 120, "w": 99, "x": 99, "y": 360 } },
		{ "frame": { "h": 120, "w": 99, "x": 198, "y": 360 } },
		{ "frame": { "h": 120, "w": 99, "x": 297, "y": 360 } }
	],
	"meta": {
		"size": { "h": 480, "w": 396 }
	}
}