{
    "frameeffect": {
        "cylinder_enable": false,
        "cylinder_frac_num": 10,
        "cylinder_height": 1.0,
        "cylinder_radius_down": 1.0,
        "cylinder_radius_up": 1.0,
        "depth_test": true,
        "face_camera": false,
        "fps": 30.0,
        "loop": true,
        "rot_speed": [
            0.0,
            0.0,
            0.0
        ],
        "scale": [
            0.5,
            0.95,
            1.0
        ],
        "tex_repeat_num": [
            1,
            1
        ],
        "texture": "textures/sfxs/cs_mffgong_0_0_glow_sk"
    },
    "frames": [

    ]
}