{
    "frames": [
        {
            "filename": "glwo_lan_00000.png",
            "frame": {
                "h": 256,
                "w": 128,
                "x": 0,
                "y": 0
            },
            "rotated": false,
            "scale": {
                "x": 1.0,
                "y": 1.0,
                "z": 1.0
            },
            "sourceSize": {
                "h": 256,
                "w": 128
            },
            "spriteSourceSize": {
                "h": 256,
                "w": 128,
                "x": 0,
                "y": 0
            },
            "trimmed": false
        },
        {
            "filename": "glwo_lan_00001.png",
            "frame": {
                "h": 256,
                "w": 128,
                "x": 128,
                "y": 0
            },
            "rotated": false,
            "scale": {
                "x": 1.0,
                "y": 1.0,
                "z": 1.0
            },
            "sourceSize": {
                "h": 256,
                "w": 128
            },
            "spriteSourceSize": {
                "h": 256,
                "w": 128,
                "x": 0,
                "y": 0
            },
            "trimmed": false
        },
        {
            "filename": "glwo_lan_00002.png",
            "frame": {
                "h": 256,
                "w": 128,
                "x": 256,
                "y": 0
            },
            "rotated": false,
            "scale": {
                "x": 1.0,
                "y": 1.0,
                "z": 1.0
            },
            "sourceSize": {
                "h": 256,
                "w": 128
            },
            "spriteSourceSize": {
                "h": 256,
                "w": 128,
                "x": 0,
                "y": 0
            },
            "trimmed": false
        },
        {
            "filename": "glwo_lan_00003.png",
            "frame": {
                "h": 256,
                "w": 128,
                "x": 384,
                "y": 0
            },
            "rotated": false,
            "scale": {
                "x": 1.0,
                "y": 1.0,
                "z": 1.0
            },
            "sourceSize": {
                "h": 256,
                "w": 128
            },
            "spriteSourceSize": {
                "h": 256,
                "w": 128,
                "x": 0,
                "y": 0
            },
            "trimmed": false
        },
        {
            "filename": "glwo_lan_00004.png",
            "frame": {
                "h": 256,
                "w": 128,
                "x": 0,
                "y": 256
            },
            "rotated": false,
            "scale": {
                "x": 1.0,
                "y": 1.0,
                "z": 1.0
            },
            "sourceSize": {
                "h": 256,
                "w": 128
            },
            "spriteSourceSize": {
                "h": 256,
                "w": 128,
                "x": 0,
                "y": 0
            },
            "trimmed": false
        },
        {
            "filename": "glwo_lan_00005.png",
            "frame": {
                "h": 256,
                "w": 128,
                "x": 128,
                "y": 256
            },
            "rotated": false,
            "scale": {
                "x": 1.0,
                "y": 1.0,
                "z": 1.0
            },
            "sourceSize": {
                "h": 256,
                "w": 128
            },
            "spriteSourceSize": {
                "h": 256,
                "w": 128,
                "x": 0,
                "y": 0
            },
            "trimmed": false
        },
        {
            "filename": "glwo_lan_00006.png",
            "frame": {
                "h": 256,
                "w": 128,
                "x": 384,
                "y": 0
            },
            "rotated": false,
            "scale": {
                "x": 1.0,
                "y": 1.0,
                "z": 1.0
            },
            "sourceSize": {
                "h": 256,
                "w": 128
            },
            "spriteSourceSize": {
                "h": 256,
                "w": 128,
                "x": 0,
                "y": 0
            },
            "trimmed": false
        },
        {
            "filename": "glwo_lan_00007.png",
            "frame": {
                "h": 256,
                "w": 128,
                "x": 256,
                "y": 256
            },
            "rotated": false,
            "scale": {
                "x": 1.0,
                "y": 1.0,
                "z": 1.0
            },
            "sourceSize": {
                "h": 256,
                "w": 128
            },
            "spriteSourceSize": {
                "h": 256,
                "w": 128,
                "x": 0,
                "y": 0
            },
            "trimmed": false
        },
        {
            "filename": "glwo_lan_00008.png",
            "frame": {
                "h": 256,
                "w": 128,
                "x": 384,
                "y": 256
            },
            "rotated": false,
            "scale": {
                "x": 1.0,
                "y": 1.0,
                "z": 1.0
            },
            "sourceSize": {
                "h": 256,
                "w": 128
            },
            "spriteSourceSize": {
                "h": 256,
                "w": 128,
                "x": 0,
                "y": 0
            },
            "trimmed": false
        }
    ],
    "meta": {
        "app": "http://www.texturepacker.com",
        "format": "RGBA8888",
        "image": "xy_jiaoyin_keji1_glow_sk.png",
        "scale": "1",
        "size": {
            "h": 512,
            "w": 512
        },
        "smartupdate": "$TexturePacker:SmartUpdate:0cbdd9adbcf3bc3332dd7474fa636ec5$",
        "version": "1.0"
    }
}