{
    "particleeffect": {
        "blend": {
            "name": "add"
        },
        "colorfade": [
            {
                "color": "1.0000 0.9843 0.4706 0.4107",
                "time": "0.00"
            },
            {
                "color": "0.9961 1.0000 0.6706 0.6071",
                "time": "0.03"
            },
            {
                "color": "1.0000 0.3647 0.2078 0.2679",
                "time": "0.06"
            }
        ],
        "dampingforce": {
            "value": "5.0"
        },
        "depthtest": {
            "enable": "true"
        },
        "direction": {
            "max": "0.0 1.0 0.0",
            "min": "0.0 0.0 0.0",
            "value": "Direction"
        },
        "emitterScaleCurve": [

        ],
        "emitterscale": [

        ],
        "emittersize": {
            "value": "0.5 0.7 0.1"
        },
        "emittertype": {
            "value": "Box"
        },
        "enableloop": {
            "enable": "true"
        },
        "independent": false,
        "particlesize": {
            "max": "0.01 0.01",
            "min": "0.01 0.01"
        },
        "relative": {
            "enable": "true"
        },
        "sizedelta": [
            {
                "scale": "1.1 1.1",
                "time": "0.00"
            },
            {
                "scale": "0.45 0.45",
                "time": "1.10"
            },
            {
                "scale": "1.35 1.35",
                "time": "2.00"
            }
        ],
        "texture": {
            "name": "textures/sfxs/2021s3/cs_mffgzuoqi_02_0_03"
        },
        "thickness": {
            "value": "0.0"
        },
        "timetolive": {
            "max": "0.4",
            "min": "0.2"
        }
    }
}