{
    "frameeffect": {
        "blend_mode": 1,
        "cylinder_enable": true,
        "cylinder_frac_num": 4,
        "cylinder_height": 1.0,
        "cylinder_radius_down": 1.0,
        "cylinder_radius_up": 1.0,
        "delay": 0.0,
        "depth_test": true,
        "face_camera": false,
        "fade_distance": 0.0,
        "fps": 12,
        "loop": true,
        "rot_speed": [
            0.0,
            0.0,
            0.0
        ],
        "scale": [
            0.23,
            0.23,
            0.23
        ],
        "shuffle": false,
        "tex_repeat_num": [
            3,
            1
        ],
        "texture": "textures/sfxs/2021s3/cs_nezha_skin01_kjys"
    }
}