{
    "frameeffect": {
        "blend_mode": 1,
        "cylinder_enable": false,
        "delay": 0.0,
        "depth_test": true,
        "face_camera": false,
        "fade_distance": 0,
        "fps": 14,
        "loop": true,
        "rot_speed": [
            0.0,
            0.0,
            100.0
        ],
        "scale": [
            0.8,
            0.8,
            0.8
        ],
        "shuffle": false,
        "tex_repeat_num": [
            1,
            1
        ],
        "texture": "textures/sfxs/2021s3/fz_36"
    }
}