{
    "particleeffect": {
        "colorfade": [
            {
                "color": "0.0235 0.7882 1.0000 1.0000",
                "time": "0.00"
            },
            {
                "color": "0.3333 1.0000 1.0000 0.8571",
                "time": "0.25"
            },
            {
                "color": "0.6667 1.0000 1.0000 0.0000",
                "time": "0.50"
            }
        ],
        "depthtest": {
            "enable": "true"
        },
        "direction": {
            "max": "1.0 1.0 0.0",
            "min": "0.0 0.0 0.0",
            "value": "Direction"
        },
        "emissionrate": {
            "max": "5.0",
            "min": "3.0"
        },
        "emitterScaleCurve": [

        ],
        "emitterscale": [

        ],
        "emittersize": {
            "value": "0.1 0.2 0.2"
        },
        "emittertype": {
            "value": "Sphere"
        },
        "independent": false,
        "numparticles": {
            "value": "5"
        },
        "particlesize": {
            "max": "0.05 0.05",
            "min": "0.03 0.03"
        },
        "relative": {
            "enable": "false"
        },
        "texture": {
            "name": "textures/sfxs/2021s3/fk"
        },
        "thickness": {
            "value": "0.0"
        },
        "timetolive": {
            "max": "0.5",
            "min": "0.3"
        },
        "velocity": {
            "max": "0.5",
            "min": "0.8"
        }
    }
}