{
    "frameeffect": {
        "blend_mode": 2,
        "cylinder_enable": false,
        "delay": 0.2,
        "depth_test": true,
        "face_camera": false,
        "fade_distance": 0.0,
        "fps": 10,
        "loop": true,
        "rot_speed": [
            0,
            0,
            0
        ],
        "scale": [
            1.2,
            1.2,
            1.2
        ],
        "shuffle": false,
        "tex_repeat_num": [
            1,
            1
        ],
        "texture": "textures/sfxs/2021s3/kuoquan"
    }
}