{
    "particleeffect": {
        "colorfade": [
            {
                "color": "1.0000 0.0000 0.0000 0.0000",
                "time": "0.00"
            },
            {
                "color": "1.0000 0.0000 0.0000 1.0000",
                "time": "0.13"
            },
            {
                "color": "1.0000 1.0000 0.0000 1.0000",
                "time": "0.59"
            },
            {
                "color": "1.0000 1.0000 0.2400 0.0000",
                "time": "0.80"
            }
        ],
        "depthtest": {
            "enable": "true"
        },
        "direction": {
            "max": "0.0 1.0 0.0",
            "min": "0.0 1.0 0.0",
            "value": "Direction"
        },
        "emissionrate": {
            "max": "30.0",
            "min": "15.0"
        },
        "emitterScaleCurve": [

        ],
        "emitterscale": [

        ],
        "emittersize": {
            "value": "0.5 3.0 0.5"
        },
        "emittertype": {
            "value": "Box"
        },
        "independent": false,
        "numparticles": {
            "value": "30"
        },
        "particlesize": {
            "max": "0.02 0.02",
            "min": "0.06 0.06"
        },
        "relative": {
            "enable": "true"
        },
        "texture": {
            "name": "textures/sfxs/2021s3/nezhalizi"
        },
        "thickness": {
            "value": "0.0"
        },
        "timetolive": {
            "max": "0.8",
            "min": "0.25"
        },
        "velocity": {
            "max": "0.6000000000000001",
            "min": "0.20000000000000015"
        }
    }
}