{
    "frameeffect": {
        "blend_mode": 2,
        "cylinder_enable": false,
        "delay": 0.0,
        "depth_test": false,
        "face_camera": false,
        "fade_distance": 0.0,
        "fps": 28,
        "loop": true,
        "rot_speed": [
            0.0,
            0.0,
            90.0
        ],
        "scale": [
            1.0,
            1.0,
            1.0
        ],
        "shuffle": false,
        "tex_repeat_num": [
            1,
            1
        ],
        "texture": "textures/sfxs/2021s3/daoguang"
    }
}