{
  "frameeffect": {
    "cylinder_enable": false,
    "depth_test": true,
    "face_camera": false,
    "fps": 10,
    "loop": true,
    "rot_speed": [
      0,
      0,
      0
    ],
    "scale": [
      0.6,
      0.6,
      0.6
    ],
    "shuffle": false,
    "tex_repeat_num": [
      1,
      1
    ],
    "texture": "textures/sfxs/2021s3/sg_zq_huo_27"
  }
}