{
    "frameeffect": {
        "blend_mode": 1,
        "cylinder_enable": true,
        "cylinder_frac_num": 4,
        "cylinder_height": 5.0,
        "cylinder_radius_down": 1.0,
        "cylinder_radius_up": 1.0,
        "delay": 0.0,
        "depth_test": true,
        "face_camera": false,
        "fade_distance": 0.0,
        "fps": 10,
        "loop": true,
        "rot_speed": [
            0,
            0,
            0
        ],
        "scale": [
            0.21,
            0.21,
            0.21
        ],
        "shuffle": false,
        "tex_repeat_num": [
            1,
            1
        ],
        "texture": "textures/sfxs/2021s3/xy_ele_erji"
    }
}