{
    "frameeffect": {
        "blend_mode": 1,
        "cylinder_enable": false,
        "delay": 0.0,
        "depth_test": true,
        "face_camera": false,
        "fade_distance": 0.0,
        "fps": 15,
        "loop": true,
        "rot_speed": [
            0,
            0,
            0
        ],
        "scale": [
            0.13,
            0.13,
            0.13
        ],
        "shuffle": false,
        "tex_repeat_num": [
            1,
            1
        ],
        "texture": "textures/sfxs/2021s3/xy_ele_erji_03"
    }
}