{
    "frameeffect": {
        "blend_mode": 2,
        "cylinder_enable": true,
        "cylinder_frac_num": 6,
        "cylinder_height": 2.4,
        "cylinder_radius_down": 0.9,
        "cylinder_radius_up": 0.9,
        "delay": 0.0,
        "depth_test": true,
        "face_camera": false,
        "fade_distance": 0.0,
        "fps": 16,
        "loop": false,
        "rot_speed": [
            0.0,
            0.0,
            0.0
        ],
        "scale": [
            1.2,
            1.2,
            1.2
        ],
        "shuffle": false,
        "tex_repeat_num": [
            4,
            1
        ],
        "texture": "textures/sfxs/2021s3/shuguang03"
    }
}