{
    "particleeffect": {
        "blend": {
            "name": "add"
        },
        "colorfade": [
            {
                "color": "0.0314 0.0824 0.0980 0.0000",
                "time": "0.00"
            },
            {
                "color": "0.0353 0.0471 0.2314 1.0000",
                "time": "0.50"
            },
            {
                "color": "0.0392 0.1020 0.1216 1.0000",
                "time": "1.00"
            }
        ],
        "depthtest": {
            "enable": "true"
        },
        "direction": {
            "max": "0.0 1.0 0.0",
            "min": "0.0 1.0 0.0",
            "value": "Direction"
        },
        "emissionrate": {
            "max": "350.0",
            "min": "150.0"
        },
        "emitterScaleCurve": [

        ],
        "emitterscale": [

        ],
        "emittersize": {
            "value": "0.0 0.0 0.0"
        },
        "emittertype": {
            "value": "Box"
        },
        "enableloop": {
            "enable": "true"
        },
        "independent": false,
        "numparticles": {
            "value": "5"
        },
        "particlesize": {
            "max": "0.4 0.4",
            "min": "0.4 0.4"
        },
        "relative": {
            "enable": "true"
        },
        "sizedelta": [
            {
                "scale": "1.0 1.0",
                "time": "0.0%"
            }
        ],
        "texture": {
            "name": "textures/sfxs/2020s3/2020s3_csby_mffgzuoqi_N_glow00yy"
        },
        "thickness": {
            "value": "0.0"
        },
        "timetolive": {
            "max": "1.0",
            "min": "0.5"
        },
        "velocity": {
            "max": "0.0",
            "min": "0.0"
        }
    }
}