{
    "particleeffect": {
        "activetime": {
            "value": "0.3"
        },
        "blend": {
            "name": "add"
        },
        "colorfade": [
            {
                "color": "1.0000 1.0000 1.0000 1.0000",
                "time": "0.00"
            },
            {
                "color": "0.5882 0.5882 0.5882 1.0000",
                "time": "0.20"
            },
            {
                "color": "0.6118 0.6118 0.6118 1.0000",
                "time": "0.70"
            },
            {
                "color": "0.2471 0.2471 0.2471 0.0000",
                "time": "1.00"
            }
        ],
        "depthtest": {
            "enable": "true"
        },
        "direction": {
            "max": "0.0 1.0 0.0",
            "min": "0.0 0.0 0.0",
            "value": "Direction"
        },
        "emissionrate": {
            "max": "50.0",
            "min": "10.0"
        },
        "emitterScaleCurve": [

        ],
        "emitterscale": [

        ],
        "emittersize": {
            "value": "3.0 2.0 3.0"
        },
        "emittertype": {
            "value": "Sphere"
        },
        "independent": false,
        "particlesize": {
            "max": "0.15 0.15",
            "min": "0.3 0.3"
        },
        "relative": {
            "enable": "true"
        },
        "sizedelta": [
            {
                "scale": "1.0 1.0",
                "time": "0.0%"
            },
            {
                "scale": "0.9 0.9",
                "time": "20.0%"
            },
            {
                "scale": "0.91 0.91",
                "time": "40.0%"
            },
            {
                "scale": "0.909 0.909",
                "time": "60.0%"
            },
            {
                "scale": "0.909 0.909",
                "time": "80.0%"
            },
            {
                "scale": "0.909 0.909",
                "time": "100.0%"
            }
        ],
        "texture": {
            "ani": {
                "fps": "30",
                "name": "textures/particle/2020s3/2020s3_csby_mffgzuoqi_BS_03",
                "shuffle": false
            },
            "name": "textures/particle/2020s3/2020s3_csby_mffgzuoqi_BS_03"
        },
        "thickness": {
            "value": "0.0"
        },
        "velocity": {
            "max": "3.0",
            "min": "2.0"
        }
    }
}