{
  "particleeffect": {
    "activetime": {
      "value": "0.3"
    },
    "animlodbias": {
      "value": "0.0"
    },
    "blend": {
      "name": "add"
    },
    "colorfade": [
      {
        "color": "0.803922 0.992157 1.0 0.0",
        "time": "0.0"
      },
      {
        "color": "0.572549 0.866667 1.0 1.0",
        "time": "0.2"
      }
    ],
    "constantforce": {
      "value": "0.0 0.0 0.0"
    },
    "dampingforce": {
      "value": "2.5"
    },
    "direction": {
      "max": "0.0 1.0 0.0",
      "min": "0.0 0.0 0.0"
    },
    "emissionrate": {
      "max": "500.0",
      "min": "25.0"
    },
    "emittersize": {
      "value": "2.0 2.0 2.0"
    },
    "emittertype": {
      "value": "Sphere"
    },
    "enablecolor": {
      "enable": "false"
    },
    "enableloop": {
      "enable": "false"
    },
    "faceCameraMode": {
      "value": "Rotate XYZ"
    },
    "fixedscreensize": {
      "enable": "false"
    },
    "inactivetime": {
      "value": "0.0"
    },
    "material": {
      "name": "materials/particles.material"
    },
    "numparticles": {
      "value": "5"
    },
    "particlesize": {
      "max": "0.1 0.1",
      "min": "0.4 0.4"
    },
    "relative": {
      "enable": "true"
    },
    "rotation": {
      "max": "360.0",
      "min": "-360.0"
    },
    "rotationspeed": {
      "max": "30.0",
      "min": "-30.0"
    },
    "scaled": {
      "enable": "true"
    },
    "sizedelta": {
      "add": "0.0",
      "mul": "1.0"
    },
    "sorted": {
      "enable": "false"
    },
    "texture": {
      "ani": {
        "fps": "10.0",
        "name": "textures/particle/2020s3/shandian01"
      },
      "name": "textures/particle/2020s3/shandian01"
    },
    "timetolive": {
      "max": "0.5",
      "min": "0.3"
    },
    "velocity": {
      "max": "0.0",
      "min": "0.0"
    }
  }
}