{
    "frameeffect": {
        "blend_mode": 1,
        "cylinder_enable": false,
        "delay": 0.0,
        "depth_test": true,
        "face_camera": false,
        "fade_distance": 0.0,
        "first_person_enable": false,
        "fps": 10,
        "frame_color": [
            [
                1,
                1,
                1,
                1
            ],
            [
                1,
                1,
                1,
                1
            ],
            [
                1,
                1,
                1,
                1
            ],
            [
                1,
                1,
                1,
                1
            ],
            [
                1,
                1,
                1,
                1
            ],
            [
                1,
                1,
                1,
                1
            ],
            [
                1,
                1,
                1,
                1
            ],
            [
                1,
                1,
                1,
                1
            ],
            [
                1,
                1,
                1,
                1
            ]
        ],
        "layer": 1,
        "lerp_scale": true,
        "loop": true,
        "rot_speed": [
            0,
            0,
            0
        ],
        "scale": [
            0.6,
            0.6,
            1.0
        ],
        "shuffle": false,
        "tex_repeat_num": [
            1,
            1
        ],
        "texture": "textures/sfxs/2020s3/yx_fazhen_mofa_B_zx_sk"
    }
}