{
    "particleeffect": {
        "blend": {
            "name": "add"
        },
        "colorfade": [
            {
                "color": "0.9529 1.0000 0.0000 1.0000",
                "time": "0.00"
            },
            {
                "color": "0.1137 0.3216 1.0000 1.0000",
                "time": "0.20"
            },
            {
                "color": "0.5569 0.7490 1.0000 1.0000",
                "time": "0.40"
            },
            {
                "color": "0.7569 0.8667 1.0000 1.0000",
                "time": "0.60"
            }
        ],
        "depthtest": {
            "enable": "true"
        },
        "direction": {
            "max": "0.0 0.0 0.0",
            "min": "0.0 0.0 0.0",
            "value": "Direction"
        },
        "emitterScaleCurve": [

        ],
        "emitterscale": [

        ],
        "emittersize": {
            "value": "0.8 0.3 0.0"
        },
        "emittertype": {
            "value": "Sphere"
        },
        "enableloop": {
            "enable": "true"
        },
        "independent": false,
        "particlesize": {
            "max": "0.05 0.05",
            "min": "0.1 0.1"
        },
        "relative": {
            "enable": "false"
        },
        "sizedelta": [
            {
                "scale": "1.0 1.0",
                "time": "0.0%"
            },
            {
                "scale": "-0.05 -0.05",
                "time": "20.0%"
            },
            {
                "scale": "0.685 0.685",
                "time": "40.0%"
            },
            {
                "scale": "0.171 0.171",
                "time": "60.0%"
            },
            {
                "scale": "0.531 0.531",
                "time": "80.0%"
            },
            {
                "scale": "0.279 0.279",
                "time": "100.0%"
            }
        ],
        "texture": {
            "ani": {
                "fps": "12",
                "name": "textures/particle/2020s3/ yx_jiaoyin_nihong_01_spear_unmber_lizi",
                "shuffle": false
            },
            "name": "textures/particle/2020s3/ yx_jiaoyin_nihong_01_spear_unmber_lizi"
        },
        "thickness": {
            "value": "0.0"
        },
        "timetolive": {
            "max": "0.6",
            "min": "0.3"
        },
        "velocity": {
            "max": "0.0",
            "min": "0.0"
        }
    }
}