{
    "frames": [
        {
            "filename": "cs_567_weapon_dr_rongjie_00000.png",
            "frame": {
                "h": 256,
                "w": 64,
                "x": 0,
                "y": 0
            },
            "rotated": false,
            "scale": {
                "x": 1.0,
                "y": 1.0,
                "z": 1.0
            },
            "sourceSize": {
                "h": 256,
                "w": 64
            },
            "spriteSourceSize": {
                "h": 256,
                "w": 64,
                "x": 0,
                "y": 0
            },
            "trimmed": false
        },
        {
            "filename": "cs_567_weapon_dr_rongjie_00001.png",
            "frame": {
                "h": 256,
                "w": 64,
                "x": 64,
                "y": 0
            },
            "rotated": false,
            "scale": {
                "x": 1.0,
                "y": 1.0,
                "z": 1.0
            },
            "sourceSize": {
                "h": 256,
                "w": 64
            },
            "spriteSourceSize": {
                "h": 256,
                "w": 64,
                "x": 0,
                "y": 0
            },
            "trimmed": false
        },
        {
            "filename": "cs_567_weapon_dr_rongjie_00002.png",
            "frame": {
                "h": 256,
                "w": 64,
                "x": 128,
                "y": 0
            },
            "rotated": false,
            "scale": {
                "x": 1.0,
                "y": 1.0,
                "z": 1.0
            },
            "sourceSize": {
                "h": 256,
                "w": 64
            },
            "spriteSourceSize": {
                "h": 256,
                "w": 64,
                "x": 0,
                "y": 0
            },
            "trimmed": false
        },
        {
            "filename": "cs_567_weapon_dr_rongjie_00003.png",
            "frame": {
                "h": 256,
                "w": 64,
                "x": 192,
                "y": 0
            },
            "rotated": false,
            "scale": {
                "x": 1.0,
                "y": 1.0,
                "z": 1.0
            },
            "sourceSize": {
                "h": 256,
                "w": 64
            },
            "spriteSourceSize": {
                "h": 256,
                "w": 64,
                "x": 0,
                "y": 0
            },
            "trimmed": false
        },
        {
            "filename": "cs_567_weapon_dr_rongjie_00004.png",
            "frame": {
                "h": 256,
                "w": 64,
                "x": 256,
                "y": 0
            },
            "rotated": false,
            "scale": {
                "x": 1.0,
                "y": 1.0,
                "z": 1.0
            },
            "sourceSize": {
                "h": 256,
                "w": 64
            },
            "spriteSourceSize": {
                "h": 256,
                "w": 64,
                "x": 0,
                "y": 0
            },
            "trimmed": false
        },
        {
            "filename": "cs_567_weapon_dr_rongjie_00005.png",
            "frame": {
                "h": 256,
                "w": 64,
                "x": 320,
                "y": 0
            },
            "rotated": false,
            "scale": {
                "x": 1.0,
                "y": 1.0,
                "z": 1.0
            },
            "sourceSize": {
                "h": 256,
                "w": 64
            },
            "spriteSourceSize": {
                "h": 256,
                "w": 64,
                "x": 0,
                "y": 0
            },
            "trimmed": false
        },
        {
            "filename": "cs_567_weapon_dr_rongjie_00006.png",
            "frame": {
                "h": 256,
                "w": 64,
                "x": 384,
                "y": 0
            },
            "rotated": false,
            "scale": {
                "x": 1.0,
                "y": 1.0,
                "z": 1.0
            },
            "sourceSize": {
                "h": 256,
                "w": 64
            },
            "spriteSourceSize": {
                "h": 256,
                "w": 64,
                "x": 0,
                "y": 0
            },
            "trimmed": false
        },
        {
            "filename": "cs_567_weapon_dr_rongjie_00007.png",
            "frame": {
                "h": 256,
                "w": 64,
                "x": 448,
                "y": 0
            },
            "rotated": false,
            "scale": {
                "x": 1.0,
                "y": 1.0,
                "z": 1.0
            },
            "sourceSize": {
                "h": 256,
                "w": 64
            },
            "spriteSourceSize": {
                "h": 256,
                "w": 64,
                "x": 0,
                "y": 0
            },
            "trimmed": false
        },
        {
            "filename": "cs_567_weapon_dr_rongjie_00008.png",
            "frame": {
                "h": 256,
                "w": 64,
                "x": 0,
                "y": 256
            },
            "rotated": false,
            "scale": {
                "x": 1.0,
                "y": 1.0,
                "z": 1.0
            },
            "sourceSize": {
                "h": 256,
                "w": 64
            },
            "spriteSourceSize": {
                "h": 256,
                "w": 64,
                "x": 0,
                "y": 0
            },
            "trimmed": false
        },
        {
            "filename": "cs_567_weapon_dr_rongjie_00009.png",
            "frame": {
                "h": 256,
                "w": 64,
                "x": 64,
                "y": 256
            },
            "rotated": false,
            "scale": {
                "x": 1.0,
                "y": 1.0,
                "z": 1.0
            },
            "sourceSize": {
                "h": 256,
                "w": 64
            },
            "spriteSourceSize": {
                "h": 256,
                "w": 64,
                "x": 0,
                "y": 0
            },
            "trimmed": false
        },
        {
            "filename": "cs_567_weapon_dr_rongjie_00010.png",
            "frame": {
                "h": 256,
                "w": 64,
                "x": 128,
                "y": 256
            },
            "rotated": false,
            "scale": {
                "x": 1.0,
                "y": 1.0,
                "z": 1.0
            },
            "sourceSize": {
                "h": 256,
                "w": 64
            },
            "spriteSourceSize": {
                "h": 256,
                "w": 64,
                "x": 0,
                "y": 0
            },
            "trimmed": false
        },
        {
            "filename": "cs_567_weapon_dr_rongjie_00011.png",
            "frame": {
                "h": 256,
                "w": 64,
                "x": 192,
                "y": 256
            },
            "rotated": false,
            "scale": {
                "x": 1.0,
                "y": 1.0,
                "z": 1.0
            },
            "sourceSize": {
                "h": 256,
                "w": 64
            },
            "spriteSourceSize": {
                "h": 256,
                "w": 64,
                "x": 0,
                "y": 0
            },
            "trimmed": false
        },
        {
            "filename": "cs_567_weapon_dr_rongjie_00012.png",
            "frame": {
                "h": 256,
                "w": 64,
                "x": 256,
                "y": 256
            },
            "rotated": false,
            "scale": {
                "x": 1.0,
                "y": 1.0,
                "z": 1.0
            },
            "sourceSize": {
                "h": 256,
                "w": 64
            },
            "spriteSourceSize": {
                "h": 256,
                "w": 64,
                "x": 0,
                "y": 0
            },
            "trimmed": false
        },
        {
            "filename": "cs_567_weapon_dr_rongjie_00013.png",
            "frame": {
                "h": 256,
                "w": 64,
                "x": 320,
                "y": 256
            },
            "rotated": false,
            "scale": {
                "x": 1.0,
                "y": 1.0,
                "z": 1.0
            },
            "sourceSize": {
                "h": 256,
                "w": 64
            },
            "spriteSourceSize": {
                "h": 256,
                "w": 64,
                "x": 0,
                "y": 0
            },
            "trimmed": false
        },
        {
            "filename": "cs_567_weapon_dr_rongjie_00014.png",
            "frame": {
                "h": 256,
                "w": 64,
                "x": 384,
                "y": 256
            },
            "rotated": false,
            "scale": {
                "x": 1.0,
                "y": 1.0,
                "z": 1.0
            },
            "sourceSize": {
                "h": 256,
                "w": 64
            },
            "spriteSourceSize": {
                "h": 256,
                "w": 64,
                "x": 0,
                "y": 0
            },
            "trimmed": false
        },
        {
            "filename": "cs_567_weapon_dr_rongjie_00015.png",
            "frame": {
                "h": 256,
                "w": 64,
                "x": 448,
                "y": 256
            },
            "rotated": false,
            "scale": {
                "x": 1.0,
                "y": 1.0,
                "z": 1.0
            },
            "sourceSize": {
                "h": 256,
                "w": 64
            },
            "spriteSourceSize": {
                "h": 256,
                "w": 64,
                "x": 0,
                "y": 0
            },
            "trimmed": false
        }
    ],
    "meta": {
        "app": "https://www.codeandweb.com/texturepacker",
        "format": "RGBA8888",
        "image": "cs_567_weapon_dr_rongjie.png",
        "scale": "1",
        "size": {
            "h": 512,
            "w": 512
        },
        "smartupdate": "$TexturePacker:SmartUpdate:affae42ad2547ed307697531380608ce:207b54432030c73e2b0d2a2d21d3998a:8d6f8f13f080c8fdf3028fd265ba1dc4$",
        "version": "1.0"
    }
}