{
    "frames": [
        {
            "filename": "wzk_fire12.png Animation 2_00000.png",
            "frame": {
                "h": 64,
                "w": 128,
                "x": 0,
                "y": 0
            },
            "rotated": false,
            "scale": {
                "x": 1.0,
                "y": 1.0,
                "z": 1.0
            },
            "sourceSize": {
                "h": 64,
                "w": 128
            },
            "spriteSourceSize": {
                "h": 64,
                "w": 128,
                "x": 0,
                "y": 0
            },
            "trimmed": false
        },
        {
            "filename": "wzk_fire12.png Animation 2_00001.png",
            "frame": {
                "h": 64,
                "w": 128,
                "x": 128,
                "y": 0
            },
            "rotated": false,
            "scale": {
                "x": 1.0,
                "y": 1.0,
                "z": 1.0
            },
            "sourceSize": {
                "h": 64,
                "w": 128
            },
            "spriteSourceSize": {
                "h": 64,
                "w": 128,
                "x": 0,
                "y": 0
            },
            "trimmed": false
        },
        {
            "filename": "wzk_fire12.png Animation 2_00002.png",
            "frame": {
                "h": 64,
                "w": 128,
                "x": 256,
                "y": 0
            },
            "rotated": false,
            "scale": {
                "x": 1.0,
                "y": 1.0,
                "z": 1.0
            },
            "sourceSize": {
                "h": 64,
                "w": 128
            },
            "spriteSourceSize": {
                "h": 64,
                "w": 128,
                "x": 0,
                "y": 0
            },
            "trimmed": false
        },
        {
            "filename": "wzk_fire12.png Animation 2_00003.png",
            "frame": {
                "h": 64,
                "w": 128,
                "x": 384,
                "y": 0
            },
            "rotated": false,
            "scale": {
                "x": 1.0,
                "y": 1.0,
                "z": 1.0
            },
            "sourceSize": {
                "h": 64,
                "w": 128
            },
            "spriteSourceSize": {
                "h": 64,
                "w": 128,
                "x": 0,
                "y": 0
            },
            "trimmed": false
        },
        {
            "filename": "wzk_fire12.png Animation 2_00004.png",
            "frame": {
                "h": 64,
                "w": 128,
                "x": 0,
                "y": 64
            },
            "rotated": false,
            "scale": {
                "x": 1.0,
                "y": 1.0,
                "z": 1.0
            },
            "sourceSize": {
                "h": 64,
                "w": 128
            },
            "spriteSourceSize": {
                "h": 64,
                "w": 128,
                "x": 0,
                "y": 0
            },
            "trimmed": false
        },
        {
            "filename": "wzk_fire12.png Animation 2_00005.png",
            "frame": {
                "h": 64,
                "w": 128,
                "x": 128,
                "y": 64
            },
            "rotated": false,
            "scale": {
                "x": 1.0,
                "y": 1.0,
                "z": 1.0
            },
            "sourceSize": {
                "h": 64,
                "w": 128
            },
            "spriteSourceSize": {
                "h": 64,
                "w": 128,
                "x": 0,
                "y": 0
            },
            "trimmed": false
        },
        {
            "filename": "wzk_fire12.png Animation 2_00006.png",
            "frame": {
                "h": 64,
                "w": 128,
                "x": 256,
                "y": 64
            },
            "rotated": false,
            "scale": {
                "x": 1.0,
                "y": 1.0,
                "z": 1.0
            },
            "sourceSize": {
                "h": 64,
                "w": 128
            },
            "spriteSourceSize": {
                "h": 64,
                "w": 128,
                "x": 0,
                "y": 0
            },
            "trimmed": false
        },
        {
            "filename": "wzk_fire12.png Animation 2_00007.png",
            "frame": {
                "h": 64,
                "w": 128,
                "x": 384,
                "y": 64
            },
            "rotated": false,
            "scale": {
                "x": 1.0,
                "y": 1.0,
                "z": 1.0
            },
            "sourceSize": {
                "h": 64,
                "w": 128
            },
            "spriteSourceSize": {
                "h": 64,
                "w": 128,
                "x": 0,
                "y": 0
            },
            "trimmed": false
        }
    ],
    "meta": {
        "app": "https://www.codeandweb.com/texturepacker",
        "format": "RGBA8888",
        "image": "222222.png",
        "scale": "1",
        "size": {
            "h": 128,
            "w": 512
        },
        "smartupdate": "$TexturePacker:SmartUpdate:2ef6ff380bdc39e83a5ecef59d233866:3d00f932b43608849ed4c4136ce95289:37eb8a26870180ac807d7d051fcf8df9$",
        "version": "1.0"
    }
}