{
    "frames": [
        {
            "filename": "斧头手柄 合成 1_00000.png",
            "frame": {
                "h": 32,
                "w": 32,
                "x": 0,
                "y": 0
            },
            "rotated": false,
            "scale": {
                "x": 1.0,
                "y": 1.0,
                "z": 1.0
            },
            "sourceSize": {
                "h": 32,
                "w": 32
            },
            "spriteSourceSize": {
                "h": 32,
                "w": 32,
                "x": 0,
                "y": 0
            },
            "trimmed": false
        },
        {
            "filename": "斧头手柄 合成 1_00001.png",
            "frame": {
                "h": 32,
                "w": 32,
                "x": 32,
                "y": 0
            },
            "rotated": false,
            "scale": {
                "x": 1.0,
                "y": 1.0,
                "z": 1.0
            },
            "sourceSize": {
                "h": 32,
                "w": 32
            },
            "spriteSourceSize": {
                "h": 32,
                "w": 32,
                "x": 0,
                "y": 0
            },
            "trimmed": false
        },
        {
            "filename": "斧头手柄 合成 1_00002.png",
            "frame": {
                "h": 32,
                "w": 32,
                "x": 64,
                "y": 0
            },
            "rotated": false,
            "scale": {
                "x": 1.0,
                "y": 1.0,
                "z": 1.0
            },
            "sourceSize": {
                "h": 32,
                "w": 32
            },
            "spriteSourceSize": {
                "h": 32,
                "w": 32,
                "x": 0,
                "y": 0
            },
            "trimmed": false
        },
        {
            "filename": "斧头手柄 合成 1_00003.png",
            "frame": {
                "h": 32,
                "w": 32,
                "x": 96,
                "y": 0
            },
            "rotated": false,
            "scale": {
                "x": 1.0,
                "y": 1.0,
                "z": 1.0
            },
            "sourceSize": {
                "h": 32,
                "w": 32
            },
            "spriteSourceSize": {
                "h": 32,
                "w": 32,
                "x": 0,
                "y": 0
            },
            "trimmed": false
        },
        {
            "filename": "斧头手柄 合成 1_00004.png",
            "frame": {
                "h": 32,
                "w": 32,
                "x": 0,
                "y": 32
            },
            "rotated": false,
            "scale": {
                "x": 1.0,
                "y": 1.0,
                "z": 1.0
            },
            "sourceSize": {
                "h": 32,
                "w": 32
            },
            "spriteSourceSize": {
                "h": 32,
                "w": 32,
                "x": 0,
                "y": 0
            },
            "trimmed": false
        },
        {
            "filename": "斧头手柄 合成 1_00005.png",
            "frame": {
                "h": 32,
                "w": 32,
                "x": 32,
                "y": 32
            },
            "rotated": false,
            "scale": {
                "x": 1.0,
                "y": 1.0,
                "z": 1.0
            },
            "sourceSize": {
                "h": 32,
                "w": 32
            },
            "spriteSourceSize": {
                "h": 32,
                "w": 32,
                "x": 0,
                "y": 0
            },
            "trimmed": false
        },
        {
            "filename": "斧头手柄 合成 1_00006.png",
            "frame": {
                "h": 32,
                "w": 32,
                "x": 64,
                "y": 32
            },
            "rotated": false,
            "scale": {
                "x": 1.0,
                "y": 1.0,
                "z": 1.0
            },
            "sourceSize": {
                "h": 32,
                "w": 32
            },
            "spriteSourceSize": {
                "h": 32,
                "w": 32,
                "x": 0,
                "y": 0
            },
            "trimmed": false
        },
        {
            "filename": "斧头手柄 合成 1_00007.png",
            "frame": {
                "h": 32,
                "w": 32,
                "x": 96,
                "y": 32
            },
            "rotated": false,
            "scale": {
                "x": 1.0,
                "y": 1.0,
                "z": 1.0
            },
            "sourceSize": {
                "h": 32,
                "w": 32
            },
            "spriteSourceSize": {
                "h": 32,
                "w": 32,
                "x": 0,
                "y": 0
            },
            "trimmed": false
        },
        {
            "filename": "斧头手柄 合成 1_00008.png",
            "frame": {
                "h": 32,
                "w": 32,
                "x": 0,
                "y": 64
            },
            "rotated": false,
            "scale": {
                "x": 1.0,
                "y": 1.0,
                "z": 1.0
            },
            "sourceSize": {
                "h": 32,
                "w": 32
            },
            "spriteSourceSize": {
                "h": 32,
                "w": 32,
                "x": 0,
                "y": 0
            },
            "trimmed": false
        },
        {
            "filename": "斧头手柄 合成 1_00009.png",
            "frame": {
                "h": 32,
                "w": 32,
                "x": 32,
                "y": 64
            },
            "rotated": false,
            "scale": {
                "x": 1.0,
                "y": 1.0,
                "z": 1.0
            },
            "sourceSize": {
                "h": 32,
                "w": 32
            },
            "spriteSourceSize": {
                "h": 32,
                "w": 32,
                "x": 0,
                "y": 0
            },
            "trimmed": false
        },
        {
            "filename": "斧头手柄 合成 1_00010.png",
            "frame": {
                "h": 32,
                "w": 32,
                "x": 64,
                "y": 64
            },
            "rotated": false,
            "scale": {
                "x": 1.0,
                "y": 1.0,
                "z": 1.0
            },
            "sourceSize": {
                "h": 32,
                "w": 32
            },
            "spriteSourceSize": {
                "h": 32,
                "w": 32,
                "x": 0,
                "y": 0
            },
            "trimmed": false
        },
        {
            "filename": "斧头手柄 合成 1_00011.png",
            "frame": {
                "h": 32,
                "w": 32,
                "x": 96,
                "y": 64
            },
            "rotated": false,
            "scale": {
                "x": 1.0,
                "y": 1.0,
                "z": 1.0
            },
            "sourceSize": {
                "h": 32,
                "w": 32
            },
            "spriteSourceSize": {
                "h": 32,
                "w": 32,
                "x": 0,
                "y": 0
            },
            "trimmed": false
        },
        {
            "filename": "斧头手柄 合成 1_00012.png",
            "frame": {
                "h": 32,
                "w": 32,
                "x": 0,
                "y": 96
            },
            "rotated": false,
            "scale": {
                "x": 1.0,
                "y": 1.0,
                "z": 1.0
            },
            "sourceSize": {
                "h": 32,
                "w": 32
            },
            "spriteSourceSize": {
                "h": 32,
                "w": 32,
                "x": 0,
                "y": 0
            },
            "trimmed": false
        },
        {
            "filename": "斧头手柄 合成 1_00013.png",
            "frame": {
                "h": 32,
                "w": 32,
                "x": 32,
                "y": 96
            },
            "rotated": false,
            "scale": {
                "x": 1.0,
                "y": 1.0,
                "z": 1.0
            },
            "sourceSize": {
                "h": 32,
                "w": 32
            },
            "spriteSourceSize": {
                "h": 32,
                "w": 32,
                "x": 0,
                "y": 0
            },
            "trimmed": false
        },
        {
            "filename": "斧头手柄 合成 1_00014.png",
            "frame": {
                "h": 32,
                "w": 32,
                "x": 64,
                "y": 96
            },
            "rotated": false,
            "scale": {
                "x": 1.0,
                "y": 1.0,
                "z": 1.0
            },
            "sourceSize": {
                "h": 32,
                "w": 32
            },
            "spriteSourceSize": {
                "h": 32,
                "w": 32,
                "x": 0,
                "y": 0
            },
            "trimmed": false
        }
    ],
    "meta": {
        "app": "http://www.texturepacker.com",
        "format": "RGBA8888",
        "image": "ss_starry_weapon_b2.png",
        "scale": "1",
        "size": {
            "h": 128,
            "w": 128
        },
        "smartupdate": "$TexturePacker:SmartUpdate:a2a12e518c94bcb507eb90b7bbda2e24$",
        "version": "1.0"
    }
}