{
    "frames": [
        {
            "filename": "环状序列 2_00.png",
            "frame": {
                "h": 128,
                "w": 256,
                "x": 0,
                "y": 0
            },
            "rotated": false,
            "scale": {
                "x": 1.0,
                "y": 1.0,
                "z": 1.0
            },
            "sourceSize": {
                "h": 128,
                "w": 256
            },
            "spriteSourceSize": {
                "h": 128,
                "w": 256,
                "x": 0,
                "y": 0
            },
            "trimmed": false
        },
        {
            "filename": "环状序列 2_01.png",
            "frame": {
                "h": 128,
                "w": 256,
                "x": 256,
                "y": 0
            },
            "rotated": false,
            "scale": {
                "x": 1.0,
                "y": 1.0,
                "z": 1.0
            },
            "sourceSize": {
                "h": 128,
                "w": 256
            },
            "spriteSourceSize": {
                "h": 128,
                "w": 256,
                "x": 0,
                "y": 0
            },
            "trimmed": false
        },
        {
            "filename": "环状序列 2_02.png",
            "frame": {
                "h": 128,
                "w": 256,
                "x": 512,
                "y": 0
            },
            "rotated": false,
            "scale": {
                "x": 1.0,
                "y": 1.0,
                "z": 1.0
            },
            "sourceSize": {
                "h": 128,
                "w": 256
            },
            "spriteSourceSize": {
                "h": 128,
                "w": 256,
                "x": 0,
                "y": 0
            },
            "trimmed": false
        },
        {
            "filename": "环状序列 2_03.png",
            "frame": {
                "h": 128,
                "w": 256,
                "x": 768,
                "y": 0
            },
            "rotated": false,
            "scale": {
                "x": 1.0,
                "y": 1.0,
                "z": 1.0
            },
            "sourceSize": {
                "h": 128,
                "w": 256
            },
            "spriteSourceSize": {
                "h": 128,
                "w": 256,
                "x": 0,
                "y": 0
            },
            "trimmed": false
        },
        {
            "filename": "环状序列 2_04.png",
            "frame": {
                "h": 128,
                "w": 256,
                "x": 0,
                "y": 128
            },
            "rotated": false,
            "scale": {
                "x": 1.0,
                "y": 1.0,
                "z": 1.0
            },
            "sourceSize": {
                "h": 128,
                "w": 256
            },
            "spriteSourceSize": {
                "h": 128,
                "w": 256,
                "x": 0,
                "y": 0
            },
            "trimmed": false
        },
        {
            "filename": "环状序列 2_05.png",
            "frame": {
                "h": 128,
                "w": 256,
                "x": 256,
                "y": 128
            },
            "rotated": false,
            "scale": {
                "x": 1.0,
                "y": 1.0,
                "z": 1.0
            },
            "sourceSize": {
                "h": 128,
                "w": 256
            },
            "spriteSourceSize": {
                "h": 128,
                "w": 256,
                "x": 0,
                "y": 0
            },
            "trimmed": false
        },
        {
            "filename": "环状序列 2_06.png",
            "frame": {
                "h": 128,
                "w": 256,
                "x": 512,
                "y": 128
            },
            "rotated": false,
            "scale": {
                "x": 1.0,
                "y": 1.0,
                "z": 1.0
            },
            "sourceSize": {
                "h": 128,
                "w": 256
            },
            "spriteSourceSize": {
                "h": 128,
                "w": 256,
                "x": 0,
                "y": 0
            },
            "trimmed": false
        },
        {
            "filename": "环状序列 2_07.png",
            "frame": {
                "h": 128,
                "w": 256,
                "x": 768,
                "y": 128
            },
            "rotated": false,
            "scale": {
                "x": 1.0,
                "y": 1.0,
                "z": 1.0
            },
            "sourceSize": {
                "h": 128,
                "w": 256
            },
            "spriteSourceSize": {
                "h": 128,
                "w": 256,
                "x": 0,
                "y": 0
            },
            "trimmed": false
        },
        {
            "filename": "环状序列 2_08.png",
            "frame": {
                "h": 128,
                "w": 256,
                "x": 0,
                "y": 256
            },
            "rotated": false,
            "scale": {
                "x": 1.0,
                "y": 1.0,
                "z": 1.0
            },
            "sourceSize": {
                "h": 128,
                "w": 256
            },
            "spriteSourceSize": {
                "h": 128,
                "w": 256,
                "x": 0,
                "y": 0
            },
            "trimmed": false
        },
        {
            "filename": "环状序列 2_09.png",
            "frame": {
                "h": 128,
                "w": 256,
                "x": 256,
                "y": 256
            },
            "rotated": false,
            "scale": {
                "x": 1.0,
                "y": 1.0,
                "z": 1.0
            },
            "sourceSize": {
                "h": 128,
                "w": 256
            },
            "spriteSourceSize": {
                "h": 128,
                "w": 256,
                "x": 0,
                "y": 0
            },
            "trimmed": false
        },
        {
            "filename": "环状序列 2_10.png",
            "frame": {
                "h": 128,
                "w": 256,
                "x": 512,
                "y": 256
            },
            "rotated": false,
            "scale": {
                "x": 1.0,
                "y": 1.0,
                "z": 1.0
            },
            "sourceSize": {
                "h": 128,
                "w": 256
            },
            "spriteSourceSize": {
                "h": 128,
                "w": 256,
                "x": 0,
                "y": 0
            },
            "trimmed": false
        },
        {
            "filename": "环状序列 2_11.png",
            "frame": {
                "h": 128,
                "w": 256,
                "x": 768,
                "y": 256
            },
            "rotated": false,
            "scale": {
                "x": 1.0,
                "y": 1.0,
                "z": 1.0
            },
            "sourceSize": {
                "h": 128,
                "w": 256
            },
            "spriteSourceSize": {
                "h": 128,
                "w": 256,
                "x": 0,
                "y": 0
            },
            "trimmed": false
        },
        {
            "filename": "环状序列 2_12.png",
            "frame": {
                "h": 128,
                "w": 256,
                "x": 0,
                "y": 384
            },
            "rotated": false,
            "scale": {
                "x": 1.0,
                "y": 1.0,
                "z": 1.0
            },
            "sourceSize": {
                "h": 128,
                "w": 256
            },
            "spriteSourceSize": {
                "h": 128,
                "w": 256,
                "x": 0,
                "y": 0
            },
            "trimmed": false
        },
        {
            "filename": "环状序列 2_13.png",
            "frame": {
                "h": 128,
                "w": 256,
                "x": 256,
                "y": 384
            },
            "rotated": false,
            "scale": {
                "x": 1.0,
                "y": 1.0,
                "z": 1.0
            },
            "sourceSize": {
                "h": 128,
                "w": 256
            },
            "spriteSourceSize": {
                "h": 128,
                "w": 256,
                "x": 0,
                "y": 0
            },
            "trimmed": false
        },
        {
            "filename": "环状序列 2_14.png",
            "frame": {
                "h": 128,
                "w": 256,
                "x": 512,
                "y": 384
            },
            "rotated": false,
            "scale": {
                "x": 1.0,
                "y": 1.0,
                "z": 1.0
            },
            "sourceSize": {
                "h": 128,
                "w": 256
            },
            "spriteSourceSize": {
                "h": 128,
                "w": 256,
                "x": 0,
                "y": 0
            },
            "trimmed": false
        },
        {
            "filename": "环状序列 2_15.png",
            "frame": {
                "h": 128,
                "w": 256,
                "x": 768,
                "y": 384
            },
            "rotated": false,
            "scale": {
                "x": 1.0,
                "y": 1.0,
                "z": 1.0
            },
            "sourceSize": {
                "h": 128,
                "w": 256
            },
            "spriteSourceSize": {
                "h": 128,
                "w": 256,
                "x": 0,
                "y": 0
            },
            "trimmed": false
        }
    ],
    "meta": {
        "app": "https://www.codeandweb.com/texturepacker",
        "format": "RGBA8888",
        "image": "cs_conan_s1_skinc_xl_01.png",
        "scale": "1",
        "size": {
            "h": 512,
            "w": 1024
        },
        "smartupdate": "$TexturePacker:SmartUpdate:374e815d8bd4b3948ce28b3289f325d6:4c1f76ffc8b1b21ba027fae49f7903a7:57c60ff478855c1a2dbb81d191d0f484$",
        "version": "1.0"
    }
}