{
    "frames": [
        {
            "filename": "ss_cat_ender_glow - 副本 - 副本 (2).png",
            "frame": {
                "h": 32,
                "w": 32,
                "x": 0,
                "y": 0
            },
            "rotated": false,
            "scale": {
                "x": 1.0,
                "y": 1.0,
                "z": 1.0
            },
            "sourceSize": {
                "h": 32,
                "w": 32
            },
            "spriteSourceSize": {
                "h": 32,
                "w": 32,
                "x": 0,
                "y": 0
            },
            "trimmed": false
        },
        {
            "filename": "ss_cat_ender_glow - 副本 - 副本.png",
            "frame": {
                "h": 32,
                "w": 32,
                "x": 32,
                "y": 0
            },
            "rotated": false,
            "scale": {
                "x": 1.0,
                "y": 1.0,
                "z": 1.0
            },
            "sourceSize": {
                "h": 32,
                "w": 32
            },
            "spriteSourceSize": {
                "h": 32,
                "w": 32,
                "x": 0,
                "y": 0
            },
            "trimmed": false
        },
        {
            "filename": "ss_cat_ender_glow - 副本.png",
            "frame": {
                "h": 32,
                "w": 32,
                "x": 0,
                "y": 32
            },
            "rotated": false,
            "scale": {
                "x": 1.0,
                "y": 1.0,
                "z": 1.0
            },
            "sourceSize": {
                "h": 32,
                "w": 32
            },
            "spriteSourceSize": {
                "h": 32,
                "w": 32,
                "x": 0,
                "y": 0
            },
            "trimmed": false
        },
        {
            "filename": "ss_cat_ender_glow.png",
            "frame": {
                "h": 32,
                "w": 32,
                "x": 32,
                "y": 32
            },
            "rotated": false,
            "scale": {
                "x": 1.0,
                "y": 1.0,
                "z": 1.0
            },
            "sourceSize": {
                "h": 32,
                "w": 32
            },
            "spriteSourceSize": {
                "h": 32,
                "w": 32,
                "x": 0,
                "y": 0
            },
            "trimmed": false
        }
    ],
    "meta": {
        "app": "https://www.codeandweb.com/texturepacker",
        "format": "RGBA8888",
        "image": "cs_conan_s1skinc_glow.png",
        "scale": "1",
        "size": {
            "h": 64,
            "w": 64
        },
        "smartupdate": "$TexturePacker:SmartUpdate:22effd7be1390db8f6ee9466c78b9c46:c411de984e5e5ea0bc593635404952d9:64eaa6818647b145a13517ca31ae08d6$",
        "version": "1.0"
    }
}