{
    "frames": [
        {
            "filename": "456_00.png",
            "frame": {
                "h": 256,
                "w": 256,
                "x": 0,
                "y": 0
            },
            "rotated": false,
            "scale": {
                "x": 1.0,
                "y": 1.0,
                "z": 1.0
            },
            "sourceSize": {
                "h": 256,
                "w": 256
            },
            "spriteSourceSize": {
                "h": 256,
                "w": 256,
                "x": 0,
                "y": 0
            },
            "trimmed": false
        },
        {
            "filename": "456_01.png",
            "frame": {
                "h": 256,
                "w": 256,
                "x": 256,
                "y": 0
            },
            "rotated": false,
            "scale": {
                "x": 1.0,
                "y": 1.0,
                "z": 1.0
            },
            "sourceSize": {
                "h": 256,
                "w": 256
            },
            "spriteSourceSize": {
                "h": 256,
                "w": 256,
                "x": 0,
                "y": 0
            },
            "trimmed": false
        },
        {
            "filename": "456_02.png",
            "frame": {
                "h": 256,
                "w": 256,
                "x": 512,
                "y": 0
            },
            "rotated": false,
            "scale": {
                "x": 1.0,
                "y": 1.0,
                "z": 1.0
            },
            "sourceSize": {
                "h": 256,
                "w": 256
            },
            "spriteSourceSize": {
                "h": 256,
                "w": 256,
                "x": 0,
                "y": 0
            },
            "trimmed": false
        },
        {
            "filename": "456_03.png",
            "frame": {
                "h": 256,
                "w": 256,
                "x": 768,
                "y": 0
            },
            "rotated": false,
            "scale": {
                "x": 1.0,
                "y": 1.0,
                "z": 1.0
            },
            "sourceSize": {
                "h": 256,
                "w": 256
            },
            "spriteSourceSize": {
                "h": 256,
                "w": 256,
                "x": 0,
                "y": 0
            },
            "trimmed": false
        },
        {
            "filename": "456_04.png",
            "frame": {
                "h": 256,
                "w": 256,
                "x": 0,
                "y": 256
            },
            "rotated": false,
            "scale": {
                "x": 1.0,
                "y": 1.0,
                "z": 1.0
            },
            "sourceSize": {
                "h": 256,
                "w": 256
            },
            "spriteSourceSize": {
                "h": 256,
                "w": 256,
                "x": 0,
                "y": 0
            },
            "trimmed": false
        },
        {
            "filename": "456_05.png",
            "frame": {
                "h": 256,
                "w": 256,
                "x": 256,
                "y": 256
            },
            "rotated": false,
            "scale": {
                "x": 1.0,
                "y": 1.0,
                "z": 1.0
            },
            "sourceSize": {
                "h": 256,
                "w": 256
            },
            "spriteSourceSize": {
                "h": 256,
                "w": 256,
                "x": 0,
                "y": 0
            },
            "trimmed": false
        },
        {
            "filename": "456_06.png",
            "frame": {
                "h": 256,
                "w": 256,
                "x": 512,
                "y": 256
            },
            "rotated": false,
            "scale": {
                "x": 1.0,
                "y": 1.0,
                "z": 1.0
            },
            "sourceSize": {
                "h": 256,
                "w": 256
            },
            "spriteSourceSize": {
                "h": 256,
                "w": 256,
                "x": 0,
                "y": 0
            },
            "trimmed": false
        },
        {
            "filename": "456_07.png",
            "frame": {
                "h": 256,
                "w": 256,
                "x": 768,
                "y": 256
            },
            "rotated": false,
            "scale": {
                "x": 1.0,
                "y": 1.0,
                "z": 1.0
            },
            "sourceSize": {
                "h": 256,
                "w": 256
            },
            "spriteSourceSize": {
                "h": 256,
                "w": 256,
                "x": 0,
                "y": 0
            },
            "trimmed": false
        },
        {
            "filename": "456_08.png",
            "frame": {
                "h": 256,
                "w": 256,
                "x": 0,
                "y": 512
            },
            "rotated": false,
            "scale": {
                "x": 1.0,
                "y": 1.0,
                "z": 1.0
            },
            "sourceSize": {
                "h": 256,
                "w": 256
            },
            "spriteSourceSize": {
                "h": 256,
                "w": 256,
                "x": 0,
                "y": 0
            },
            "trimmed": false
        },
        {
            "filename": "456_09.png",
            "frame": {
                "h": 256,
                "w": 256,
                "x": 256,
                "y": 512
            },
            "rotated": false,
            "scale": {
                "x": 1.0,
                "y": 1.0,
                "z": 1.0
            },
            "sourceSize": {
                "h": 256,
                "w": 256
            },
            "spriteSourceSize": {
                "h": 256,
                "w": 256,
                "x": 0,
                "y": 0
            },
            "trimmed": false
        },
        {
            "filename": "456_10.png",
            "frame": {
                "h": 256,
                "w": 256,
                "x": 512,
                "y": 512
            },
            "rotated": false,
            "scale": {
                "x": 1.0,
                "y": 1.0,
                "z": 1.0
            },
            "sourceSize": {
                "h": 256,
                "w": 256
            },
            "spriteSourceSize": {
                "h": 256,
                "w": 256,
                "x": 0,
                "y": 0
            },
            "trimmed": false
        },
        {
            "filename": "456_11.png",
            "frame": {
                "h": 256,
                "w": 256,
                "x": 768,
                "y": 512
            },
            "rotated": false,
            "scale": {
                "x": 1.0,
                "y": 1.0,
                "z": 1.0
            },
            "sourceSize": {
                "h": 256,
                "w": 256
            },
            "spriteSourceSize": {
                "h": 256,
                "w": 256,
                "x": 0,
                "y": 0
            },
            "trimmed": false
        },
        {
            "filename": "456_12.png",
            "frame": {
                "h": 256,
                "w": 256,
                "x": 0,
                "y": 768
            },
            "rotated": false,
            "scale": {
                "x": 1.0,
                "y": 1.0,
                "z": 1.0
            },
            "sourceSize": {
                "h": 256,
                "w": 256
            },
            "spriteSourceSize": {
                "h": 256,
                "w": 256,
                "x": 0,
                "y": 0
            },
            "trimmed": false
        },
        {
            "filename": "456_13.png",
            "frame": {
                "h": 256,
                "w": 256,
                "x": 256,
                "y": 768
            },
            "rotated": false,
            "scale": {
                "x": 1.0,
                "y": 1.0,
                "z": 1.0
            },
            "sourceSize": {
                "h": 256,
                "w": 256
            },
            "spriteSourceSize": {
                "h": 256,
                "w": 256,
                "x": 0,
                "y": 0
            },
            "trimmed": false
        },
        {
            "filename": "456_14.png",
            "frame": {
                "h": 256,
                "w": 256,
                "x": 512,
                "y": 768
            },
            "rotated": false,
            "scale": {
                "x": 1.0,
                "y": 1.0,
                "z": 1.0
            },
            "sourceSize": {
                "h": 256,
                "w": 256
            },
            "spriteSourceSize": {
                "h": 256,
                "w": 256,
                "x": 0,
                "y": 0
            },
            "trimmed": false
        },
        {
            "filename": "456_15.png",
            "frame": {
                "h": 256,
                "w": 256,
                "x": 768,
                "y": 768
            },
            "rotated": false,
            "scale": {
                "x": 1.0,
                "y": 1.0,
                "z": 1.0
            },
            "sourceSize": {
                "h": 256,
                "w": 256
            },
            "spriteSourceSize": {
                "h": 256,
                "w": 256,
                "x": 0,
                "y": 0
            },
            "trimmed": false
        }
    ],
    "meta": {
        "app": "https://www.codeandweb.com/texturepacker",
        "format": "RGBA8888",
        "image": "cs_conan_s1skina_dianchuo_bao001.png",
        "scale": "1",
        "size": {
            "h": 1024,
            "w": 1024
        },
        "smartupdate": "$TexturePacker:SmartUpdate:b654dbc279f9acc22d11333b16840e32:456e791bd97c71ace34b1c3ab88e65be:ea0973957c25a96011487c456e8b7017$",
        "version": "1.0"
    }
}