{
    "frames": [
        {
            "filename": "long2.png 合成 1_00000.png",
            "frame": {
                "h": 32,
                "w": 128,
                "x": 0,
                "y": 0
            },
            "rotated": false,
            "scale": {
                "x": 0.0,
                "y": 0.0,
                "z": 0.0
            },
            "sourceSize": {
                "h": 32,
                "w": 128
            },
            "spriteSourceSize": {
                "h": 32,
                "w": 128,
                "x": 0,
                "y": 0
            },
            "trimmed": false
        },
        {
            "filename": "long2.png 合成 1_00001.png",
            "frame": {
                "h": 32,
                "w": 128,
                "x": 128,
                "y": 0
            },
            "rotated": false,
            "scale": {
                "x": 0.0,
                "y": 0.0,
                "z": 0.0
            },
            "sourceSize": {
                "h": 32,
                "w": 128
            },
            "spriteSourceSize": {
                "h": 32,
                "w": 128,
                "x": 0,
                "y": 0
            },
            "trimmed": false
        },
        {
            "filename": "long2.png 合成 1_00002.png",
            "frame": {
                "h": 32,
                "w": 128,
                "x": 256,
                "y": 0
            },
            "rotated": false,
            "scale": {
                "x": 0.0,
                "y": 0.0,
                "z": 0.0
            },
            "sourceSize": {
                "h": 32,
                "w": 128
            },
            "spriteSourceSize": {
                "h": 32,
                "w": 128,
                "x": 0,
                "y": 0
            },
            "trimmed": false
        },
        {
            "filename": "long2.png 合成 1_00003.png",
            "frame": {
                "h": 32,
                "w": 128,
                "x": 384,
                "y": 0
            },
            "rotated": false,
            "scale": {
                "x": 0.0,
                "y": 0.0,
                "z": 0.0
            },
            "sourceSize": {
                "h": 32,
                "w": 128
            },
            "spriteSourceSize": {
                "h": 32,
                "w": 128,
                "x": 0,
                "y": 0
            },
            "trimmed": false
        },
        {
            "filename": "long2.png 合成 1_00004.png",
            "frame": {
                "h": 32,
                "w": 128,
                "x": 0,
                "y": 32
            },
            "rotated": false,
            "scale": {
                "x": 0.0,
                "y": 0.0,
                "z": 0.0
            },
            "sourceSize": {
                "h": 32,
                "w": 128
            },
            "spriteSourceSize": {
                "h": 32,
                "w": 128,
                "x": 0,
                "y": 0
            },
            "trimmed": false
        },
        {
            "filename": "long2.png 合成 1_00005.png",
            "frame": {
                "h": 32,
                "w": 128,
                "x": 128,
                "y": 32
            },
            "rotated": false,
            "scale": {
                "x": 0.0,
                "y": 0.0,
                "z": 0.0
            },
            "sourceSize": {
                "h": 32,
                "w": 128
            },
            "spriteSourceSize": {
                "h": 32,
                "w": 128,
                "x": 0,
                "y": 0
            },
            "trimmed": false
        },
        {
            "filename": "long2.png 合成 1_00006.png",
            "frame": {
                "h": 32,
                "w": 128,
                "x": 256,
                "y": 32
            },
            "rotated": false,
            "scale": {
                "x": 0.2799999999999998,
                "y": 0.2799999999999998,
                "z": 0.2799999999999998
            },
            "sourceSize": {
                "h": 32,
                "w": 128
            },
            "spriteSourceSize": {
                "h": 32,
                "w": 128,
                "x": 0,
                "y": 0
            },
            "trimmed": false
        },
        {
            "filename": "long2.png 合成 1_00007.png",
            "frame": {
                "h": 32,
                "w": 128,
                "x": 384,
                "y": 32
            },
            "rotated": false,
            "scale": {
                "x": 0.56,
                "y": 0.56,
                "z": 0.56
            },
            "sourceSize": {
                "h": 32,
                "w": 128
            },
            "spriteSourceSize": {
                "h": 32,
                "w": 128,
                "x": 0,
                "y": 0
            },
            "trimmed": false
        },
        {
            "filename": "long2.png 合成 1_00008.png",
            "frame": {
                "h": 32,
                "w": 128,
                "x": 0,
                "y": 64
            },
            "rotated": false,
            "scale": {
                "x": 0.75,
                "y": 0.75,
                "z": 0.75
            },
            "sourceSize": {
                "h": 32,
                "w": 128
            },
            "spriteSourceSize": {
                "h": 32,
                "w": 128,
                "x": 0,
                "y": 0
            },
            "trimmed": false
        },
        {
            "filename": "long2.png 合成 1_00009.png",
            "frame": {
                "h": 32,
                "w": 128,
                "x": 128,
                "y": 64
            },
            "rotated": false,
            "scale": {
                "x": 0.8400000000000001,
                "y": 0.8400000000000001,
                "z": 0.8400000000000001
            },
            "sourceSize": {
                "h": 32,
                "w": 128
            },
            "spriteSourceSize": {
                "h": 32,
                "w": 128,
                "x": 0,
                "y": 0
            },
            "trimmed": false
        },
        {
            "filename": "long2.png 合成 1_00010.png",
            "frame": {
                "h": 32,
                "w": 128,
                "x": 256,
                "y": 64
            },
            "rotated": false,
            "scale": {
                "x": 0.9599999999999999,
                "y": 0.9599999999999999,
                "z": 0.9599999999999999
            },
            "sourceSize": {
                "h": 32,
                "w": 128
            },
            "spriteSourceSize": {
                "h": 32,
                "w": 128,
                "x": 0,
                "y": 0
            },
            "trimmed": false
        },
        {
            "filename": "long2.png 合成 1_00011.png",
            "frame": {
                "h": 32,
                "w": 128,
                "x": 384,
                "y": 64
            },
            "rotated": false,
            "scale": {
                "x": 1.02,
                "y": 1.02,
                "z": 1.02
            },
            "sourceSize": {
                "h": 32,
                "w": 128
            },
            "spriteSourceSize": {
                "h": 32,
                "w": 128,
                "x": 0,
                "y": 0
            },
            "trimmed": false
        },
        {
            "filename": "long2.png 合成 1_00012.png",
            "frame": {
                "h": 32,
                "w": 128,
                "x": 0,
                "y": 96
            },
            "rotated": false,
            "scale": {
                "x": 1.08,
                "y": 1.08,
                "z": 1.08
            },
            "sourceSize": {
                "h": 32,
                "w": 128
            },
            "spriteSourceSize": {
                "h": 32,
                "w": 128,
                "x": 0,
                "y": 0
            },
            "trimmed": false
        },
        {
            "filename": "long2.png 合成 1_00013.png",
            "frame": {
                "h": 32,
                "w": 128,
                "x": 128,
                "y": 96
            },
            "rotated": false,
            "scale": {
                "x": 1.09,
                "y": 1.09,
                "z": 1.09
            },
            "sourceSize": {
                "h": 32,
                "w": 128
            },
            "spriteSourceSize": {
                "h": 32,
                "w": 128,
                "x": 0,
                "y": 0
            },
            "trimmed": false
        },
        {
            "filename": "long2.png 合成 1_00014.png",
            "frame": {
                "h": 32,
                "w": 128,
                "x": 256,
                "y": 96
            },
            "rotated": false,
            "scale": {
                "x": 1.1,
                "y": 1.1,
                "z": 1.1
            },
            "sourceSize": {
                "h": 32,
                "w": 128
            },
            "spriteSourceSize": {
                "h": 32,
                "w": 128,
                "x": 0,
                "y": 0
            },
            "trimmed": false
        },
        {
            "filename": "long2.png 合成 1_00015.png",
            "frame": {
                "h": 32,
                "w": 128,
                "x": 384,
                "y": 96
            },
            "rotated": false,
            "scale": {
                "x": 1.11,
                "y": 1.11,
                "z": 1.11
            },
            "sourceSize": {
                "h": 32,
                "w": 128
            },
            "spriteSourceSize": {
                "h": 32,
                "w": 128,
                "x": 0,
                "y": 0
            },
            "trimmed": false
        },
        {
            "filename": "long2.png 合成 1_00016.png",
            "frame": {
                "h": 32,
                "w": 128,
                "x": 0,
                "y": 128
            },
            "rotated": false,
            "scale": {
                "x": 1.12,
                "y": 1.12,
                "z": 1.12
            },
            "sourceSize": {
                "h": 32,
                "w": 128
            },
            "spriteSourceSize": {
                "h": 32,
                "w": 128,
                "x": 0,
                "y": 0
            },
            "trimmed": false
        },
        {
            "filename": "long2.png 合成 1_00017.png",
            "frame": {
                "h": 32,
                "w": 128,
                "x": 128,
                "y": 128
            },
            "rotated": false,
            "scale": {
                "x": 1.13,
                "y": 1.13,
                "z": 1.13
            },
            "sourceSize": {
                "h": 32,
                "w": 128
            },
            "spriteSourceSize": {
                "h": 32,
                "w": 128,
                "x": 0,
                "y": 0
            },
            "trimmed": false
        },
        {
            "filename": "long2.png 合成 1_00018.png",
            "frame": {
                "h": 32,
                "w": 128,
                "x": 256,
                "y": 128
            },
            "rotated": false,
            "scale": {
                "x": 1.14,
                "y": 1.14,
                "z": 1.14
            },
            "sourceSize": {
                "h": 32,
                "w": 128
            },
            "spriteSourceSize": {
                "h": 32,
                "w": 128,
                "x": 0,
                "y": 0
            },
            "trimmed": false
        },
        {
            "filename": "long2.png 合成 1_00019.png",
            "frame": {
                "h": 32,
                "w": 128,
                "x": 384,
                "y": 128
            },
            "rotated": false,
            "scale": {
                "x": 1.15,
                "y": 1.15,
                "z": 1.15
            },
            "sourceSize": {
                "h": 32,
                "w": 128
            },
            "spriteSourceSize": {
                "h": 32,
                "w": 128,
                "x": 0,
                "y": 0
            },
            "trimmed": false
        },
        {
            "filename": "long2.png 合成 1_00020.png",
            "frame": {
                "h": 32,
                "w": 128,
                "x": 0,
                "y": 160
            },
            "rotated": false,
            "scale": {
                "x": 1.16,
                "y": 1.16,
                "z": 1.16
            },
            "sourceSize": {
                "h": 32,
                "w": 128
            },
            "spriteSourceSize": {
                "h": 32,
                "w": 128,
                "x": 0,
                "y": 0
            },
            "trimmed": false
        },
        {
            "filename": "long2.png 合成 1_00021.png",
            "frame": {
                "h": 32,
                "w": 128,
                "x": 128,
                "y": 160
            },
            "rotated": false,
            "scale": {
                "x": 1.17,
                "y": 1.17,
                "z": 1.17
            },
            "sourceSize": {
                "h": 32,
                "w": 128
            },
            "spriteSourceSize": {
                "h": 32,
                "w": 128,
                "x": 0,
                "y": 0
            },
            "trimmed": false
        },
        {
            "filename": "long2.png 合成 1_00022.png",
            "frame": {
                "h": 32,
                "w": 128,
                "x": 256,
                "y": 160
            },
            "rotated": false,
            "scale": {
                "x": 1.18,
                "y": 1.18,
                "z": 1.18
            },
            "sourceSize": {
                "h": 32,
                "w": 128
            },
            "spriteSourceSize": {
                "h": 32,
                "w": 128,
                "x": 0,
                "y": 0
            },
            "trimmed": false
        },
        {
            "filename": "long2.png 合成 1_00023.png",
            "frame": {
                "h": 32,
                "w": 128,
                "x": 384,
                "y": 160
            },
            "rotated": false,
            "scale": {
                "x": 1.19,
                "y": 1.19,
                "z": 1.19
            },
            "sourceSize": {
                "h": 32,
                "w": 128
            },
            "spriteSourceSize": {
                "h": 32,
                "w": 128,
                "x": 0,
                "y": 0
            },
            "trimmed": false
        },
        {
            "filename": "long2.png 合成 1_00024.png",
            "frame": {
                "h": 32,
                "w": 128,
                "x": 0,
                "y": 192
            },
            "rotated": false,
            "scale": {
                "x": 1.2,
                "y": 1.2,
                "z": 1.2
            },
            "sourceSize": {
                "h": 32,
                "w": 128
            },
            "spriteSourceSize": {
                "h": 32,
                "w": 128,
                "x": 0,
                "y": 0
            },
            "trimmed": false
        },
        {
            "filename": "long2.png 合成 1_00025.png",
            "frame": {
                "h": 32,
                "w": 128,
                "x": 128,
                "y": 192
            },
            "rotated": false,
            "scale": {
                "x": 1.21,
                "y": 1.21,
                "z": 1.21
            },
            "sourceSize": {
                "h": 32,
                "w": 128
            },
            "spriteSourceSize": {
                "h": 32,
                "w": 128,
                "x": 0,
                "y": 0
            },
            "trimmed": false
        },
        {
            "filename": "long2.png 合成 1_00026.png",
            "frame": {
                "h": 32,
                "w": 128,
                "x": 256,
                "y": 192
            },
            "rotated": false,
            "scale": {
                "x": 1.22,
                "y": 1.22,
                "z": 1.22
            },
            "sourceSize": {
                "h": 32,
                "w": 128
            },
            "spriteSourceSize": {
                "h": 32,
                "w": 128,
                "x": 0,
                "y": 0
            },
            "trimmed": false
        },
        {
            "filename": "long2.png 合成 1_00027.png",
            "frame": {
                "h": 32,
                "w": 128,
                "x": 384,
                "y": 192
            },
            "rotated": false,
            "scale": {
                "x": 1.23,
                "y": 1.23,
                "z": 1.23
            },
            "sourceSize": {
                "h": 32,
                "w": 128
            },
            "spriteSourceSize": {
                "h": 32,
                "w": 128,
                "x": 0,
                "y": 0
            },
            "trimmed": false
        },
        {
            "filename": "long2.png 合成 1_00028.png",
            "frame": {
                "h": 32,
                "w": 128,
                "x": 0,
                "y": 224
            },
            "rotated": false,
            "scale": {
                "x": 1.24,
                "y": 1.24,
                "z": 1.24
            },
            "sourceSize": {
                "h": 32,
                "w": 128
            },
            "spriteSourceSize": {
                "h": 32,
                "w": 128,
                "x": 0,
                "y": 0
            },
            "trimmed": false
        },
        {
            "filename": "long2.png 合成 1_00029.png",
            "frame": {
                "h": 32,
                "w": 128,
                "x": 128,
                "y": 224
            },
            "rotated": false,
            "scale": {
                "x": 1.25,
                "y": 1.25,
                "z": 1.25
            },
            "sourceSize": {
                "h": 32,
                "w": 128
            },
            "spriteSourceSize": {
                "h": 32,
                "w": 128,
                "x": 0,
                "y": 0
            },
            "trimmed": false
        },
        {
            "filename": "long2.png 合成 1_00030.png",
            "frame": {
                "h": 32,
                "w": 128,
                "x": 256,
                "y": 224
            },
            "rotated": false,
            "scale": {
                "x": 1.26,
                "y": 1.26,
                "z": 1.26
            },
            "sourceSize": {
                "h": 32,
                "w": 128
            },
            "spriteSourceSize": {
                "h": 32,
                "w": 128,
                "x": 0,
                "y": 0
            },
            "trimmed": false
        },
        {
            "filename": "long2.png 合成 1_00031.png",
            "frame": {
                "h": 32,
                "w": 128,
                "x": 384,
                "y": 224
            },
            "rotated": false,
            "scale": {
                "x": 1.27,
                "y": 1.27,
                "z": 1.27
            },
            "sourceSize": {
                "h": 32,
                "w": 128
            },
            "spriteSourceSize": {
                "h": 32,
                "w": 128,
                "x": 0,
                "y": 0
            },
            "trimmed": false
        }
    ],
    "meta": {
        "app": "https://www.codeandweb.com/texturepacker",
        "format": "RGBA8888",
        "image": "cs_loong_skina2_long.png",
        "scale": "1",
        "size": {
            "h": 512,
            "w": 512
        },
        "smartupdate": "$TexturePacker:SmartUpdate:98ee2083409eeb7db14052d49833f4a6:047bffd3d41cae53b57f1bd9b287c3b9:ffc556a66c04c0b79498c90657c2105a$",
        "version": "1.0"
    }
}