{
    "frames": [
        {
            "filename": "合成 129_00.png",
            "frame": {
                "h": 128,
                "w": 128,
                "x": 0,
                "y": 0
            },
            "rotated": false,
            "scale": {
                "x": 1.0,
                "y": 1.0,
                "z": 1.0
            },
            "sourceSize": {
                "h": 128,
                "w": 128
            },
            "spriteSourceSize": {
                "h": 128,
                "w": 128,
                "x": 0,
                "y": 0
            },
            "trimmed": false
        },
        {
            "filename": "合成 129_01.png",
            "frame": {
                "h": 128,
                "w": 128,
                "x": 128,
                "y": 0
            },
            "rotated": false,
            "scale": {
                "x": 1.0,
                "y": 1.0,
                "z": 1.0
            },
            "sourceSize": {
                "h": 128,
                "w": 128
            },
            "spriteSourceSize": {
                "h": 128,
                "w": 128,
                "x": 0,
                "y": 0
            },
            "trimmed": false
        },
        {
            "filename": "合成 129_02.png",
            "frame": {
                "h": 128,
                "w": 128,
                "x": 256,
                "y": 0
            },
            "rotated": false,
            "scale": {
                "x": 1.0,
                "y": 1.0,
                "z": 1.0
            },
            "sourceSize": {
                "h": 128,
                "w": 128
            },
            "spriteSourceSize": {
                "h": 128,
                "w": 128,
                "x": 0,
                "y": 0
            },
            "trimmed": false
        },
        {
            "filename": "合成 129_03.png",
            "frame": {
                "h": 128,
                "w": 128,
                "x": 384,
                "y": 0
            },
            "rotated": false,
            "scale": {
                "x": 1.0,
                "y": 1.0,
                "z": 1.0
            },
            "sourceSize": {
                "h": 128,
                "w": 128
            },
            "spriteSourceSize": {
                "h": 128,
                "w": 128,
                "x": 0,
                "y": 0
            },
            "trimmed": false
        },
        {
            "filename": "合成 129_04.png",
            "frame": {
                "h": 128,
                "w": 128,
                "x": 0,
                "y": 128
            },
            "rotated": false,
            "scale": {
                "x": 1.0,
                "y": 1.0,
                "z": 1.0
            },
            "sourceSize": {
                "h": 128,
                "w": 128
            },
            "spriteSourceSize": {
                "h": 128,
                "w": 128,
                "x": 0,
                "y": 0
            },
            "trimmed": false
        },
        {
            "filename": "合成 129_05.png",
            "frame": {
                "h": 128,
                "w": 128,
                "x": 128,
                "y": 128
            },
            "rotated": false,
            "scale": {
                "x": 1.0,
                "y": 1.0,
                "z": 1.0
            },
            "sourceSize": {
                "h": 128,
                "w": 128
            },
            "spriteSourceSize": {
                "h": 128,
                "w": 128,
                "x": 0,
                "y": 0
            },
            "trimmed": false
        },
        {
            "filename": "合成 129_06.png",
            "frame": {
                "h": 128,
                "w": 128,
                "x": 256,
                "y": 128
            },
            "rotated": false,
            "scale": {
                "x": 1.0,
                "y": 1.0,
                "z": 1.0
            },
            "sourceSize": {
                "h": 128,
                "w": 128
            },
            "spriteSourceSize": {
                "h": 128,
                "w": 128,
                "x": 0,
                "y": 0
            },
            "trimmed": false
        },
        {
            "filename": "合成 129_07.png",
            "frame": {
                "h": 128,
                "w": 128,
                "x": 384,
                "y": 128
            },
            "rotated": false,
            "scale": {
                "x": 1.0,
                "y": 1.0,
                "z": 1.0
            },
            "sourceSize": {
                "h": 128,
                "w": 128
            },
            "spriteSourceSize": {
                "h": 128,
                "w": 128,
                "x": 0,
                "y": 0
            },
            "trimmed": false
        },
        {
            "filename": "合成 129_08.png",
            "frame": {
                "h": 128,
                "w": 128,
                "x": 0,
                "y": 256
            },
            "rotated": false,
            "scale": {
                "x": 1.0,
                "y": 1.0,
                "z": 1.0
            },
            "sourceSize": {
                "h": 128,
                "w": 128
            },
            "spriteSourceSize": {
                "h": 128,
                "w": 128,
                "x": 0,
                "y": 0
            },
            "trimmed": false
        },
        {
            "filename": "合成 129_09.png",
            "frame": {
                "h": 128,
                "w": 128,
                "x": 128,
                "y": 256
            },
            "rotated": false,
            "scale": {
                "x": 1.0,
                "y": 1.0,
                "z": 1.0
            },
            "sourceSize": {
                "h": 128,
                "w": 128
            },
            "spriteSourceSize": {
                "h": 128,
                "w": 128,
                "x": 0,
                "y": 0
            },
            "trimmed": false
        },
        {
            "filename": "合成 129_10.png",
            "frame": {
                "h": 128,
                "w": 128,
                "x": 256,
                "y": 256
            },
            "rotated": false,
            "scale": {
                "x": 1.0,
                "y": 1.0,
                "z": 1.0
            },
            "sourceSize": {
                "h": 128,
                "w": 128
            },
            "spriteSourceSize": {
                "h": 128,
                "w": 128,
                "x": 0,
                "y": 0
            },
            "trimmed": false
        },
        {
            "filename": "合成 129_11.png",
            "frame": {
                "h": 128,
                "w": 128,
                "x": 384,
                "y": 256
            },
            "rotated": false,
            "scale": {
                "x": 1.0,
                "y": 1.0,
                "z": 1.0
            },
            "sourceSize": {
                "h": 128,
                "w": 128
            },
            "spriteSourceSize": {
                "h": 128,
                "w": 128,
                "x": 0,
                "y": 0
            },
            "trimmed": false
        },
        {
            "filename": "合成 129_12.png",
            "frame": {
                "h": 128,
                "w": 128,
                "x": 0,
                "y": 384
            },
            "rotated": false,
            "scale": {
                "x": 1.0,
                "y": 1.0,
                "z": 1.0
            },
            "sourceSize": {
                "h": 128,
                "w": 128
            },
            "spriteSourceSize": {
                "h": 128,
                "w": 128,
                "x": 0,
                "y": 0
            },
            "trimmed": false
        },
        {
            "filename": "合成 129_13.png",
            "frame": {
                "h": 128,
                "w": 128,
                "x": 128,
                "y": 384
            },
            "rotated": false,
            "scale": {
                "x": 1.0,
                "y": 1.0,
                "z": 1.0
            },
            "sourceSize": {
                "h": 128,
                "w": 128
            },
            "spriteSourceSize": {
                "h": 128,
                "w": 128,
                "x": 0,
                "y": 0
            },
            "trimmed": false
        },
        {
            "filename": "合成 129_14.png",
            "frame": {
                "h": 128,
                "w": 128,
                "x": 256,
                "y": 384
            },
            "rotated": false,
            "scale": {
                "x": 1.0,
                "y": 1.0,
                "z": 1.0
            },
            "sourceSize": {
                "h": 128,
                "w": 128
            },
            "spriteSourceSize": {
                "h": 128,
                "w": 128,
                "x": 0,
                "y": 0
            },
            "trimmed": false
        },
        {
            "filename": "合成 129_15.png",
            "frame": {
                "h": 128,
                "w": 128,
                "x": 384,
                "y": 384
            },
            "rotated": false,
            "scale": {
                "x": 1.0,
                "y": 1.0,
                "z": 1.0
            },
            "sourceSize": {
                "h": 128,
                "w": 128
            },
            "spriteSourceSize": {
                "h": 128,
                "w": 128,
                "x": 0,
                "y": 0
            },
            "trimmed": false
        }
    ],
    "meta": {
        "app": "https://www.codeandweb.com/texturepacker",
        "format": "RGBA8888",
        "image": "cs_loong_weapona_sd_xl.png",
        "scale": "1",
        "size": {
            "h": 512,
            "w": 512
        },
        "smartupdate": "$TexturePacker:SmartUpdate:9e2736c0b07ff0df420609bd2b3a8751:ee544612f1de9ee293d79790916e4e95:ac47a830f2437abced29035c9059e198$",
        "version": "1.0"
    }
}