{
    "frames": [
        {
            "filename": "眼睛a.png 合成 1_00000.png",
            "frame": {
                "h": 64,
                "w": 128,
                "x": 0,
                "y": 0
            },
            "rotated": false,
            "scale": {
                "x": 1.0,
                "y": 1.0,
                "z": 1.0
            },
            "sourceSize": {
                "h": 64,
                "w": 128
            },
            "spriteSourceSize": {
                "h": 64,
                "w": 128,
                "x": 0,
                "y": 0
            },
            "trimmed": false
        },
        {
            "filename": "眼睛a.png 合成 1_00001.png",
            "frame": {
                "h": 64,
                "w": 128,
                "x": 128,
                "y": 0
            },
            "rotated": false,
            "scale": {
                "x": 1.0,
                "y": 1.0,
                "z": 1.0
            },
            "sourceSize": {
                "h": 64,
                "w": 128
            },
            "spriteSourceSize": {
                "h": 64,
                "w": 128,
                "x": 0,
                "y": 0
            },
            "trimmed": false
        },
        {
            "filename": "眼睛a.png 合成 1_00002.png",
            "frame": {
                "h": 64,
                "w": 128,
                "x": 256,
                "y": 0
            },
            "rotated": false,
            "scale": {
                "x": 1.0,
                "y": 1.0,
                "z": 1.0
            },
            "sourceSize": {
                "h": 64,
                "w": 128
            },
            "spriteSourceSize": {
                "h": 64,
                "w": 128,
                "x": 0,
                "y": 0
            },
            "trimmed": false
        },
        {
            "filename": "眼睛a.png 合成 1_00003.png",
            "frame": {
                "h": 64,
                "w": 128,
                "x": 384,
                "y": 0
            },
            "rotated": false,
            "scale": {
                "x": 1.0,
                "y": 1.0,
                "z": 1.0
            },
            "sourceSize": {
                "h": 64,
                "w": 128
            },
            "spriteSourceSize": {
                "h": 64,
                "w": 128,
                "x": 0,
                "y": 0
            },
            "trimmed": false
        },
        {
            "filename": "眼睛a.png 合成 1_00004.png",
            "frame": {
                "h": 64,
                "w": 128,
                "x": 0,
                "y": 64
            },
            "rotated": false,
            "scale": {
                "x": 1.0,
                "y": 1.0,
                "z": 1.0
            },
            "sourceSize": {
                "h": 64,
                "w": 128
            },
            "spriteSourceSize": {
                "h": 64,
                "w": 128,
                "x": 0,
                "y": 0
            },
            "trimmed": false
        },
        {
            "filename": "眼睛a.png 合成 1_00005.png",
            "frame": {
                "h": 64,
                "w": 128,
                "x": 128,
                "y": 64
            },
            "rotated": false,
            "scale": {
                "x": 1.0,
                "y": 1.0,
                "z": 1.0
            },
            "sourceSize": {
                "h": 64,
                "w": 128
            },
            "spriteSourceSize": {
                "h": 64,
                "w": 128,
                "x": 0,
                "y": 0
            },
            "trimmed": false
        },
        {
            "filename": "眼睛a.png 合成 1_00006.png",
            "frame": {
                "h": 64,
                "w": 128,
                "x": 256,
                "y": 64
            },
            "rotated": false,
            "scale": {
                "x": 1.0,
                "y": 1.0,
                "z": 1.0
            },
            "sourceSize": {
                "h": 64,
                "w": 128
            },
            "spriteSourceSize": {
                "h": 64,
                "w": 128,
                "x": 0,
                "y": 0
            },
            "trimmed": false
        },
        {
            "filename": "眼睛a.png 合成 1_00007.png",
            "frame": {
                "h": 64,
                "w": 128,
                "x": 384,
                "y": 64
            },
            "rotated": false,
            "scale": {
                "x": 1.0,
                "y": 1.0,
                "z": 1.0
            },
            "sourceSize": {
                "h": 64,
                "w": 128
            },
            "spriteSourceSize": {
                "h": 64,
                "w": 128,
                "x": 0,
                "y": 0
            },
            "trimmed": false
        },
        {
            "filename": "眼睛a.png 合成 1_00008.png",
            "frame": {
                "h": 64,
                "w": 128,
                "x": 0,
                "y": 128
            },
            "rotated": false,
            "scale": {
                "x": 1.0,
                "y": 1.0,
                "z": 1.0
            },
            "sourceSize": {
                "h": 64,
                "w": 128
            },
            "spriteSourceSize": {
                "h": 64,
                "w": 128,
                "x": 0,
                "y": 0
            },
            "trimmed": false
        },
        {
            "filename": "眼睛a.png 合成 1_00009.png",
            "frame": {
                "h": 64,
                "w": 128,
                "x": 128,
                "y": 128
            },
            "rotated": false,
            "scale": {
                "x": 1.0,
                "y": 1.0,
                "z": 1.0
            },
            "sourceSize": {
                "h": 64,
                "w": 128
            },
            "spriteSourceSize": {
                "h": 64,
                "w": 128,
                "x": 0,
                "y": 0
            },
            "trimmed": false
        },
        {
            "filename": "眼睛a.png 合成 1_00010.png",
            "frame": {
                "h": 64,
                "w": 128,
                "x": 256,
                "y": 128
            },
            "rotated": false,
            "scale": {
                "x": 1.0,
                "y": 1.0,
                "z": 1.0
            },
            "sourceSize": {
                "h": 64,
                "w": 128
            },
            "spriteSourceSize": {
                "h": 64,
                "w": 128,
                "x": 0,
                "y": 0
            },
            "trimmed": false
        },
        {
            "filename": "眼睛a.png 合成 1_00011.png",
            "frame": {
                "h": 64,
                "w": 128,
                "x": 384,
                "y": 128
            },
            "rotated": false,
            "scale": {
                "x": 1.0,
                "y": 1.0,
                "z": 1.0
            },
            "sourceSize": {
                "h": 64,
                "w": 128
            },
            "spriteSourceSize": {
                "h": 64,
                "w": 128,
                "x": 0,
                "y": 0
            },
            "trimmed": false
        },
        {
            "filename": "眼睛a.png 合成 1_00012.png",
            "frame": {
                "h": 64,
                "w": 128,
                "x": 0,
                "y": 192
            },
            "rotated": false,
            "scale": {
                "x": 1.0,
                "y": 1.0,
                "z": 1.0
            },
            "sourceSize": {
                "h": 64,
                "w": 128
            },
            "spriteSourceSize": {
                "h": 64,
                "w": 128,
                "x": 0,
                "y": 0
            },
            "trimmed": false
        },
        {
            "filename": "眼睛a.png 合成 1_00013.png",
            "frame": {
                "h": 64,
                "w": 128,
                "x": 128,
                "y": 192
            },
            "rotated": false,
            "scale": {
                "x": 1.0,
                "y": 1.0,
                "z": 1.0
            },
            "sourceSize": {
                "h": 64,
                "w": 128
            },
            "spriteSourceSize": {
                "h": 64,
                "w": 128,
                "x": 0,
                "y": 0
            },
            "trimmed": false
        },
        {
            "filename": "眼睛a.png 合成 1_00014.png",
            "frame": {
                "h": 64,
                "w": 128,
                "x": 256,
                "y": 192
            },
            "rotated": false,
            "scale": {
                "x": 1.0,
                "y": 1.0,
                "z": 1.0
            },
            "sourceSize": {
                "h": 64,
                "w": 128
            },
            "spriteSourceSize": {
                "h": 64,
                "w": 128,
                "x": 0,
                "y": 0
            },
            "trimmed": false
        },
        {
            "filename": "眼睛a.png 合成 1_00015.png",
            "frame": {
                "h": 64,
                "w": 128,
                "x": 384,
                "y": 192
            },
            "rotated": false,
            "scale": {
                "x": 1.0,
                "y": 1.0,
                "z": 1.0
            },
            "sourceSize": {
                "h": 64,
                "w": 128
            },
            "spriteSourceSize": {
                "h": 64,
                "w": 128,
                "x": 0,
                "y": 0
            },
            "trimmed": false
        },
        {
            "filename": "眼睛a.png 合成 1_00016.png",
            "frame": {
                "h": 64,
                "w": 128,
                "x": 0,
                "y": 256
            },
            "rotated": false,
            "scale": {
                "x": 1.0,
                "y": 1.0,
                "z": 1.0
            },
            "sourceSize": {
                "h": 64,
                "w": 128
            },
            "spriteSourceSize": {
                "h": 64,
                "w": 128,
                "x": 0,
                "y": 0
            },
            "trimmed": false
        },
        {
            "filename": "眼睛a.png 合成 1_00017.png",
            "frame": {
                "h": 64,
                "w": 128,
                "x": 128,
                "y": 256
            },
            "rotated": false,
            "scale": {
                "x": 1.0,
                "y": 1.0,
                "z": 1.0
            },
            "sourceSize": {
                "h": 64,
                "w": 128
            },
            "spriteSourceSize": {
                "h": 64,
                "w": 128,
                "x": 0,
                "y": 0
            },
            "trimmed": false
        },
        {
            "filename": "眼睛a.png 合成 1_00018.png",
            "frame": {
                "h": 64,
                "w": 128,
                "x": 256,
                "y": 256
            },
            "rotated": false,
            "scale": {
                "x": 1.0,
                "y": 1.0,
                "z": 1.0
            },
            "sourceSize": {
                "h": 64,
                "w": 128
            },
            "spriteSourceSize": {
                "h": 64,
                "w": 128,
                "x": 0,
                "y": 0
            },
            "trimmed": false
        },
        {
            "filename": "眼睛a.png 合成 1_00019.png",
            "frame": {
                "h": 64,
                "w": 128,
                "x": 384,
                "y": 256
            },
            "rotated": false,
            "scale": {
                "x": 1.0,
                "y": 1.0,
                "z": 1.0
            },
            "sourceSize": {
                "h": 64,
                "w": 128
            },
            "spriteSourceSize": {
                "h": 64,
                "w": 128,
                "x": 0,
                "y": 0
            },
            "trimmed": false
        },
        {
            "filename": "眼睛a.png 合成 1_00020.png",
            "frame": {
                "h": 64,
                "w": 128,
                "x": 0,
                "y": 320
            },
            "rotated": false,
            "scale": {
                "x": 1.0,
                "y": 1.0,
                "z": 1.0
            },
            "sourceSize": {
                "h": 64,
                "w": 128
            },
            "spriteSourceSize": {
                "h": 64,
                "w": 128,
                "x": 0,
                "y": 0
            },
            "trimmed": false
        },
        {
            "filename": "眼睛a.png 合成 1_00021.png",
            "frame": {
                "h": 64,
                "w": 128,
                "x": 128,
                "y": 320
            },
            "rotated": false,
            "scale": {
                "x": 1.0,
                "y": 1.0,
                "z": 1.0
            },
            "sourceSize": {
                "h": 64,
                "w": 128
            },
            "spriteSourceSize": {
                "h": 64,
                "w": 128,
                "x": 0,
                "y": 0
            },
            "trimmed": false
        },
        {
            "filename": "眼睛a.png 合成 1_00022.png",
            "frame": {
                "h": 64,
                "w": 128,
                "x": 256,
                "y": 320
            },
            "rotated": false,
            "scale": {
                "x": 1.0,
                "y": 1.0,
                "z": 1.0
            },
            "sourceSize": {
                "h": 64,
                "w": 128
            },
            "spriteSourceSize": {
                "h": 64,
                "w": 128,
                "x": 0,
                "y": 0
            },
            "trimmed": false
        },
        {
            "filename": "眼睛a.png 合成 1_00023.png",
            "frame": {
                "h": 64,
                "w": 128,
                "x": 384,
                "y": 320
            },
            "rotated": false,
            "scale": {
                "x": 1.0,
                "y": 1.0,
                "z": 1.0
            },
            "sourceSize": {
                "h": 64,
                "w": 128
            },
            "spriteSourceSize": {
                "h": 64,
                "w": 128,
                "x": 0,
                "y": 0
            },
            "trimmed": false
        },
        {
            "filename": "眼睛a.png 合成 1_00024.png",
            "frame": {
                "h": 64,
                "w": 128,
                "x": 0,
                "y": 384
            },
            "rotated": false,
            "scale": {
                "x": 1.0,
                "y": 1.0,
                "z": 1.0
            },
            "sourceSize": {
                "h": 64,
                "w": 128
            },
            "spriteSourceSize": {
                "h": 64,
                "w": 128,
                "x": 0,
                "y": 0
            },
            "trimmed": false
        },
        {
            "filename": "眼睛a.png 合成 1_00025.png",
            "frame": {
                "h": 64,
                "w": 128,
                "x": 128,
                "y": 384
            },
            "rotated": false,
            "scale": {
                "x": 1.0,
                "y": 1.0,
                "z": 1.0
            },
            "sourceSize": {
                "h": 64,
                "w": 128
            },
            "spriteSourceSize": {
                "h": 64,
                "w": 128,
                "x": 0,
                "y": 0
            },
            "trimmed": false
        },
        {
            "filename": "眼睛a.png 合成 1_00026.png",
            "frame": {
                "h": 64,
                "w": 128,
                "x": 256,
                "y": 384
            },
            "rotated": false,
            "scale": {
                "x": 1.0,
                "y": 1.0,
                "z": 1.0
            },
            "sourceSize": {
                "h": 64,
                "w": 128
            },
            "spriteSourceSize": {
                "h": 64,
                "w": 128,
                "x": 0,
                "y": 0
            },
            "trimmed": false
        },
        {
            "filename": "眼睛a.png 合成 1_00027.png",
            "frame": {
                "h": 64,
                "w": 128,
                "x": 384,
                "y": 384
            },
            "rotated": false,
            "scale": {
                "x": 1.0,
                "y": 1.0,
                "z": 1.0
            },
            "sourceSize": {
                "h": 64,
                "w": 128
            },
            "spriteSourceSize": {
                "h": 64,
                "w": 128,
                "x": 0,
                "y": 0
            },
            "trimmed": false
        },
        {
            "filename": "眼睛a.png 合成 1_00028.png",
            "frame": {
                "h": 64,
                "w": 128,
                "x": 0,
                "y": 448
            },
            "rotated": false,
            "scale": {
                "x": 1.0,
                "y": 1.0,
                "z": 1.0
            },
            "sourceSize": {
                "h": 64,
                "w": 128
            },
            "spriteSourceSize": {
                "h": 64,
                "w": 128,
                "x": 0,
                "y": 0
            },
            "trimmed": false
        },
        {
            "filename": "眼睛a.png 合成 1_00029.png",
            "frame": {
                "h": 64,
                "w": 128,
                "x": 128,
                "y": 448
            },
            "rotated": false,
            "scale": {
                "x": 1.0,
                "y": 1.0,
                "z": 1.0
            },
            "sourceSize": {
                "h": 64,
                "w": 128
            },
            "spriteSourceSize": {
                "h": 64,
                "w": 128,
                "x": 0,
                "y": 0
            },
            "trimmed": false
        },
        {
            "filename": "眼睛a.png 合成 1_00030.png",
            "frame": {
                "h": 64,
                "w": 128,
                "x": 256,
                "y": 448
            },
            "rotated": false,
            "scale": {
                "x": 1.0,
                "y": 1.0,
                "z": 1.0
            },
            "sourceSize": {
                "h": 64,
                "w": 128
            },
            "spriteSourceSize": {
                "h": 64,
                "w": 128,
                "x": 0,
                "y": 0
            },
            "trimmed": false
        },
        {
            "filename": "眼睛a.png 合成 1_00031.png",
            "frame": {
                "h": 64,
                "w": 128,
                "x": 384,
                "y": 448
            },
            "rotated": false,
            "scale": {
                "x": 1.0,
                "y": 1.0,
                "z": 1.0
            },
            "sourceSize": {
                "h": 64,
                "w": 128
            },
            "spriteSourceSize": {
                "h": 64,
                "w": 128,
                "x": 0,
                "y": 0
            },
            "trimmed": false
        }
    ],
    "meta": {
        "app": "https://www.codeandweb.com/texturepacker",
        "format": "RGBA8888",
        "image": "cs_loong_skina2_longyan.png",
        "scale": "1",
        "size": {
            "h": 512,
            "w": 512
        },
        "smartupdate": "$TexturePacker:SmartUpdate:91a7d31155ee4334ab0ab2f82e52abcf:c5009db877142c560fc8332dfebf47c6:2edc21cca130b9690f3cec7a5b119415$",
        "version": "1.0"
    }
}