{
    "frames": [
        {
            "filename": "右披风.png 合成 1_00000.png",
            "frame": {
                "h": 256,
                "w": 64,
                "x": 0,
                "y": 0
            },
            "rotated": false,
            "scale": {
                "x": 1.0,
                "y": 1.0,
                "z": 1.0
            },
            "sourceSize": {
                "h": 256,
                "w": 64
            },
            "spriteSourceSize": {
                "h": 256,
                "w": 64,
                "x": 0,
                "y": 0
            },
            "trimmed": false
        },
        {
            "filename": "右披风.png 合成 1_00001.png",
            "frame": {
                "h": 256,
                "w": 64,
                "x": 64,
                "y": 0
            },
            "rotated": false,
            "scale": {
                "x": 1.0,
                "y": 1.0,
                "z": 1.0
            },
            "sourceSize": {
                "h": 256,
                "w": 64
            },
            "spriteSourceSize": {
                "h": 256,
                "w": 64,
                "x": 0,
                "y": 0
            },
            "trimmed": false
        },
        {
            "filename": "右披风.png 合成 1_00002.png",
            "frame": {
                "h": 256,
                "w": 64,
                "x": 128,
                "y": 0
            },
            "rotated": false,
            "scale": {
                "x": 1.0,
                "y": 1.0,
                "z": 1.0
            },
            "sourceSize": {
                "h": 256,
                "w": 64
            },
            "spriteSourceSize": {
                "h": 256,
                "w": 64,
                "x": 0,
                "y": 0
            },
            "trimmed": false
        },
        {
            "filename": "右披风.png 合成 1_00003.png",
            "frame": {
                "h": 256,
                "w": 64,
                "x": 192,
                "y": 0
            },
            "rotated": false,
            "scale": {
                "x": 1.0,
                "y": 1.0,
                "z": 1.0
            },
            "sourceSize": {
                "h": 256,
                "w": 64
            },
            "spriteSourceSize": {
                "h": 256,
                "w": 64,
                "x": 0,
                "y": 0
            },
            "trimmed": false
        },
        {
            "filename": "右披风.png 合成 1_00004.png",
            "frame": {
                "h": 256,
                "w": 64,
                "x": 256,
                "y": 0
            },
            "rotated": false,
            "scale": {
                "x": 1.0,
                "y": 1.0,
                "z": 1.0
            },
            "sourceSize": {
                "h": 256,
                "w": 64
            },
            "spriteSourceSize": {
                "h": 256,
                "w": 64,
                "x": 0,
                "y": 0
            },
            "trimmed": false
        },
        {
            "filename": "右披风.png 合成 1_00005.png",
            "frame": {
                "h": 256,
                "w": 64,
                "x": 320,
                "y": 0
            },
            "rotated": false,
            "scale": {
                "x": 1.0,
                "y": 1.0,
                "z": 1.0
            },
            "sourceSize": {
                "h": 256,
                "w": 64
            },
            "spriteSourceSize": {
                "h": 256,
                "w": 64,
                "x": 0,
                "y": 0
            },
            "trimmed": false
        },
        {
            "filename": "右披风.png 合成 1_00006.png",
            "frame": {
                "h": 256,
                "w": 64,
                "x": 384,
                "y": 0
            },
            "rotated": false,
            "scale": {
                "x": 1.0,
                "y": 1.0,
                "z": 1.0
            },
            "sourceSize": {
                "h": 256,
                "w": 64
            },
            "spriteSourceSize": {
                "h": 256,
                "w": 64,
                "x": 0,
                "y": 0
            },
            "trimmed": false
        },
        {
            "filename": "右披风.png 合成 1_00007.png",
            "frame": {
                "h": 256,
                "w": 64,
                "x": 448,
                "y": 0
            },
            "rotated": false,
            "scale": {
                "x": 1.0,
                "y": 1.0,
                "z": 1.0
            },
            "sourceSize": {
                "h": 256,
                "w": 64
            },
            "spriteSourceSize": {
                "h": 256,
                "w": 64,
                "x": 0,
                "y": 0
            },
            "trimmed": false
        },
        {
            "filename": "右披风.png 合成 1_00008.png",
            "frame": {
                "h": 256,
                "w": 64,
                "x": 0,
                "y": 256
            },
            "rotated": false,
            "scale": {
                "x": 1.0,
                "y": 1.0,
                "z": 1.0
            },
            "sourceSize": {
                "h": 256,
                "w": 64
            },
            "spriteSourceSize": {
                "h": 256,
                "w": 64,
                "x": 0,
                "y": 0
            },
            "trimmed": false
        },
        {
            "filename": "右披风.png 合成 1_00009.png",
            "frame": {
                "h": 256,
                "w": 64,
                "x": 64,
                "y": 256
            },
            "rotated": false,
            "scale": {
                "x": 1.0,
                "y": 1.0,
                "z": 1.0
            },
            "sourceSize": {
                "h": 256,
                "w": 64
            },
            "spriteSourceSize": {
                "h": 256,
                "w": 64,
                "x": 0,
                "y": 0
            },
            "trimmed": false
        },
        {
            "filename": "右披风.png 合成 1_00010.png",
            "frame": {
                "h": 256,
                "w": 64,
                "x": 128,
                "y": 256
            },
            "rotated": false,
            "scale": {
                "x": 1.0,
                "y": 1.0,
                "z": 1.0
            },
            "sourceSize": {
                "h": 256,
                "w": 64
            },
            "spriteSourceSize": {
                "h": 256,
                "w": 64,
                "x": 0,
                "y": 0
            },
            "trimmed": false
        },
        {
            "filename": "右披风.png 合成 1_00011.png",
            "frame": {
                "h": 256,
                "w": 64,
                "x": 192,
                "y": 256
            },
            "rotated": false,
            "scale": {
                "x": 1.0,
                "y": 1.0,
                "z": 1.0
            },
            "sourceSize": {
                "h": 256,
                "w": 64
            },
            "spriteSourceSize": {
                "h": 256,
                "w": 64,
                "x": 0,
                "y": 0
            },
            "trimmed": false
        },
        {
            "filename": "右披风.png 合成 1_00012.png",
            "frame": {
                "h": 256,
                "w": 64,
                "x": 256,
                "y": 256
            },
            "rotated": false,
            "scale": {
                "x": 1.0,
                "y": 1.0,
                "z": 1.0
            },
            "sourceSize": {
                "h": 256,
                "w": 64
            },
            "spriteSourceSize": {
                "h": 256,
                "w": 64,
                "x": 0,
                "y": 0
            },
            "trimmed": false
        },
        {
            "filename": "右披风.png 合成 1_00013.png",
            "frame": {
                "h": 256,
                "w": 64,
                "x": 320,
                "y": 256
            },
            "rotated": false,
            "scale": {
                "x": 1.0,
                "y": 1.0,
                "z": 1.0
            },
            "sourceSize": {
                "h": 256,
                "w": 64
            },
            "spriteSourceSize": {
                "h": 256,
                "w": 64,
                "x": 0,
                "y": 0
            },
            "trimmed": false
        },
        {
            "filename": "右披风.png 合成 1_00014.png",
            "frame": {
                "h": 256,
                "w": 64,
                "x": 384,
                "y": 256
            },
            "rotated": false,
            "scale": {
                "x": 1.0,
                "y": 1.0,
                "z": 1.0
            },
            "sourceSize": {
                "h": 256,
                "w": 64
            },
            "spriteSourceSize": {
                "h": 256,
                "w": 64,
                "x": 0,
                "y": 0
            },
            "trimmed": false
        },
        {
            "filename": "右披风.png 合成 1_00015.png",
            "frame": {
                "h": 256,
                "w": 64,
                "x": 448,
                "y": 256
            },
            "rotated": false,
            "scale": {
                "x": 1.0,
                "y": 1.0,
                "z": 1.0
            },
            "sourceSize": {
                "h": 256,
                "w": 64
            },
            "spriteSourceSize": {
                "h": 256,
                "w": 64,
                "x": 0,
                "y": 0
            },
            "trimmed": false
        }
    ],
    "meta": {
        "app": "https://www.codeandweb.com/texturepacker",
        "format": "RGBA8888",
        "image": "cs_loong_skina_ypf.png",
        "scale": "1",
        "size": {
            "h": 512,
            "w": 512
        },
        "smartupdate": "$TexturePacker:SmartUpdate:86d825d041c3de813ca02d21a118a330:b117f236f1b61bc1dab41fcd03094059:c47ba943f0c16046520d34a6257ee6a8$",
        "version": "1.0"
    }
}