{
    "frames": [
        {
            "filename": "外腰带a.png 合成 1_00000.png",
            "frame": {
                "h": 64,
                "w": 64,
                "x": 0,
                "y": 0
            },
            "rotated": false,
            "scale": {
                "x": 1.0,
                "y": 1.0,
                "z": 1.0
            },
            "sourceSize": {
                "h": 64,
                "w": 64
            },
            "spriteSourceSize": {
                "h": 64,
                "w": 64,
                "x": 0,
                "y": 0
            },
            "trimmed": false
        },
        {
            "filename": "外腰带a.png 合成 1_00001.png",
            "frame": {
                "h": 64,
                "w": 64,
                "x": 64,
                "y": 0
            },
            "rotated": false,
            "scale": {
                "x": 1.0,
                "y": 1.0,
                "z": 1.0
            },
            "sourceSize": {
                "h": 64,
                "w": 64
            },
            "spriteSourceSize": {
                "h": 64,
                "w": 64,
                "x": 0,
                "y": 0
            },
            "trimmed": false
        },
        {
            "filename": "外腰带a.png 合成 1_00002.png",
            "frame": {
                "h": 64,
                "w": 64,
                "x": 128,
                "y": 0
            },
            "rotated": false,
            "scale": {
                "x": 1.0,
                "y": 1.0,
                "z": 1.0
            },
            "sourceSize": {
                "h": 64,
                "w": 64
            },
            "spriteSourceSize": {
                "h": 64,
                "w": 64,
                "x": 0,
                "y": 0
            },
            "trimmed": false
        },
        {
            "filename": "外腰带a.png 合成 1_00003.png",
            "frame": {
                "h": 64,
                "w": 64,
                "x": 192,
                "y": 0
            },
            "rotated": false,
            "scale": {
                "x": 1.0,
                "y": 1.0,
                "z": 1.0
            },
            "sourceSize": {
                "h": 64,
                "w": 64
            },
            "spriteSourceSize": {
                "h": 64,
                "w": 64,
                "x": 0,
                "y": 0
            },
            "trimmed": false
        },
        {
            "filename": "外腰带a.png 合成 1_00004.png",
            "frame": {
                "h": 64,
                "w": 64,
                "x": 256,
                "y": 0
            },
            "rotated": false,
            "scale": {
                "x": 1.0,
                "y": 1.0,
                "z": 1.0
            },
            "sourceSize": {
                "h": 64,
                "w": 64
            },
            "spriteSourceSize": {
                "h": 64,
                "w": 64,
                "x": 0,
                "y": 0
            },
            "trimmed": false
        },
        {
            "filename": "外腰带a.png 合成 1_00005.png",
            "frame": {
                "h": 64,
                "w": 64,
                "x": 320,
                "y": 0
            },
            "rotated": false,
            "scale": {
                "x": 1.0,
                "y": 1.0,
                "z": 1.0
            },
            "sourceSize": {
                "h": 64,
                "w": 64
            },
            "spriteSourceSize": {
                "h": 64,
                "w": 64,
                "x": 0,
                "y": 0
            },
            "trimmed": false
        },
        {
            "filename": "外腰带a.png 合成 1_00006.png",
            "frame": {
                "h": 64,
                "w": 64,
                "x": 384,
                "y": 0
            },
            "rotated": false,
            "scale": {
                "x": 1.0,
                "y": 1.0,
                "z": 1.0
            },
            "sourceSize": {
                "h": 64,
                "w": 64
            },
            "spriteSourceSize": {
                "h": 64,
                "w": 64,
                "x": 0,
                "y": 0
            },
            "trimmed": false
        },
        {
            "filename": "外腰带a.png 合成 1_00007.png",
            "frame": {
                "h": 64,
                "w": 64,
                "x": 448,
                "y": 0
            },
            "rotated": false,
            "scale": {
                "x": 1.0,
                "y": 1.0,
                "z": 1.0
            },
            "sourceSize": {
                "h": 64,
                "w": 64
            },
            "spriteSourceSize": {
                "h": 64,
                "w": 64,
                "x": 0,
                "y": 0
            },
            "trimmed": false
        },
        {
            "filename": "外腰带a.png 合成 1_00008.png",
            "frame": {
                "h": 64,
                "w": 64,
                "x": 0,
                "y": 64
            },
            "rotated": false,
            "scale": {
                "x": 1.0,
                "y": 1.0,
                "z": 1.0
            },
            "sourceSize": {
                "h": 64,
                "w": 64
            },
            "spriteSourceSize": {
                "h": 64,
                "w": 64,
                "x": 0,
                "y": 0
            },
            "trimmed": false
        },
        {
            "filename": "外腰带a.png 合成 1_00009.png",
            "frame": {
                "h": 64,
                "w": 64,
                "x": 64,
                "y": 64
            },
            "rotated": false,
            "scale": {
                "x": 1.0,
                "y": 1.0,
                "z": 1.0
            },
            "sourceSize": {
                "h": 64,
                "w": 64
            },
            "spriteSourceSize": {
                "h": 64,
                "w": 64,
                "x": 0,
                "y": 0
            },
            "trimmed": false
        },
        {
            "filename": "外腰带a.png 合成 1_00010.png",
            "frame": {
                "h": 64,
                "w": 64,
                "x": 128,
                "y": 64
            },
            "rotated": false,
            "scale": {
                "x": 1.0,
                "y": 1.0,
                "z": 1.0
            },
            "sourceSize": {
                "h": 64,
                "w": 64
            },
            "spriteSourceSize": {
                "h": 64,
                "w": 64,
                "x": 0,
                "y": 0
            },
            "trimmed": false
        },
        {
            "filename": "外腰带a.png 合成 1_00011.png",
            "frame": {
                "h": 64,
                "w": 64,
                "x": 192,
                "y": 64
            },
            "rotated": false,
            "scale": {
                "x": 1.0,
                "y": 1.0,
                "z": 1.0
            },
            "sourceSize": {
                "h": 64,
                "w": 64
            },
            "spriteSourceSize": {
                "h": 64,
                "w": 64,
                "x": 0,
                "y": 0
            },
            "trimmed": false
        },
        {
            "filename": "外腰带a.png 合成 1_00012.png",
            "frame": {
                "h": 64,
                "w": 64,
                "x": 256,
                "y": 64
            },
            "rotated": false,
            "scale": {
                "x": 1.0,
                "y": 1.0,
                "z": 1.0
            },
            "sourceSize": {
                "h": 64,
                "w": 64
            },
            "spriteSourceSize": {
                "h": 64,
                "w": 64,
                "x": 0,
                "y": 0
            },
            "trimmed": false
        },
        {
            "filename": "外腰带a.png 合成 1_00013.png",
            "frame": {
                "h": 64,
                "w": 64,
                "x": 320,
                "y": 64
            },
            "rotated": false,
            "scale": {
                "x": 1.0,
                "y": 1.0,
                "z": 1.0
            },
            "sourceSize": {
                "h": 64,
                "w": 64
            },
            "spriteSourceSize": {
                "h": 64,
                "w": 64,
                "x": 0,
                "y": 0
            },
            "trimmed": false
        },
        {
            "filename": "外腰带a.png 合成 1_00014.png",
            "frame": {
                "h": 64,
                "w": 64,
                "x": 384,
                "y": 64
            },
            "rotated": false,
            "scale": {
                "x": 1.0,
                "y": 1.0,
                "z": 1.0
            },
            "sourceSize": {
                "h": 64,
                "w": 64
            },
            "spriteSourceSize": {
                "h": 64,
                "w": 64,
                "x": 0,
                "y": 0
            },
            "trimmed": false
        },
        {
            "filename": "外腰带a.png 合成 1_00015.png",
            "frame": {
                "h": 64,
                "w": 64,
                "x": 448,
                "y": 64
            },
            "rotated": false,
            "scale": {
                "x": 1.0,
                "y": 1.0,
                "z": 1.0
            },
            "sourceSize": {
                "h": 64,
                "w": 64
            },
            "spriteSourceSize": {
                "h": 64,
                "w": 64,
                "x": 0,
                "y": 0
            },
            "trimmed": false
        },
        {
            "filename": "外腰带a.png 合成 1_00016.png",
            "frame": {
                "h": 64,
                "w": 64,
                "x": 0,
                "y": 128
            },
            "rotated": false,
            "scale": {
                "x": 1.0,
                "y": 1.0,
                "z": 1.0
            },
            "sourceSize": {
                "h": 64,
                "w": 64
            },
            "spriteSourceSize": {
                "h": 64,
                "w": 64,
                "x": 0,
                "y": 0
            },
            "trimmed": false
        },
        {
            "filename": "外腰带a.png 合成 1_00017.png",
            "frame": {
                "h": 64,
                "w": 64,
                "x": 64,
                "y": 128
            },
            "rotated": false,
            "scale": {
                "x": 1.0,
                "y": 1.0,
                "z": 1.0
            },
            "sourceSize": {
                "h": 64,
                "w": 64
            },
            "spriteSourceSize": {
                "h": 64,
                "w": 64,
                "x": 0,
                "y": 0
            },
            "trimmed": false
        },
        {
            "filename": "外腰带a.png 合成 1_00018.png",
            "frame": {
                "h": 64,
                "w": 64,
                "x": 128,
                "y": 128
            },
            "rotated": false,
            "scale": {
                "x": 1.0,
                "y": 1.0,
                "z": 1.0
            },
            "sourceSize": {
                "h": 64,
                "w": 64
            },
            "spriteSourceSize": {
                "h": 64,
                "w": 64,
                "x": 0,
                "y": 0
            },
            "trimmed": false
        },
        {
            "filename": "外腰带a.png 合成 1_00019.png",
            "frame": {
                "h": 64,
                "w": 64,
                "x": 192,
                "y": 128
            },
            "rotated": false,
            "scale": {
                "x": 1.0,
                "y": 1.0,
                "z": 1.0
            },
            "sourceSize": {
                "h": 64,
                "w": 64
            },
            "spriteSourceSize": {
                "h": 64,
                "w": 64,
                "x": 0,
                "y": 0
            },
            "trimmed": false
        },
        {
            "filename": "外腰带a.png 合成 1_00020.png",
            "frame": {
                "h": 64,
                "w": 64,
                "x": 256,
                "y": 128
            },
            "rotated": false,
            "scale": {
                "x": 1.0,
                "y": 1.0,
                "z": 1.0
            },
            "sourceSize": {
                "h": 64,
                "w": 64
            },
            "spriteSourceSize": {
                "h": 64,
                "w": 64,
                "x": 0,
                "y": 0
            },
            "trimmed": false
        },
        {
            "filename": "外腰带a.png 合成 1_00021.png",
            "frame": {
                "h": 64,
                "w": 64,
                "x": 320,
                "y": 128
            },
            "rotated": false,
            "scale": {
                "x": 1.0,
                "y": 1.0,
                "z": 1.0
            },
            "sourceSize": {
                "h": 64,
                "w": 64
            },
            "spriteSourceSize": {
                "h": 64,
                "w": 64,
                "x": 0,
                "y": 0
            },
            "trimmed": false
        },
        {
            "filename": "外腰带a.png 合成 1_00022.png",
            "frame": {
                "h": 64,
                "w": 64,
                "x": 384,
                "y": 128
            },
            "rotated": false,
            "scale": {
                "x": 1.0,
                "y": 1.0,
                "z": 1.0
            },
            "sourceSize": {
                "h": 64,
                "w": 64
            },
            "spriteSourceSize": {
                "h": 64,
                "w": 64,
                "x": 0,
                "y": 0
            },
            "trimmed": false
        },
        {
            "filename": "外腰带a.png 合成 1_00023.png",
            "frame": {
                "h": 64,
                "w": 64,
                "x": 448,
                "y": 128
            },
            "rotated": false,
            "scale": {
                "x": 1.0,
                "y": 1.0,
                "z": 1.0
            },
            "sourceSize": {
                "h": 64,
                "w": 64
            },
            "spriteSourceSize": {
                "h": 64,
                "w": 64,
                "x": 0,
                "y": 0
            },
            "trimmed": false
        },
        {
            "filename": "外腰带a.png 合成 1_00024.png",
            "frame": {
                "h": 64,
                "w": 64,
                "x": 0,
                "y": 192
            },
            "rotated": false,
            "scale": {
                "x": 1.0,
                "y": 1.0,
                "z": 1.0
            },
            "sourceSize": {
                "h": 64,
                "w": 64
            },
            "spriteSourceSize": {
                "h": 64,
                "w": 64,
                "x": 0,
                "y": 0
            },
            "trimmed": false
        },
        {
            "filename": "外腰带a.png 合成 1_00025.png",
            "frame": {
                "h": 64,
                "w": 64,
                "x": 64,
                "y": 192
            },
            "rotated": false,
            "scale": {
                "x": 1.0,
                "y": 1.0,
                "z": 1.0
            },
            "sourceSize": {
                "h": 64,
                "w": 64
            },
            "spriteSourceSize": {
                "h": 64,
                "w": 64,
                "x": 0,
                "y": 0
            },
            "trimmed": false
        },
        {
            "filename": "外腰带a.png 合成 1_00026.png",
            "frame": {
                "h": 64,
                "w": 64,
                "x": 128,
                "y": 192
            },
            "rotated": false,
            "scale": {
                "x": 1.0,
                "y": 1.0,
                "z": 1.0
            },
            "sourceSize": {
                "h": 64,
                "w": 64
            },
            "spriteSourceSize": {
                "h": 64,
                "w": 64,
                "x": 0,
                "y": 0
            },
            "trimmed": false
        },
        {
            "filename": "外腰带a.png 合成 1_00027.png",
            "frame": {
                "h": 64,
                "w": 64,
                "x": 192,
                "y": 192
            },
            "rotated": false,
            "scale": {
                "x": 1.0,
                "y": 1.0,
                "z": 1.0
            },
            "sourceSize": {
                "h": 64,
                "w": 64
            },
            "spriteSourceSize": {
                "h": 64,
                "w": 64,
                "x": 0,
                "y": 0
            },
            "trimmed": false
        },
        {
            "filename": "外腰带a.png 合成 1_00028.png",
            "frame": {
                "h": 64,
                "w": 64,
                "x": 256,
                "y": 192
            },
            "rotated": false,
            "scale": {
                "x": 1.0,
                "y": 1.0,
                "z": 1.0
            },
            "sourceSize": {
                "h": 64,
                "w": 64
            },
            "spriteSourceSize": {
                "h": 64,
                "w": 64,
                "x": 0,
                "y": 0
            },
            "trimmed": false
        },
        {
            "filename": "外腰带a.png 合成 1_00029.png",
            "frame": {
                "h": 64,
                "w": 64,
                "x": 320,
                "y": 192
            },
            "rotated": false,
            "scale": {
                "x": 1.0,
                "y": 1.0,
                "z": 1.0
            },
            "sourceSize": {
                "h": 64,
                "w": 64
            },
            "spriteSourceSize": {
                "h": 64,
                "w": 64,
                "x": 0,
                "y": 0
            },
            "trimmed": false
        },
        {
            "filename": "外腰带a.png 合成 1_00030.png",
            "frame": {
                "h": 64,
                "w": 64,
                "x": 384,
                "y": 192
            },
            "rotated": false,
            "scale": {
                "x": 1.0,
                "y": 1.0,
                "z": 1.0
            },
            "sourceSize": {
                "h": 64,
                "w": 64
            },
            "spriteSourceSize": {
                "h": 64,
                "w": 64,
                "x": 0,
                "y": 0
            },
            "trimmed": false
        },
        {
            "filename": "外腰带a.png 合成 1_00031.png",
            "frame": {
                "h": 64,
                "w": 64,
                "x": 448,
                "y": 192
            },
            "rotated": false,
            "scale": {
                "x": 1.0,
                "y": 1.0,
                "z": 1.0
            },
            "sourceSize": {
                "h": 64,
                "w": 64
            },
            "spriteSourceSize": {
                "h": 64,
                "w": 64,
                "x": 0,
                "y": 0
            },
            "trimmed": false
        }
    ],
    "meta": {
        "app": "https://www.codeandweb.com/texturepacker",
        "format": "RGBA8888",
        "image": "cs_loong_skina2_wyd.png",
        "scale": "1",
        "size": {
            "h": 512,
            "w": 512
        },
        "smartupdate": "$TexturePacker:SmartUpdate:291be78b553b579a618ae79b492fc1d0:7b7116e76cbf8c73f662296bf01bf832:8f2370c5b28adb71e229747c76bab467$",
        "version": "1.0"
    }
}