{
    "frames": [
        {
            "filename": "A67{[3@1{_I4IXW1PT9%XDE_00.png",
            "frame": {
                "h": 256,
                "w": 64,
                "x": 0,
                "y": 0
            },
            "rotated": false,
            "scale": {
                "x": 1.0,
                "y": 1.0,
                "z": 1.0
            },
            "sourceSize": {
                "h": 256,
                "w": 64
            },
            "spriteSourceSize": {
                "h": 256,
                "w": 64,
                "x": 0,
                "y": 0
            },
            "trimmed": false
        },
        {
            "filename": "A67{[3@1{_I4IXW1PT9%XDE_01.png",
            "frame": {
                "h": 256,
                "w": 64,
                "x": 64,
                "y": 0
            },
            "rotated": false,
            "scale": {
                "x": 1.0,
                "y": 1.0,
                "z": 1.0
            },
            "sourceSize": {
                "h": 256,
                "w": 64
            },
            "spriteSourceSize": {
                "h": 256,
                "w": 64,
                "x": 0,
                "y": 0
            },
            "trimmed": false
        }
    ],
    "meta": {
        "app": "https://www.codeandweb.com/texturepacker",
        "format": "RGBA8888",
        "image": "cs_loong_weaponb_gy_01.png",
        "scale": "1",
        "size": {
            "h": 256,
            "w": 128
        },
        "smartupdate": "$TexturePacker:SmartUpdate:b0993109414e15f8069ec7df5cab4f01:156a1d72d590554f6199dfabe786a882:cc8a7baa6348955f0f429768bf34f371$",
        "version": "1.0"
    }
}