{
    "frames": [
        {
            "filename": "头顶宝石a.png 合成 1_00000.png",
            "frame": {
                "h": 32,
                "w": 32,
                "x": 0,
                "y": 0
            },
            "rotated": false,
            "scale": {
                "x": 1.0,
                "y": 1.0,
                "z": 1.0
            },
            "sourceSize": {
                "h": 32,
                "w": 32
            },
            "spriteSourceSize": {
                "h": 32,
                "w": 32,
                "x": 0,
                "y": 0
            },
            "trimmed": false
        },
        {
            "filename": "头顶宝石a.png 合成 1_00001.png",
            "frame": {
                "h": 32,
                "w": 32,
                "x": 32,
                "y": 0
            },
            "rotated": false,
            "scale": {
                "x": 1.0,
                "y": 1.0,
                "z": 1.0
            },
            "sourceSize": {
                "h": 32,
                "w": 32
            },
            "spriteSourceSize": {
                "h": 32,
                "w": 32,
                "x": 0,
                "y": 0
            },
            "trimmed": false
        },
        {
            "filename": "头顶宝石a.png 合成 1_00002.png",
            "frame": {
                "h": 32,
                "w": 32,
                "x": 64,
                "y": 0
            },
            "rotated": false,
            "scale": {
                "x": 1.0,
                "y": 1.0,
                "z": 1.0
            },
            "sourceSize": {
                "h": 32,
                "w": 32
            },
            "spriteSourceSize": {
                "h": 32,
                "w": 32,
                "x": 0,
                "y": 0
            },
            "trimmed": false
        },
        {
            "filename": "头顶宝石a.png 合成 1_00003.png",
            "frame": {
                "h": 32,
                "w": 32,
                "x": 96,
                "y": 0
            },
            "rotated": false,
            "scale": {
                "x": 1.0,
                "y": 1.0,
                "z": 1.0
            },
            "sourceSize": {
                "h": 32,
                "w": 32
            },
            "spriteSourceSize": {
                "h": 32,
                "w": 32,
                "x": 0,
                "y": 0
            },
            "trimmed": false
        },
        {
            "filename": "头顶宝石a.png 合成 1_00004.png",
            "frame": {
                "h": 32,
                "w": 32,
                "x": 128,
                "y": 0
            },
            "rotated": false,
            "scale": {
                "x": 1.0,
                "y": 1.0,
                "z": 1.0
            },
            "sourceSize": {
                "h": 32,
                "w": 32
            },
            "spriteSourceSize": {
                "h": 32,
                "w": 32,
                "x": 0,
                "y": 0
            },
            "trimmed": false
        },
        {
            "filename": "头顶宝石a.png 合成 1_00005.png",
            "frame": {
                "h": 32,
                "w": 32,
                "x": 160,
                "y": 0
            },
            "rotated": false,
            "scale": {
                "x": 1.0,
                "y": 1.0,
                "z": 1.0
            },
            "sourceSize": {
                "h": 32,
                "w": 32
            },
            "spriteSourceSize": {
                "h": 32,
                "w": 32,
                "x": 0,
                "y": 0
            },
            "trimmed": false
        },
        {
            "filename": "头顶宝石a.png 合成 1_00006.png",
            "frame": {
                "h": 32,
                "w": 32,
                "x": 192,
                "y": 0
            },
            "rotated": false,
            "scale": {
                "x": 1.0,
                "y": 1.0,
                "z": 1.0
            },
            "sourceSize": {
                "h": 32,
                "w": 32
            },
            "spriteSourceSize": {
                "h": 32,
                "w": 32,
                "x": 0,
                "y": 0
            },
            "trimmed": false
        },
        {
            "filename": "头顶宝石a.png 合成 1_00007.png",
            "frame": {
                "h": 32,
                "w": 32,
                "x": 224,
                "y": 0
            },
            "rotated": false,
            "scale": {
                "x": 1.0,
                "y": 1.0,
                "z": 1.0
            },
            "sourceSize": {
                "h": 32,
                "w": 32
            },
            "spriteSourceSize": {
                "h": 32,
                "w": 32,
                "x": 0,
                "y": 0
            },
            "trimmed": false
        },
        {
            "filename": "头顶宝石a.png 合成 1_00008.png",
            "frame": {
                "h": 32,
                "w": 32,
                "x": 0,
                "y": 32
            },
            "rotated": false,
            "scale": {
                "x": 1.0,
                "y": 1.0,
                "z": 1.0
            },
            "sourceSize": {
                "h": 32,
                "w": 32
            },
            "spriteSourceSize": {
                "h": 32,
                "w": 32,
                "x": 0,
                "y": 0
            },
            "trimmed": false
        },
        {
            "filename": "头顶宝石a.png 合成 1_00009.png",
            "frame": {
                "h": 32,
                "w": 32,
                "x": 32,
                "y": 32
            },
            "rotated": false,
            "scale": {
                "x": 1.0,
                "y": 1.0,
                "z": 1.0
            },
            "sourceSize": {
                "h": 32,
                "w": 32
            },
            "spriteSourceSize": {
                "h": 32,
                "w": 32,
                "x": 0,
                "y": 0
            },
            "trimmed": false
        },
        {
            "filename": "头顶宝石a.png 合成 1_00010.png",
            "frame": {
                "h": 32,
                "w": 32,
                "x": 64,
                "y": 32
            },
            "rotated": false,
            "scale": {
                "x": 1.0,
                "y": 1.0,
                "z": 1.0
            },
            "sourceSize": {
                "h": 32,
                "w": 32
            },
            "spriteSourceSize": {
                "h": 32,
                "w": 32,
                "x": 0,
                "y": 0
            },
            "trimmed": false
        },
        {
            "filename": "头顶宝石a.png 合成 1_00011.png",
            "frame": {
                "h": 32,
                "w": 32,
                "x": 96,
                "y": 32
            },
            "rotated": false,
            "scale": {
                "x": 1.0,
                "y": 1.0,
                "z": 1.0
            },
            "sourceSize": {
                "h": 32,
                "w": 32
            },
            "spriteSourceSize": {
                "h": 32,
                "w": 32,
                "x": 0,
                "y": 0
            },
            "trimmed": false
        },
        {
            "filename": "头顶宝石a.png 合成 1_00012.png",
            "frame": {
                "h": 32,
                "w": 32,
                "x": 128,
                "y": 32
            },
            "rotated": false,
            "scale": {
                "x": 1.0,
                "y": 1.0,
                "z": 1.0
            },
            "sourceSize": {
                "h": 32,
                "w": 32
            },
            "spriteSourceSize": {
                "h": 32,
                "w": 32,
                "x": 0,
                "y": 0
            },
            "trimmed": false
        },
        {
            "filename": "头顶宝石a.png 合成 1_00013.png",
            "frame": {
                "h": 32,
                "w": 32,
                "x": 160,
                "y": 32
            },
            "rotated": false,
            "scale": {
                "x": 1.0,
                "y": 1.0,
                "z": 1.0
            },
            "sourceSize": {
                "h": 32,
                "w": 32
            },
            "spriteSourceSize": {
                "h": 32,
                "w": 32,
                "x": 0,
                "y": 0
            },
            "trimmed": false
        },
        {
            "filename": "头顶宝石a.png 合成 1_00014.png",
            "frame": {
                "h": 32,
                "w": 32,
                "x": 192,
                "y": 32
            },
            "rotated": false,
            "scale": {
                "x": 1.0,
                "y": 1.0,
                "z": 1.0
            },
            "sourceSize": {
                "h": 32,
                "w": 32
            },
            "spriteSourceSize": {
                "h": 32,
                "w": 32,
                "x": 0,
                "y": 0
            },
            "trimmed": false
        },
        {
            "filename": "头顶宝石a.png 合成 1_00015.png",
            "frame": {
                "h": 32,
                "w": 32,
                "x": 224,
                "y": 32
            },
            "rotated": false,
            "scale": {
                "x": 1.0,
                "y": 1.0,
                "z": 1.0
            },
            "sourceSize": {
                "h": 32,
                "w": 32
            },
            "spriteSourceSize": {
                "h": 32,
                "w": 32,
                "x": 0,
                "y": 0
            },
            "trimmed": false
        },
        {
            "filename": "头顶宝石a.png 合成 1_00016.png",
            "frame": {
                "h": 32,
                "w": 32,
                "x": 0,
                "y": 64
            },
            "rotated": false,
            "scale": {
                "x": 1.0,
                "y": 1.0,
                "z": 1.0
            },
            "sourceSize": {
                "h": 32,
                "w": 32
            },
            "spriteSourceSize": {
                "h": 32,
                "w": 32,
                "x": 0,
                "y": 0
            },
            "trimmed": false
        },
        {
            "filename": "头顶宝石a.png 合成 1_00017.png",
            "frame": {
                "h": 32,
                "w": 32,
                "x": 32,
                "y": 64
            },
            "rotated": false,
            "scale": {
                "x": 1.0,
                "y": 1.0,
                "z": 1.0
            },
            "sourceSize": {
                "h": 32,
                "w": 32
            },
            "spriteSourceSize": {
                "h": 32,
                "w": 32,
                "x": 0,
                "y": 0
            },
            "trimmed": false
        },
        {
            "filename": "头顶宝石a.png 合成 1_00018.png",
            "frame": {
                "h": 32,
                "w": 32,
                "x": 64,
                "y": 64
            },
            "rotated": false,
            "scale": {
                "x": 1.0,
                "y": 1.0,
                "z": 1.0
            },
            "sourceSize": {
                "h": 32,
                "w": 32
            },
            "spriteSourceSize": {
                "h": 32,
                "w": 32,
                "x": 0,
                "y": 0
            },
            "trimmed": false
        },
        {
            "filename": "头顶宝石a.png 合成 1_00019.png",
            "frame": {
                "h": 32,
                "w": 32,
                "x": 96,
                "y": 64
            },
            "rotated": false,
            "scale": {
                "x": 1.0,
                "y": 1.0,
                "z": 1.0
            },
            "sourceSize": {
                "h": 32,
                "w": 32
            },
            "spriteSourceSize": {
                "h": 32,
                "w": 32,
                "x": 0,
                "y": 0
            },
            "trimmed": false
        },
        {
            "filename": "头顶宝石a.png 合成 1_00020.png",
            "frame": {
                "h": 32,
                "w": 32,
                "x": 128,
                "y": 64
            },
            "rotated": false,
            "scale": {
                "x": 1.0,
                "y": 1.0,
                "z": 1.0
            },
            "sourceSize": {
                "h": 32,
                "w": 32
            },
            "spriteSourceSize": {
                "h": 32,
                "w": 32,
                "x": 0,
                "y": 0
            },
            "trimmed": false
        },
        {
            "filename": "头顶宝石a.png 合成 1_00021.png",
            "frame": {
                "h": 32,
                "w": 32,
                "x": 160,
                "y": 64
            },
            "rotated": false,
            "scale": {
                "x": 1.0,
                "y": 1.0,
                "z": 1.0
            },
            "sourceSize": {
                "h": 32,
                "w": 32
            },
            "spriteSourceSize": {
                "h": 32,
                "w": 32,
                "x": 0,
                "y": 0
            },
            "trimmed": false
        },
        {
            "filename": "头顶宝石a.png 合成 1_00022.png",
            "frame": {
                "h": 32,
                "w": 32,
                "x": 192,
                "y": 64
            },
            "rotated": false,
            "scale": {
                "x": 1.0,
                "y": 1.0,
                "z": 1.0
            },
            "sourceSize": {
                "h": 32,
                "w": 32
            },
            "spriteSourceSize": {
                "h": 32,
                "w": 32,
                "x": 0,
                "y": 0
            },
            "trimmed": false
        },
        {
            "filename": "头顶宝石a.png 合成 1_00023.png",
            "frame": {
                "h": 32,
                "w": 32,
                "x": 224,
                "y": 64
            },
            "rotated": false,
            "scale": {
                "x": 1.0,
                "y": 1.0,
                "z": 1.0
            },
            "sourceSize": {
                "h": 32,
                "w": 32
            },
            "spriteSourceSize": {
                "h": 32,
                "w": 32,
                "x": 0,
                "y": 0
            },
            "trimmed": false
        },
        {
            "filename": "头顶宝石a.png 合成 1_00024.png",
            "frame": {
                "h": 32,
                "w": 32,
                "x": 0,
                "y": 96
            },
            "rotated": false,
            "scale": {
                "x": 1.0,
                "y": 1.0,
                "z": 1.0
            },
            "sourceSize": {
                "h": 32,
                "w": 32
            },
            "spriteSourceSize": {
                "h": 32,
                "w": 32,
                "x": 0,
                "y": 0
            },
            "trimmed": false
        },
        {
            "filename": "头顶宝石a.png 合成 1_00025.png",
            "frame": {
                "h": 32,
                "w": 32,
                "x": 32,
                "y": 96
            },
            "rotated": false,
            "scale": {
                "x": 1.0,
                "y": 1.0,
                "z": 1.0
            },
            "sourceSize": {
                "h": 32,
                "w": 32
            },
            "spriteSourceSize": {
                "h": 32,
                "w": 32,
                "x": 0,
                "y": 0
            },
            "trimmed": false
        },
        {
            "filename": "头顶宝石a.png 合成 1_00026.png",
            "frame": {
                "h": 32,
                "w": 32,
                "x": 64,
                "y": 96
            },
            "rotated": false,
            "scale": {
                "x": 1.0,
                "y": 1.0,
                "z": 1.0
            },
            "sourceSize": {
                "h": 32,
                "w": 32
            },
            "spriteSourceSize": {
                "h": 32,
                "w": 32,
                "x": 0,
                "y": 0
            },
            "trimmed": false
        },
        {
            "filename": "头顶宝石a.png 合成 1_00027.png",
            "frame": {
                "h": 32,
                "w": 32,
                "x": 96,
                "y": 96
            },
            "rotated": false,
            "scale": {
                "x": 1.0,
                "y": 1.0,
                "z": 1.0
            },
            "sourceSize": {
                "h": 32,
                "w": 32
            },
            "spriteSourceSize": {
                "h": 32,
                "w": 32,
                "x": 0,
                "y": 0
            },
            "trimmed": false
        },
        {
            "filename": "头顶宝石a.png 合成 1_00028.png",
            "frame": {
                "h": 32,
                "w": 32,
                "x": 128,
                "y": 96
            },
            "rotated": false,
            "scale": {
                "x": 1.0,
                "y": 1.0,
                "z": 1.0
            },
            "sourceSize": {
                "h": 32,
                "w": 32
            },
            "spriteSourceSize": {
                "h": 32,
                "w": 32,
                "x": 0,
                "y": 0
            },
            "trimmed": false
        },
        {
            "filename": "头顶宝石a.png 合成 1_00029.png",
            "frame": {
                "h": 32,
                "w": 32,
                "x": 160,
                "y": 96
            },
            "rotated": false,
            "scale": {
                "x": 1.0,
                "y": 1.0,
                "z": 1.0
            },
            "sourceSize": {
                "h": 32,
                "w": 32
            },
            "spriteSourceSize": {
                "h": 32,
                "w": 32,
                "x": 0,
                "y": 0
            },
            "trimmed": false
        },
        {
            "filename": "头顶宝石a.png 合成 1_00030.png",
            "frame": {
                "h": 32,
                "w": 32,
                "x": 192,
                "y": 96
            },
            "rotated": false,
            "scale": {
                "x": 1.0,
                "y": 1.0,
                "z": 1.0
            },
            "sourceSize": {
                "h": 32,
                "w": 32
            },
            "spriteSourceSize": {
                "h": 32,
                "w": 32,
                "x": 0,
                "y": 0
            },
            "trimmed": false
        },
        {
            "filename": "头顶宝石a.png 合成 1_00031.png",
            "frame": {
                "h": 32,
                "w": 32,
                "x": 224,
                "y": 96
            },
            "rotated": false,
            "scale": {
                "x": 1.0,
                "y": 1.0,
                "z": 1.0
            },
            "sourceSize": {
                "h": 32,
                "w": 32
            },
            "spriteSourceSize": {
                "h": 32,
                "w": 32,
                "x": 0,
                "y": 0
            },
            "trimmed": false
        }
    ],
    "meta": {
        "app": "https://www.codeandweb.com/texturepacker",
        "format": "RGBA8888",
        "image": "cs_loong_skina2_tdbs.png",
        "scale": "1",
        "size": {
            "h": 256,
            "w": 256
        },
        "smartupdate": "$TexturePacker:SmartUpdate:8f7a0256eaf59ad10ac46bb924ea8114:1928192cf6526375a0acc2d6010c3648:296cc3bb5619024a1120895c39c94812$",
        "version": "1.0"
    }
}