{
  "ui_defs": [
    "ui/inventory_screen.json",
    "ui/inventory_screen_pocket.json",
    "ui/netease/login_game/login_bg.json",
    "ui/netease/fold_menu.json",
    "ui/netease/voice.json",
    "ui/netease/voice_trans.json",
    "ui/netease/report_screen.json",
    "ui/netease/mod/play_game.json",
    "ui/netease/mod/test_screen.json",
    "ui/netease/mod/for_button_cancel.json",
    "ui/netease/mod/qa_debug.json",
    "ui/netease/mod/rich_text.json",
    "ui/netease/mod/combo_box.json",
    "ui/netease/mod/mini_map.json",
    "ui/netease/store/netease_store_common.json",
    "ui/netease/store/netease_store_home_screen.json",
    "ui/netease/mod/mod_download_screen.json",
    "ui/netease/warn_anti_addiction.json",
    "ui/netease/mobile_authenticate_screen.json",
    "ui/netease/report_cheat_screen.json",
    "ui/netease/vip_enter_screen.json",
    "ui/netease/illustrated_book/book_screen.json",
    "ui/netease/illustrated_book/book_preset.json",
    "ui/netease/illustrated_book/book_test.json",
    "ui/netease/roomQrCodeUI.json",
    "ui/netease/netease_editor_template_namespace.json",
    "ui/pause_screen.json",
    "ui/permissions_screen.json",
    "ui/petUI.json",
    "ui/petHeadUI.json",
    "ui/petBagUI.json",
    "ui/hud_screen.json",
    "ui/ui_template_toggles.json",
    "ui/reconnect_screen.json",
    "ui/enchanting_screen.json",
    "ui/enchanting_screen_pocket.json",
    "ui/netease/water_mark_screen.json",
    "ui/enchanting_screen_pocket.json",
    "ui/player_tips.json",
    "ui/netease_chat_screen.json",
    "ui/netease_chat_screen_extension.json",
    "ui/hud_screen_netease_helper.json",
    "ui/netease/pet/petSkillFriendUI.json",
    "ui/petMainUI.json",
    "ui/petEatUI.json",
    "ui/emote_screen.json",
    "ui/emote_wheel.json",
    "ui/AchievementGate.json",
    "ui/AchievementSys.json",
    "ui/PE_AchievementSys.json",
    "ui/PopWindow.json",
    "ui/researchPopUI.json",
    "ui/researchResponseUI.json",
    "ui/researchUI.json",
    "ui/parterner_common_toggles.json",
    "ui/parterner_convinient_minimap.json",
    "ui/parterner_left_common_toggles.json",
    "ui/parterner_right_common_toggles.json",
    "ui/parterner_wiki_common_toggle.json",
    "ui/parternerUI.json",
    "ui/mountUI.json",
    "ui/netease/pet/parterner_skin_shop_ui.json",
    "ui/new_netease_shop_asking.json",
    "ui/new_netease_shop_confirm.json",
    "ui/new_netease_shop_desk.json",
    "ui/new_netease_shop_flying.json",
    "ui/new_netease_shop_item_pop.json",
    "ui/new_netease_shop_main1.json",
    "ui/new_netease_shop_recommend_model1.json",
    "ui/new_netease_shop_recommend_model2.json",
    "ui/new_netease_shop_waiting.json",
    "ui/trade_screen.json",
    "ui/netease/gameChatExtension/gameChatHudFunctionButtons.json",

    "ui/netease/neteaseVoiceTrans.json",
    "ui/netease/speakSectionUI.json",
    "ui/netease/commonChatInput.json",
    "ui/chatExtensionMainScreenMsg.json",
    "ui/chatExtensionMainScreenMsgNew.json",
    "ui/netease/gameChatExtension/gameChatHudFunctionButtons.json",
    "ui/netease/gameChatExtension/gameChatPlayerInfoTipsUI.json",
    "ui/netease/gameChatExtension/gameChatMainUI.json",
    "ui/netease/gameChatExtension/permission_req_confirm.json",
    "ui/netease_custom_chest_screen.json",
    "ui/netease_pocket_containers.json",
    "ui/ui_template_selection_wheels.json",
    "ui/netease/aiCommandUI.json",
    "ui/netease/aiHudScreenUI.json",
    "ui/netease/aiTutorialBookUI.json",
    "ui/netease/lobbyUniversalPopupUI.json",
    "ui/lobby_setting_screen.json",
    "ui/netease/aiCommandShopUI.json",
    "ui/horseForceDismount.json"
  ]
}