{
	"main@common.base_screen" : {
	   "$screen_content" : "chatExtensionMainScreenMsg.main_screen_msg_panel"
	},
	"main_screen_msg_panel" : {
		"controls" : [
			{
			   "switch_panel" : {
				  "anchor_from" : "left_middle",
				  "anchor_to" : "left_middle",
				  "controls" : [
					 {
						"button@common.button" : {
						   "$control_alpha" : 0.8,
						   "$default_texture" : "textures/ui/gameChatExtension/common/common_button3_normal",
						   "$hover_texture" : "textures/ui/gameChatExtension/common/common_button3_normal",
						   "$is_new_nine_slice" : false,
						   "$label_color" : [ 1, 1, 1 ],
						   "$label_font_scale_factor" : 1.0,
						   "$label_font_size" : "large",
						   "$label_layer" : 3,
						   "$label_offset" : [ 0, 0 ],
						   "$label_text" : "",
						   "$nine_slice_buttom" : 0,
						   "$nine_slice_left" : 0,
						   "$nine_slice_right" : 0,
						   "$nine_slice_top" : 0,
						   "$nineslice_size" : [ 0, 0, 0, 0 ],
						   "$pressed_button_name" : "%netease_editor_template_namespace.click",
						   "$pressed_texture" : "textures/ui/gameChatExtension/common/common_button3_click",
						   "$texture_layer" : 2,
						   "bindings" : [
							  {
								 "binding_collection_name" : "",
								 "binding_condition" : "always_when_visible",
								 "binding_type" : "collection_details"
							  }
						   ],
						   "button_mappings" : [],
						   "controls" : [
							  {
								 "content_panel" : {
									"alpha" : 0.0,
									"anchor_from" : "bottom_right",
									"anchor_to" : "bottom_left",
									"controls" : [
									   {
										  "chat_background" : {
											 "alpha" : 0.70,
											 "clip_direction" : "left",
											 "clip_ratio" : 0.0,
											 "color" : [ 0.0, 0.0, 0.0 ],
											 "fill" : true,
											 "is_new_nine_slice" : true,
											 "layer" : 1,
											 "size" : [ "100.0%+0.0px", "100.0%+0.0px" ],
											 "texture" : "textures/ui/Black",
											 "type" : "image"
										  }
									   },
									   {
										  "top_empty_line" : {
											 "anchor_from" : "top_left",
											 "anchor_to" : "top_left",
											 "layer" : 2,
											 "size" : [ "100.0%+0.0px", 5 ],
											 "type" : "panel"
										  }
									   },
									   {
										  "content_detail_panel" : {
											 "clips_children" : true,
											 "controls" : [
												{
												   "chat_message_template" : {
													  "alpha" : 0.0,
													  "anchor_from" : "bottom_left",
													  "anchor_to" : "bottom_left",
													  "font_type" : "smooth",
													  "layer" : 1,
													  "max_size" : [ "default", "100.0%+0.0px" ],
													  "propagate_alpha" : true,
													  "size" : [ "100.0%+0.0px", "default" ],
													  "text" : "default",
													  "type" : "label",
													  "visible" : false
												   }
												}
											 ],
											 "layer" : 3,
											 "propagate_alpha" : true,
											 "size" : [ "100.0%+0.0px", "100.0%+-10.0px" ],
											 "type" : "panel"
										  }
									   },
									   {
										  "bottom_empty_line" : {
											 "anchor_from" : "bottom_left",
											 "anchor_to" : "bottom_left",
											 "layer" : 5,
											 "size" : [ "100.0%+0.0px", 5 ],
											 "type" : "panel"
										  }
									   }
									],
									"layer" : 12,
									"max_size" : [ "default", "400.0%+0.0px" ],
									"min_size" : [ "default", "300.0%+0.0px" ],
									"offset" : [ "12.5%+0.0px", 0 ],
									"propagate_alpha" : true,
									"size" : [ "800.0%+-2.0px", "0.0%+0.0px" ],
									"type" : "panel"
								 }
							  },
							  {
								 "default@netease_editor_template_namespace.default" : {}
							  },
							  {
								 "hover@netease_editor_template_namespace.hover" : {}
							  },
							  {
								 "pressed@netease_editor_template_namespace.pressed" : {}
							  },
							  {
								 "button_label@netease_editor_template_namespace.button_label" : {}
							  },
							  {
								 "icon" : {
									"clip_direction" : "left",
									"clip_ratio" : 0.0,
									"layer" : 1,
									"size" : [ "60.0%+0.0px", "60.0%+0.0px" ],
									"texture" : "textures/ui/gameChatExtension/icon/pack_up",
									"type" : "image"
								 }
							  }
						   ],
						   "default_control" : "default",
						   "hover_control" : "hover",
						   "is_handle_button_move_event" : true,
						   "layer" : 2,
						   "offset" : [ 0.0, "50.0%x+0.0px" ],
						   "pressed_control" : "pressed",
						   "size" : [ "80.0%+0.0px", "100.0%x+0.0px" ],
						   "type" : "button"
						}
					 }
				  ],
				  "layer" : 1,
				  "offset" : [ 0.0, 0 ],
				  "size" : [ "6.25%+0.0px", "100.0%c+0.0px" ],
				  "type" : "panel"
			   }
			}
		 ],
		 "layer" : 1,
		 "offset" : [ 0, 0.0 ],
		 "type" : "panel"
	},
	"namespace" : "chatExtensionMainScreenMsg"
 }
 