{
   "bag_grid_panel" : {
      "anchor_from" : "bottom_middle",
      "anchor_to" : "bottom_middle",
      "controls" : [
         {
            "origin_background" : {
               "size" : [ "100%", "100%" ],
               "texture" : "textures/ui/ScrollRail",
               "type" : "image",
               "uv_size" : [ 0, 0 ]
            }
         },
         {
            "pet_bag_panel_1@parterner_right_common_toggles.pet_bag_panel" : {}
         }
      ],
      "layer" : 3,
      "offset" : [ 0.0, "-2.3%+0.0px" ],
      "size" : [ "95.9%+0.0px", "85.9%+0.0px" ],
      "type" : "panel"
   },
   "common_right_content_panel" : {
      "$mount_func_visible" : false,
      "$paper_doll_offset" : [ 0, -124 ],
      "$paper_doll_scale_default" : 2.0,
      "$parterner_func_visible" : false,
      "$parterner_name_panel_offset" : [ "45.72%+0.0px", "3.95%+0.0px" ],
      "$parterner_name_panel_size" : [ "8.17%+0.0px", "4.68%+0.0px" ],
      "$summon_stable_label_text_scale" : 1.10,
      "controls" : [
         {
            "parterner_name_panel_1@parterner_right_common_toggles.parterner_name_panel" : {
               "$parterner_name_panel_offset|default" : [ 0, 0 ],
               "$parterner_name_panel_size|default" : [ 0, 0 ],
               "offset" : "$parterner_name_panel_offset",
               "size" : "$parterner_name_panel_size"
            }
         },
         {
            "pure_black_background_1@parterner_right_common_toggles.pure_black_background" : {}
         },
         {
            "common_origin_grid_panel_1@parterner_right_common_toggles.bag_grid_panel" : {
               "visible" : false
            }
         },
         {
            "worldWikiDetailRightPanel(0)@parterner_wiki_common_toggle.worldWikiDetailRightPanel" : {
               "layer" : 500,
               "visible" : false
            }
         }
      ],
      "layer" : 2,
      "size" : [ "97.71%+0.0px", "98.0%+0.0px" ],
      "type" : "panel"
   },
   "namespace" : "parterner_right_common_toggles",
   "paperdoll_main_panel" : {
      "anchor_from" : "top_left",
      "anchor_to" : "top_left",
      "controls" : [
         {
            "viewer_panel_parterner@parterner_right_common_toggles.skin_viewer_panel" : {}
         }
      ],
      "layer" : 4,
      "offset" : [ "29.42%+0.0px", "29.76%+0.0px" ],
      "size" : [ "41.54%+0.0px", "43.87%+0.0px" ],
      "type" : "panel"
   },
   "paperdoll_tip_panel" : {
      "anchor_from" : "bottom_left",
      "anchor_to" : "bottom_left",
      "controls" : [
         {
            "stable_image" : {
               "anchor_from" : "top_middle",
               "anchor_to" : "top_middle",
               "clip_direction" : "left",
               "clip_ratio" : 0.0,
               "layer" : 1,
               "offset" : [ "-2.0%+0.0px", 0.0 ],
               "size" : [ "100.0%+0.0px", "38.0%+0.0px" ],
               "texture" : "textures/ui/pet/parterner/icon33_2x",
               "type" : "image"
            }
         },
         {
            "stable_label_panel" : {
               "anchor_from" : "bottom_middle",
               "anchor_to" : "bottom_middle",
               "controls" : [
                  {
                     "stable_label" : {
                        "anchor_from" : "bottom_middle",
                        "anchor_to" : "bottom_middle",
                        "font_scale_factor" : 0.70,
                        "font_type" : "smooth",
                        "layer" : 2,
                        "text" : "可旋转查看",
                        "text_alignment" : "center",
                        "type" : "label"
                     }
                  }
               ],
               "layer" : 1,
               "size" : [ "100.0%+0.0px", "0.0%+8.0px" ],
               "type" : "panel"
            }
         }
      ],
      "layer" : 4,
      "offset" : [ "43.4%+0.0px", "-4.7%+0.0px" ],
      "size" : [ "13.0%+0.0px", 15 ],
      "type" : "panel"
   },
   "parterner_name_panel" : {
      "anchor_from" : "top_left",
      "anchor_to" : "top_left",
      "controls" : [
         {
            "parterner_name" : {
               "color" : [ 0.2588235294117647, 0.2588235294117647, 0.2588235294117647 ],
               "font_type" : "smooth",
               "layer" : 3,
               "text" : "狐狸",
               "text_alignment" : "center",
               "type" : "label"
            }
         }
      ],
      "layer" : 2,
      "offset" : [ "45.72%+0.0px", "3.95%+0.0px" ],
      "size" : [ "8.17%+0.0px", "4.68%+0.0px" ],
      "type" : "panel"
   },
   "pet_bag_content" : {
      "anchor_from" : "center",
      "anchor_to" : "center",
      "controls" : [
         {
            "scrollingPanel@parterner_left_common_toggles.bag_scrolling_panel" : {
               "$bag_grid_num" : 6
            }
         }
      ],
      "offset" : [ 0, 0 ],
      "size" : [ "92.68%", "98.81%" ],
      "type" : "panel"
   },
   "pet_bag_panel" : {
      "anchor_from" : "right_middle",
      "anchor_to" : "right_middle",
      "controls" : [
         {
            "petBagContent@parterner_right_common_toggles.pet_bag_content" : {}
         },
         {
            "grouping_progressiveBar@parterner_common_toggles.progressiveBar" : {}
         }
      ],
      "layer" : 0,
      "offset" : [ 0, 0 ],
      "size" : [ "100%", "100%" ],
      "type" : "panel",
      "visible" : true
   },
   "pure_black_background" : {
      "anchor_from" : "bottom_middle",
      "anchor_to" : "bottom_middle",
      "clip_direction" : "left",
      "clip_ratio" : 0.0,
      "color" : [ 0.2627450980392157, 0.2627450980392157, 0.2627450980392157 ],
      "controls" : [
         {
            "paperdoll_main_panel_1@parterner_right_common_toggles.paperdoll_main_panel" : {}
         },
         {
            "paperdoll_tip_panel_1@parterner_right_common_toggles.paperdoll_tip_panel" : {}
         },
         {
            "summon_content_panel_1@parterner_right_common_toggles.summon_content_panel" : {
               "visible" : false
            }
         },
         {
            "parterner_func_stack_panel" : {
               "$parterner_func_visible|default" : false,
               "anchor_from" : "top_right",
               "anchor_to" : "top_right",
               "controls" : [
                  {
                     "panel_music" : {
                        "anchor_from" : "top_middle",
                        "anchor_to" : "top_middle",
                        "controls" : [
                           {
                              "panel" : {
                                 "anchor_from" : "top_middle",
                                 "anchor_to" : "top_middle",
                                 "controls" : [
                                    {
                                       "common_icon_btn@parterner_common_toggles.common_icon_btn" : {
                                          "$middle_icon_texture" : "textures/ui/pet/parterner/icon29_2x",
                                          "anchor_from" : "top_middle",
                                          "anchor_to" : "top_middle",
                                          "size" : [ "100.0%y+0.0px", "100.0%+0.0px" ]
                                       }
                                    }
                                 ],
                                 "layer" : 1,
                                 "size" : [ "100.0%+0.0px", "94.11%+0.0px" ],
                                 "type" : "panel"
                              }
                           }
                        ],
                        "layer" : 1,
                        "size" : [ "100.0%+0.0px", "50.0%+0.0px" ],
                        "type" : "panel"
                     }
                  },
                  {
                     "panel_lock" : {
                        "anchor_from" : "top_middle",
                        "anchor_to" : "top_middle",
                        "controls" : [
                           {
                              "panel" : {
                                 "controls" : [
                                    {
                                       "common_icon_btn@parterner_common_toggles.common_icon_btn" : {
                                          "$middle_icon_texture" : "textures/ui/pet/parterner/icon32_2x",
                                          "anchor_from" : "top_middle",
                                          "anchor_to" : "top_middle",
                                          "size" : [ "100.0%y+0.0px", "100.0%+0.0px" ]
                                       }
                                    }
                                 ],
                                 "layer" : 1,
                                 "size" : [ "100.0%+0.0px", "94.11%+0.0px" ],
                                 "type" : "panel"
                              }
                           }
                        ],
                        "layer" : 1,
                        "size" : [ "100.0%+0.0px", "50.0%+0.0px" ],
                        "type" : "panel"
                     }
                  }
               ],
               "layer" : 1,
               "offset" : [ -4, "3.4%+0.0px" ],
               "size" : [ "10.65%+0.0px", "30.1%+0.0px" ],
               "type" : "stack_panel",
               "visible" : "$parterner_func_visible"
            }
         },
         {
            "mount_func_stack_panel" : {
               "$mount_func_visible|default" : false,
               "anchor_from" : "top_right",
               "anchor_to" : "top_right",
               "controls" : [
                  {
                     "panel_mount_visible" : {
                        "anchor_from" : "top_middle",
                        "anchor_to" : "top_middle",
                        "controls" : [
                           {
                              "panel" : {
                                 "anchor_from" : "top_middle",
                                 "anchor_to" : "top_middle",
                                 "controls" : [
                                    {
                                       "common_icon_btn@parterner_common_toggles.common_icon_btn" : {
                                          "$middle_icon_texture" : "textures/ui/pet/parterner/icon08_3x",
                                          "anchor_from" : "top_middle",
                                          "anchor_to" : "top_middle",
                                          "size" : [ "100.0%y+0.0px", "100.0%+0.0px" ]
                                       }
                                    }
                                 ],
                                 "layer" : 1,
                                 "size" : [ "100.0%+0.0px", "94.11%+0.0px" ],
                                 "type" : "panel"
                              }
                           }
                        ],
                        "layer" : 1,
                        "size" : [ "100.0%+0.0px", "100.0%+0.0px" ],
                        "type" : "panel"
                     }
                  }
               ],
               "layer" : 1,
               "offset" : [ -4, "3.4%+0.0px" ],
               "size" : [ "10.65%+0.0px", "13.61%+0.0px" ],
               "type" : "stack_panel",
               "visible" : "$mount_func_visible"
            }
         },
         {
            "use_btn_panel" : {
               "anchor_from" : "bottom_right",
               "anchor_to" : "bottom_right",
               "controls" : [
                  {
                     "button@common.button" : {
                        "$control_alpha" : 1.0,
                        "$default_texture" : "textures/netease/common/button/default",
                        "$hover_texture" : "textures/netease/common/button/hover",
                        "$is_new_nine_slice" : false,
                        "$label_color" : [ 0.2588235294117647, 0.2588235294117647, 0.2588235294117647 ],
                        "$label_font_scale_factor" : 1.0,
                        "$label_font_size" : "normal",
                        "$label_layer" : 3,
                        "$label_offset" : [ 0, 0 ],
                        "$label_text" : "装载",
                        "$nine_slice_buttom" : 0,
                        "$nine_slice_left" : 0,
                        "$nine_slice_right" : 0,
                        "$nine_slice_top" : 0,
                        "$nineslice_size" : [ 0, 0, 0, 0 ],
                        "$pressed_button_name" : "%netease_editor_template_namespace.click",
                        "$pressed_texture" : "textures/netease/common/button/pressed",
                        "$texture_layer" : 2,
                        "bindings" : [
                           {
                              "binding_collection_name" : "",
                              "binding_condition" : "always_when_visible",
                              "binding_type" : "collection_details"
                           }
                        ],
                        "button_mappings" : [],
                        "controls" : [
                           {
                              "default@netease_editor_template_namespace.default" : {}
                           },
                           {
                              "hover@netease_editor_template_namespace.hover" : {}
                           },
                           {
                              "pressed@netease_editor_template_namespace.pressed" : {}
                           },
                           {
                              "button_label@netease_editor_template_namespace.button_label" : {}
                           }
                        ],
                        "default_control" : "default",
                        "hover_control" : "hover",
                        "is_handle_button_move_event" : true,
                        "layer" : 5,
                        "pressed_control" : "pressed",
                        "size" : [ "100.0%+0.0px", "100.0%+0.0px" ],
                        "type" : "button"
                     }
                  }
               ],
               "offset" : [ "-2.66%+0.0px", "-4.76%+0.0px" ],
               "propagate_alpha" : true,
               "size" : [ "23.97%+0.0px", "13.6%+0.0px" ],
               "type" : "panel",
               "layer": 25,
               "visible" : false
            }
         },
         {
            "unlock_btn_panel" : {
               "anchor_from" : "bottom_right",
               "anchor_to" : "bottom_right",
               "controls" : [
                  {
                     "button@common.button" : {
                        "$control_alpha" : 1.0,
                        "$default_texture" : "textures/ui/pet/parterner/btn12_3x",
                        "$hover_texture" : "textures/ui/pet/parterner/btn12_3x",
                        "$is_new_nine_slice" : false,
                        "$label_color" : [ 0.4980392156862745, 0.1803921568627451, 0.06666666666666667 ],
                        "$label_font_scale_factor" : 1.0,
                        "$label_font_size" : "normal",
                        "$label_layer" : 3,
                        "$label_offset" : [ "10.0%+0.0px", 0.0 ],
                        "$label_text" : "解锁",
                        "$nine_slice_buttom" : 0,
                        "$nine_slice_left" : 0,
                        "$nine_slice_right" : 0,
                        "$nine_slice_top" : 0,
                        "$nineslice_size" : [ 2.0, 2.0, 2.0, 2.0 ],
                        "$pressed_button_name" : "%netease_editor_template_namespace.click",
                        "$pressed_texture" : "textures/ui/pet/parterner/btn12_click_3x",
                        "$texture_layer" : 2,
                        "bindings" : [
                           {
                              "binding_collection_name" : "",
                              "binding_condition" : "always_when_visible",
                              "binding_type" : "collection_details"
                           }
                        ],
                        "button_mappings" : [],
                        "controls" : [
                           {
                              "default@netease_editor_template_namespace.default" : {}
                           },
                           {
                              "hover@netease_editor_template_namespace.hover" : {}
                           },
                           {
                              "pressed@netease_editor_template_namespace.pressed" : {}
                           },
                           {
                              "button_label@netease_editor_template_namespace.button_label" : {
                                 "controls" : [
                                    {
                                       "image" : {
                                          "anchor_from" : "left_middle",
                                          "anchor_to" : "right_middle",
                                          "clip_direction" : "left",
                                          "clip_ratio" : 0.0,
                                          "layer" : 1,
                                          "offset" : [ "-25.0%+0.0px", 0.0 ],
                                          "size" : [ "80.0%y+0.0px", "100.0%+0.0px" ],
                                          "texture" : "textures/ui/pet/parterner/icon34_3x",
                                          "type" : "image"
                                       }
                                    }
                                 ]
                              }
                           }
                        ],
                        "default_control" : "default",
                        "hover_control" : "hover",
                        "is_handle_button_move_event" : true,
                        "layer" : 5,
                        "pressed_control" : "pressed",
                        "size" : [ "100.0%+0.0px", "100.0%+0.0px" ],
                        "type" : "button"
                     }
                  }
               ],
               "layer" : 25,
               "offset" : [ "-2.66%+0.0px", "-4.76%+0.0px" ],
               "propagate_alpha" : true,
               "size" : [ 45.0, 20.0 ],
               "type" : "panel",
               "visible" : false
            }
         }
      ],
      "fill" : true,
      "layer" : 3,
      "offset" : [ 0.0, "-2.3%+0.0px" ],
      "size" : [ "95.9%+0.0px", "85.9%+0.0px" ],
      "texture" : "textures/ui/background_image",
      "type" : "image",
      "uv" : [ 2.0, 2.0 ],
      "uv_size" : [ 10.0, 10.0 ]
   },
   "skin_viewer_panel" : {
      "anchor_from" : "top_middle",
      "anchor_to" : "top_middle",
      "button_mappings" : [
         {
            "button_up_right_of_first_refusal" : true,
            "from_button_id" : "button.menu_select",
            "mapping_type" : "pressed",
            "to_button_id" : "button.turn_doll"
         }
      ],
      "controls" : [
         {
            "paper_doll_panel" : {
               "controls" : [
                  {
                     "paper_doll" : {
                        "$paper_doll_offset|default" : [ 0, -124 ],
                        "$paper_doll_scale_default|default" : 2.0,
                        "anchor_from" : "bottom_middle",
                        "anchor_to" : "bottom_middle",
                        "animation" : "idle_stand",
                        "bindings" : [
                           {
                              "binding_type" : "view",
                              "source_control_name" : "viewer_panel_parterner",
                              "source_property_name" : "#gesture_delta_source",
                              "target_property_name" : "#gesture_delta_source"
                           },
                           {
                              "binding_type" : "view",
                              "source_control_name" : "viewer_panel_parterner",
                              "source_property_name" : "#gesture_mouse_delta_x",
                              "target_property_name" : "#gesture_mouse_delta_x"
                           }
                        ],
                        "layer" : 1,
                        "modelname" : "ty_yuanshenghuli_0_0",
                        "modelsize" : "$paper_doll_scale_default",
                        "offset" : "$paper_doll_offset",
                        "renderer" : "paper_doll_renderer",
                        "rotation" : "gesture_x",
                        "size" : [ "100%", "100%" ],
                        "type" : "custom",
                        "animation_reset_name": "screen_animation_reset",
                        "anims": [
                          "@common.screen_exit_size_animation_push",
                          "@common.screen_exit_size_animation_pop",
                          "@common.screen_entrance_size_animation_push",
                          "@common.screen_entrance_size_animation_pop"
                        ]
                     }
                  }
               ],
               "size" : [ "100%", "100%" ],
               "type" : "panel"
            }
         }
      ],
      "gesture_tracking_button" : "button.turn_doll",
      "layer" : 15,
      "offset" : [ 0, "20.0%+0.0px" ],
      "size" : [ 108, 108 ],
      "type" : "input_panel"
   },
   "summon_content_panel" : {
      "anchor_from" : "bottom_right",
      "anchor_to" : "bottom_right",
      "controls" : [
         {
            "stable_label_panel" : {
               "anchor_from" : "left_middle",
               "anchor_to" : "left_middle",
               "controls" : [
                  {
                     "summon_stable_label" : {
                        "$summon_stable_label_text_scale|default" : 1.10,
                        "anchor_from" : "left_middle",
                        "anchor_to" : "left_middle",
                        "enabled" : false,
                        "font_scale_factor" : "$summon_stable_label_text_scale",
                        "font_size" : "normal",
                        "font_type" : "smooth",
                        "layer" : 150,
                        "offset" : [ "0.0%+0.0px", 0.0 ],
                        "size" : [ "default", 10 ],
                        "text" : "召唤",
                        "text_alignment" : "center",
                        "type" : "label"
                     }
                  }
               ],
               "enabled" : false,
               "layer" : 25,
               "offset" : [ "44.5%+0.0px", 0 ],
               "size" : [ "35.6%+0.0px", "40.0%+0.0px" ],
               "type" : "panel"
            }
         },
         {
            "button@common.button" : {
               "$control_alpha" : 1.0,
               "$default_texture" : "textures/ui/pet/parterner/btn_01_default",
               "$hover_texture" : "textures/ui/pet/parterner/btn_01_click",
               "$is_new_nine_slice" : false,
               "$label_color" : [ 1, 1, 1 ],
               "$label_font_scale_factor" : 1.0,
               "$label_font_size" : "large",
               "$label_layer" : 3,
               "$label_offset" : [ 0, 0 ],
               "$label_text" : "",
               "$nine_slice_buttom" : 0,
               "$nine_slice_left" : 0,
               "$nine_slice_right" : 0,
               "$nine_slice_top" : 0,
               "$nineslice_size" : [ 0, 0, 0, 0 ],
               "$pressed_button_name" : "%netease_editor_template_namespace.click",
               "$pressed_texture" : "textures/ui/pet/parterner/btn_01_click",
               "$texture_layer" : 2,
               "bindings" : [
                  {
                     "binding_collection_name" : "",
                     "binding_condition" : "always_when_visible",
                     "binding_type" : "collection_details"
                  }
               ],
               "button_mappings" : [],
               "controls" : [
                  {
                     "default@netease_editor_template_namespace.default" : {}
                  },
                  {
                     "hover@netease_editor_template_namespace.hover" : {}
                  },
                  {
                     "pressed@netease_editor_template_namespace.pressed" : {}
                  },
                  {
                     "button_label@netease_editor_template_namespace.button_label" : {}
                  }
               ],
               "default_control" : "default",
               "hover_control" : "hover",
               "is_handle_button_move_event" : true,
               "layer" : 4,
               "pressed_control" : "pressed",
               "size" : [ "100.0%+0.0px", "100.0%+0.0px" ],
               "type" : "button"
            }
         },
         {
            "icon_panel" : {
               "anchor_from" : "left_middle",
               "anchor_to" : "left_middle",
               "controls" : [
                  {
                     "summon_icon" : {
                        "clip_direction" : "left",
                        "clip_ratio" : 0.0,
                        "enabled" : false,
                        "fill" : true,
                        "layer" : 1,
                        "offset" : [ 0, 0 ],
                        "size" : [ "100.0%+0.0px", "100.0%+0.0px" ],
                        "texture" : "textures/ui/pet/parterner/icon26_2x",
                        "type" : "image"
                     }
                  }
               ],
               "enabled" : false,
               "layer" : 10,
               "offset" : [ "18.3%+0.0px", 0 ],
               "size" : [ "22.78%+0.0px", "65.0%+0.0px" ],
               "type" : "panel"
            }
         }
      ],
      "layer" : 25,
      "offset" : [ "-2.66%+0.0px", "-4.76%+0.0px" ],
      "size" : [ "23.97%+0.0px", "13.6%+0.0px" ],
      "type" : "panel"
   }
}
