{
   "button_label" : {
      "$label_color|default" : [ 0, 0, 0 ],
      "$label_font_scale_factor|default" : 1.0,
      "$label_font_size|default" : "normal",
      "$label_layer|default" : 1,
      "$label_offset|default" : [ 0, 0 ],
      "$label_shadow|default" : false,
      "$label_text|default" : "",
      "color" : "$label_color",
      "font_scale_factor" : "$label_font_scale_factor",
      "font_size" : "$label_font_size",
      "font_type" : "smooth",
      "layer" : "$label_layer",
      "max_size" : [ "100%", "100%" ],
      "offset" : "$label_offset",
      "shadow" : "$label_shadow",
      "size" : [ "default", "default" ],
      "text" : "$label_text",
      "text_alignment" : "center",
      "type" : "label"
   },
   "default" : {
      "alpha" : "$control_alpha",
      "is_new_nine_slice" : "$is_new_nine_slice",
      "layer" : "$texture_layer",
      "nine_slice_buttom" : "$nine_slice_buttom",
      "nine_slice_left" : "$nine_slice_left",
      "nine_slice_right" : "$nine_slice_right",
      "nine_slice_top" : "$nine_slice_top",
      "nineslice_size" : "$nineslice_size",
      "texture" : "$default_texture",
      "type" : "image"
   },
   "hover" : {
      "alpha" : "$control_alpha",
      "is_new_nine_slice" : "$is_new_nine_slice",
      "layer" : "$texture_layer",
      "nine_slice_buttom" : "$nine_slice_buttom",
      "nine_slice_left" : "$nine_slice_left",
      "nine_slice_right" : "$nine_slice_right",
      "nine_slice_top" : "$nine_slice_top",
      "nineslice_size" : "$nineslice_size",
      "texture" : "$hover_texture",
      "type" : "image"
   },
   "item_panel" : {
      "alpha" : 1.0,
      "anchor_from" : "center",
      "anchor_to" : "center",
      "clip_offset" : [ 0, 0 ],
      "clips_children" : false,
      "controls" : [
         {
            "introduction_panel" : {
               "alpha" : 1.0,
               "anchor_from" : "center",
               "anchor_to" : "center",
               "clip_offset" : [ 0, 0 ],
               "clips_children" : false,
               "controls" : [
                  {
                     "introduction_lb" : {
                        "alpha" : 1.0,
                        "anchor_from" : "center",
                        "anchor_to" : "center",
                        "clip_offset" : [ 0, 0 ],
                        "clips_children" : false,
                        "color" : [ 1, 1, 1 ],
                        "enabled" : true,
                        "font_scale_factor" : 1.0,
                        "font_size" : "normal",
                        "font_type" : "smooth",
                        "layer" : 1,
                        "line_padding" : 0,
                        "max_size" : [ 0, 0 ],
                        "min_size" : [ 0, 0 ],
                        "offset" : [ "5.0%+0.0px", "0.0%+0.0px" ],
                        "priority" : 0,
                        "propagate_alpha" : false,
                        "shadow" : false,
                        "size" : [ "100%", "default" ],
                        "text" : "感谢您游玩本地图，调研可以帮助开发者更好的优化游戏哦\n(共6题，预计2分钟)",
                        "text_alignment" : "left",
                        "type" : "label",
                        "visible" : true
                     }
                  }
               ],
               "enabled" : true,
               "layer" : 2,
               "max_size" : [ 0, 0 ],
               "min_size" : [ 0, 0 ],
               "offset" : [ 0, 0 ],
               "priority" : 0,
               "propagate_alpha" : false,
               "size" : [ "default", 30 ],
               "type" : "panel",
               "visible" : true
            }
         },
         {
            "item1" : {
               "alpha" : 1.0,
               "anchor_from" : "center",
               "anchor_to" : "center",
               "clip_offset" : [ 0, 0 ],
               "clips_children" : false,
               "controls" : [
                  {
                     "title" : {
                        "alpha" : 1.0,
                        "anchor_from" : "center",
                        "anchor_to" : "center",
                        "clip_offset" : [ 0, 0 ],
                        "clips_children" : false,
                        "color" : [ 1, 1, 1 ],
                        "enabled" : true,
                        "font_scale_factor" : 1.0,
                        "font_size" : "normal",
                        "font_type" : "smooth",
                        "layer" : 1,
                        "line_padding" : 0,
                        "max_size" : [ 0, 0 ],
                        "min_size" : [ 0, 0 ],
                        "offset" : [ "5.0%+0.0px", "-25.0%+0.0px" ],
                        "priority" : 0,
                        "propagate_alpha" : false,
                        "shadow" : false,
                        "size" : [ "100%", "default" ],
                        "text" : "1.卡顿情况",
                        "text_alignment" : "left",
                        "type" : "label",
                        "visible" : true
                     }
                  },
                  {
                     "btns" : {
                        "alpha" : 1.0,
                        "anchor_from" : "center",
                        "anchor_to" : "center",
                        "clip_offset" : [ 0, 0 ],
                        "clips_children" : false,
                        "controls" : [
                           {
                              "button1@common.button" : {
                                 "$control_alpha" : 1.0,
                                 "$default_texture" : "textures/ui/heart_background",
                                 "$hover_texture" : "textures/ui/heart_background",
                                 "$is_new_nine_slice" : false,
                                 "$label_color" : [ 1, 1, 1 ],
                                 "$label_font_scale_factor" : 1.0,
                                 "$label_font_size" : "large",
                                 "$label_layer" : 3,
                                 "$label_offset" : [ 0, 0 ],
                                 "$label_text" : "",
                                 "$nine_slice_buttom" : 0,
                                 "$nine_slice_left" : 0,
                                 "$nine_slice_right" : 0,
                                 "$nine_slice_top" : 0,
                                 "$nineslice_size" : [ 0, 0, 0, 0 ],
                                 "$pressed_button_name" : "%netease_editor_template_namespace.click",
                                 "$pressed_texture" : "textures/ui/heart_background",
                                 "$texture_layer" : 2,
                                 "alpha" : 1.0,
                                 "anchor_from" : "center",
                                 "anchor_to" : "center",
                                 "bindings" : [
                                    {
                                       "binding_collection_name" : "",
                                       "binding_condition" : "always_when_visible",
                                       "binding_type" : "collection_details"
                                    }
                                 ],
                                 "button_mappings" : [],
                                 "clip_offset" : [ 0, 0 ],
                                 "clips_children" : false,
                                 "controls" : [
                                    {
                                       "default@netease_editor_template_namespace.default" : {}
                                    },
                                    {
                                       "hover@netease_editor_template_namespace.hover" : {}
                                    },
                                    {
                                       "pressed@netease_editor_template_namespace.pressed" : {}
                                    },
                                    {
                                       "button_label@netease_editor_template_namespace.button_label" : {}
                                    }
                                 ],
                                 "default_control" : "default",
                                 "draggable" : "not_draggable",
                                 "enabled" : true,
                                 "hover_control" : "hover",
                                 "is_handle_button_move_event" : true,
                                 "layer" : 1,
                                 "max_size" : [ 0, 0 ],
                                 "min_size" : [ 0, 0 ],
                                 "offset" : [ "-45.0%+0.0px", "0.0%+0.0px" ],
                                 "pressed_control" : "pressed",
                                 "priority" : 0,
                                 "propagate_alpha" : false,
                                 "size" : [ 16, 16 ],
                                 "type" : "button",
                                 "visible" : true
                              }
                           },
                           {
                              "button2@common.button" : {
                                 "$control_alpha" : 1.0,
                                 "$default_texture" : "textures/ui/heart_background",
                                 "$hover_texture" : "textures/ui/heart_background",
                                 "$is_new_nine_slice" : false,
                                 "$label_color" : [ 1, 1, 1 ],
                                 "$label_font_scale_factor" : 1.0,
                                 "$label_font_size" : "large",
                                 "$label_layer" : 3,
                                 "$label_offset" : [ 0, 0 ],
                                 "$label_text" : "",
                                 "$nine_slice_buttom" : 0,
                                 "$nine_slice_left" : 0,
                                 "$nine_slice_right" : 0,
                                 "$nine_slice_top" : 0,
                                 "$nineslice_size" : [ 0, 0, 0, 0 ],
                                 "$pressed_button_name" : "%netease_editor_template_namespace.click",
                                 "$pressed_texture" : "textures/ui/heart_background",
                                 "$texture_layer" : 2,
                                 "alpha" : 1.0,
                                 "anchor_from" : "center",
                                 "anchor_to" : "center",
                                 "bindings" : [
                                    {
                                       "binding_collection_name" : "",
                                       "binding_condition" : "always_when_visible",
                                       "binding_type" : "collection_details"
                                    }
                                 ],
                                 "button_mappings" : [],
                                 "clip_offset" : [ 0, 0 ],
                                 "clips_children" : false,
                                 "controls" : [
                                    {
                                       "default@netease_editor_template_namespace.default" : {}
                                    },
                                    {
                                       "hover@netease_editor_template_namespace.hover" : {}
                                    },
                                    {
                                       "pressed@netease_editor_template_namespace.pressed" : {}
                                    },
                                    {
                                       "button_label@netease_editor_template_namespace.button_label" : {}
                                    }
                                 ],
                                 "default_control" : "default",
                                 "draggable" : "not_draggable",
                                 "enabled" : true,
                                 "hover_control" : "hover",
                                 "is_handle_button_move_event" : true,
                                 "layer" : 11,
                                 "max_size" : [ 0, 0 ],
                                 "min_size" : [ 0, 0 ],
                                 "offset" : [ "-38.0%+0.0px", "0.0%+0.0px" ],
                                 "pressed_control" : "pressed",
                                 "priority" : 0,
                                 "propagate_alpha" : false,
                                 "size" : [ 16, 16 ],
                                 "type" : "button",
                                 "visible" : true
                              }
                           },
                           {
                              "button3@common.button" : {
                                 "$control_alpha" : 1.0,
                                 "$default_texture" : "textures/ui/heart_background",
                                 "$hover_texture" : "textures/ui/heart_background",
                                 "$is_new_nine_slice" : false,
                                 "$label_color" : [ 1, 1, 1 ],
                                 "$label_font_scale_factor" : 1.0,
                                 "$label_font_size" : "large",
                                 "$label_layer" : 3,
                                 "$label_offset" : [ 0, 0 ],
                                 "$label_text" : "",
                                 "$nine_slice_buttom" : 0,
                                 "$nine_slice_left" : 0,
                                 "$nine_slice_right" : 0,
                                 "$nine_slice_top" : 0,
                                 "$nineslice_size" : [ 0, 0, 0, 0 ],
                                 "$pressed_button_name" : "%netease_editor_template_namespace.click",
                                 "$pressed_texture" : "textures/ui/heart_background",
                                 "$texture_layer" : 2,
                                 "alpha" : 1.0,
                                 "anchor_from" : "center",
                                 "anchor_to" : "center",
                                 "bindings" : [
                                    {
                                       "binding_collection_name" : "",
                                       "binding_condition" : "always_when_visible",
                                       "binding_type" : "collection_details"
                                    }
                                 ],
                                 "button_mappings" : [],
                                 "clip_offset" : [ 0, 0 ],
                                 "clips_children" : false,
                                 "controls" : [
                                    {
                                       "default@netease_editor_template_namespace.default" : {}
                                    },
                                    {
                                       "hover@netease_editor_template_namespace.hover" : {}
                                    },
                                    {
                                       "pressed@netease_editor_template_namespace.pressed" : {}
                                    },
                                    {
                                       "button_label@netease_editor_template_namespace.button_label" : {}
                                    }
                                 ],
                                 "default_control" : "default",
                                 "draggable" : "not_draggable",
                                 "enabled" : true,
                                 "hover_control" : "hover",
                                 "is_handle_button_move_event" : true,
                                 "layer" : 21,
                                 "max_size" : [ 0, 0 ],
                                 "min_size" : [ 0, 0 ],
                                 "offset" : [ "-31.0%+0.0px", "0.0%+0.0px" ],
                                 "pressed_control" : "pressed",
                                 "priority" : 0,
                                 "propagate_alpha" : false,
                                 "size" : [ 16, 16 ],
                                 "type" : "button",
                                 "visible" : true
                              }
                           },
                           {
                              "button4@common.button" : {
                                 "$control_alpha" : 1.0,
                                 "$default_texture" : "textures/ui/heart_background",
                                 "$hover_texture" : "textures/ui/heart_background",
                                 "$is_new_nine_slice" : false,
                                 "$label_color" : [ 1, 1, 1 ],
                                 "$label_font_scale_factor" : 1.0,
                                 "$label_font_size" : "large",
                                 "$label_layer" : 3,
                                 "$label_offset" : [ 0, 0 ],
                                 "$label_text" : "",
                                 "$nine_slice_buttom" : 0,
                                 "$nine_slice_left" : 0,
                                 "$nine_slice_right" : 0,
                                 "$nine_slice_top" : 0,
                                 "$nineslice_size" : [ 0, 0, 0, 0 ],
                                 "$pressed_button_name" : "%netease_editor_template_namespace.click",
                                 "$pressed_texture" : "textures/ui/heart_background",
                                 "$texture_layer" : 2,
                                 "alpha" : 1.0,
                                 "anchor_from" : "center",
                                 "anchor_to" : "center",
                                 "bindings" : [
                                    {
                                       "binding_collection_name" : "",
                                       "binding_condition" : "always_when_visible",
                                       "binding_type" : "collection_details"
                                    }
                                 ],
                                 "button_mappings" : [],
                                 "clip_offset" : [ 0, 0 ],
                                 "clips_children" : false,
                                 "controls" : [
                                    {
                                       "default@netease_editor_template_namespace.default" : {}
                                    },
                                    {
                                       "hover@netease_editor_template_namespace.hover" : {}
                                    },
                                    {
                                       "pressed@netease_editor_template_namespace.pressed" : {}
                                    },
                                    {
                                       "button_label@netease_editor_template_namespace.button_label" : {}
                                    }
                                 ],
                                 "default_control" : "default",
                                 "draggable" : "not_draggable",
                                 "enabled" : true,
                                 "hover_control" : "hover",
                                 "is_handle_button_move_event" : true,
                                 "layer" : 31,
                                 "max_size" : [ 0, 0 ],
                                 "min_size" : [ 0, 0 ],
                                 "offset" : [ "-24.0%+0.0px", "0.0%+0.0px" ],
                                 "pressed_control" : "pressed",
                                 "priority" : 0,
                                 "propagate_alpha" : false,
                                 "size" : [ 16, 16 ],
                                 "type" : "button",
                                 "visible" : true
                              }
                           },
                           {
                              "button5@common.button" : {
                                 "$control_alpha" : 1.0,
                                 "$default_texture" : "textures/ui/heart_background",
                                 "$hover_texture" : "textures/ui/heart_background",
                                 "$is_new_nine_slice" : false,
                                 "$label_color" : [ 1, 1, 1 ],
                                 "$label_font_scale_factor" : 1.0,
                                 "$label_font_size" : "large",
                                 "$label_layer" : 3,
                                 "$label_offset" : [ 0, 0 ],
                                 "$label_text" : "",
                                 "$nine_slice_buttom" : 0,
                                 "$nine_slice_left" : 0,
                                 "$nine_slice_right" : 0,
                                 "$nine_slice_top" : 0,
                                 "$nineslice_size" : [ 0, 0, 0, 0 ],
                                 "$pressed_button_name" : "%netease_editor_template_namespace.click",
                                 "$pressed_texture" : "textures/ui/heart_background",
                                 "$texture_layer" : 2,
                                 "alpha" : 1.0,
                                 "anchor_from" : "center",
                                 "anchor_to" : "center",
                                 "bindings" : [
                                    {
                                       "binding_collection_name" : "",
                                       "binding_condition" : "always_when_visible",
                                       "binding_type" : "collection_details"
                                    }
                                 ],
                                 "button_mappings" : [],
                                 "clip_offset" : [ 0, 0 ],
                                 "clips_children" : false,
                                 "controls" : [
                                    {
                                       "default@netease_editor_template_namespace.default" : {}
                                    },
                                    {
                                       "hover@netease_editor_template_namespace.hover" : {}
                                    },
                                    {
                                       "pressed@netease_editor_template_namespace.pressed" : {}
                                    },
                                    {
                                       "button_label@netease_editor_template_namespace.button_label" : {}
                                    }
                                 ],
                                 "default_control" : "default",
                                 "draggable" : "not_draggable",
                                 "enabled" : true,
                                 "hover_control" : "hover",
                                 "is_handle_button_move_event" : true,
                                 "layer" : 41,
                                 "max_size" : [ 0, 0 ],
                                 "min_size" : [ 0, 0 ],
                                 "offset" : [ "-17.0%+0.0px", "0.0%+0.0px" ],
                                 "pressed_control" : "pressed",
                                 "priority" : 0,
                                 "propagate_alpha" : false,
                                 "size" : [ 16, 16 ],
                                 "type" : "button",
                                 "visible" : true
                              }
                           },
                           {
                              "text_lb" : {
                                 "alpha" : 1.0,
                                 "anchor_from" : "center",
                                 "anchor_to" : "center",
                                 "clip_offset" : [ 0, 0 ],
                                 "clips_children" : false,
                                 "color" : [ 1.0, 1.0, 1.0 ],
                                 "enabled" : true,
                                 "font_scale_factor" : 1.0,
                                 "font_size" : "normal",
                                 "font_type" : "smooth",
                                 "layer" : 1,
                                 "line_padding" : 0,
                                 "max_size" : [ 0, 0 ],
                                 "min_size" : [ 0, 0 ],
                                 "offset" : [ 0, 0 ],
                                 "priority" : 0,
                                 "propagate_alpha" : false,
                                 "shadow" : false,
                                 "size" : [ "default", "default" ],
                                 "text" : "非常满意",
                                 "text_alignment" : "center",
                                 "type" : "label",
                                 "visible" : false
                              }
                           }
                        ],
                        "enabled" : true,
                        "layer" : 2,
                        "max_size" : [ 0, 0 ],
                        "min_size" : [ 0, 0 ],
                        "offset" : [ "5.0%+0.0px", "15.0%+0.0px" ],
                        "priority" : 0,
                        "propagate_alpha" : false,
                        "size" : [ "default", "66.0%+0.0px" ],
                        "type" : "panel",
                        "visible" : true
                     }
                  }
               ],
               "enabled" : true,
               "layer" : 2,
               "max_size" : [ 0, 0 ],
               "min_size" : [ 0, 0 ],
               "offset" : [ 0, 0 ],
               "priority" : 0,
               "propagate_alpha" : false,
               "size" : [ "default", 45 ],
               "type" : "panel",
               "visible" : true
            }
         }
      ],
      "enabled" : true,
      "layer" : 1,
      "max_size" : [ 0, 0 ],
      "min_size" : [ 0, 0 ],
      "offset" : [ 0, 0 ],
      "orientation" : "vertical",
      "priority" : 0,
      "propagate_alpha" : false,
      "size" : [ "default", "default" ],
      "type" : "stack_panel",
      "use_priority" : false,
      "visible" : true
   },
   "main" : {
      "absorbs_input" : true,
      "always_accepts_input" : false,
      "controls" : [
         {
            "main_bg" : {
               "alpha" : 1.0,
               "anchor_from" : "center",
               "anchor_to" : "center",
               "clip_direction" : "left",
               "clip_offset" : [ 0, 0 ],
               "clip_ratio" : 0.0,
               "clips_children" : false,
               "color" : [ 1.0, 1.0, 1.0 ],
               "controls" : [
                  {
                     "main_panel" : {
                        "alpha" : 1.0,
                        "anchor_from" : "center",
                        "anchor_to" : "center",
                        "clip_offset" : [ 0, 0 ],
                        "clips_children" : false,
                        "controls" : [
                           {
                              "top_panel" : {
                                 "alpha" : 1.0,
                                 "anchor_from" : "center",
                                 "anchor_to" : "center",
                                 "clip_offset" : [ 0, 0 ],
                                 "clips_children" : false,
                                 "controls" : [
                                    {
                                       "title_lb" : {
                                          "alpha" : 1.0,
                                          "anchor_from" : "center",
                                          "anchor_to" : "center",
                                          "clip_offset" : [ 0, 0 ],
                                          "clips_children" : false,
                                          "color" : [ 0.2588235294117647, 0.2588235294117647, 0.2588235294117647 ],
                                          "enabled" : true,
                                          "font_scale_factor" : 1.50,
                                          "font_size" : "normal",
                                          "font_type" : "smooth",
                                          "layer" : 1,
                                          "line_padding" : 0,
                                          "max_size" : [ 0, 0 ],
                                          "min_size" : [ 0, 0 ],
                                          "offset" : [ 0, 0 ],
                                          "priority" : 0,
                                          "propagate_alpha" : false,
                                          "shadow" : false,
                                          "size" : [ "default", "default" ],
                                          "text" : "体验调研",
                                          "text_alignment" : "center",
                                          "type" : "label",
                                          "visible" : true
                                       }
                                    },
                                    {
                                       "close_btn@common.button" : {
                                          "$control_alpha" : 1.0,
                                          "$default_texture" : "textures/ui/close_button_default",
                                          "$hover_texture" : "textures/ui/close_button_hover",
                                          "$is_new_nine_slice" : false,
                                          "$label_color" : [ 1, 1, 1 ],
                                          "$label_font_scale_factor" : 1.0,
                                          "$label_font_size" : "large",
                                          "$label_layer" : 3,
                                          "$label_offset" : [ 0, 0 ],
                                          "$label_text" : "",
                                          "$nine_slice_buttom" : 0,
                                          "$nine_slice_left" : 0,
                                          "$nine_slice_right" : 0,
                                          "$nine_slice_top" : 0,
                                          "$nineslice_size" : [ 0, 0, 0, 0 ],
                                          "$pressed_button_name" : "%netease_editor_template_namespace.click",
                                          "$pressed_texture" : "textures/ui/close_button_pressed",
                                          "$texture_layer" : 2,
                                          "alpha" : 1.0,
                                          "anchor_from" : "top_right",
                                          "anchor_to" : "top_right",
                                          "bindings" : [
                                             {
                                                "binding_collection_name" : "",
                                                "binding_condition" : "always_when_visible",
                                                "binding_type" : "collection_details"
                                             }
                                          ],
                                          "button_mappings" : [],
                                          "clip_offset" : [ 0, 0 ],
                                          "clips_children" : false,
                                          "controls" : [
                                             {
                                                "default@netease_editor_template_namespace.default" : {}
                                             },
                                             {
                                                "hover@netease_editor_template_namespace.hover" : {}
                                             },
                                             {
                                                "pressed@netease_editor_template_namespace.pressed" : {}
                                             },
                                             {
                                                "button_label@netease_editor_template_namespace.button_label" : {}
                                             }
                                          ],
                                          "default_control" : "default",
                                          "draggable" : "not_draggable",
                                          "enabled" : true,
                                          "hover_control" : "hover",
                                          "is_handle_button_move_event" : true,
                                          "layer" : 2,
                                          "max_size" : [ 0, 0 ],
                                          "min_size" : [ 0, 0 ],
                                          "offset" : [ "-2.0%+0.0px", "10.0%+0.0px" ],
                                          "pressed_control" : "pressed",
                                          "priority" : 0,
                                          "propagate_alpha" : false,
                                          "size" : [ 25, 25 ],
                                          "type" : "button",
                                          "visible" : true
                                       }
                                    }
                                 ],
                                 "enabled" : true,
                                 "layer" : 1,
                                 "max_size" : [ 0, 0 ],
                                 "min_size" : [ 0, 0 ],
                                 "offset" : [ 0, 0 ],
                                 "priority" : 0,
                                 "propagate_alpha" : false,
                                 "size" : [ "default", 30 ],
                                 "type" : "panel",
                                 "visible" : true
                              }
                           },
                           {
                              "mid_panel" : {
                                 "alpha" : 1.0,
                                 "anchor_from" : "center",
                                 "anchor_to" : "center",
                                 "clip_offset" : [ 0, 0 ],
                                 "clips_children" : false,
                                 "controls" : [
                                    {
                                       "scroll_view@common.scrolling_panel" : {
                                          "$background_nine_slice_buttom" : 0,
                                          "$background_nine_slice_left" : 0,
                                          "$background_nine_slice_right" : 0,
                                          "$background_nine_slice_top" : 0,
                                          "$background_nineslice_size" : [ 0, 0, 0, 0 ],
                                          "$box_nine_slice_buttom" : 0,
                                          "$box_nine_slice_left" : 0,
                                          "$box_nine_slice_right" : 0,
                                          "$box_nine_slice_top" : 0,
                                          "$box_nineslice_size" : [ 0, 0, 0, 0 ],
                                          "$is_background_nine_slice" : false,
                                          "$is_box_nine_slice" : false,
                                          "$is_track_nine_slice" : false,
                                          "$scroll_background_image_control" : "netease_editor_template_namespace.scroll_background_image",
                                          "$scroll_background_texture" : "textures/ui/ScrollRail",
                                          "$scroll_box_mouse_image_control" : "netease_editor_template_namespace.scroll_box_image",
                                          "$scroll_box_texture" : "textures/ui/newTouchScrollBox",
                                          "$scroll_box_touch_image_control" : "netease_editor_template_namespace.scroll_box_image",
                                          "$scroll_track_image_control" : "netease_editor_template_namespace.scroll_track_image",
                                          "$scroll_track_texture" : "textures/ui/ScrollRail",
                                          "$scrolling_content" : "researchUI.item_panel",
                                          "$show_background" : true,
                                          "$track_nine_slice_buttom" : 0,
                                          "$track_nine_slice_left" : 0,
                                          "$track_nine_slice_right" : 0,
                                          "$track_nine_slice_top" : 0,
                                          "$track_nineslice_size" : [ 0, 0, 0, 0 ],
                                          "alpha" : 1.0,
                                          "anchor_from" : "center",
                                          "anchor_to" : "center",
                                          "clip_offset" : [ 0, 0 ],
                                          "clips_children" : false,
                                          "enabled" : true,
                                          "layer" : 1,
                                          "max_size" : [ 0, 0 ],
                                          "min_size" : [ 0, 0 ],
                                          "offset" : [ 0, 0 ],
                                          "priority" : 0,
                                          "propagate_alpha" : true,
                                          "size" : [ "96.0%+0.0px", "default" ],
                                          "visible" : true
                                       }
                                    }
                                 ],
                                 "enabled" : true,
                                 "layer" : 13,
                                 "max_size" : [ 0, 0 ],
                                 "min_size" : [ 0, 0 ],
                                 "offset" : [ 0, 0 ],
                                 "priority" : 0,
                                 "propagate_alpha" : false,
                                 "size" : [ "default", "70.0%+0.0px" ],
                                 "type" : "panel",
                                 "visible" : true
                              }
                           },
                           {
                              "bottom_panel" : {
                                 "alpha" : 1.0,
                                 "anchor_from" : "center",
                                 "anchor_to" : "center",
                                 "clip_offset" : [ 0, 0 ],
                                 "clips_children" : false,
                                 "controls" : [
                                    {
                                       "award_panel" : {
                                          "alpha" : 1.0,
                                          "anchor_from" : "center",
                                          "anchor_to" : "center",
                                          "clip_offset" : [ 0, 0 ],
                                          "clips_children" : false,
                                          "controls" : [
                                             {
                                                "label" : {
                                                   "alpha" : 1.0,
                                                   "anchor_from" : "center",
                                                   "anchor_to" : "center",
                                                   "clip_offset" : [ 0, 0 ],
                                                   "clips_children" : false,
                                                   "color" : [ 0.0, 0.0, 0.0 ],
                                                   "enabled" : true,
                                                   "font_scale_factor" : 0.7999999999999999,
                                                   "font_size" : "large",
                                                   "font_type" : "smooth",
                                                   "layer" : 1,
                                                   "line_padding" : 0,
                                                   "max_size" : [ 0, 0 ],
                                                   "min_size" : [ 0, 0 ],
                                                   "offset" : [ "-30.0%+0.0px", "0.0%+0.0px" ],
                                                   "priority" : 0,
                                                   "propagate_alpha" : false,
                                                   "shadow" : false,
                                                   "size" : [ "default", "default" ],
                                                   "text" : "奖励：",
                                                   "text_alignment" : "center",
                                                   "type" : "label",
                                                   "visible" : true
                                                }
                                             }
                                          ],
                                          "enabled" : true,
                                          "layer" : 1,
                                          "max_size" : [ 0, 0 ],
                                          "min_size" : [ 0, 0 ],
                                          "offset" : [ "-33.0%+0.0px", "10.0%+0.0px" ],
                                          "priority" : 0,
                                          "propagate_alpha" : false,
                                          "size" : [ "30.0%+0.0px", "85.0%+0.0px" ],
                                          "type" : "panel",
                                          "visible" : false
                                       }
                                    },
                                    {
                                       "commit_button@common.button" : {
                                          "$control_alpha" : 1.0,
                                          "$default_texture" : "textures/netease/common/button/default",
                                          "$hover_texture" : "textures/netease/common/button/hover",
                                          "$is_new_nine_slice" : true,
                                          "$label_color" : [ 0.2588235294117647, 0.2588235294117647, 0.2588235294117647 ],
                                          "$label_font_scale_factor" : 0.80,
                                          "$label_font_size" : "large",
                                          "$label_layer" : 3,
                                          "$label_offset" : [ 0, 0 ],
                                          "$label_text" : "提交",
                                          "$nine_slice_buttom" : 0.0,
                                          "$nine_slice_left" : 20.0,
                                          "$nine_slice_right" : 20.0,
                                          "$nine_slice_top" : 0.0,
                                          "$nineslice_size" : [ 0.0, 0.0, 0.0, 0.0 ],
                                          "$pressed_button_name" : "%netease_editor_template_namespace.click",
                                          "$pressed_texture" : "textures/netease/common/button/pressed",
                                          "$texture_layer" : 2,
                                          "alpha" : 1.0,
                                          "anchor_from" : "center",
                                          "anchor_to" : "center",
                                          "bindings" : [
                                             {
                                                "binding_collection_name" : "",
                                                "binding_condition" : "always_when_visible",
                                                "binding_type" : "collection_details"
                                             }
                                          ],
                                          "button_mappings" : [],
                                          "clip_offset" : [ 0, 0 ],
                                          "clips_children" : false,
                                          "controls" : [
                                             {
                                                "default@researchUI.default" : {
                                                   "is_new_nine_slice" : true,
                                                   "nine_slice_buttom" : 1,
                                                   "nine_slice_left" : 20,
                                                   "nine_slice_right" : 20,
                                                   "nine_slice_top" : 1
                                                }
                                             },
                                             {
                                                "hover@researchUI.hover" : {
                                                   "is_new_nine_slice" : true,
                                                   "nine_slice_bottom" : 0,
                                                   "nine_slice_left" : 20,
                                                   "nine_slice_right" : 20,
                                                   "nine_slice_top" : 0
                                                }
                                             },
                                             {
                                                "pressed@researchUI.pressed" : {
                                                   "is_new_nine_slice" : true,
                                                   "nine_slice_bottom" : 0,
                                                   "nine_slice_left" : 20,
                                                   "nine_slice_right" : 20,
                                                   "nine_slice_top" : 0
                                                }
                                             },
                                             {
                                                "button_label@researchUI.button_label" : {}
                                             }
                                          ],
                                          "default_control" : "default",
                                          "draggable" : "not_draggable",
                                          "enabled" : true,
                                          "hover_control" : "hover",
                                          "is_handle_button_move_event" : true,
                                          "layer" : 3,
                                          "max_size" : [ 0, 0 ],
                                          "min_size" : [ 0, 0 ],
                                          "offset" : [ "0.0%+0.0px", "0.0%+0.0px" ],
                                          "pressed_control" : "pressed",
                                          "priority" : 0,
                                          "propagate_alpha" : false,
                                          "size" : [ "95.0%+0.0px", "70.0%+0.0px" ],
                                          "type" : "button",
                                          "visible" : true
                                       }
                                    }
                                 ],
                                 "enabled" : true,
                                 "layer" : 187,
                                 "max_size" : [ 0, 0 ],
                                 "min_size" : [ 0, 0 ],
                                 "offset" : [ 0, 0 ],
                                 "priority" : 0,
                                 "propagate_alpha" : false,
                                 "size" : [ "default", "18.0%+0.0px" ],
                                 "type" : "panel",
                                 "visible" : true
                              }
                           }
                        ],
                        "enabled" : true,
                        "layer" : 1,
                        "max_size" : [ 0, 0 ],
                        "min_size" : [ 0, 0 ],
                        "offset" : [ 0, 0 ],
                        "orientation" : "vertical",
                        "priority" : 0,
                        "propagate_alpha" : false,
                        "size" : [ "100.0%+0.0px", "100.0%+0.0px" ],
                        "type" : "stack_panel",
                        "use_priority" : false,
                        "visible" : true
                     }
                  }
               ],
               "enabled" : true,
               "fill" : false,
               "grayscale" : false,
               "is_new_nine_slice" : false,
               "keep_ratio" : false,
               "layer" : 1,
               "max_size" : [ 0, 0 ],
               "min_size" : [ 0, 0 ],
               "nine_slice_bottom" : 10,
               "nine_slice_buttom" : 0,
               "nine_slice_left" : 10,
               "nine_slice_right" : 10,
               "nine_slice_top" : 10,
               "nineslice_size" : [ 4.0, 4.0, 4.0, 4.0 ],
               "offset" : [ 0, 0 ],
               "priority" : 0,
               "propagate_alpha" : false,
               "size" : [ "125.0%y+0.0px", "90.0%+0.0px" ],
               "texture" : "textures/ui/background_panel",
               "type" : "image",
               "uv" : [ 0, 0 ],
               "uv_size" : [ 0, 0 ],
               "visible" : true
            }
         }
      ],
      "force_render_below" : false,
      "is_showing_menu" : true,
      "render_game_behind" : true,
      "render_only_when_topmost" : true,
      "should_steal_mouse" : false,
      "type" : "screen"
   },
   "namespace" : "researchUI",
   "new_screen" : {
      "absorbs_input" : true,
      "always_accepts_input" : false,
      "controls" : [
         {
            "item_panel@researchUI.item_panel" : {}
         }
      ],
      "force_render_below" : false,
      "is_showing_menu" : true,
      "render_game_behind" : true,
      "render_only_when_topmost" : true,
      "should_steal_mouse" : false,
      "type" : "screen"
   },
   "pressed" : {
      "alpha" : "$control_alpha",
      "is_new_nine_slice" : "$is_new_nine_slice",
      "layer" : "$texture_layer",
      "nine_slice_buttom" : "$nine_slice_buttom",
      "nine_slice_left" : "$nine_slice_left",
      "nine_slice_right" : "$nine_slice_right",
      "nine_slice_top" : "$nine_slice_top",
      "nineslice_size" : "$nineslice_size",
      "texture" : "$pressed_texture",
      "type" : "image"
   }
}
