{"frames": [

{
	"filename": "cs_zhuge_zadi_yanchentutu_00000.png",
	"frame": {"x":0,"y":0,"w":256,"h":128},
	"rotated": false,
	"trimmed": false,
	"spriteSourceSize": {"x":0,"y":0,"w":256,"h":128},
	"sourceSize": {"w":256,"h":128}
},
{
	"filename": "cs_zhuge_zadi_yanchentutu_00001.png",
	"frame": {"x":256,"y":0,"w":256,"h":128},
	"rotated": false,
	"trimmed": false,
	"spriteSourceSize": {"x":0,"y":0,"w":256,"h":128},
	"sourceSize": {"w":256,"h":128}
},
{
	"filename": "cs_zhuge_zadi_yanchentutu_00002.png",
	"frame": {"x":0,"y":128,"w":256,"h":128},
	"rotated": false,
	"trimmed": false,
	"spriteSourceSize": {"x":0,"y":0,"w":256,"h":128},
	"sourceSize": {"w":256,"h":128}
},
{
	"filename": "cs_zhuge_zadi_yanchentutu_00003.png",
	"frame": {"x":256,"y":128,"w":256,"h":128},
	"rotated": false,
	"trimmed": false,
	"spriteSourceSize": {"x":0,"y":0,"w":256,"h":128},
	"sourceSize": {"w":256,"h":128}
},
{
	"filename": "cs_zhuge_zadi_yanchentutu_00004.png",
	"frame": {"x":0,"y":256,"w":256,"h":128},
	"rotated": false,
	"trimmed": false,
	"spriteSourceSize": {"x":0,"y":0,"w":256,"h":128},
	"sourceSize": {"w":256,"h":128}
},
{
	"filename": "cs_zhuge_zadi_yanchentutu_00005.png",
	"frame": {"x":256,"y":256,"w":256,"h":128},
	"rotated": false,
	"trimmed": false,
	"spriteSourceSize": {"x":0,"y":0,"w":256,"h":128},
	"sourceSize": {"w":256,"h":128}
},
{
	"filename": "cs_zhuge_zadi_yanchentutu_00006.png",
	"frame": {"x":0,"y":384,"w":256,"h":128},
	"rotated": false,
	"trimmed": false,
	"spriteSourceSize": {"x":0,"y":0,"w":256,"h":128},
	"sourceSize": {"w":256,"h":128}
},
{
	"filename": "cs_zhuge_zadi_yanchentutu_00007.png",
	"frame": {"x":256,"y":384,"w":256,"h":128},
	"rotated": false,
	"trimmed": false,
	"spriteSourceSize": {"x":0,"y":0,"w":256,"h":128},
	"sourceSize": {"w":256,"h":128}
}],
"meta": {
	"app": "https://www.codeandweb.com/texturepacker",
	"version": "1.0",
	"image": "cs_zhuge_zadi_yanchentutu.png",
	"format": "RGBA8888",
	"size": {"w":512,"h":512},
	"scale": "1",
	"smartupdate": "$TexturePacker:SmartUpdate:22557b48c0794d23a02c6d2fe17ccb00:e3838990b7a610b165d8693c0083c9bf:9c067d2ed89c00deda77e418d8f69edc$"
}
}
