{
    "frames": [
        {
            "filename": "ss_mhfox_guofeng_glow1_00001.png",
            "frame": {
                "h": 32,
                "w": 32,
                "x": 0,
                "y": 0
            },
            "rotated": false,
            "scale": {
                "x": 0.0,
                "y": 0.0,
                "z": 0.0
            },
            "sourceSize": {
                "h": 32,
                "w": 32
            },
            "spriteSourceSize": {
                "h": 32,
                "w": 32,
                "x": 0,
                "y": 0
            },
            "trimmed": false
        },
        {
            "filename": "ss_mhfox_guofeng_glow1_00002.png",
            "frame": {
                "h": 32,
                "w": 32,
                "x": 32,
                "y": 0
            },
            "rotated": false,
            "scale": {
                "x": 0.2500000000000002,
                "y": 0.2500000000000002,
                "z": 0.2500000000000002
            },
            "sourceSize": {
                "h": 32,
                "w": 32
            },
            "spriteSourceSize": {
                "h": 32,
                "w": 32,
                "x": 0,
                "y": 0
            },
            "trimmed": false
        },
        {
            "filename": "ss_mhfox_guofeng_glow1_00003.png",
            "frame": {
                "h": 32,
                "w": 32,
                "x": 64,
                "y": 0
            },
            "rotated": false,
            "scale": {
                "x": 0.4999999999999999,
                "y": 0.4999999999999999,
                "z": 0.4999999999999999
            },
            "sourceSize": {
                "h": 32,
                "w": 32
            },
            "spriteSourceSize": {
                "h": 32,
                "w": 32,
                "x": 0,
                "y": 0
            },
            "trimmed": false
        },
        {
            "filename": "ss_mhfox_guofeng_glow1_00004.png",
            "frame": {
                "h": 32,
                "w": 32,
                "x": 96,
                "y": 0
            },
            "rotated": false,
            "scale": {
                "x": 0.65,
                "y": 0.65,
                "z": 0.65
            },
            "sourceSize": {
                "h": 32,
                "w": 32
            },
            "spriteSourceSize": {
                "h": 32,
                "w": 32,
                "x": 0,
                "y": 0
            },
            "trimmed": false
        },
        {
            "filename": "ss_mhfox_guofeng_glow1_00005.png",
            "frame": {
                "h": 32,
                "w": 32,
                "x": 128,
                "y": 0
            },
            "rotated": false,
            "scale": {
                "x": 0.8500000000000002,
                "y": 0.8500000000000002,
                "z": 0.8500000000000002
            },
            "sourceSize": {
                "h": 32,
                "w": 32
            },
            "spriteSourceSize": {
                "h": 32,
                "w": 32,
                "x": 0,
                "y": 0
            },
            "trimmed": false
        },
        {
            "filename": "ss_mhfox_guofeng_glow1_00006.png",
            "frame": {
                "h": 32,
                "w": 32,
                "x": 160,
                "y": 0
            },
            "rotated": false,
            "scale": {
                "x": 1.0999999999999999,
                "y": 1.0999999999999999,
                "z": 1.0999999999999999
            },
            "sourceSize": {
                "h": 32,
                "w": 32
            },
            "spriteSourceSize": {
                "h": 32,
                "w": 32,
                "x": 0,
                "y": 0
            },
            "trimmed": false
        },
        {
            "filename": "ss_mhfox_guofeng_glow1_00007.png",
            "frame": {
                "h": 32,
                "w": 32,
                "x": 192,
                "y": 0
            },
            "rotated": false,
            "scale": {
                "x": 1.5,
                "y": 1.5,
                "z": 1.5
            },
            "sourceSize": {
                "h": 32,
                "w": 32
            },
            "spriteSourceSize": {
                "h": 32,
                "w": 32,
                "x": 0,
                "y": 0
            },
            "trimmed": false
        },
        {
            "filename": "ss_mhfox_guofeng_glow1_00008.png",
            "frame": {
                "h": 32,
                "w": 32,
                "x": 224,
                "y": 0
            },
            "rotated": false,
            "scale": {
                "x": 1.6,
                "y": 1.6,
                "z": 1.6
            },
            "sourceSize": {
                "h": 32,
                "w": 32
            },
            "spriteSourceSize": {
                "h": 32,
                "w": 32,
                "x": 0,
                "y": 0
            },
            "trimmed": false
        },
        {
            "filename": "ss_mhfox_guofeng_glow1_00009.png",
            "frame": {
                "h": 32,
                "w": 32,
                "x": 256,
                "y": 0
            },
            "rotated": false,
            "scale": {
                "x": 1.6999999999999997,
                "y": 1.6999999999999997,
                "z": 1.6999999999999997
            },
            "sourceSize": {
                "h": 32,
                "w": 32
            },
            "spriteSourceSize": {
                "h": 32,
                "w": 32,
                "x": 0,
                "y": 0
            },
            "trimmed": false
        },
        {
            "filename": "ss_mhfox_guofeng_glow1_00010.png",
            "frame": {
                "h": 32,
                "w": 32,
                "x": 288,
                "y": 0
            },
            "rotated": false,
            "scale": {
                "x": 1.7999999999999998,
                "y": 1.7999999999999998,
                "z": 1.7999999999999998
            },
            "sourceSize": {
                "h": 32,
                "w": 32
            },
            "spriteSourceSize": {
                "h": 32,
                "w": 32,
                "x": 0,
                "y": 0
            },
            "trimmed": false
        },
        {
            "filename": "ss_mhfox_guofeng_glow1_00011.png",
            "frame": {
                "h": 32,
                "w": 32,
                "x": 320,
                "y": 0
            },
            "rotated": false,
            "scale": {
                "x": 1.9,
                "y": 1.9,
                "z": 1.9
            },
            "sourceSize": {
                "h": 32,
                "w": 32
            },
            "spriteSourceSize": {
                "h": 32,
                "w": 32,
                "x": 0,
                "y": 0
            },
            "trimmed": false
        },
        {
            "filename": "ss_mhfox_guofeng_glow1_00012.png",
            "frame": {
                "h": 32,
                "w": 32,
                "x": 352,
                "y": 0
            },
            "rotated": false,
            "scale": {
                "x": 2.1,
                "y": 2.1,
                "z": 2.1
            },
            "sourceSize": {
                "h": 32,
                "w": 32
            },
            "spriteSourceSize": {
                "h": 32,
                "w": 32,
                "x": 0,
                "y": 0
            },
            "trimmed": false
        },
        {
            "filename": "ss_mhfox_guofeng_glow1_00013.png",
            "frame": {
                "h": 32,
                "w": 32,
                "x": 384,
                "y": 0
            },
            "rotated": false,
            "scale": {
                "x": 2.2,
                "y": 2.2,
                "z": 2.2
            },
            "sourceSize": {
                "h": 32,
                "w": 32
            },
            "spriteSourceSize": {
                "h": 32,
                "w": 32,
                "x": 0,
                "y": 0
            },
            "trimmed": false
        },
        {
            "filename": "ss_mhfox_guofeng_glow1_00014.png",
            "frame": {
                "h": 32,
                "w": 32,
                "x": 416,
                "y": 0
            },
            "rotated": false,
            "scale": {
                "x": 2.3,
                "y": 2.3,
                "z": 2.3
            },
            "sourceSize": {
                "h": 32,
                "w": 32
            },
            "spriteSourceSize": {
                "h": 32,
                "w": 32,
                "x": 0,
                "y": 0
            },
            "trimmed": false
        },
        {
            "filename": "ss_mhfox_guofeng_glow1_00015.png",
            "frame": {
                "h": 32,
                "w": 32,
                "x": 448,
                "y": 0
            },
            "rotated": false,
            "scale": {
                "x": 2.4,
                "y": 2.4,
                "z": 2.4
            },
            "sourceSize": {
                "h": 32,
                "w": 32
            },
            "spriteSourceSize": {
                "h": 32,
                "w": 32,
                "x": 0,
                "y": 0
            },
            "trimmed": false
        }
    ],
    "meta": {
        "app": "https://www.codeandweb.com/texturepacker",
        "format": "RGBA8888",
        "image": "cs_zhuge_skin_bianshen_glow03.png",
        "scale": "1",
        "size": {
            "h": 32,
            "w": 480
        },
        "smartupdate": "$TexturePacker:SmartUpdate:fe4460ec06ae6ba7b30bf7502691cba7:be07c5b5b42af0e2c1c018b287c37339:e0f982cdd9f85e4b9c5cf0dc817ab3fd$",
        "version": "1.0"
    }
}