{
    "frames": [
        {
            "filename": "ss_astral_skin_gy_00000.png",
            "frame": {
                "h": 32,
                "w": 32,
                "x": 0,
                "y": 0
            },
            "rotated": false,
            "scale": {
                "x": 1.0,
                "y": 1.0,
                "z": 1.0
            },
            "sourceSize": {
                "h": 32,
                "w": 32
            },
            "spriteSourceSize": {
                "h": 32,
                "w": 32,
                "x": 0,
                "y": 0
            },
            "trimmed": false
        },
        {
            "filename": "ss_astral_skin_gy_00001.png",
            "frame": {
                "h": 32,
                "w": 32,
                "x": 0,
                "y": 32
            },
            "rotated": false,
            "scale": {
                "x": 1.0,
                "y": 1.0,
                "z": 1.0
            },
            "sourceSize": {
                "h": 32,
                "w": 32
            },
            "spriteSourceSize": {
                "h": 32,
                "w": 32,
                "x": 0,
                "y": 0
            },
            "trimmed": false
        }
    ],
    "meta": {
        "app": "http://www.texturepacker.com",
        "format": "RGBA8888",
        "image": "ss_astral_skin_guangyun.png",
        "scale": "1",
        "size": {
            "h": 64,
            "w": 32
        },
        "smartupdate": "$TexturePacker:SmartUpdate:43a0c47a4ff3f4830eec831304aa7efc$",
        "version": "1.0"
    }
}