{
    "particleeffect": {
        "activetime": {
            "value": "1.5"
        },
        "blend": {
            "name": "add"
        },
        "colorfade": [
            {
                "color": "0.0000 0.7843 1.0000 0.0000",
                "time": "0.00"
            },
            {
                "color": "0.0000 0.6157 1.0000 1.0000",
                "time": "0.19"
            },
            {
                "color": "0.0078 0.1882 1.0000 0.7768",
                "time": "0.94"
            },
            {
                "color": "0.4549 0.1804 1.0000 0.5625",
                "time": "1.43"
            },
            {
                "color": "0.5725 0.2000 1.0000 0.8125",
                "time": "1.79"
            },
            {
                "color": "0.7765 0.2549 1.0000 1.0000",
                "time": "2.00"
            }
        ],
        "delay": 0.7,
        "depthtest": {
            "enable": "true"
        },
        "direction": {
            "max": "0.5 0.0 0.5",
            "min": "-0.5 -1.0 -0.5",
            "value": "Direction"
        },
        "emissionrate": {
            "max": "50.0",
            "min": "30.0"
        },
        "emitterScaleCurve": [

        ],
        "emitterpath": [
            {
                "offset": "0.0 -5.0 0.0",
                "time": "0%"
            },
            {
                "offset": "0.0 -0.9 0.0",
                "time": "40%"
            },
            {
                "offset": "0.0 -0.1 0.0",
                "time": "70%"
            },
            {
                "offset": "0.0 0.0 0.0",
                "time": "100%"
            }
        ],
        "emitterscale": [

        ],
        "emittersize": {
            "value": "0.0 0.0 0.0"
        },
        "emittertype": {
            "value": "Sphere"
        },
        "faceCameraMode": {
            "value": "Direction"
        },
        "inactivetime": {
            "value": "2.7"
        },
        "numparticles": {
            "value": "150"
        },
        "particlesize": {
            "max": "0.1 0.1",
            "min": "0.06 0.06"
        },
        "relative": {
            "enable": "true"
        },
        "sizedelta": [
            {
                "scale": "1.0 1.0",
                "time": "0.00"
            },
            {
                "scale": "0.3 0.3",
                "time": "1.01"
            },
            {
                "scale": "0.0 0.0",
                "time": "1.96"
            }
        ],
        "texture": {
            "name": "textures/sfxs/fangkuai"
        },
        "thickness": {
            "value": "0.0"
        },
        "timetolive": {
            "max": "2.0",
            "min": "2.0"
        },
        "velocity": {
            "max": "0.1",
            "min": "0.0"
        }
    }
}