{
    "format_version": "1.10.0",
    "particle_effect": {
        "components": {
            "minecraft:emitter_initialization": {
                "creation_expression": "v.fps = 16;v.tex_width = 4;v.tex_height = 4;v.clip_size = 0.60;"
            },
            "minecraft:emitter_lifetime_once": {
                "active_time": 1
            },
            "minecraft:emitter_local_space": {
                "position": true,
                "rotation": true
            },
            "minecraft:emitter_rate_steady": {
                "max_particles": 1,
                "spawn_rate": 10000
            },
            "minecraft:emitter_shape_point": {
                "offset": [
                    0,
                    0,
                    0
                ]
            },
            "minecraft:particle_appearance_billboard": {
                "facing_camera_mode": "emitter_transform_xz",
                "size": [
                    "v.clip_size",
                    "v.clip_size"
                ],
                "uv": {
                    "texture_height": 4,
                    "texture_width": 4,
                    "uv": [
                        "math.mod(math.floor(variable.particle_age * v.fps), v.tex_width)",
                        "math.mod(math.floor(math.floor(variable.particle_age * v.fps) / v.tex_width), v.tex_height)"
                    ],
                    "uv_size": [
                        1,
                        1
                    ]
                }
            },
            "minecraft:particle_initial_speed": 0,
            "minecraft:particle_initialization": {

            },
            "minecraft:particle_lifetime_expression": {

            },
            "minecraft:particle_motion_dynamic": {

            }
        },
        "description": {
            "basic_render_parameters": {
                "material": "common_particle_blend_texture",
                "texture": "textures/particle/2023s2/yx_fantacy_fz_alpha"
            },
            "identifier": "yx_fantacy_fz_alpha"
        }
    }
}