{
    "particleeffect": {
        "blend": {
            "name": "add"
        },
        "colorfade": [
            {
                "color": "1.0000 0.3333 1.0000 0.5882",
                "time": "0.00"
            },
            {
                "color": "1.0000 0.3333 1.0000 0.7843",
                "time": "0.50"
            },
            {
                "color": "1.0000 0.6667 1.0000 0.5882",
                "time": "1.00"
            }
        ],
        "depthtest": {
            "enable": "true"
        },
        "direction": {
            "max": "0.0 1.0 0.0",
            "min": "0.0 0.0 0.0",
            "value": "Direction"
        },
        "emitterScaleCurve": [

        ],
        "emitterscale": [

        ],
        "emittersize": {
            "value": "0.0 0.5 0.0"
        },
        "emittertype": {
            "value": "Sphere"
        },
        "independent": false,
        "particlesize": {
            "max": "0.15 0.15",
            "min": "0.1 0.1"
        },
        "relative": {
            "enable": "true"
        },
        "sizedelta": [
            {
                "scale": "1.0 1.0",
                "time": "0.0%"
            }
        ],
        "texture": {
            "ani": {
                "fps": "15",
                "name": "textures/particle/2020s2/2020s2_cs_gong_touglow",
                "shuffle": false
            },
            "name": "textures/particle/2020s2/2020s2_cs_gong_touglow"
        },
        "thickness": {
            "value": "0.0"
        },
        "velocity": {
            "max": "0.0",
            "min": "0.0"
        }
    }
}