{
  "particleeffect": {
    "activetime": {
      "value": "0.0"
    },
    "animlodbias": {
      "value": "0.0"
    },
    "blend": {
      "name": "add"
    },
    "colorfade": [
      {
        "color": "1.0 0.866667 0.32549 1.0",
        "time": "0.0"
      },
      {
        "color": "1.0 0.945098 0.529412 1.0",
        "time": "0.4"
      },
      {
        "color": "1.0 0.101961 0.101961 1.0",
        "time": "0.8"
      }
    ],
    "constantforce": {
      "value": "0.0 0.0 0.0"
    },
    "dampingforce": {
      "value": "15.0"
    },
    "direction": {
      "max": "0.0 0.0 1.0",
      "min": "0.0 0.0 0.0"
    },
    "emissionrate": {
      "max": "10.0",
      "min": "10.0"
    },
    "emittersize": {
      "value": "1.0 0.3 0.0"
    },
    "emittertype": {
      "value": "Sphere"
    },
    "enablecolor": {
      "enable": "true"
    },
    "enableloop": {
      "enable": "true"
    },
    "faceCameraMode": {
      "value": "Rotate XYZ"
    },
    "fixedscreensize": {
      "enable": "false"
    },
    "inactivetime": {
      "value": "0.0"
    },
    "material": {
      "name": "materials/particles.material"
    },
    "numparticles": {
      "value": "5"
    },
    "particlesize": {
      "max": "0.15 0.15",
      "min": "0.1 0.1"
    },
    "relative": {
      "enable": "false"
    },
    "rotation": {
      "max": "360.0",
      "min": "0.0"
    },
    "rotationspeed": {
      "max": "50.0",
      "min": "0.0"
    },
    "scaled": {
      "enable": "true"
    },
    "sizedelta": {
      "add": "0.5",
      "mul": "0.3"
    },
    "sorted": {
      "enable": "false"
    },
    "texture": {
      "ani": {
        "fps": "30.0",
        "name": "textures/particle/2020s2/spear_unmber_lizi"
      },
      "name": "textures/particle/2020s2/spear_unmber_lizi"
    },
    "timetolive": {
      "max": "0.8",
      "min": "0.5"
    },
    "velocity": {
      "max": "0.0",
      "min": "0.0"
    }
  }
}