{
  "frames": [
    {
      "filename": "5752fc62e7d04ab30fa7916b90a5496d[1]_00000.png",
      "frame": {
        "h": 64,
        "w": 64,
        "x": 2,
        "y": 200
      },
      "rotated": false,
      "scale": {
        "x": 1.0,
        "y": 1.0,
        "z": 1.0
      },
      "sourceSize": {
        "h": 64,
        "w": 64
      },
      "spriteSourceSize": {
        "h": 64,
        "w": 64,
        "x": 0,
        "y": 0
      },
      "trimmed": false
    },
    {
      "filename": "5752fc62e7d04ab30fa7916b90a5496d[1]_00001.png",
      "frame": {
        "h": 64,
        "w": 64,
        "x": 134,
        "y": 134
      },
      "rotated": false,
      "scale": {
        "x": 1.0,
        "y": 1.0,
        "z": 1.0
      },
      "sourceSize": {
        "h": 64,
        "w": 64
      },
      "spriteSourceSize": {
        "h": 64,
        "w": 64,
        "x": 0,
        "y": 0
      },
      "trimmed": false
    },
    {
      "filename": "5752fc62e7d04ab30fa7916b90a5496d[1]_00002.png",
      "frame": {
        "h": 64,
        "w": 64,
        "x": 68,
        "y": 134
      },
      "rotated": false,
      "scale": {
        "x": 1.0,
        "y": 1.0,
        "z": 1.0
      },
      "sourceSize": {
        "h": 64,
        "w": 64
      },
      "spriteSourceSize": {
        "h": 64,
        "w": 64,
        "x": 0,
        "y": 0
      },
      "trimmed": false
    },
    {
      "filename": "5752fc62e7d04ab30fa7916b90a5496d[1]_00003.png",
      "frame": {
        "h": 64,
        "w": 64,
        "x": 2,
        "y": 134
      },
      "rotated": false,
      "scale": {
        "x": 1.0,
        "y": 1.0,
        "z": 1.0
      },
      "sourceSize": {
        "h": 64,
        "w": 64
      },
      "spriteSourceSize": {
        "h": 64,
        "w": 64,
        "x": 0,
        "y": 0
      },
      "trimmed": false
    },
    {
      "filename": "5752fc62e7d04ab30fa7916b90a5496d[1]_00004.png",
      "frame": {
        "h": 64,
        "w": 64,
        "x": 134,
        "y": 68
      },
      "rotated": false,
      "scale": {
        "x": 1.0,
        "y": 1.0,
        "z": 1.0
      },
      "sourceSize": {
        "h": 64,
        "w": 64
      },
      "spriteSourceSize": {
        "h": 64,
        "w": 64,
        "x": 0,
        "y": 0
      },
      "trimmed": false
    },
    {
      "filename": "5752fc62e7d04ab30fa7916b90a5496d[1]_00005.png",
      "frame": {
        "h": 64,
        "w": 64,
        "x": 68,
        "y": 68
      },
      "rotated": false,
      "scale": {
        "x": 1.0,
        "y": 1.0,
        "z": 1.0
      },
      "sourceSize": {
        "h": 64,
        "w": 64
      },
      "spriteSourceSize": {
        "h": 64,
        "w": 64,
        "x": 0,
        "y": 0
      },
      "trimmed": false
    },
    {
      "filename": "5752fc62e7d04ab30fa7916b90a5496d[1]_00006.png",
      "frame": {
        "h": 64,
        "w": 64,
        "x": 2,
        "y": 68
      },
      "rotated": false,
      "scale": {
        "x": 1.0,
        "y": 1.0,
        "z": 1.0
      },
      "sourceSize": {
        "h": 64,
        "w": 64
      },
      "spriteSourceSize": {
        "h": 64,
        "w": 64,
        "x": 0,
        "y": 0
      },
      "trimmed": false
    },
    {
      "filename": "5752fc62e7d04ab30fa7916b90a5496d[1]_00007.png",
      "frame": {
        "h": 64,
        "w": 64,
        "x": 134,
        "y": 2
      },
      "rotated": false,
      "scale": {
        "x": 1.0,
        "y": 1.0,
        "z": 1.0
      },
      "sourceSize": {
        "h": 64,
        "w": 64
      },
      "spriteSourceSize": {
        "h": 64,
        "w": 64,
        "x": 0,
        "y": 0
      },
      "trimmed": false
    },
    {
      "filename": "5752fc62e7d04ab30fa7916b90a5496d[1]_00008.png",
      "frame": {
        "h": 64,
        "w": 64,
        "x": 68,
        "y": 2
      },
      "rotated": false,
      "scale": {
        "x": 1.0,
        "y": 1.0,
        "z": 1.0
      },
      "sourceSize": {
        "h": 64,
        "w": 64
      },
      "spriteSourceSize": {
        "h": 64,
        "w": 64,
        "x": 0,
        "y": 0
      },
      "trimmed": false
    },
    {
      "filename": "5752fc62e7d04ab30fa7916b90a5496d[1]_00009.png",
      "frame": {
        "h": 64,
        "w": 64,
        "x": 2,
        "y": 2
      },
      "rotated": false,
      "scale": {
        "x": 1.0,
        "y": 1.0,
        "z": 1.0
      },
      "sourceSize": {
        "h": 64,
        "w": 64
      },
      "spriteSourceSize": {
        "h": 64,
        "w": 64,
        "x": 0,
        "y": 0
      },
      "trimmed": false
    }
  ],
  "meta": {
    "app": "http://www.texturepacker.com",
    "format": "RGBA8888",
    "image": "m_mc_huo02.png",
    "scale": "1",
    "size": {
      "h": 512,
      "w": 256
    },
    "smartupdate": "$TexturePacker:SmartUpdate:245574e219bf2eff38b4d093ac923e63$",
    "version": "1.0"
  }
}