{
  "materials": {
    "version": "1.0.0",
    "allay:entity_alphatest": {},
    "firefly:entity_emissive_alpha": {},
    "warden:entity_alphatest": {},
    "warden_bioluminescent_layer:entity_emissive_alpha": {
      "depthFunc": "Equal"
    },
    "chest_boat:entity": {}
  }
}
