{
  "format_version": "1.14.0",
  "minecraft:aggregate_feature": {
    "description": {
      "identifier": "minecraft:fern_double_plant_feature"
    },
    "early_out": "first_failure",
    "features": [
      "minecraft:fern_double_plant_lower_feature",
      "minecraft:fixup_fern_double_plant_upper_position_feature"
    ]
  }
}