{
  "format_version": "1.14.0",
  "minecraft:aggregate_feature": {
    "description": {
      "identifier": "minecraft:jungle_tall_grass_feature"
    },
    "early_out": "first_success",
    "features": [
      "minecraft:optional_ferns_feature",
      "minecraft:scatter_tall_grass_feature"
    ]
  }
}