{
  "format_version": "1.14.0",
  "minecraft:ore_feature": {
    "description": {
      "identifier": "minecraft:redstone_ore_feature"
    },
    "count": 8,
    "replace_rules": [
      {
        "places_block": "minecraft:redstone_ore",
        "may_replace": [
          {
            "name": "minecraft:stone"
          }
        ]
      }
    ]
  }
}