{
    "frames": [
        {
            "filename": "cs_2020Q4_zuoqi_12_00000.png",
            "frame": {
                "h": 128,
                "w": 128,
                "x": 0,
                "y": 0
            },
            "rotated": false,
            "scale": {
                "x": 1.0,
                "y": 1.0,
                "z": 1.0
            },
            "sourceSize": {
                "h": 128,
                "w": 128
            },
            "spriteSourceSize": {
                "h": 128,
                "w": 128,
                "x": 0,
                "y": 0
            },
            "trimmed": false
        },
        {
            "filename": "cs_2020Q4_zuoqi_12_00001.png",
            "frame": {
                "h": 128,
                "w": 128,
                "x": 128,
                "y": 0
            },
            "rotated": false,
            "scale": {
                "x": 1.0,
                "y": 1.0,
                "z": 1.0
            },
            "sourceSize": {
                "h": 128,
                "w": 128
            },
            "spriteSourceSize": {
                "h": 128,
                "w": 128,
                "x": 0,
                "y": 0
            },
            "trimmed": false
        },
        {
            "filename": "cs_2020Q4_zuoqi_12_00002.png",
            "frame": {
                "h": 128,
                "w": 128,
                "x": 256,
                "y": 0
            },
            "rotated": false,
            "scale": {
                "x": 1.0,
                "y": 1.0,
                "z": 1.0
            },
            "sourceSize": {
                "h": 128,
                "w": 128
            },
            "spriteSourceSize": {
                "h": 128,
                "w": 128,
                "x": 0,
                "y": 0
            },
            "trimmed": false
        },
        {
            "filename": "cs_2020Q4_zuoqi_12_00003.png",
            "frame": {
                "h": 128,
                "w": 128,
                "x": 384,
                "y": 0
            },
            "rotated": false,
            "scale": {
                "x": 1.0,
                "y": 1.0,
                "z": 1.0
            },
            "sourceSize": {
                "h": 128,
                "w": 128
            },
            "spriteSourceSize": {
                "h": 128,
                "w": 128,
                "x": 0,
                "y": 0
            },
            "trimmed": false
        },
        {
            "filename": "cs_2020Q4_zuoqi_12_00004.png",
            "frame": {
                "h": 128,
                "w": 128,
                "x": 0,
                "y": 128
            },
            "rotated": false,
            "scale": {
                "x": 1.0,
                "y": 1.0,
                "z": 1.0
            },
            "sourceSize": {
                "h": 128,
                "w": 128
            },
            "spriteSourceSize": {
                "h": 128,
                "w": 128,
                "x": 0,
                "y": 0
            },
            "trimmed": false
        },
        {
            "filename": "cs_2020Q4_zuoqi_12_00005.png",
            "frame": {
                "h": 128,
                "w": 128,
                "x": 128,
                "y": 128
            },
            "rotated": false,
            "scale": {
                "x": 1.0,
                "y": 1.0,
                "z": 1.0
            },
            "sourceSize": {
                "h": 128,
                "w": 128
            },
            "spriteSourceSize": {
                "h": 128,
                "w": 128,
                "x": 0,
                "y": 0
            },
            "trimmed": false
        },
        {
            "filename": "cs_2020Q4_zuoqi_12_00006.png",
            "frame": {
                "h": 128,
                "w": 128,
                "x": 256,
                "y": 128
            },
            "rotated": false,
            "scale": {
                "x": 1.0,
                "y": 1.0,
                "z": 1.0
            },
            "sourceSize": {
                "h": 128,
                "w": 128
            },
            "spriteSourceSize": {
                "h": 128,
                "w": 128,
                "x": 0,
                "y": 0
            },
            "trimmed": false
        },
        {
            "filename": "cs_2020Q4_zuoqi_12_00007.png",
            "frame": {
                "h": 128,
                "w": 128,
                "x": 384,
                "y": 128
            },
            "rotated": false,
            "scale": {
                "x": 1.0,
                "y": 1.0,
                "z": 1.0
            },
            "sourceSize": {
                "h": 128,
                "w": 128
            },
            "spriteSourceSize": {
                "h": 128,
                "w": 128,
                "x": 0,
                "y": 0
            },
            "trimmed": false
        },
        {
            "filename": "cs_2020Q4_zuoqi_12_00008.png",
            "frame": {
                "h": 128,
                "w": 128,
                "x": 0,
                "y": 256
            },
            "rotated": false,
            "scale": {
                "x": 1.0,
                "y": 1.0,
                "z": 1.0
            },
            "sourceSize": {
                "h": 128,
                "w": 128
            },
            "spriteSourceSize": {
                "h": 128,
                "w": 128,
                "x": 0,
                "y": 0
            },
            "trimmed": false
        },
        {
            "filename": "cs_2020Q4_zuoqi_12_00009.png",
            "frame": {
                "h": 128,
                "w": 128,
                "x": 128,
                "y": 256
            },
            "rotated": false,
            "scale": {
                "x": 1.0,
                "y": 1.0,
                "z": 1.0
            },
            "sourceSize": {
                "h": 128,
                "w": 128
            },
            "spriteSourceSize": {
                "h": 128,
                "w": 128,
                "x": 0,
                "y": 0
            },
            "trimmed": false
        },
        {
            "filename": "cs_2020Q4_zuoqi_12_00010.png",
            "frame": {
                "h": 128,
                "w": 128,
                "x": 256,
                "y": 256
            },
            "rotated": false,
            "scale": {
                "x": 1.0,
                "y": 1.0,
                "z": 1.0
            },
            "sourceSize": {
                "h": 128,
                "w": 128
            },
            "spriteSourceSize": {
                "h": 128,
                "w": 128,
                "x": 0,
                "y": 0
            },
            "trimmed": false
        },
        {
            "filename": "cs_2020Q4_zuoqi_12_00011.png",
            "frame": {
                "h": 128,
                "w": 128,
                "x": 384,
                "y": 256
            },
            "rotated": false,
            "scale": {
                "x": 1.0,
                "y": 1.0,
                "z": 1.0
            },
            "sourceSize": {
                "h": 128,
                "w": 128
            },
            "spriteSourceSize": {
                "h": 128,
                "w": 128,
                "x": 0,
                "y": 0
            },
            "trimmed": false
        }
    ],
    "meta": {
        "app": "http://www.texturepacker.com",
        "format": "RGBA8888",
        "image": "cs_2020Q4_zuoqi_12.png",
        "scale": "1",
        "size": {
            "h": 512,
            "w": 512
        },
        "smartupdate": "$TexturePacker:SmartUpdate:2778a398a7b5c28f9533440af33fffd2$",
        "version": "1.0"
    }
}