{
    "frames": [
        {
            "filename": "预 合成 5_0000.png",
            "frame": {
                "h": 256,
                "w": 180,
                "x": 548,
                "y": 518
            },
            "rotated": false,
            "scale": {
                "x": 1.0,
                "y": 1.0,
                "z": 1.0
            },
            "sourceSize": {
                "h": 256,
                "w": 180
            },
            "spriteSourceSize": {
                "h": 256,
                "w": 180,
                "x": 0,
                "y": 0
            },
            "trimmed": false
        },
        {
            "filename": "预 合成 5_0001.png",
            "frame": {
                "h": 256,
                "w": 180,
                "x": 548,
                "y": 260
            },
            "rotated": false,
            "scale": {
                "x": 1.0,
                "y": 1.0,
                "z": 1.0
            },
            "sourceSize": {
                "h": 256,
                "w": 180
            },
            "spriteSourceSize": {
                "h": 256,
                "w": 180,
                "x": 0,
                "y": 0
            },
            "trimmed": false
        },
        {
            "filename": "预 合成 5_0002.png",
            "frame": {
                "h": 256,
                "w": 180,
                "x": 366,
                "y": 518
            },
            "rotated": false,
            "scale": {
                "x": 1.0,
                "y": 1.0,
                "z": 1.0
            },
            "sourceSize": {
                "h": 256,
                "w": 180
            },
            "spriteSourceSize": {
                "h": 256,
                "w": 180,
                "x": 0,
                "y": 0
            },
            "trimmed": false
        },
        {
            "filename": "预 合成 5_0003.png",
            "frame": {
                "h": 256,
                "w": 180,
                "x": 366,
                "y": 260
            },
            "rotated": false,
            "scale": {
                "x": 1.0,
                "y": 1.0,
                "z": 1.0
            },
            "sourceSize": {
                "h": 256,
                "w": 180
            },
            "spriteSourceSize": {
                "h": 256,
                "w": 180,
                "x": 0,
                "y": 0
            },
            "trimmed": false
        },
        {
            "filename": "预 合成 5_0004.png",
            "frame": {
                "h": 256,
                "w": 180,
                "x": 184,
                "y": 518
            },
            "rotated": false,
            "scale": {
                "x": 1.0,
                "y": 1.0,
                "z": 1.0
            },
            "sourceSize": {
                "h": 256,
                "w": 180
            },
            "spriteSourceSize": {
                "h": 256,
                "w": 180,
                "x": 0,
                "y": 0
            },
            "trimmed": false
        },
        {
            "filename": "预 合成 5_0005.png",
            "frame": {
                "h": 256,
                "w": 180,
                "x": 184,
                "y": 260
            },
            "rotated": false,
            "scale": {
                "x": 1.0,
                "y": 1.0,
                "z": 1.0
            },
            "sourceSize": {
                "h": 256,
                "w": 180
            },
            "spriteSourceSize": {
                "h": 256,
                "w": 180,
                "x": 0,
                "y": 0
            },
            "trimmed": false
        },
        {
            "filename": "预 合成 5_0006.png",
            "frame": {
                "h": 256,
                "w": 180,
                "x": 548,
                "y": 2
            },
            "rotated": false,
            "scale": {
                "x": 1.0,
                "y": 1.0,
                "z": 1.0
            },
            "sourceSize": {
                "h": 256,
                "w": 180
            },
            "spriteSourceSize": {
                "h": 256,
                "w": 180,
                "x": 0,
                "y": 0
            },
            "trimmed": false
        },
        {
            "filename": "预 合成 5_0007.png",
            "frame": {
                "h": 256,
                "w": 180,
                "x": 366,
                "y": 2
            },
            "rotated": false,
            "scale": {
                "x": 1.0,
                "y": 1.0,
                "z": 1.0
            },
            "sourceSize": {
                "h": 256,
                "w": 180
            },
            "spriteSourceSize": {
                "h": 256,
                "w": 180,
                "x": 0,
                "y": 0
            },
            "trimmed": false
        },
        {
            "filename": "预 合成 5_0008.png",
            "frame": {
                "h": 256,
                "w": 180,
                "x": 184,
                "y": 2
            },
            "rotated": false,
            "scale": {
                "x": 1.0,
                "y": 1.0,
                "z": 1.0
            },
            "sourceSize": {
                "h": 256,
                "w": 180
            },
            "spriteSourceSize": {
                "h": 256,
                "w": 180,
                "x": 0,
                "y": 0
            },
            "trimmed": false
        },
        {
            "filename": "预 合成 5_0009.png",
            "frame": {
                "h": 256,
                "w": 180,
                "x": 2,
                "y": 518
            },
            "rotated": false,
            "scale": {
                "x": 1.0,
                "y": 1.0,
                "z": 1.0
            },
            "sourceSize": {
                "h": 256,
                "w": 180
            },
            "spriteSourceSize": {
                "h": 256,
                "w": 180,
                "x": 0,
                "y": 0
            },
            "trimmed": false
        },
        {
            "filename": "预 合成 5_0010.png",
            "frame": {
                "h": 256,
                "w": 180,
                "x": 2,
                "y": 260
            },
            "rotated": false,
            "scale": {
                "x": 1.0,
                "y": 1.0,
                "z": 1.0
            },
            "sourceSize": {
                "h": 256,
                "w": 180
            },
            "spriteSourceSize": {
                "h": 256,
                "w": 180,
                "x": 0,
                "y": 0
            },
            "trimmed": false
        },
        {
            "filename": "预 合成 5_0011.png",
            "frame": {
                "h": 256,
                "w": 180,
                "x": 2,
                "y": 2
            },
            "rotated": false,
            "scale": {
                "x": 1.0,
                "y": 1.0,
                "z": 1.0
            },
            "sourceSize": {
                "h": 256,
                "w": 180
            },
            "spriteSourceSize": {
                "h": 256,
                "w": 180,
                "x": 0,
                "y": 0
            },
            "trimmed": false
        }
    ],
    "meta": {
        "app": "http://www.texturepacker.com",
        "format": "RGBA8888",
        "image": "wuqitexiao19.png",
        "scale": "1",
        "size": {
            "h": 776,
            "w": 730
        },
        "smartupdate": "$TexturePacker:SmartUpdate:d84d251ea0525a32525dbe83aca8cb48$",
        "version": "1.0"
    }
}