{
    "frames": [
        {
            "filename": "10003.png",
            "frame": {
                "h": 256,
                "w": 256,
                "x": 518,
                "y": 518
            },
            "rotated": false,
            "scale": {
                "x": 1.0,
                "y": 1.0,
                "z": 1.0
            },
            "sourceSize": {
                "h": 256,
                "w": 256
            },
            "spriteSourceSize": {
                "h": 256,
                "w": 256,
                "x": 0,
                "y": 0
            },
            "trimmed": false
        },
        {
            "filename": "10004.png",
            "frame": {
                "h": 256,
                "w": 256,
                "x": 518,
                "y": 260
            },
            "rotated": false,
            "scale": {
                "x": 1.0,
                "y": 1.0,
                "z": 1.0
            },
            "sourceSize": {
                "h": 256,
                "w": 256
            },
            "spriteSourceSize": {
                "h": 256,
                "w": 256,
                "x": 0,
                "y": 0
            },
            "trimmed": false
        },
        {
            "filename": "10005.png",
            "frame": {
                "h": 256,
                "w": 256,
                "x": 260,
                "y": 518
            },
            "rotated": false,
            "scale": {
                "x": 1.0,
                "y": 1.0,
                "z": 1.0
            },
            "sourceSize": {
                "h": 256,
                "w": 256
            },
            "spriteSourceSize": {
                "h": 256,
                "w": 256,
                "x": 0,
                "y": 0
            },
            "trimmed": false
        },
        {
            "filename": "10006.png",
            "frame": {
                "h": 256,
                "w": 256,
                "x": 260,
                "y": 260
            },
            "rotated": false,
            "scale": {
                "x": 1.0,
                "y": 1.0,
                "z": 1.0
            },
            "sourceSize": {
                "h": 256,
                "w": 256
            },
            "spriteSourceSize": {
                "h": 256,
                "w": 256,
                "x": 0,
                "y": 0
            },
            "trimmed": false
        },
        {
            "filename": "10007.png",
            "frame": {
                "h": 256,
                "w": 256,
                "x": 518,
                "y": 2
            },
            "rotated": false,
            "scale": {
                "x": 1.0,
                "y": 1.0,
                "z": 1.0
            },
            "sourceSize": {
                "h": 256,
                "w": 256
            },
            "spriteSourceSize": {
                "h": 256,
                "w": 256,
                "x": 0,
                "y": 0
            },
            "trimmed": false
        },
        {
            "filename": "10008.png",
            "frame": {
                "h": 256,
                "w": 256,
                "x": 260,
                "y": 2
            },
            "rotated": false,
            "scale": {
                "x": 1.0,
                "y": 1.0,
                "z": 1.0
            },
            "sourceSize": {
                "h": 256,
                "w": 256
            },
            "spriteSourceSize": {
                "h": 256,
                "w": 256,
                "x": 0,
                "y": 0
            },
            "trimmed": false
        },
        {
            "filename": "10009.png",
            "frame": {
                "h": 256,
                "w": 256,
                "x": 2,
                "y": 518
            },
            "rotated": false,
            "scale": {
                "x": 1.0,
                "y": 1.0,
                "z": 1.0
            },
            "sourceSize": {
                "h": 256,
                "w": 256
            },
            "spriteSourceSize": {
                "h": 256,
                "w": 256,
                "x": 0,
                "y": 0
            },
            "trimmed": false
        },
        {
            "filename": "10010.png",
            "frame": {
                "h": 256,
                "w": 256,
                "x": 2,
                "y": 260
            },
            "rotated": false,
            "scale": {
                "x": 1.0,
                "y": 1.0,
                "z": 1.0
            },
            "sourceSize": {
                "h": 256,
                "w": 256
            },
            "spriteSourceSize": {
                "h": 256,
                "w": 256,
                "x": 0,
                "y": 0
            },
            "trimmed": false
        },
        {
            "filename": "10011.png",
            "frame": {
                "h": 256,
                "w": 256,
                "x": 2,
                "y": 2
            },
            "rotated": false,
            "scale": {
                "x": 1.0,
                "y": 1.0,
                "z": 1.0
            },
            "sourceSize": {
                "h": 256,
                "w": 256
            },
            "spriteSourceSize": {
                "h": 256,
                "w": 256,
                "x": 0,
                "y": 0
            },
            "trimmed": false
        }
    ],
    "meta": {
        "app": "http://www.texturepacker.com",
        "format": "RGBA8888",
        "image": "kejifazheng01.png",
        "scale": "1",
        "size": {
            "h": 776,
            "w": 776
        },
        "smartupdate": "$TexturePacker:SmartUpdate:4b479d4e6017c60f2cae1f65321842f8$",
        "version": "1.0"
    }
}