{"frames": [

{
	"filename": "会员抽奖资源_数字帝国武器E（传说）截图_0000.png",
	"frame": {"x":188,"y":768,"w":94,"h":256},
	"rotated": false,
	"trimmed": false,
	"spriteSourceSize": {"x":0,"y":0,"w":94,"h":256},
	"sourceSize": {"w":94,"h":256}
},
{
	"filename": "会员抽奖资源_数字帝国武器E（传说）截图_0001.png",
	"frame": {"x":188,"y":512,"w":94,"h":256},
	"rotated": false,
	"trimmed": false,
	"spriteSourceSize": {"x":0,"y":0,"w":94,"h":256},
	"sourceSize": {"w":94,"h":256}
},
{
	"filename": "会员抽奖资源_数字帝国武器E（传说）截图_0002.png",
	"frame": {"x":94,"y":768,"w":94,"h":256},
	"rotated": false,
	"trimmed": false,
	"spriteSourceSize": {"x":0,"y":0,"w":94,"h":256},
	"sourceSize": {"w":94,"h":256}
},
{
	"filename": "会员抽奖资源_数字帝国武器E（传说）截图_0003.png",
	"frame": {"x":94,"y":512,"w":94,"h":256},
	"rotated": false,
	"trimmed": false,
	"spriteSourceSize": {"x":0,"y":0,"w":94,"h":256},
	"sourceSize": {"w":94,"h":256}
},
{
	"filename": "会员抽奖资源_数字帝国武器E（传说）截图_0004.png",
	"frame": {"x":376,"y":256,"w":94,"h":256},
	"rotated": false,
	"trimmed": false,
	"spriteSourceSize": {"x":0,"y":0,"w":94,"h":256},
	"sourceSize": {"w":94,"h":256}
},
{
	"filename": "会员抽奖资源_数字帝国武器E（传说）截图_0005.png",
	"frame": {"x":282,"y":256,"w":94,"h":256},
	"rotated": false,
	"trimmed": false,
	"spriteSourceSize": {"x":0,"y":0,"w":94,"h":256},
	"sourceSize": {"w":94,"h":256}
},
{
	"filename": "会员抽奖资源_数字帝国武器E（传说）截图_0006.png",
	"frame": {"x":188,"y":256,"w":94,"h":256},
	"rotated": false,
	"trimmed": false,
	"spriteSourceSize": {"x":0,"y":0,"w":94,"h":256},
	"sourceSize": {"w":94,"h":256}
},
{
	"filename": "会员抽奖资源_数字帝国武器E（传说）截图_0007.png",
	"frame": {"x":94,"y":256,"w":94,"h":256},
	"rotated": false,
	"trimmed": false,
	"spriteSourceSize": {"x":0,"y":0,"w":94,"h":256},
	"sourceSize": {"w":94,"h":256}
},
{
	"filename": "会员抽奖资源_数字帝国武器E（传说）截图_0008.png",
	"frame": {"x":0,"y":768,"w":94,"h":256},
	"rotated": false,
	"trimmed": false,
	"spriteSourceSize": {"x":0,"y":0,"w":94,"h":256},
	"sourceSize": {"w":94,"h":256}
},
{
	"filename": "会员抽奖资源_数字帝国武器E（传说）截图_0009.png",
	"frame": {"x":0,"y":512,"w":94,"h":256},
	"rotated": false,
	"trimmed": false,
	"spriteSourceSize": {"x":0,"y":0,"w":94,"h":256},
	"sourceSize": {"w":94,"h":256}
},
{
	"filename": "会员抽奖资源_数字帝国武器E（传说）截图_0010.png",
	"frame": {"x":0,"y":256,"w":94,"h":256},
	"rotated": false,
	"trimmed": false,
	"spriteSourceSize": {"x":0,"y":0,"w":94,"h":256},
	"sourceSize": {"w":94,"h":256}
},
{
	"filename": "会员抽奖资源_数字帝国武器E（传说）截图_0011.png",
	"frame": {"x":376,"y":0,"w":94,"h":256},
	"rotated": false,
	"trimmed": false,
	"spriteSourceSize": {"x":0,"y":0,"w":94,"h":256},
	"sourceSize": {"w":94,"h":256}
},
{
	"filename": "会员抽奖资源_数字帝国武器E（传说）截图_0012.png",
	"frame": {"x":282,"y":0,"w":94,"h":256},
	"rotated": false,
	"trimmed": false,
	"spriteSourceSize": {"x":0,"y":0,"w":94,"h":256},
	"sourceSize": {"w":94,"h":256}
},
{
	"filename": "会员抽奖资源_数字帝国武器E（传说）截图_0013.png",
	"frame": {"x":188,"y":0,"w":94,"h":256},
	"rotated": false,
	"trimmed": false,
	"spriteSourceSize": {"x":0,"y":0,"w":94,"h":256},
	"sourceSize": {"w":94,"h":256}
},
{
	"filename": "会员抽奖资源_数字帝国武器E（传说）截图_0014.png",
	"frame": {"x":94,"y":0,"w":94,"h":256},
	"rotated": false,
	"trimmed": false,
	"spriteSourceSize": {"x":0,"y":0,"w":94,"h":256},
	"sourceSize": {"w":94,"h":256}
},
{
	"filename": "会员抽奖资源_数字帝国武器E（传说）截图_0015.png",
	"frame": {"x":0,"y":0,"w":94,"h":256},
	"rotated": false,
	"trimmed": false,
	"spriteSourceSize": {"x":0,"y":0,"w":94,"h":256},
	"sourceSize": {"w":94,"h":256}
}],
"meta": {
	"app": "http://www.texturepacker.com",
	"version": "1.0",
	"image": "wuqitexiao01.png",
	"format": "RGBA8888",
	"size": {"w":512,"h":1024},
	"scale": "1",
	"smartupdate": "$TexturePacker:SmartUpdate:36c94376028b4394d41fa73fee43ce5a$"
}
}
