{"frames": [

{
	"filename": "会员抽奖资源_数字帝国武器F（传说）截图_0000.png",
	"frame": {"x":1360,"y":290,"w":192,"h":286},
	"rotated": false,
	"trimmed": false,
	"spriteSourceSize": {"x":0,"y":0,"w":192,"h":286},
	"sourceSize": {"w":192,"h":286}
},
{
	"filename": "会员抽奖资源_数字帝国武器F（传说）截图_0001.png",
	"frame": {"x":1360,"y":2,"w":192,"h":286},
	"rotated": false,
	"trimmed": false,
	"spriteSourceSize": {"x":0,"y":0,"w":192,"h":286},
	"sourceSize": {"w":192,"h":286}
},
{
	"filename": "会员抽奖资源_数字帝国武器F（传说）截图_0002.png",
	"frame": {"x":1166,"y":290,"w":192,"h":286},
	"rotated": false,
	"trimmed": false,
	"spriteSourceSize": {"x":0,"y":0,"w":192,"h":286},
	"sourceSize": {"w":192,"h":286}
},
{
	"filename": "会员抽奖资源_数字帝国武器F（传说）截图_0003.png",
	"frame": {"x":1166,"y":2,"w":192,"h":286},
	"rotated": false,
	"trimmed": false,
	"spriteSourceSize": {"x":0,"y":0,"w":192,"h":286},
	"sourceSize": {"w":192,"h":286}
},
{
	"filename": "会员抽奖资源_数字帝国武器F（传说）截图_0004.png",
	"frame": {"x":972,"y":290,"w":192,"h":286},
	"rotated": false,
	"trimmed": false,
	"spriteSourceSize": {"x":0,"y":0,"w":192,"h":286},
	"sourceSize": {"w":192,"h":286}
},
{
	"filename": "会员抽奖资源_数字帝国武器F（传说）截图_0005.png",
	"frame": {"x":972,"y":2,"w":192,"h":286},
	"rotated": false,
	"trimmed": false,
	"spriteSourceSize": {"x":0,"y":0,"w":192,"h":286},
	"sourceSize": {"w":192,"h":286}
},
{
	"filename": "会员抽奖资源_数字帝国武器F（传说）截图_0006.png",
	"frame": {"x":778,"y":290,"w":192,"h":286},
	"rotated": false,
	"trimmed": false,
	"spriteSourceSize": {"x":0,"y":0,"w":192,"h":286},
	"sourceSize": {"w":192,"h":286}
},
{
	"filename": "会员抽奖资源_数字帝国武器F（传说）截图_0007.png",
	"frame": {"x":778,"y":2,"w":192,"h":286},
	"rotated": false,
	"trimmed": false,
	"spriteSourceSize": {"x":0,"y":0,"w":192,"h":286},
	"sourceSize": {"w":192,"h":286}
},
{
	"filename": "会员抽奖资源_数字帝国武器F（传说）截图_0008.png",
	"frame": {"x":584,"y":290,"w":192,"h":286},
	"rotated": false,
	"trimmed": false,
	"spriteSourceSize": {"x":0,"y":0,"w":192,"h":286},
	"sourceSize": {"w":192,"h":286}
},
{
	"filename": "会员抽奖资源_数字帝国武器F（传说）截图_0009.png",
	"frame": {"x":584,"y":2,"w":192,"h":286},
	"rotated": false,
	"trimmed": false,
	"spriteSourceSize": {"x":0,"y":0,"w":192,"h":286},
	"sourceSize": {"w":192,"h":286}
},
{
	"filename": "会员抽奖资源_数字帝国武器F（传说）截图_0010.png",
	"frame": {"x":390,"y":290,"w":192,"h":286},
	"rotated": false,
	"trimmed": false,
	"spriteSourceSize": {"x":0,"y":0,"w":192,"h":286},
	"sourceSize": {"w":192,"h":286}
},
{
	"filename": "会员抽奖资源_数字帝国武器F（传说）截图_0011.png",
	"frame": {"x":390,"y":2,"w":192,"h":286},
	"rotated": false,
	"trimmed": false,
	"spriteSourceSize": {"x":0,"y":0,"w":192,"h":286},
	"sourceSize": {"w":192,"h":286}
},
{
	"filename": "会员抽奖资源_数字帝国武器F（传说）截图_0012.png",
	"frame": {"x":196,"y":290,"w":192,"h":286},
	"rotated": false,
	"trimmed": false,
	"spriteSourceSize": {"x":0,"y":0,"w":192,"h":286},
	"sourceSize": {"w":192,"h":286}
},
{
	"filename": "会员抽奖资源_数字帝国武器F（传说）截图_0013.png",
	"frame": {"x":196,"y":2,"w":192,"h":286},
	"rotated": false,
	"trimmed": false,
	"spriteSourceSize": {"x":0,"y":0,"w":192,"h":286},
	"sourceSize": {"w":192,"h":286}
},
{
	"filename": "会员抽奖资源_数字帝国武器F（传说）截图_0014.png",
	"frame": {"x":2,"y":290,"w":192,"h":286},
	"rotated": false,
	"trimmed": false,
	"spriteSourceSize": {"x":0,"y":0,"w":192,"h":286},
	"sourceSize": {"w":192,"h":286}
},
{
	"filename": "会员抽奖资源_数字帝国武器F（传说）截图_0015.png",
	"frame": {"x":2,"y":2,"w":192,"h":286},
	"rotated": false,
	"trimmed": false,
	"spriteSourceSize": {"x":0,"y":0,"w":192,"h":286},
	"sourceSize": {"w":192,"h":286}
}],
"meta": {
	"app": "http://www.texturepacker.com",
	"version": "1.0",
	"image": "wuqitexiao04.png",
	"format": "RGBA8888",
	"size": {"w":1554,"h":578},
	"scale": "1",
	"smartupdate": "$TexturePacker:SmartUpdate:afa880a2764b29aae17482f45de5852d$"
}
}
