{"frames": [

{
	"filename": "预合成 78_0000.png",
	"frame": {"x":296,"y":200,"w":96,"h":64},
	"rotated": false,
	"trimmed": false,
	"spriteSourceSize": {"x":0,"y":0,"w":96,"h":64},
	"sourceSize": {"w":96,"h":64}
},
{
	"filename": "预合成 78_0001.png",
	"frame": {"x":198,"y":200,"w":96,"h":64},
	"rotated": false,
	"trimmed": false,
	"spriteSourceSize": {"x":0,"y":0,"w":96,"h":64},
	"sourceSize": {"w":96,"h":64}
},
{
	"filename": "预合成 78_0002.png",
	"frame": {"x":296,"y":134,"w":96,"h":64},
	"rotated": false,
	"trimmed": false,
	"spriteSourceSize": {"x":0,"y":0,"w":96,"h":64},
	"sourceSize": {"w":96,"h":64}
},
{
	"filename": "预合成 78_0003.png",
	"frame": {"x":198,"y":134,"w":96,"h":64},
	"rotated": false,
	"trimmed": false,
	"spriteSourceSize": {"x":0,"y":0,"w":96,"h":64},
	"sourceSize": {"w":96,"h":64}
},
{
	"filename": "预合成 78_0004.png",
	"frame": {"x":296,"y":68,"w":96,"h":64},
	"rotated": false,
	"trimmed": false,
	"spriteSourceSize": {"x":0,"y":0,"w":96,"h":64},
	"sourceSize": {"w":96,"h":64}
},
{
	"filename": "预合成 78_0005.png",
	"frame": {"x":198,"y":68,"w":96,"h":64},
	"rotated": false,
	"trimmed": false,
	"spriteSourceSize": {"x":0,"y":0,"w":96,"h":64},
	"sourceSize": {"w":96,"h":64}
},
{
	"filename": "预合成 78_0006.png",
	"frame": {"x":100,"y":200,"w":96,"h":64},
	"rotated": false,
	"trimmed": false,
	"spriteSourceSize": {"x":0,"y":0,"w":96,"h":64},
	"sourceSize": {"w":96,"h":64}
},
{
	"filename": "预合成 78_0007.png",
	"frame": {"x":100,"y":134,"w":96,"h":64},
	"rotated": false,
	"trimmed": false,
	"spriteSourceSize": {"x":0,"y":0,"w":96,"h":64},
	"sourceSize": {"w":96,"h":64}
},
{
	"filename": "预合成 78_0008.png",
	"frame": {"x":100,"y":68,"w":96,"h":64},
	"rotated": false,
	"trimmed": false,
	"spriteSourceSize": {"x":0,"y":0,"w":96,"h":64},
	"sourceSize": {"w":96,"h":64}
},
{
	"filename": "预合成 78_0009.png",
	"frame": {"x":296,"y":2,"w":96,"h":64},
	"rotated": false,
	"trimmed": false,
	"spriteSourceSize": {"x":0,"y":0,"w":96,"h":64},
	"sourceSize": {"w":96,"h":64}
},
{
	"filename": "预合成 78_0010.png",
	"frame": {"x":198,"y":2,"w":96,"h":64},
	"rotated": false,
	"trimmed": false,
	"spriteSourceSize": {"x":0,"y":0,"w":96,"h":64},
	"sourceSize": {"w":96,"h":64}
},
{
	"filename": "预合成 78_0011.png",
	"frame": {"x":100,"y":2,"w":96,"h":64},
	"rotated": false,
	"trimmed": false,
	"spriteSourceSize": {"x":0,"y":0,"w":96,"h":64},
	"sourceSize": {"w":96,"h":64}
},
{
	"filename": "预合成 78_0012.png",
	"frame": {"x":2,"y":200,"w":96,"h":64},
	"rotated": false,
	"trimmed": false,
	"spriteSourceSize": {"x":0,"y":0,"w":96,"h":64},
	"sourceSize": {"w":96,"h":64}
},
{
	"filename": "预合成 78_0013.png",
	"frame": {"x":2,"y":134,"w":96,"h":64},
	"rotated": false,
	"trimmed": false,
	"spriteSourceSize": {"x":0,"y":0,"w":96,"h":64},
	"sourceSize": {"w":96,"h":64}
},
{
	"filename": "预合成 78_0014.png",
	"frame": {"x":2,"y":68,"w":96,"h":64},
	"rotated": false,
	"trimmed": false,
	"spriteSourceSize": {"x":0,"y":0,"w":96,"h":64},
	"sourceSize": {"w":96,"h":64}
},
{
	"filename": "预合成 78_0015.png",
	"frame": {"x":2,"y":2,"w":96,"h":64},
	"rotated": false,
	"trimmed": false,
	"spriteSourceSize": {"x":0,"y":0,"w":96,"h":64},
	"sourceSize": {"w":96,"h":64}
}],
"meta": {
	"app": "http://www.texturepacker.com",
	"version": "1.0",
	"image": "wuqitexiao35.png",
	"format": "RGBA8888",
	"size": {"w":394,"h":266},
	"scale": "1",
	"smartupdate": "$TexturePacker:SmartUpdate:703879e109c06ca64ac2e13eff8465e5$"
}
}
