{
    "frames": [
        {
            "filename": "wuqitexiao23_00000.png",
            "frame": {
                "h": 64,
                "w": 64,
                "x": 0,
                "y": 0
            },
            "rotated": false,
            "scale": {
                "x": 1.0,
                "y": 1.0,
                "z": 1.0
            },
            "sourceSize": {
                "h": 64,
                "w": 64
            },
            "spriteSourceSize": {
                "h": 64,
                "w": 64,
                "x": 0,
                "y": 0
            },
            "trimmed": false
        },
        {
            "filename": "wuqitexiao23_00001.png",
            "frame": {
                "h": 64,
                "w": 64,
                "x": 64,
                "y": 0
            },
            "rotated": false,
            "scale": {
                "x": 1.0,
                "y": 1.0,
                "z": 1.0
            },
            "sourceSize": {
                "h": 64,
                "w": 64
            },
            "spriteSourceSize": {
                "h": 64,
                "w": 64,
                "x": 0,
                "y": 0
            },
            "trimmed": false
        },
        {
            "filename": "wuqitexiao23_00002.png",
            "frame": {
                "h": 64,
                "w": 64,
                "x": 128,
                "y": 0
            },
            "rotated": false,
            "scale": {
                "x": 1.0,
                "y": 1.0,
                "z": 1.0
            },
            "sourceSize": {
                "h": 64,
                "w": 64
            },
            "spriteSourceSize": {
                "h": 64,
                "w": 64,
                "x": 0,
                "y": 0
            },
            "trimmed": false
        },
        {
            "filename": "wuqitexiao23_00003.png",
            "frame": {
                "h": 64,
                "w": 64,
                "x": 192,
                "y": 0
            },
            "rotated": false,
            "scale": {
                "x": 1.0,
                "y": 1.0,
                "z": 1.0
            },
            "sourceSize": {
                "h": 64,
                "w": 64
            },
            "spriteSourceSize": {
                "h": 64,
                "w": 64,
                "x": 0,
                "y": 0
            },
            "trimmed": false
        },
        {
            "filename": "wuqitexiao23_00004.png",
            "frame": {
                "h": 64,
                "w": 64,
                "x": 0,
                "y": 64
            },
            "rotated": false,
            "scale": {
                "x": 1.0,
                "y": 1.0,
                "z": 1.0
            },
            "sourceSize": {
                "h": 64,
                "w": 64
            },
            "spriteSourceSize": {
                "h": 64,
                "w": 64,
                "x": 0,
                "y": 0
            },
            "trimmed": false
        },
        {
            "filename": "wuqitexiao23_00005.png",
            "frame": {
                "h": 64,
                "w": 64,
                "x": 64,
                "y": 64
            },
            "rotated": false,
            "scale": {
                "x": 1.0,
                "y": 1.0,
                "z": 1.0
            },
            "sourceSize": {
                "h": 64,
                "w": 64
            },
            "spriteSourceSize": {
                "h": 64,
                "w": 64,
                "x": 0,
                "y": 0
            },
            "trimmed": false
        },
        {
            "filename": "wuqitexiao23_00006.png",
            "frame": {
                "h": 64,
                "w": 64,
                "x": 128,
                "y": 64
            },
            "rotated": false,
            "scale": {
                "x": 1.0,
                "y": 1.0,
                "z": 1.0
            },
            "sourceSize": {
                "h": 64,
                "w": 64
            },
            "spriteSourceSize": {
                "h": 64,
                "w": 64,
                "x": 0,
                "y": 0
            },
            "trimmed": false
        },
        {
            "filename": "wuqitexiao23_00007.png",
            "frame": {
                "h": 64,
                "w": 64,
                "x": 192,
                "y": 64
            },
            "rotated": false,
            "scale": {
                "x": 1.0,
                "y": 1.0,
                "z": 1.0
            },
            "sourceSize": {
                "h": 64,
                "w": 64
            },
            "spriteSourceSize": {
                "h": 64,
                "w": 64,
                "x": 0,
                "y": 0
            },
            "trimmed": false
        },
        {
            "filename": "wuqitexiao23_00008.png",
            "frame": {
                "h": 64,
                "w": 64,
                "x": 0,
                "y": 128
            },
            "rotated": false,
            "scale": {
                "x": 1.0,
                "y": 1.0,
                "z": 1.0
            },
            "sourceSize": {
                "h": 64,
                "w": 64
            },
            "spriteSourceSize": {
                "h": 64,
                "w": 64,
                "x": 0,
                "y": 0
            },
            "trimmed": false
        },
        {
            "filename": "wuqitexiao23_00009.png",
            "frame": {
                "h": 64,
                "w": 64,
                "x": 64,
                "y": 128
            },
            "rotated": false,
            "scale": {
                "x": 1.0,
                "y": 1.0,
                "z": 1.0
            },
            "sourceSize": {
                "h": 64,
                "w": 64
            },
            "spriteSourceSize": {
                "h": 64,
                "w": 64,
                "x": 0,
                "y": 0
            },
            "trimmed": false
        },
        {
            "filename": "wuqitexiao23_00010.png",
            "frame": {
                "h": 64,
                "w": 64,
                "x": 128,
                "y": 128
            },
            "rotated": false,
            "scale": {
                "x": 1.0,
                "y": 1.0,
                "z": 1.0
            },
            "sourceSize": {
                "h": 64,
                "w": 64
            },
            "spriteSourceSize": {
                "h": 64,
                "w": 64,
                "x": 0,
                "y": 0
            },
            "trimmed": false
        },
        {
            "filename": "wuqitexiao23_00011.png",
            "frame": {
                "h": 64,
                "w": 64,
                "x": 192,
                "y": 128
            },
            "rotated": false,
            "scale": {
                "x": 1.0,
                "y": 1.0,
                "z": 1.0
            },
            "sourceSize": {
                "h": 64,
                "w": 64
            },
            "spriteSourceSize": {
                "h": 64,
                "w": 64,
                "x": 0,
                "y": 0
            },
            "trimmed": false
        }
    ],
    "meta": {
        "app": "http://www.texturepacker.com",
        "format": "RGBA8888",
        "image": "xy_2020Q4_zuoqi_A_23.png",
        "scale": "1",
        "size": {
            "h": 256,
            "w": 256
        },
        "smartupdate": "$TexturePacker:SmartUpdate:86f4ddc4d00b2351676ae5eda065b7d5$",
        "version": "1.0"
    }
}