{
    "frames": [
        {
            "filename": "xds2_00000.png",
            "frame": {
                "h": 64,
                "w": 80,
                "x": 0,
                "y": 0
            },
            "rotated": false,
            "scale": {
                "x": 1.0,
                "y": 1.0,
                "z": 1.0
            },
            "sourceSize": {
                "h": 64,
                "w": 80
            },
            "spriteSourceSize": {
                "h": 64,
                "w": 80,
                "x": 0,
                "y": 0
            },
            "trimmed": false
        },
        {
            "filename": "xds2_00001.png",
            "frame": {
                "h": 64,
                "w": 80,
                "x": 80,
                "y": 0
            },
            "rotated": false,
            "scale": {
                "x": 1.0,
                "y": 1.0,
                "z": 1.0
            },
            "sourceSize": {
                "h": 64,
                "w": 80
            },
            "spriteSourceSize": {
                "h": 64,
                "w": 80,
                "x": 0,
                "y": 0
            },
            "trimmed": false
        },
        {
            "filename": "xds2_00002.png",
            "frame": {
                "h": 64,
                "w": 80,
                "x": 160,
                "y": 0
            },
            "rotated": false,
            "scale": {
                "x": 1.0,
                "y": 1.0,
                "z": 1.0
            },
            "sourceSize": {
                "h": 64,
                "w": 80
            },
            "spriteSourceSize": {
                "h": 64,
                "w": 80,
                "x": 0,
                "y": 0
            },
            "trimmed": false
        },
        {
            "filename": "xds2_00003.png",
            "frame": {
                "h": 64,
                "w": 80,
                "x": 0,
                "y": 64
            },
            "rotated": false,
            "scale": {
                "x": 1.0,
                "y": 1.0,
                "z": 1.0
            },
            "sourceSize": {
                "h": 64,
                "w": 80
            },
            "spriteSourceSize": {
                "h": 64,
                "w": 80,
                "x": 0,
                "y": 0
            },
            "trimmed": false
        },
        {
            "filename": "xds2_00004.png",
            "frame": {
                "h": 64,
                "w": 80,
                "x": 80,
                "y": 64
            },
            "rotated": false,
            "scale": {
                "x": 1.0,
                "y": 1.0,
                "z": 1.0
            },
            "sourceSize": {
                "h": 64,
                "w": 80
            },
            "spriteSourceSize": {
                "h": 64,
                "w": 80,
                "x": 0,
                "y": 0
            },
            "trimmed": false
        },
        {
            "filename": "xds2_00005.png",
            "frame": {
                "h": 64,
                "w": 80,
                "x": 160,
                "y": 64
            },
            "rotated": false,
            "scale": {
                "x": 1.0,
                "y": 1.0,
                "z": 1.0
            },
            "sourceSize": {
                "h": 64,
                "w": 80
            },
            "spriteSourceSize": {
                "h": 64,
                "w": 80,
                "x": 0,
                "y": 0
            },
            "trimmed": false
        },
        {
            "filename": "xds2_00006.png",
            "frame": {
                "h": 64,
                "w": 80,
                "x": 0,
                "y": 128
            },
            "rotated": false,
            "scale": {
                "x": 1.0,
                "y": 1.0,
                "z": 1.0
            },
            "sourceSize": {
                "h": 64,
                "w": 80
            },
            "spriteSourceSize": {
                "h": 64,
                "w": 80,
                "x": 0,
                "y": 0
            },
            "trimmed": false
        },
        {
            "filename": "xds2_00007.png",
            "frame": {
                "h": 64,
                "w": 80,
                "x": 80,
                "y": 128
            },
            "rotated": false,
            "scale": {
                "x": 1.0,
                "y": 1.0,
                "z": 1.0
            },
            "sourceSize": {
                "h": 64,
                "w": 80
            },
            "spriteSourceSize": {
                "h": 64,
                "w": 80,
                "x": 0,
                "y": 0
            },
            "trimmed": false
        },
        {
            "filename": "xds2_00008.png",
            "frame": {
                "h": 64,
                "w": 80,
                "x": 160,
                "y": 128
            },
            "rotated": false,
            "scale": {
                "x": 1.0,
                "y": 1.0,
                "z": 1.0
            },
            "sourceSize": {
                "h": 64,
                "w": 80
            },
            "spriteSourceSize": {
                "h": 64,
                "w": 80,
                "x": 0,
                "y": 0
            },
            "trimmed": false
        },
        {
            "filename": "xds2_00009.png",
            "frame": {
                "h": 64,
                "w": 80,
                "x": 0,
                "y": 192
            },
            "rotated": false,
            "scale": {
                "x": 1.0,
                "y": 1.0,
                "z": 1.0
            },
            "sourceSize": {
                "h": 64,
                "w": 80
            },
            "spriteSourceSize": {
                "h": 64,
                "w": 80,
                "x": 0,
                "y": 0
            },
            "trimmed": false
        },
        {
            "filename": "xds2_00010.png",
            "frame": {
                "h": 64,
                "w": 80,
                "x": 80,
                "y": 192
            },
            "rotated": false,
            "scale": {
                "x": 1.0,
                "y": 1.0,
                "z": 1.0
            },
            "sourceSize": {
                "h": 64,
                "w": 80
            },
            "spriteSourceSize": {
                "h": 64,
                "w": 80,
                "x": 0,
                "y": 0
            },
            "trimmed": false
        },
        {
            "filename": "xds2_00011.png",
            "frame": {
                "h": 64,
                "w": 80,
                "x": 160,
                "y": 192
            },
            "rotated": false,
            "scale": {
                "x": 1.0,
                "y": 1.0,
                "z": 1.0
            },
            "sourceSize": {
                "h": 64,
                "w": 80
            },
            "spriteSourceSize": {
                "h": 64,
                "w": 80,
                "x": 0,
                "y": 0
            },
            "trimmed": false
        },
        {
            "filename": "xds2_00012.png",
            "frame": {
                "h": 64,
                "w": 80,
                "x": 0,
                "y": 256
            },
            "rotated": false,
            "scale": {
                "x": 1.0,
                "y": 1.0,
                "z": 1.0
            },
            "sourceSize": {
                "h": 64,
                "w": 80
            },
            "spriteSourceSize": {
                "h": 64,
                "w": 80,
                "x": 0,
                "y": 0
            },
            "trimmed": false
        },
        {
            "filename": "xds2_00013.png",
            "frame": {
                "h": 64,
                "w": 80,
                "x": 80,
                "y": 256
            },
            "rotated": false,
            "scale": {
                "x": 1.0,
                "y": 1.0,
                "z": 1.0
            },
            "sourceSize": {
                "h": 64,
                "w": 80
            },
            "spriteSourceSize": {
                "h": 64,
                "w": 80,
                "x": 0,
                "y": 0
            },
            "trimmed": false
        },
        {
            "filename": "xds2_00014.png",
            "frame": {
                "h": 64,
                "w": 80,
                "x": 160,
                "y": 256
            },
            "rotated": false,
            "scale": {
                "x": 1.0,
                "y": 1.0,
                "z": 1.0
            },
            "sourceSize": {
                "h": 64,
                "w": 80
            },
            "spriteSourceSize": {
                "h": 64,
                "w": 80,
                "x": 0,
                "y": 0
            },
            "trimmed": false
        },
        {
            "filename": "xds2_00015.png",
            "frame": {
                "h": 64,
                "w": 80,
                "x": 0,
                "y": 320
            },
            "rotated": false,
            "scale": {
                "x": 1.0,
                "y": 1.0,
                "z": 1.0
            },
            "sourceSize": {
                "h": 64,
                "w": 80
            },
            "spriteSourceSize": {
                "h": 64,
                "w": 80,
                "x": 0,
                "y": 0
            },
            "trimmed": false
        }
    ],
    "meta": {
        "app": "http://www.texturepacker.com",
        "format": "RGBA8888",
        "image": "cs_xcm_skina_shou2.png",
        "scale": "1",
        "size": {
            "h": 512,
            "w": 256
        },
        "smartupdate": "$TexturePacker:SmartUpdate:2594200bac1f9139dff5480531b58a02$",
        "version": "1.0"
    }
}