{
    "frames": [
        {
            "filename": "箭头_00000.png",
            "frame": {
                "h": 128,
                "w": 128,
                "x": 0,
                "y": 0
            },
            "rotated": false,
            "scale": {
                "x": 1.0,
                "y": 1.0,
                "z": 1.0
            },
            "sourceSize": {
                "h": 128,
                "w": 128
            },
            "spriteSourceSize": {
                "h": 128,
                "w": 128,
                "x": 0,
                "y": 0
            },
            "trimmed": false
        },
        {
            "filename": "箭头_00001.png",
            "frame": {
                "h": 128,
                "w": 128,
                "x": 128,
                "y": 0
            },
            "rotated": false,
            "scale": {
                "x": 1.0,
                "y": 1.0,
                "z": 1.0
            },
            "sourceSize": {
                "h": 128,
                "w": 128
            },
            "spriteSourceSize": {
                "h": 128,
                "w": 128,
                "x": 0,
                "y": 0
            },
            "trimmed": false
        },
        {
            "filename": "箭头_00002.png",
            "frame": {
                "h": 128,
                "w": 128,
                "x": 0,
                "y": 128
            },
            "rotated": false,
            "scale": {
                "x": 1.0,
                "y": 1.0,
                "z": 1.0
            },
            "sourceSize": {
                "h": 128,
                "w": 128
            },
            "spriteSourceSize": {
                "h": 128,
                "w": 128,
                "x": 0,
                "y": 0
            },
            "trimmed": false
        },
        {
            "filename": "箭头_00003.png",
            "frame": {
                "h": 128,
                "w": 128,
                "x": 128,
                "y": 128
            },
            "rotated": false,
            "scale": {
                "x": 1.0,
                "y": 1.0,
                "z": 1.0
            },
            "sourceSize": {
                "h": 128,
                "w": 128
            },
            "spriteSourceSize": {
                "h": 128,
                "w": 128,
                "x": 0,
                "y": 0
            },
            "trimmed": false
        },
        {
            "filename": "箭头_00004.png",
            "frame": {
                "h": 128,
                "w": 128,
                "x": 0,
                "y": 256
            },
            "rotated": false,
            "scale": {
                "x": 1.0,
                "y": 1.0,
                "z": 1.0
            },
            "sourceSize": {
                "h": 128,
                "w": 128
            },
            "spriteSourceSize": {
                "h": 128,
                "w": 128,
                "x": 0,
                "y": 0
            },
            "trimmed": false
        }
    ],
    "meta": {
        "app": "http://www.texturepacker.com",
        "format": "RGBA8888",
        "image": "cs_xcm_skinc_jiantou.png",
        "scale": "1",
        "size": {
            "h": 512,
            "w": 256
        },
        "smartupdate": "$TexturePacker:SmartUpdate:6b91c2e9b8a697eab14c721bc1f7dbfc$",
        "version": "1.0"
    }
}