{
    "frames": [
        {
            "filename": "ss_tarot_fz_tarotpai_00000.png",
            "frame": {
                "h": 64,
                "w": 1024,
                "x": 0,
                "y": 0
            },
            "rotated": false,
            "scale": {
                "x": 1.0,
                "y": 1.0,
                "z": 1.0
            },
            "sourceSize": {
                "h": 64,
                "w": 1024
            },
            "spriteSourceSize": {
                "h": 64,
                "w": 1024,
                "x": 0,
                "y": 0
            },
            "trimmed": false
        },
        {
            "filename": "ss_tarot_fz_tarotpai_00001.png",
            "frame": {
                "h": 64,
                "w": 1024,
                "x": 0,
                "y": 64
            },
            "rotated": false,
            "scale": {
                "x": 1.0,
                "y": 1.0,
                "z": 1.0
            },
            "sourceSize": {
                "h": 64,
                "w": 1024
            },
            "spriteSourceSize": {
                "h": 64,
                "w": 1024,
                "x": 0,
                "y": 0
            },
            "trimmed": false
        },
        {
            "filename": "ss_tarot_fz_tarotpai_00002.png",
            "frame": {
                "h": 64,
                "w": 1024,
                "x": 0,
                "y": 128
            },
            "rotated": false,
            "scale": {
                "x": 1.0,
                "y": 1.0,
                "z": 1.0
            },
            "sourceSize": {
                "h": 64,
                "w": 1024
            },
            "spriteSourceSize": {
                "h": 64,
                "w": 1024,
                "x": 0,
                "y": 0
            },
            "trimmed": false
        },
        {
            "filename": "ss_tarot_fz_tarotpai_00003.png",
            "frame": {
                "h": 64,
                "w": 1024,
                "x": 0,
                "y": 192
            },
            "rotated": false,
            "scale": {
                "x": 1.0,
                "y": 1.0,
                "z": 1.0
            },
            "sourceSize": {
                "h": 64,
                "w": 1024
            },
            "spriteSourceSize": {
                "h": 64,
                "w": 1024,
                "x": 0,
                "y": 0
            },
            "trimmed": false
        },
        {
            "filename": "ss_tarot_fz_tarotpai_00004.png",
            "frame": {
                "h": 64,
                "w": 1024,
                "x": 0,
                "y": 256
            },
            "rotated": false,
            "scale": {
                "x": 1.0,
                "y": 1.0,
                "z": 1.0
            },
            "sourceSize": {
                "h": 64,
                "w": 1024
            },
            "spriteSourceSize": {
                "h": 64,
                "w": 1024,
                "x": 0,
                "y": 0
            },
            "trimmed": false
        },
        {
            "filename": "ss_tarot_fz_tarotpai_00005.png",
            "frame": {
                "h": 64,
                "w": 1024,
                "x": 0,
                "y": 320
            },
            "rotated": false,
            "scale": {
                "x": 1.0,
                "y": 1.0,
                "z": 1.0
            },
            "sourceSize": {
                "h": 64,
                "w": 1024
            },
            "spriteSourceSize": {
                "h": 64,
                "w": 1024,
                "x": 0,
                "y": 0
            },
            "trimmed": false
        },
        {
            "filename": "ss_tarot_fz_tarotpai_00006.png",
            "frame": {
                "h": 64,
                "w": 1024,
                "x": 0,
                "y": 384
            },
            "rotated": false,
            "scale": {
                "x": 1.0,
                "y": 1.0,
                "z": 1.0
            },
            "sourceSize": {
                "h": 64,
                "w": 1024
            },
            "spriteSourceSize": {
                "h": 64,
                "w": 1024,
                "x": 0,
                "y": 0
            },
            "trimmed": false
        },
        {
            "filename": "ss_tarot_fz_tarotpai_00007.png",
            "frame": {
                "h": 64,
                "w": 1024,
                "x": 0,
                "y": 448
            },
            "rotated": false,
            "scale": {
                "x": 1.0,
                "y": 1.0,
                "z": 1.0
            },
            "sourceSize": {
                "h": 64,
                "w": 1024
            },
            "spriteSourceSize": {
                "h": 64,
                "w": 1024,
                "x": 0,
                "y": 0
            },
            "trimmed": false
        },
        {
            "filename": "ss_tarot_fz_tarotpai_00008.png",
            "frame": {
                "h": 64,
                "w": 1024,
                "x": 0,
                "y": 512
            },
            "rotated": false,
            "scale": {
                "x": 1.0,
                "y": 1.0,
                "z": 1.0
            },
            "sourceSize": {
                "h": 64,
                "w": 1024
            },
            "spriteSourceSize": {
                "h": 64,
                "w": 1024,
                "x": 0,
                "y": 0
            },
            "trimmed": false
        },
        {
            "filename": "ss_tarot_fz_tarotpai_00009.png",
            "frame": {
                "h": 64,
                "w": 1024,
                "x": 0,
                "y": 576
            },
            "rotated": false,
            "scale": {
                "x": 1.0,
                "y": 1.0,
                "z": 1.0
            },
            "sourceSize": {
                "h": 64,
                "w": 1024
            },
            "spriteSourceSize": {
                "h": 64,
                "w": 1024,
                "x": 0,
                "y": 0
            },
            "trimmed": false
        },
        {
            "filename": "ss_tarot_fz_tarotpai_00010.png",
            "frame": {
                "h": 64,
                "w": 1024,
                "x": 0,
                "y": 640
            },
            "rotated": false,
            "scale": {
                "x": 1.0,
                "y": 1.0,
                "z": 1.0
            },
            "sourceSize": {
                "h": 64,
                "w": 1024
            },
            "spriteSourceSize": {
                "h": 64,
                "w": 1024,
                "x": 0,
                "y": 0
            },
            "trimmed": false
        },
        {
            "filename": "ss_tarot_fz_tarotpai_00011.png",
            "frame": {
                "h": 64,
                "w": 1024,
                "x": 0,
                "y": 704
            },
            "rotated": false,
            "scale": {
                "x": 1.0,
                "y": 1.0,
                "z": 1.0
            },
            "sourceSize": {
                "h": 64,
                "w": 1024
            },
            "spriteSourceSize": {
                "h": 64,
                "w": 1024,
                "x": 0,
                "y": 0
            },
            "trimmed": false
        },
        {
            "filename": "ss_tarot_fz_tarotpai_00012.png",
            "frame": {
                "h": 64,
                "w": 1024,
                "x": 0,
                "y": 768
            },
            "rotated": false,
            "scale": {
                "x": 1.0,
                "y": 1.0,
                "z": 1.0
            },
            "sourceSize": {
                "h": 64,
                "w": 1024
            },
            "spriteSourceSize": {
                "h": 64,
                "w": 1024,
                "x": 0,
                "y": 0
            },
            "trimmed": false
        },
        {
            "filename": "ss_tarot_fz_tarotpai_00013.png",
            "frame": {
                "h": 64,
                "w": 1024,
                "x": 0,
                "y": 832
            },
            "rotated": false,
            "scale": {
                "x": 1.0,
                "y": 1.0,
                "z": 1.0
            },
            "sourceSize": {
                "h": 64,
                "w": 1024
            },
            "spriteSourceSize": {
                "h": 64,
                "w": 1024,
                "x": 0,
                "y": 0
            },
            "trimmed": false
        },
        {
            "filename": "ss_tarot_fz_tarotpai_00014.png",
            "frame": {
                "h": 64,
                "w": 1024,
                "x": 0,
                "y": 896
            },
            "rotated": false,
            "scale": {
                "x": 1.0,
                "y": 1.0,
                "z": 1.0
            },
            "sourceSize": {
                "h": 64,
                "w": 1024
            },
            "spriteSourceSize": {
                "h": 64,
                "w": 1024,
                "x": 0,
                "y": 0
            },
            "trimmed": false
        },
        {
            "filename": "ss_tarot_fz_tarotpai_00015.png",
            "frame": {
                "h": 64,
                "w": 1024,
                "x": 0,
                "y": 960
            },
            "rotated": false,
            "scale": {
                "x": 1.0,
                "y": 1.0,
                "z": 1.0
            },
            "sourceSize": {
                "h": 64,
                "w": 1024
            },
            "spriteSourceSize": {
                "h": 64,
                "w": 1024,
                "x": 0,
                "y": 0
            },
            "trimmed": false
        }
    ],
    "meta": {
        "app": "https://www.codeandweb.com/texturepacker",
        "format": "RGBA8888",
        "image": "ss_tarot_fz_tarotpai.png",
        "scale": "1",
        "size": {
            "h": 1024,
            "w": 1024
        },
        "smartupdate": "$TexturePacker:SmartUpdate:da050241abcc5b019aba520d3c469323:9d418baf96defb7c4da59693344fbdba:b53309a8cdfe1cd4a8076d6ec3a4175d$",
        "version": "1.0"
    }
}