{
    "content": [
        {
            "path": "manifest.json"
        },
        {
            "path": "netease_config.json"
        },
        {
            "path": "textures/entity/glow_squid/glow_squid.tga"
        }
    ]
}
