{
    "format_version": 1,
    "header": {
        "description": "By hugo",
        "name": "patch",
        "uuid": "e677bff0-b0da-4a34-b543-1cdf9564a024",
        "version": [0, 0, 1]
    },
    "modules": [
        {
            "description": "By hugo",
            "type": "resources",
            "uuid": "747c45f0-944c-49cc-8150-c369c12240d4",
            "version": [0, 0, 1]
        }
    ]
}