{
    "frames": [
        {
            "filename": "kuokuo_00000.png",
            "frame": {
                "h": 128,
                "w": 256,
                "x": 0,
                "y": 0
            },
            "rotated": false,
            "scale": {
                "x": 1.0,
                "y": 1.0,
                "z": 1.0
            },
            "sourceSize": {
                "h": 128,
                "w": 256
            },
            "spriteSourceSize": {
                "h": 128,
                "w": 256,
                "x": 0,
                "y": 0
            },
            "trimmed": false
        },
        {
            "filename": "kuokuo_00001.png",
            "frame": {
                "h": 128,
                "w": 256,
                "x": 256,
                "y": 0
            },
            "rotated": false,
            "scale": {
                "x": 1.0,
                "y": 1.0,
                "z": 1.0
            },
            "sourceSize": {
                "h": 128,
                "w": 256
            },
            "spriteSourceSize": {
                "h": 128,
                "w": 256,
                "x": 0,
                "y": 0
            },
            "trimmed": false
        },
        {
            "filename": "kuokuo_00002.png",
            "frame": {
                "h": 128,
                "w": 256,
                "x": 512,
                "y": 0
            },
            "rotated": false,
            "scale": {
                "x": 1.0,
                "y": 1.0,
                "z": 1.0
            },
            "sourceSize": {
                "h": 128,
                "w": 256
            },
            "spriteSourceSize": {
                "h": 128,
                "w": 256,
                "x": 0,
                "y": 0
            },
            "trimmed": false
        },
        {
            "filename": "kuokuo_00003.png",
            "frame": {
                "h": 128,
                "w": 256,
                "x": 768,
                "y": 0
            },
            "rotated": false,
            "scale": {
                "x": 1.0,
                "y": 1.0,
                "z": 1.0
            },
            "sourceSize": {
                "h": 128,
                "w": 256
            },
            "spriteSourceSize": {
                "h": 128,
                "w": 256,
                "x": 0,
                "y": 0
            },
            "trimmed": false
        },
        {
            "filename": "kuokuo_00004.png",
            "frame": {
                "h": 128,
                "w": 256,
                "x": 0,
                "y": 128
            },
            "rotated": false,
            "scale": {
                "x": 1.0,
                "y": 1.0,
                "z": 1.0
            },
            "sourceSize": {
                "h": 128,
                "w": 256
            },
            "spriteSourceSize": {
                "h": 128,
                "w": 256,
                "x": 0,
                "y": 0
            },
            "trimmed": false
        },
        {
            "filename": "kuokuo_00005.png",
            "frame": {
                "h": 128,
                "w": 256,
                "x": 256,
                "y": 128
            },
            "rotated": false,
            "scale": {
                "x": 1.0,
                "y": 1.0,
                "z": 1.0
            },
            "sourceSize": {
                "h": 128,
                "w": 256
            },
            "spriteSourceSize": {
                "h": 128,
                "w": 256,
                "x": 0,
                "y": 0
            },
            "trimmed": false
        },
        {
            "filename": "kuokuo_00006.png",
            "frame": {
                "h": 128,
                "w": 256,
                "x": 512,
                "y": 128
            },
            "rotated": false,
            "scale": {
                "x": 1.0,
                "y": 1.0,
                "z": 1.0
            },
            "sourceSize": {
                "h": 128,
                "w": 256
            },
            "spriteSourceSize": {
                "h": 128,
                "w": 256,
                "x": 0,
                "y": 0
            },
            "trimmed": false
        },
        {
            "filename": "kuokuo_00007.png",
            "frame": {
                "h": 128,
                "w": 256,
                "x": 768,
                "y": 128
            },
            "rotated": false,
            "scale": {
                "x": 1.0,
                "y": 1.0,
                "z": 1.0
            },
            "sourceSize": {
                "h": 128,
                "w": 256
            },
            "spriteSourceSize": {
                "h": 128,
                "w": 256,
                "x": 0,
                "y": 0
            },
            "trimmed": false
        },
        {
            "filename": "kuokuo_00008.png",
            "frame": {
                "h": 128,
                "w": 256,
                "x": 0,
                "y": 256
            },
            "rotated": false,
            "scale": {
                "x": 1.0,
                "y": 1.0,
                "z": 1.0
            },
            "sourceSize": {
                "h": 128,
                "w": 256
            },
            "spriteSourceSize": {
                "h": 128,
                "w": 256,
                "x": 0,
                "y": 0
            },
            "trimmed": false
        },
        {
            "filename": "kuokuo_00009.png",
            "frame": {
                "h": 128,
                "w": 256,
                "x": 256,
                "y": 256
            },
            "rotated": false,
            "scale": {
                "x": 1.0,
                "y": 1.0,
                "z": 1.0
            },
            "sourceSize": {
                "h": 128,
                "w": 256
            },
            "spriteSourceSize": {
                "h": 128,
                "w": 256,
                "x": 0,
                "y": 0
            },
            "trimmed": false
        },
        {
            "filename": "kuokuo_00010.png",
            "frame": {
                "h": 128,
                "w": 256,
                "x": 512,
                "y": 256
            },
            "rotated": false,
            "scale": {
                "x": 1.0,
                "y": 1.0,
                "z": 1.0
            },
            "sourceSize": {
                "h": 128,
                "w": 256
            },
            "spriteSourceSize": {
                "h": 128,
                "w": 256,
                "x": 0,
                "y": 0
            },
            "trimmed": false
        },
        {
            "filename": "kuokuo_00011.png",
            "frame": {
                "h": 128,
                "w": 256,
                "x": 768,
                "y": 256
            },
            "rotated": false,
            "scale": {
                "x": 1.0,
                "y": 1.0,
                "z": 1.0
            },
            "sourceSize": {
                "h": 128,
                "w": 256
            },
            "spriteSourceSize": {
                "h": 128,
                "w": 256,
                "x": 0,
                "y": 0
            },
            "trimmed": false
        },
        {
            "filename": "kuokuo_00012.png",
            "frame": {
                "h": 128,
                "w": 256,
                "x": 0,
                "y": 384
            },
            "rotated": false,
            "scale": {
                "x": 1.0,
                "y": 1.0,
                "z": 1.0
            },
            "sourceSize": {
                "h": 128,
                "w": 256
            },
            "spriteSourceSize": {
                "h": 128,
                "w": 256,
                "x": 0,
                "y": 0
            },
            "trimmed": false
        },
        {
            "filename": "kuokuo_00013.png",
            "frame": {
                "h": 128,
                "w": 256,
                "x": 256,
                "y": 384
            },
            "rotated": false,
            "scale": {
                "x": 1.0,
                "y": 1.0,
                "z": 1.0
            },
            "sourceSize": {
                "h": 128,
                "w": 256
            },
            "spriteSourceSize": {
                "h": 128,
                "w": 256,
                "x": 0,
                "y": 0
            },
            "trimmed": false
        },
        {
            "filename": "kuokuo_00014.png",
            "frame": {
                "h": 128,
                "w": 256,
                "x": 512,
                "y": 384
            },
            "rotated": false,
            "scale": {
                "x": 1.0,
                "y": 1.0,
                "z": 1.0
            },
            "sourceSize": {
                "h": 128,
                "w": 256
            },
            "spriteSourceSize": {
                "h": 128,
                "w": 256,
                "x": 0,
                "y": 0
            },
            "trimmed": false
        },
        {
            "filename": "kuokuo_00015.png",
            "frame": {
                "h": 128,
                "w": 256,
                "x": 768,
                "y": 384
            },
            "rotated": false,
            "scale": {
                "x": 1.0,
                "y": 1.0,
                "z": 1.0
            },
            "sourceSize": {
                "h": 128,
                "w": 256
            },
            "spriteSourceSize": {
                "h": 128,
                "w": 256,
                "x": 0,
                "y": 0
            },
            "trimmed": false
        }
    ],
    "meta": {
        "app": "https://www.codeandweb.com/texturepacker",
        "format": "RGBA8888",
        "image": "cs_fantacy_weapon_kuokuok.png",
        "scale": "1",
        "size": {
            "h": 512,
            "w": 1024
        },
        "smartupdate": "$TexturePacker:SmartUpdate:4ae00a0b9b762c7f7bdfc2c7fca74867:f12ea1306ba468e1971e36a80e4dd287:1471932cda69999e96df0c18bcee0583$",
        "version": "1.0"
    }
}