{
    "frames": [
        {
            "filename": "合成 1_00000.png",
            "frame": {
                "h": 512,
                "w": 512,
                "x": 0,
                "y": 0
            },
            "rotated": false,
            "scale": {
                "x": 1.0,
                "y": 1.0,
                "z": 1.0
            },
            "sourceSize": {
                "h": 512,
                "w": 512
            },
            "spriteSourceSize": {
                "h": 512,
                "w": 512,
                "x": 0,
                "y": 0
            },
            "trimmed": false
        },
        {
            "filename": "合成 1_00001.png",
            "frame": {
                "h": 512,
                "w": 512,
                "x": 512,
                "y": 0
            },
            "rotated": false,
            "scale": {
                "x": 1.0,
                "y": 1.0,
                "z": 1.0
            },
            "sourceSize": {
                "h": 512,
                "w": 512
            },
            "spriteSourceSize": {
                "h": 512,
                "w": 512,
                "x": 0,
                "y": 0
            },
            "trimmed": false
        },
        {
            "filename": "合成 1_00002.png",
            "frame": {
                "h": 512,
                "w": 512,
                "x": 1024,
                "y": 0
            },
            "rotated": false,
            "scale": {
                "x": 1.0,
                "y": 1.0,
                "z": 1.0
            },
            "sourceSize": {
                "h": 512,
                "w": 512
            },
            "spriteSourceSize": {
                "h": 512,
                "w": 512,
                "x": 0,
                "y": 0
            },
            "trimmed": false
        },
        {
            "filename": "合成 1_00003.png",
            "frame": {
                "h": 512,
                "w": 512,
                "x": 1536,
                "y": 0
            },
            "rotated": false,
            "scale": {
                "x": 1.0,
                "y": 1.0,
                "z": 1.0
            },
            "sourceSize": {
                "h": 512,
                "w": 512
            },
            "spriteSourceSize": {
                "h": 512,
                "w": 512,
                "x": 0,
                "y": 0
            },
            "trimmed": false
        },
        {
            "filename": "合成 1_00004.png",
            "frame": {
                "h": 512,
                "w": 512,
                "x": 0,
                "y": 512
            },
            "rotated": false,
            "scale": {
                "x": 1.0,
                "y": 1.0,
                "z": 1.0
            },
            "sourceSize": {
                "h": 512,
                "w": 512
            },
            "spriteSourceSize": {
                "h": 512,
                "w": 512,
                "x": 0,
                "y": 0
            },
            "trimmed": false
        },
        {
            "filename": "合成 1_00005.png",
            "frame": {
                "h": 512,
                "w": 512,
                "x": 512,
                "y": 512
            },
            "rotated": false,
            "scale": {
                "x": 1.0,
                "y": 1.0,
                "z": 1.0
            },
            "sourceSize": {
                "h": 512,
                "w": 512
            },
            "spriteSourceSize": {
                "h": 512,
                "w": 512,
                "x": 0,
                "y": 0
            },
            "trimmed": false
        },
        {
            "filename": "合成 1_00006.png",
            "frame": {
                "h": 512,
                "w": 512,
                "x": 1024,
                "y": 512
            },
            "rotated": false,
            "scale": {
                "x": 1.0,
                "y": 1.0,
                "z": 1.0
            },
            "sourceSize": {
                "h": 512,
                "w": 512
            },
            "spriteSourceSize": {
                "h": 512,
                "w": 512,
                "x": 0,
                "y": 0
            },
            "trimmed": false
        },
        {
            "filename": "合成 1_00007.png",
            "frame": {
                "h": 512,
                "w": 512,
                "x": 1536,
                "y": 512
            },
            "rotated": false,
            "scale": {
                "x": 1.0,
                "y": 1.0,
                "z": 1.0
            },
            "sourceSize": {
                "h": 512,
                "w": 512
            },
            "spriteSourceSize": {
                "h": 512,
                "w": 512,
                "x": 0,
                "y": 0
            },
            "trimmed": false
        },
        {
            "filename": "合成 1_00008.png",
            "frame": {
                "h": 512,
                "w": 512,
                "x": 0,
                "y": 1024
            },
            "rotated": false,
            "scale": {
                "x": 1.0,
                "y": 1.0,
                "z": 1.0
            },
            "sourceSize": {
                "h": 512,
                "w": 512
            },
            "spriteSourceSize": {
                "h": 512,
                "w": 512,
                "x": 0,
                "y": 0
            },
            "trimmed": false
        },
        {
            "filename": "合成 1_00009.png",
            "frame": {
                "h": 512,
                "w": 512,
                "x": 512,
                "y": 1024
            },
            "rotated": false,
            "scale": {
                "x": 1.0,
                "y": 1.0,
                "z": 1.0
            },
            "sourceSize": {
                "h": 512,
                "w": 512
            },
            "spriteSourceSize": {
                "h": 512,
                "w": 512,
                "x": 0,
                "y": 0
            },
            "trimmed": false
        },
        {
            "filename": "合成 1_00010.png",
            "frame": {
                "h": 512,
                "w": 512,
                "x": 1024,
                "y": 1024
            },
            "rotated": false,
            "scale": {
                "x": 1.0,
                "y": 1.0,
                "z": 1.0
            },
            "sourceSize": {
                "h": 512,
                "w": 512
            },
            "spriteSourceSize": {
                "h": 512,
                "w": 512,
                "x": 0,
                "y": 0
            },
            "trimmed": false
        },
        {
            "filename": "合成 1_00011.png",
            "frame": {
                "h": 512,
                "w": 512,
                "x": 1536,
                "y": 1024
            },
            "rotated": false,
            "scale": {
                "x": 1.0,
                "y": 1.0,
                "z": 1.0
            },
            "sourceSize": {
                "h": 512,
                "w": 512
            },
            "spriteSourceSize": {
                "h": 512,
                "w": 512,
                "x": 0,
                "y": 0
            },
            "trimmed": false
        },
        {
            "filename": "合成 1_00012.png",
            "frame": {
                "h": 512,
                "w": 512,
                "x": 0,
                "y": 1536
            },
            "rotated": false,
            "scale": {
                "x": 1.0,
                "y": 1.0,
                "z": 1.0
            },
            "sourceSize": {
                "h": 512,
                "w": 512
            },
            "spriteSourceSize": {
                "h": 512,
                "w": 512,
                "x": 0,
                "y": 0
            },
            "trimmed": false
        },
        {
            "filename": "合成 1_00013.png",
            "frame": {
                "h": 512,
                "w": 512,
                "x": 512,
                "y": 1536
            },
            "rotated": false,
            "scale": {
                "x": 1.0,
                "y": 1.0,
                "z": 1.0
            },
            "sourceSize": {
                "h": 512,
                "w": 512
            },
            "spriteSourceSize": {
                "h": 512,
                "w": 512,
                "x": 0,
                "y": 0
            },
            "trimmed": false
        },
        {
            "filename": "合成 1_00014.png",
            "frame": {
                "h": 512,
                "w": 512,
                "x": 1024,
                "y": 1536
            },
            "rotated": false,
            "scale": {
                "x": 1.0,
                "y": 1.0,
                "z": 1.0
            },
            "sourceSize": {
                "h": 512,
                "w": 512
            },
            "spriteSourceSize": {
                "h": 512,
                "w": 512,
                "x": 0,
                "y": 0
            },
            "trimmed": false
        },
        {
            "filename": "合成 1_00015.png",
            "frame": {
                "h": 512,
                "w": 512,
                "x": 1536,
                "y": 1536
            },
            "rotated": false,
            "scale": {
                "x": 1.0,
                "y": 1.0,
                "z": 1.0
            },
            "sourceSize": {
                "h": 512,
                "w": 512
            },
            "spriteSourceSize": {
                "h": 512,
                "w": 512,
                "x": 0,
                "y": 0
            },
            "trimmed": false
        }
    ],
    "meta": {
        "app": "http://www.texturepacker.com",
        "format": "RGBA8888",
        "image": "cs_guochao_skina_shan2.png",
        "scale": "1",
        "size": {
            "h": 2048,
            "w": 2048
        },
        "smartupdate": "$TexturePacker:SmartUpdate:f983d77b2d45c80ebf37291c6d2be94f$",
        "version": "1.0"
    }
}