{
    "frames": [
        {
            "filename": "q_00000.png",
            "frame": {
                "h": 512,
                "w": 512,
                "x": 0,
                "y": 0
            },
            "rotated": false,
            "scale": {
                "x": 1.0,
                "y": 1.0,
                "z": 1.0
            },
            "sourceSize": {
                "h": 512,
                "w": 512
            },
            "spriteSourceSize": {
                "h": 512,
                "w": 512,
                "x": 0,
                "y": 0
            },
            "trimmed": false
        },
        {
            "filename": "q_00001.png",
            "frame": {
                "h": 512,
                "w": 512,
                "x": 512,
                "y": 0
            },
            "rotated": false,
            "scale": {
                "x": 1.0,
                "y": 1.0,
                "z": 1.0
            },
            "sourceSize": {
                "h": 512,
                "w": 512
            },
            "spriteSourceSize": {
                "h": 512,
                "w": 512,
                "x": 0,
                "y": 0
            },
            "trimmed": false
        },
        {
            "filename": "q_00002.png",
            "frame": {
                "h": 512,
                "w": 512,
                "x": 1024,
                "y": 0
            },
            "rotated": false,
            "scale": {
                "x": 1.0,
                "y": 1.0,
                "z": 1.0
            },
            "sourceSize": {
                "h": 512,
                "w": 512
            },
            "spriteSourceSize": {
                "h": 512,
                "w": 512,
                "x": 0,
                "y": 0
            },
            "trimmed": false
        },
        {
            "filename": "q_00003.png",
            "frame": {
                "h": 512,
                "w": 512,
                "x": 1536,
                "y": 0
            },
            "rotated": false,
            "scale": {
                "x": 1.0,
                "y": 1.0,
                "z": 1.0
            },
            "sourceSize": {
                "h": 512,
                "w": 512
            },
            "spriteSourceSize": {
                "h": 512,
                "w": 512,
                "x": 0,
                "y": 0
            },
            "trimmed": false
        },
        {
            "filename": "q_00004.png",
            "frame": {
                "h": 512,
                "w": 512,
                "x": 0,
                "y": 512
            },
            "rotated": false,
            "scale": {
                "x": 1.0,
                "y": 1.0,
                "z": 1.0
            },
            "sourceSize": {
                "h": 512,
                "w": 512
            },
            "spriteSourceSize": {
                "h": 512,
                "w": 512,
                "x": 0,
                "y": 0
            },
            "trimmed": false
        },
        {
            "filename": "q_00005.png",
            "frame": {
                "h": 512,
                "w": 512,
                "x": 512,
                "y": 512
            },
            "rotated": false,
            "scale": {
                "x": 1.0,
                "y": 1.0,
                "z": 1.0
            },
            "sourceSize": {
                "h": 512,
                "w": 512
            },
            "spriteSourceSize": {
                "h": 512,
                "w": 512,
                "x": 0,
                "y": 0
            },
            "trimmed": false
        },
        {
            "filename": "q_00006.png",
            "frame": {
                "h": 512,
                "w": 512,
                "x": 1024,
                "y": 512
            },
            "rotated": false,
            "scale": {
                "x": 1.0,
                "y": 1.0,
                "z": 1.0
            },
            "sourceSize": {
                "h": 512,
                "w": 512
            },
            "spriteSourceSize": {
                "h": 512,
                "w": 512,
                "x": 0,
                "y": 0
            },
            "trimmed": false
        },
        {
            "filename": "q_00007.png",
            "frame": {
                "h": 512,
                "w": 512,
                "x": 1536,
                "y": 512
            },
            "rotated": false,
            "scale": {
                "x": 1.0,
                "y": 1.0,
                "z": 1.0
            },
            "sourceSize": {
                "h": 512,
                "w": 512
            },
            "spriteSourceSize": {
                "h": 512,
                "w": 512,
                "x": 0,
                "y": 0
            },
            "trimmed": false
        },
        {
            "filename": "q_00008.png",
            "frame": {
                "h": 512,
                "w": 512,
                "x": 0,
                "y": 1024
            },
            "rotated": false,
            "scale": {
                "x": 1.0,
                "y": 1.0,
                "z": 1.0
            },
            "sourceSize": {
                "h": 512,
                "w": 512
            },
            "spriteSourceSize": {
                "h": 512,
                "w": 512,
                "x": 0,
                "y": 0
            },
            "trimmed": false
        },
        {
            "filename": "q_00009.png",
            "frame": {
                "h": 512,
                "w": 512,
                "x": 512,
                "y": 1024
            },
            "rotated": false,
            "scale": {
                "x": 1.0,
                "y": 1.0,
                "z": 1.0
            },
            "sourceSize": {
                "h": 512,
                "w": 512
            },
            "spriteSourceSize": {
                "h": 512,
                "w": 512,
                "x": 0,
                "y": 0
            },
            "trimmed": false
        },
        {
            "filename": "q_00010.png",
            "frame": {
                "h": 512,
                "w": 512,
                "x": 1024,
                "y": 1024
            },
            "rotated": false,
            "scale": {
                "x": 1.0,
                "y": 1.0,
                "z": 1.0
            },
            "sourceSize": {
                "h": 512,
                "w": 512
            },
            "spriteSourceSize": {
                "h": 512,
                "w": 512,
                "x": 0,
                "y": 0
            },
            "trimmed": false
        },
        {
            "filename": "q_00011.png",
            "frame": {
                "h": 512,
                "w": 512,
                "x": 1536,
                "y": 1024
            },
            "rotated": false,
            "scale": {
                "x": 1.0,
                "y": 1.0,
                "z": 1.0
            },
            "sourceSize": {
                "h": 512,
                "w": 512
            },
            "spriteSourceSize": {
                "h": 512,
                "w": 512,
                "x": 0,
                "y": 0
            },
            "trimmed": false
        },
        {
            "filename": "q_00012.png",
            "frame": {
                "h": 512,
                "w": 512,
                "x": 0,
                "y": 1536
            },
            "rotated": false,
            "scale": {
                "x": 1.0,
                "y": 1.0,
                "z": 1.0
            },
            "sourceSize": {
                "h": 512,
                "w": 512
            },
            "spriteSourceSize": {
                "h": 512,
                "w": 512,
                "x": 0,
                "y": 0
            },
            "trimmed": false
        },
        {
            "filename": "q_00013.png",
            "frame": {
                "h": 512,
                "w": 512,
                "x": 512,
                "y": 1536
            },
            "rotated": false,
            "scale": {
                "x": 1.0,
                "y": 1.0,
                "z": 1.0
            },
            "sourceSize": {
                "h": 512,
                "w": 512
            },
            "spriteSourceSize": {
                "h": 512,
                "w": 512,
                "x": 0,
                "y": 0
            },
            "trimmed": false
        },
        {
            "filename": "q_00014.png",
            "frame": {
                "h": 512,
                "w": 512,
                "x": 1024,
                "y": 1536
            },
            "rotated": false,
            "scale": {
                "x": 1.0,
                "y": 1.0,
                "z": 1.0
            },
            "sourceSize": {
                "h": 512,
                "w": 512
            },
            "spriteSourceSize": {
                "h": 512,
                "w": 512,
                "x": 0,
                "y": 0
            },
            "trimmed": false
        },
        {
            "filename": "q_00015.png",
            "frame": {
                "h": 512,
                "w": 512,
                "x": 1536,
                "y": 1536
            },
            "rotated": false,
            "scale": {
                "x": 1.0,
                "y": 1.0,
                "z": 1.0
            },
            "sourceSize": {
                "h": 512,
                "w": 512
            },
            "spriteSourceSize": {
                "h": 512,
                "w": 512,
                "x": 0,
                "y": 0
            },
            "trimmed": false
        }
    ],
    "meta": {
        "app": "http://www.texturepacker.com",
        "format": "RGBA8888",
        "image": "xy_fantacy_fz_01.png",
        "scale": "1",
        "size": {
            "h": 2048,
            "w": 2048
        },
        "smartupdate": "$TexturePacker:SmartUpdate:5d11b03de0597739c3cc3d3adcc51526$",
        "version": "1.0"
    }
}