{
    "particleeffect": {
        "activetime": {
            "value": "2.0"
        },
        "inactivetime": {
            "value": "3.5"
        },
        "colorfade": [
            {
                "color": "1.000000 1.000000 1.000000 0.000000",
                "time": "0%"
            },
            {
                "color": "1.000000 1.000000 1.000000 1.000000",
                "time": "5%"
            },
            {
                "color": "1.000000 1.000000 1.000000 1.000000",
                "time": "90%"
            },
            {
                "color": "1.000000 1.000000 1.000000 0.000000",
                "time": "100%"
            }
        ],
        "dampingforce": {
            "value": "0.1"
        },
        "depthtest": {
            "enable": "true"
        },
        "direction": {
            "max": "0.0 1.0 0.0",
            "min": "0.0 0.0 0.0",
            "value": "Direction"
        },
        "emissionrate": {
            "max": "15.0",
            "min": "10.0"
        },
        "emitterpath": [
            {
                "offset": "0.5 0.0 0.0",
                "time": "0.0"
            },
            {
                "offset": "-0.5 0.0 0.0",
                "time": "37.0"
            },
            {
                "offset": "0.5 0.0 0.0",
                "time": "71.0"
            }
        ],
        "emittersize": {
            "value": "0.05 1.0 0.0"
        },
        "emittertype": {
            "value": "Sphere"
        },
        "enableloop": {
            "enable": "true"
        },
        "enabletexture": {
            "enable": "true"
        },
        "faceCameraMode": {
            "value": "None"
        },
        "numparticles": {
            "value": "25"
        },
        "particlesize": {
            "max": "0.09 0.09",
            "min": "0.04 0.04"
        },
        "relative": {
            "enable": "true"
        },
        "texture": {
            "name": "textures/sfxs/home/ass_effect/hyfg_qiangti_01/0_qipao"
        },
        "thickness": {
            "value": "0.0"
        },
        "timetolive": {
            "max": "3.0",
            "min": "2.5"
        },
        "velocity": {
            "max": "1.0",
            "min": "0.7"
        }
    }
}