{
    "particleeffect": {
        "activetime": {
            "value": "0.1"
        },
        "inactivetime": {
            "value": "0.4"
        },
        "emissionrate": {
            "max": "180.0",
            "min": "60.0"
        },
        "colorfade": [
            {
                "color": "0.2745 0.5451 0.6627 0.0000",
                "time": "0%"
            },
            {
                "color": "0.2745 0.5451 0.6627 0.9000",
                "time": "20%"
            },
            {
                "color": "0.2745 0.5451 0.6627 0.9000",
                "time": "80%"
            },
            {
                "color": "0.2745 0.5451 0.6627 0.0000",
                "time": "100%"
            }
        ],
        "depthtest": {
            "enable": "true"
        },
        "direction": {
            "max": "0.0 1.0 0.0",
            "min": "0.0 0.0 0.0",
            "value": "Direction"
        },
        "emittersize": {
            "value": "1.0 0.5 0.0"
        },
        "emittertype": {
            "value": "Sphere"
        },
        "particlesize": {
            "max": "0.1 0.1",
            "min": "0.2 0.2"
        },
        "relative": {
            "enable": "true"
        },
        "texture": {
            "name": "textures/sfxs/home/ass_effect/brick_xjfg/0_shine_block"
        },
        "thickness": {
            "value": "0.0"
        },
        "timetolive": {
            "max": "0.9",
            "min": "0.6"
        },
        "velocity": {
            "max": "0.0",
            "min": "0.0"
        }
    }
}