{
    "frames": [
        {
            "filename": "sg_bodong00013_00000.png",
            "frame": {
                "h": 64,
                "w": 64,
                "x": 0,
                "y": 384
            },
            "rotated": false,
            "scale": {
                "x": 1.0,
                "y": 1.0,
                "z": 1.0
            },
            "sourceSize": {
                "h": 64,
                "w": 64
            },
            "spriteSourceSize": {
                "h": 64,
                "w": 64,
                "x": 0,
                "y": 0
            },
            "trimmed": false
        },
        {
            "filename": "sg_bodong00013_00001.png",
            "frame": {
                "h": 64,
                "w": 64,
                "x": 0,
                "y": 320
            },
            "rotated": false,
            "scale": {
                "x": 1.0,
                "y": 1.0,
                "z": 1.0
            },
            "sourceSize": {
                "h": 64,
                "w": 64
            },
            "spriteSourceSize": {
                "h": 64,
                "w": 64,
                "x": 0,
                "y": 0
            },
            "trimmed": false
        },
        {
            "filename": "sg_bodong00013_00002.png",
            "frame": {
                "h": 64,
                "w": 64,
                "x": 0,
                "y": 256
            },
            "rotated": false,
            "scale": {
                "x": 1.0,
                "y": 1.0,
                "z": 1.0
            },
            "sourceSize": {
                "h": 64,
                "w": 64
            },
            "spriteSourceSize": {
                "h": 64,
                "w": 64,
                "x": 0,
                "y": 0
            },
            "trimmed": false
        },
        {
            "filename": "sg_bodong00013_00003.png",
            "frame": {
                "h": 64,
                "w": 64,
                "x": 192,
                "y": 192
            },
            "rotated": false,
            "scale": {
                "x": 1.0,
                "y": 1.0,
                "z": 1.0
            },
            "sourceSize": {
                "h": 64,
                "w": 64
            },
            "spriteSourceSize": {
                "h": 64,
                "w": 64,
                "x": 0,
                "y": 0
            },
            "trimmed": false
        },
        {
            "filename": "sg_bodong00013_00004.png",
            "frame": {
                "h": 64,
                "w": 64,
                "x": 128,
                "y": 192
            },
            "rotated": false,
            "scale": {
                "x": 1.0,
                "y": 1.0,
                "z": 1.0
            },
            "sourceSize": {
                "h": 64,
                "w": 64
            },
            "spriteSourceSize": {
                "h": 64,
                "w": 64,
                "x": 0,
                "y": 0
            },
            "trimmed": false
        },
        {
            "filename": "sg_bodong00013_00005.png",
            "frame": {
                "h": 64,
                "w": 64,
                "x": 64,
                "y": 192
            },
            "rotated": false,
            "scale": {
                "x": 1.0,
                "y": 1.0,
                "z": 1.0
            },
            "sourceSize": {
                "h": 64,
                "w": 64
            },
            "spriteSourceSize": {
                "h": 64,
                "w": 64,
                "x": 0,
                "y": 0
            },
            "trimmed": false
        },
        {
            "filename": "sg_bodong00013_00006.png",
            "frame": {
                "h": 64,
                "w": 64,
                "x": 0,
                "y": 192
            },
            "rotated": false,
            "scale": {
                "x": 1.0,
                "y": 1.0,
                "z": 1.0
            },
            "sourceSize": {
                "h": 64,
                "w": 64
            },
            "spriteSourceSize": {
                "h": 64,
                "w": 64,
                "x": 0,
                "y": 0
            },
            "trimmed": false
        },
        {
            "filename": "sg_bodong00013_00007.png",
            "frame": {
                "h": 64,
                "w": 64,
                "x": 192,
                "y": 128
            },
            "rotated": false,
            "scale": {
                "x": 1.0,
                "y": 1.0,
                "z": 1.0
            },
            "sourceSize": {
                "h": 64,
                "w": 64
            },
            "spriteSourceSize": {
                "h": 64,
                "w": 64,
                "x": 0,
                "y": 0
            },
            "trimmed": false
        },
        {
            "filename": "sg_bodong00013_00008.png",
            "frame": {
                "h": 64,
                "w": 64,
                "x": 128,
                "y": 128
            },
            "rotated": false,
            "scale": {
                "x": 1.0,
                "y": 1.0,
                "z": 1.0
            },
            "sourceSize": {
                "h": 64,
                "w": 64
            },
            "spriteSourceSize": {
                "h": 64,
                "w": 64,
                "x": 0,
                "y": 0
            },
            "trimmed": false
        },
        {
            "filename": "sg_bodong00013_00009.png",
            "frame": {
                "h": 64,
                "w": 64,
                "x": 64,
                "y": 128
            },
            "rotated": false,
            "scale": {
                "x": 1.0,
                "y": 1.0,
                "z": 1.0
            },
            "sourceSize": {
                "h": 64,
                "w": 64
            },
            "spriteSourceSize": {
                "h": 64,
                "w": 64,
                "x": 0,
                "y": 0
            },
            "trimmed": false
        },
        {
            "filename": "sg_bodong00013_00010.png",
            "frame": {
                "h": 64,
                "w": 64,
                "x": 0,
                "y": 128
            },
            "rotated": false,
            "scale": {
                "x": 1.0,
                "y": 1.0,
                "z": 1.0
            },
            "sourceSize": {
                "h": 64,
                "w": 64
            },
            "spriteSourceSize": {
                "h": 64,
                "w": 64,
                "x": 0,
                "y": 0
            },
            "trimmed": false
        },
        {
            "filename": "sg_bodong00013_00011.png",
            "frame": {
                "h": 64,
                "w": 64,
                "x": 192,
                "y": 64
            },
            "rotated": false,
            "scale": {
                "x": 1.0,
                "y": 1.0,
                "z": 1.0
            },
            "sourceSize": {
                "h": 64,
                "w": 64
            },
            "spriteSourceSize": {
                "h": 64,
                "w": 64,
                "x": 0,
                "y": 0
            },
            "trimmed": false
        },
        {
            "filename": "sg_bodong00013_00012.png",
            "frame": {
                "h": 64,
                "w": 64,
                "x": 128,
                "y": 64
            },
            "rotated": false,
            "scale": {
                "x": 1.0,
                "y": 1.0,
                "z": 1.0
            },
            "sourceSize": {
                "h": 64,
                "w": 64
            },
            "spriteSourceSize": {
                "h": 64,
                "w": 64,
                "x": 0,
                "y": 0
            },
            "trimmed": false
        },
        {
            "filename": "sg_bodong00013_00013.png",
            "frame": {
                "h": 64,
                "w": 64,
                "x": 64,
                "y": 64
            },
            "rotated": false,
            "scale": {
                "x": 1.0,
                "y": 1.0,
                "z": 1.0
            },
            "sourceSize": {
                "h": 64,
                "w": 64
            },
            "spriteSourceSize": {
                "h": 64,
                "w": 64,
                "x": 0,
                "y": 0
            },
            "trimmed": false
        },
        {
            "filename": "sg_bodong00013_00014.png",
            "frame": {
                "h": 64,
                "w": 64,
                "x": 0,
                "y": 64
            },
            "rotated": false,
            "scale": {
                "x": 1.0,
                "y": 1.0,
                "z": 1.0
            },
            "sourceSize": {
                "h": 64,
                "w": 64
            },
            "spriteSourceSize": {
                "h": 64,
                "w": 64,
                "x": 0,
                "y": 0
            },
            "trimmed": false
        },
        {
            "filename": "sg_bodong00013_00015.png",
            "frame": {
                "h": 64,
                "w": 64,
                "x": 192,
                "y": 0
            },
            "rotated": false,
            "scale": {
                "x": 1.0,
                "y": 1.0,
                "z": 1.0
            },
            "sourceSize": {
                "h": 64,
                "w": 64
            },
            "spriteSourceSize": {
                "h": 64,
                "w": 64,
                "x": 0,
                "y": 0
            },
            "trimmed": false
        },
        {
            "filename": "sg_bodong00013_00016.png",
            "frame": {
                "h": 64,
                "w": 64,
                "x": 128,
                "y": 0
            },
            "rotated": false,
            "scale": {
                "x": 1.0,
                "y": 1.0,
                "z": 1.0
            },
            "sourceSize": {
                "h": 64,
                "w": 64
            },
            "spriteSourceSize": {
                "h": 64,
                "w": 64,
                "x": 0,
                "y": 0
            },
            "trimmed": false
        },
        {
            "filename": "sg_bodong00013_00017.png",
            "frame": {
                "h": 64,
                "w": 64,
                "x": 64,
                "y": 0
            },
            "rotated": false,
            "scale": {
                "x": 1.0,
                "y": 1.0,
                "z": 1.0
            },
            "sourceSize": {
                "h": 64,
                "w": 64
            },
            "spriteSourceSize": {
                "h": 64,
                "w": 64,
                "x": 0,
                "y": 0
            },
            "trimmed": false
        },
        {
            "filename": "sg_bodong00013_00018.png",
            "frame": {
                "h": 64,
                "w": 64,
                "x": 0,
                "y": 0
            },
            "rotated": false,
            "scale": {
                "x": 1.0,
                "y": 1.0,
                "z": 1.0
            },
            "sourceSize": {
                "h": 64,
                "w": 64
            },
            "spriteSourceSize": {
                "h": 64,
                "w": 64,
                "x": 0,
                "y": 0
            },
            "trimmed": false
        }
    ],
    "meta": {
        "app": "http://www.texturepacker.com",
        "format": "RGBA8888",
        "image": "sg_wqylq_bodong.png",
        "scale": "1",
        "size": {
            "h": 512,
            "w": 256
        },
        "smartupdate": "$TexturePacker:SmartUpdate:288170ffe0531a158e9d7d43cb05c3cd$",
        "version": "1.0"
    }
}