{
    "frames": [
        {
            "filename": "wenli61_f_djs_00000.png",
            "frame": {
                "h": 256,
                "w": 128,
                "x": 775,
                "y": 258
            },
            "rotated": false,
            "scale": {
                "x": 1.0,
                "y": 1.0,
                "z": 1.0
            },
            "sourceSize": {
                "h": 256,
                "w": 128
            },
            "spriteSourceSize": {
                "h": 256,
                "w": 128,
                "x": 0,
                "y": 0
            },
            "trimmed": false
        },
        {
            "filename": "wenli61_f_djs_00001.png",
            "frame": {
                "h": 256,
                "w": 128,
                "x": 646,
                "y": 258
            },
            "rotated": false,
            "scale": {
                "x": 1.0,
                "y": 1.0,
                "z": 1.0
            },
            "sourceSize": {
                "h": 256,
                "w": 128
            },
            "spriteSourceSize": {
                "h": 256,
                "w": 128,
                "x": 0,
                "y": 0
            },
            "trimmed": false
        },
        {
            "filename": "wenli61_f_djs_00002.png",
            "frame": {
                "h": 256,
                "w": 128,
                "x": 517,
                "y": 258
            },
            "rotated": false,
            "scale": {
                "x": 1.0,
                "y": 1.0,
                "z": 1.0
            },
            "sourceSize": {
                "h": 256,
                "w": 128
            },
            "spriteSourceSize": {
                "h": 256,
                "w": 128,
                "x": 0,
                "y": 0
            },
            "trimmed": false
        },
        {
            "filename": "wenli61_f_djs_00003.png",
            "frame": {
                "h": 256,
                "w": 128,
                "x": 388,
                "y": 515
            },
            "rotated": false,
            "scale": {
                "x": 1.0,
                "y": 1.0,
                "z": 1.0
            },
            "sourceSize": {
                "h": 256,
                "w": 128
            },
            "spriteSourceSize": {
                "h": 256,
                "w": 128,
                "x": 0,
                "y": 0
            },
            "trimmed": false
        },
        {
            "filename": "wenli61_f_djs_00004.png",
            "frame": {
                "h": 256,
                "w": 128,
                "x": 388,
                "y": 258
            },
            "rotated": false,
            "scale": {
                "x": 1.0,
                "y": 1.0,
                "z": 1.0
            },
            "sourceSize": {
                "h": 256,
                "w": 128
            },
            "spriteSourceSize": {
                "h": 256,
                "w": 128,
                "x": 0,
                "y": 0
            },
            "trimmed": false
        },
        {
            "filename": "wenli61_f_djs_00005.png",
            "frame": {
                "h": 256,
                "w": 128,
                "x": 259,
                "y": 515
            },
            "rotated": false,
            "scale": {
                "x": 1.0,
                "y": 1.0,
                "z": 1.0
            },
            "sourceSize": {
                "h": 256,
                "w": 128
            },
            "spriteSourceSize": {
                "h": 256,
                "w": 128,
                "x": 0,
                "y": 0
            },
            "trimmed": false
        },
        {
            "filename": "wenli61_f_djs_00006.png",
            "frame": {
                "h": 256,
                "w": 128,
                "x": 259,
                "y": 258
            },
            "rotated": false,
            "scale": {
                "x": 1.0,
                "y": 1.0,
                "z": 1.0
            },
            "sourceSize": {
                "h": 256,
                "w": 128
            },
            "spriteSourceSize": {
                "h": 256,
                "w": 128,
                "x": 0,
                "y": 0
            },
            "trimmed": false
        },
        {
            "filename": "wenli61_f_djs_00007.png",
            "frame": {
                "h": 256,
                "w": 128,
                "x": 775,
                "y": 1
            },
            "rotated": false,
            "scale": {
                "x": 1.0,
                "y": 1.0,
                "z": 1.0
            },
            "sourceSize": {
                "h": 256,
                "w": 128
            },
            "spriteSourceSize": {
                "h": 256,
                "w": 128,
                "x": 0,
                "y": 0
            },
            "trimmed": false
        },
        {
            "filename": "wenli61_f_djs_00008.png",
            "frame": {
                "h": 256,
                "w": 128,
                "x": 646,
                "y": 1
            },
            "rotated": false,
            "scale": {
                "x": 1.0,
                "y": 1.0,
                "z": 1.0
            },
            "sourceSize": {
                "h": 256,
                "w": 128
            },
            "spriteSourceSize": {
                "h": 256,
                "w": 128,
                "x": 0,
                "y": 0
            },
            "trimmed": false
        },
        {
            "filename": "wenli61_f_djs_00009.png",
            "frame": {
                "h": 256,
                "w": 128,
                "x": 517,
                "y": 1
            },
            "rotated": false,
            "scale": {
                "x": 1.0,
                "y": 1.0,
                "z": 1.0
            },
            "sourceSize": {
                "h": 256,
                "w": 128
            },
            "spriteSourceSize": {
                "h": 256,
                "w": 128,
                "x": 0,
                "y": 0
            },
            "trimmed": false
        },
        {
            "filename": "wenli61_f_djs_00010.png",
            "frame": {
                "h": 256,
                "w": 128,
                "x": 388,
                "y": 1
            },
            "rotated": false,
            "scale": {
                "x": 1.0,
                "y": 1.0,
                "z": 1.0
            },
            "sourceSize": {
                "h": 256,
                "w": 128
            },
            "spriteSourceSize": {
                "h": 256,
                "w": 128,
                "x": 0,
                "y": 0
            },
            "trimmed": false
        },
        {
            "filename": "wenli61_f_djs_00011.png",
            "frame": {
                "h": 256,
                "w": 128,
                "x": 259,
                "y": 1
            },
            "rotated": false,
            "scale": {
                "x": 1.0,
                "y": 1.0,
                "z": 1.0
            },
            "sourceSize": {
                "h": 256,
                "w": 128
            },
            "spriteSourceSize": {
                "h": 256,
                "w": 128,
                "x": 0,
                "y": 0
            },
            "trimmed": false
        },
        {
            "filename": "wenli61_f_djs_00012.png",
            "frame": {
                "h": 256,
                "w": 128,
                "x": 130,
                "y": 515
            },
            "rotated": false,
            "scale": {
                "x": 1.0,
                "y": 1.0,
                "z": 1.0
            },
            "sourceSize": {
                "h": 256,
                "w": 128
            },
            "spriteSourceSize": {
                "h": 256,
                "w": 128,
                "x": 0,
                "y": 0
            },
            "trimmed": false
        },
        {
            "filename": "wenli61_f_djs_00013.png",
            "frame": {
                "h": 256,
                "w": 128,
                "x": 130,
                "y": 258
            },
            "rotated": false,
            "scale": {
                "x": 1.0,
                "y": 1.0,
                "z": 1.0
            },
            "sourceSize": {
                "h": 256,
                "w": 128
            },
            "spriteSourceSize": {
                "h": 256,
                "w": 128,
                "x": 0,
                "y": 0
            },
            "trimmed": false
        },
        {
            "filename": "wenli61_f_djs_00014.png",
            "frame": {
                "h": 256,
                "w": 128,
                "x": 130,
                "y": 1
            },
            "rotated": false,
            "scale": {
                "x": 1.0,
                "y": 1.0,
                "z": 1.0
            },
            "sourceSize": {
                "h": 256,
                "w": 128
            },
            "spriteSourceSize": {
                "h": 256,
                "w": 128,
                "x": 0,
                "y": 0
            },
            "trimmed": false
        },
        {
            "filename": "wenli61_f_djs_00015.png",
            "frame": {
                "h": 256,
                "w": 128,
                "x": 1,
                "y": 515
            },
            "rotated": false,
            "scale": {
                "x": 1.0,
                "y": 1.0,
                "z": 1.0
            },
            "sourceSize": {
                "h": 256,
                "w": 128
            },
            "spriteSourceSize": {
                "h": 256,
                "w": 128,
                "x": 0,
                "y": 0
            },
            "trimmed": false
        },
        {
            "filename": "wenli61_f_djs_00016.png",
            "frame": {
                "h": 256,
                "w": 128,
                "x": 1,
                "y": 258
            },
            "rotated": false,
            "scale": {
                "x": 1.0,
                "y": 1.0,
                "z": 1.0
            },
            "sourceSize": {
                "h": 256,
                "w": 128
            },
            "spriteSourceSize": {
                "h": 256,
                "w": 128,
                "x": 0,
                "y": 0
            },
            "trimmed": false
        },
        {
            "filename": "wenli61_f_djs_00017.png",
            "frame": {
                "h": 256,
                "w": 128,
                "x": 1,
                "y": 1
            },
            "rotated": false,
            "scale": {
                "x": 1.0,
                "y": 1.0,
                "z": 1.0
            },
            "sourceSize": {
                "h": 256,
                "w": 128
            },
            "spriteSourceSize": {
                "h": 256,
                "w": 128,
                "x": 0,
                "y": 0
            },
            "trimmed": false
        }
    ],
    "meta": {
        "app": "http://www.texturepacker.com",
        "format": "RGBA8888",
        "image": "sg_zq_liuguang_05.png",
        "scale": "1",
        "size": {
            "h": 1024,
            "w": 1024
        },
        "smartupdate": "$TexturePacker:SmartUpdate:daf3a82059bc2e557960a5a91c79255a$",
        "version": "1.0"
    }
}