{
    "frames": [
        {
            "filename": "sg_zuoqi_chitu_huo_06_00000.png",
            "frame": {
                "h": 54,
                "w": 120,
                "x": 122,
                "y": 386
            },
            "rotated": false,
            "scale": {
                "x": 1.0,
                "y": 1.0,
                "z": 1.0
            },
            "sourceSize": {
                "h": 54,
                "w": 120
            },
            "spriteSourceSize": {
                "h": 54,
                "w": 120,
                "x": 0,
                "y": 0
            },
            "trimmed": false
        },
        {
            "filename": "sg_zuoqi_chitu_huo_06_00001.png",
            "frame": {
                "h": 54,
                "w": 120,
                "x": 1,
                "y": 386
            },
            "rotated": false,
            "scale": {
                "x": 1.0,
                "y": 1.0,
                "z": 1.0
            },
            "sourceSize": {
                "h": 54,
                "w": 120
            },
            "spriteSourceSize": {
                "h": 54,
                "w": 120,
                "x": 0,
                "y": 0
            },
            "trimmed": false
        },
        {
            "filename": "sg_zuoqi_chitu_huo_06_00002.png",
            "frame": {
                "h": 54,
                "w": 120,
                "x": 122,
                "y": 331
            },
            "rotated": false,
            "scale": {
                "x": 1.0,
                "y": 1.0,
                "z": 1.0
            },
            "sourceSize": {
                "h": 54,
                "w": 120
            },
            "spriteSourceSize": {
                "h": 54,
                "w": 120,
                "x": 0,
                "y": 0
            },
            "trimmed": false
        },
        {
            "filename": "sg_zuoqi_chitu_huo_06_00003.png",
            "frame": {
                "h": 54,
                "w": 120,
                "x": 1,
                "y": 331
            },
            "rotated": false,
            "scale": {
                "x": 1.0,
                "y": 1.0,
                "z": 1.0
            },
            "sourceSize": {
                "h": 54,
                "w": 120
            },
            "spriteSourceSize": {
                "h": 54,
                "w": 120,
                "x": 0,
                "y": 0
            },
            "trimmed": false
        },
        {
            "filename": "sg_zuoqi_chitu_huo_06_00004.png",
            "frame": {
                "h": 54,
                "w": 120,
                "x": 122,
                "y": 276
            },
            "rotated": false,
            "scale": {
                "x": 1.0,
                "y": 1.0,
                "z": 1.0
            },
            "sourceSize": {
                "h": 54,
                "w": 120
            },
            "spriteSourceSize": {
                "h": 54,
                "w": 120,
                "x": 0,
                "y": 0
            },
            "trimmed": false
        },
        {
            "filename": "sg_zuoqi_chitu_huo_06_00005.png",
            "frame": {
                "h": 54,
                "w": 120,
                "x": 1,
                "y": 276
            },
            "rotated": false,
            "scale": {
                "x": 1.0,
                "y": 1.0,
                "z": 1.0
            },
            "sourceSize": {
                "h": 54,
                "w": 120
            },
            "spriteSourceSize": {
                "h": 54,
                "w": 120,
                "x": 0,
                "y": 0
            },
            "trimmed": false
        },
        {
            "filename": "sg_zuoqi_chitu_huo_06_00006.png",
            "frame": {
                "h": 54,
                "w": 120,
                "x": 122,
                "y": 221
            },
            "rotated": false,
            "scale": {
                "x": 1.0,
                "y": 1.0,
                "z": 1.0
            },
            "sourceSize": {
                "h": 54,
                "w": 120
            },
            "spriteSourceSize": {
                "h": 54,
                "w": 120,
                "x": 0,
                "y": 0
            },
            "trimmed": false
        },
        {
            "filename": "sg_zuoqi_chitu_huo_06_00007.png",
            "frame": {
                "h": 54,
                "w": 120,
                "x": 1,
                "y": 221
            },
            "rotated": false,
            "scale": {
                "x": 1.0,
                "y": 1.0,
                "z": 1.0
            },
            "sourceSize": {
                "h": 54,
                "w": 120
            },
            "spriteSourceSize": {
                "h": 54,
                "w": 120,
                "x": 0,
                "y": 0
            },
            "trimmed": false
        },
        {
            "filename": "sg_zuoqi_chitu_huo_06_00008.png",
            "frame": {
                "h": 54,
                "w": 120,
                "x": 122,
                "y": 166
            },
            "rotated": false,
            "scale": {
                "x": 1.0,
                "y": 1.0,
                "z": 1.0
            },
            "sourceSize": {
                "h": 54,
                "w": 120
            },
            "spriteSourceSize": {
                "h": 54,
                "w": 120,
                "x": 0,
                "y": 0
            },
            "trimmed": false
        },
        {
            "filename": "sg_zuoqi_chitu_huo_06_00009.png",
            "frame": {
                "h": 54,
                "w": 120,
                "x": 1,
                "y": 166
            },
            "rotated": false,
            "scale": {
                "x": 1.0,
                "y": 1.0,
                "z": 1.0
            },
            "sourceSize": {
                "h": 54,
                "w": 120
            },
            "spriteSourceSize": {
                "h": 54,
                "w": 120,
                "x": 0,
                "y": 0
            },
            "trimmed": false
        },
        {
            "filename": "sg_zuoqi_chitu_huo_06_00010.png",
            "frame": {
                "h": 54,
                "w": 120,
                "x": 122,
                "y": 111
            },
            "rotated": false,
            "scale": {
                "x": 1.0,
                "y": 1.0,
                "z": 1.0
            },
            "sourceSize": {
                "h": 54,
                "w": 120
            },
            "spriteSourceSize": {
                "h": 54,
                "w": 120,
                "x": 0,
                "y": 0
            },
            "trimmed": false
        },
        {
            "filename": "sg_zuoqi_chitu_huo_06_00011.png",
            "frame": {
                "h": 54,
                "w": 120,
                "x": 1,
                "y": 111
            },
            "rotated": false,
            "scale": {
                "x": 1.0,
                "y": 1.0,
                "z": 1.0
            },
            "sourceSize": {
                "h": 54,
                "w": 120
            },
            "spriteSourceSize": {
                "h": 54,
                "w": 120,
                "x": 0,
                "y": 0
            },
            "trimmed": false
        },
        {
            "filename": "sg_zuoqi_chitu_huo_06_00012.png",
            "frame": {
                "h": 54,
                "w": 120,
                "x": 122,
                "y": 56
            },
            "rotated": false,
            "scale": {
                "x": 1.0,
                "y": 1.0,
                "z": 1.0
            },
            "sourceSize": {
                "h": 54,
                "w": 120
            },
            "spriteSourceSize": {
                "h": 54,
                "w": 120,
                "x": 0,
                "y": 0
            },
            "trimmed": false
        },
        {
            "filename": "sg_zuoqi_chitu_huo_06_00013.png",
            "frame": {
                "h": 54,
                "w": 120,
                "x": 1,
                "y": 56
            },
            "rotated": false,
            "scale": {
                "x": 1.0,
                "y": 1.0,
                "z": 1.0
            },
            "sourceSize": {
                "h": 54,
                "w": 120
            },
            "spriteSourceSize": {
                "h": 54,
                "w": 120,
                "x": 0,
                "y": 0
            },
            "trimmed": false
        },
        {
            "filename": "sg_zuoqi_chitu_huo_06_00014.png",
            "frame": {
                "h": 54,
                "w": 120,
                "x": 122,
                "y": 1
            },
            "rotated": false,
            "scale": {
                "x": 1.0,
                "y": 1.0,
                "z": 1.0
            },
            "sourceSize": {
                "h": 54,
                "w": 120
            },
            "spriteSourceSize": {
                "h": 54,
                "w": 120,
                "x": 0,
                "y": 0
            },
            "trimmed": false
        },
        {
            "filename": "sg_zuoqi_chitu_huo_06_00015.png",
            "frame": {
                "h": 54,
                "w": 120,
                "x": 1,
                "y": 1
            },
            "rotated": false,
            "scale": {
                "x": 1.0,
                "y": 1.0,
                "z": 1.0
            },
            "sourceSize": {
                "h": 54,
                "w": 120
            },
            "spriteSourceSize": {
                "h": 54,
                "w": 120,
                "x": 0,
                "y": 0
            },
            "trimmed": false
        }
    ],
    "meta": {
        "app": "http://www.texturepacker.com",
        "format": "RGBA8888",
        "image": "sg_zq_huo_25.png",
        "scale": "1",
        "size": {
            "h": 512,
            "w": 256
        },
        "smartupdate": "$TexturePacker:SmartUpdate:eca38a944ecdc5e29ed3fccaf456969a$",
        "version": "1.0"
    }
}