{"frames": [

{
	"filename": "合成_00000.png",
	"frame": {"x":89,"y":241,"w":87,"h":79},
	"rotated": false,
	"trimmed": false,
	"spriteSourceSize": {"x":0,"y":0,"w":87,"h":79},
	"sourceSize": {"w":87,"h":79}
},
{
	"filename": "合成_00001.png",
	"frame": {"x":89,"y":161,"w":87,"h":79},
	"rotated": false,
	"trimmed": false,
	"spriteSourceSize": {"x":0,"y":0,"w":87,"h":79},
	"sourceSize": {"w":87,"h":79}
},
{
	"filename": "合成_00002.png",
	"frame": {"x":353,"y":81,"w":87,"h":79},
	"rotated": false,
	"trimmed": false,
	"spriteSourceSize": {"x":0,"y":0,"w":87,"h":79},
	"sourceSize": {"w":87,"h":79}
},
{
	"filename": "合成_00003.png",
	"frame": {"x":265,"y":81,"w":87,"h":79},
	"rotated": false,
	"trimmed": false,
	"spriteSourceSize": {"x":0,"y":0,"w":87,"h":79},
	"sourceSize": {"w":87,"h":79}
},
{
	"filename": "合成_00004.png",
	"frame": {"x":177,"y":81,"w":87,"h":79},
	"rotated": false,
	"trimmed": false,
	"spriteSourceSize": {"x":0,"y":0,"w":87,"h":79},
	"sourceSize": {"w":87,"h":79}
},
{
	"filename": "合成_00005.png",
	"frame": {"x":89,"y":81,"w":87,"h":79},
	"rotated": false,
	"trimmed": false,
	"spriteSourceSize": {"x":0,"y":0,"w":87,"h":79},
	"sourceSize": {"w":87,"h":79}
},
{
	"filename": "合成_00006.png",
	"frame": {"x":1,"y":401,"w":87,"h":79},
	"rotated": false,
	"trimmed": false,
	"spriteSourceSize": {"x":0,"y":0,"w":87,"h":79},
	"sourceSize": {"w":87,"h":79}
},
{
	"filename": "合成_00007.png",
	"frame": {"x":1,"y":321,"w":87,"h":79},
	"rotated": false,
	"trimmed": false,
	"spriteSourceSize": {"x":0,"y":0,"w":87,"h":79},
	"sourceSize": {"w":87,"h":79}
},
{
	"filename": "合成_00008.png",
	"frame": {"x":1,"y":241,"w":87,"h":79},
	"rotated": false,
	"trimmed": false,
	"spriteSourceSize": {"x":0,"y":0,"w":87,"h":79},
	"sourceSize": {"w":87,"h":79}
},
{
	"filename": "合成_00009.png",
	"frame": {"x":1,"y":161,"w":87,"h":79},
	"rotated": false,
	"trimmed": false,
	"spriteSourceSize": {"x":0,"y":0,"w":87,"h":79},
	"sourceSize": {"w":87,"h":79}
},
{
	"filename": "合成_00010.png",
	"frame": {"x":1,"y":81,"w":87,"h":79},
	"rotated": false,
	"trimmed": false,
	"spriteSourceSize": {"x":0,"y":0,"w":87,"h":79},
	"sourceSize": {"w":87,"h":79}
},
{
	"filename": "合成_00011.png",
	"frame": {"x":353,"y":1,"w":87,"h":79},
	"rotated": false,
	"trimmed": false,
	"spriteSourceSize": {"x":0,"y":0,"w":87,"h":79},
	"sourceSize": {"w":87,"h":79}
},
{
	"filename": "合成_00012.png",
	"frame": {"x":265,"y":1,"w":87,"h":79},
	"rotated": false,
	"trimmed": false,
	"spriteSourceSize": {"x":0,"y":0,"w":87,"h":79},
	"sourceSize": {"w":87,"h":79}
},
{
	"filename": "合成_00013.png",
	"frame": {"x":177,"y":1,"w":87,"h":79},
	"rotated": false,
	"trimmed": false,
	"spriteSourceSize": {"x":0,"y":0,"w":87,"h":79},
	"sourceSize": {"w":87,"h":79}
},
{
	"filename": "合成_00014.png",
	"frame": {"x":89,"y":1,"w":87,"h":79},
	"rotated": false,
	"trimmed": false,
	"spriteSourceSize": {"x":0,"y":0,"w":87,"h":79},
	"sourceSize": {"w":87,"h":79}
},
{
	"filename": "合成_00015.png",
	"frame": {"x":1,"y":1,"w":87,"h":79},
	"rotated": false,
	"trimmed": false,
	"spriteSourceSize": {"x":0,"y":0,"w":87,"h":79},
	"sourceSize": {"w":87,"h":79}
}],
"meta": {
	"app": "http://www.texturepacker.com",
	"version": "1.0",
	"image": "sg_shandian_10.png",
	"format": "RGBA8888",
	"size": {"w":512,"h":512},
	"scale": "1",
	"smartupdate": "$TexturePacker:SmartUpdate:562fd3d86e701bc56da1899c641c4b04$"
}
}
