{
  "frames": [
    {
      "filename": "star03_dr_00000.png",
      "frame": {
        "h": 41,
        "w": 43,
        "x": 137,
        "y": 45
      },
      "rotated": false,
      "scale": {
        "x": 1.0,
        "y": 1.0,
        "z": 1.0
      },
      "sourceSize": {
        "h": 43,
        "w": 43
      },
      "spriteSourceSize": {
        "h": 41,
        "w": 43,
        "x": 0,
        "y": 1
      },
      "trimmed": true
    },
    {
      "filename": "star03_dr_00001.png",
      "frame": {
        "h": 41,
        "w": 43,
        "x": 92,
        "y": 45
      },
      "rotated": false,
      "scale": {
        "x": 1.0,
        "y": 1.0,
        "z": 1.0
      },
      "sourceSize": {
        "h": 43,
        "w": 43
      },
      "spriteSourceSize": {
        "h": 41,
        "w": 43,
        "x": 0,
        "y": 1
      },
      "trimmed": true
    },
    {
      "filename": "star03_dr_00002.png",
      "frame": {
        "h": 41,
        "w": 43,
        "x": 47,
        "y": 45
      },
      "rotated": false,
      "scale": {
        "x": 1.0,
        "y": 1.0,
        "z": 1.0
      },
      "sourceSize": {
        "h": 43,
        "w": 43
      },
      "spriteSourceSize": {
        "h": 41,
        "w": 43,
        "x": 0,
        "y": 1
      },
      "trimmed": true
    },
    {
      "filename": "star03_dr_00003.png",
      "frame": {
        "h": 41,
        "w": 43,
        "x": 2,
        "y": 174
      },
      "rotated": false,
      "scale": {
        "x": 1.0,
        "y": 1.0,
        "z": 1.0
      },
      "sourceSize": {
        "h": 43,
        "w": 43
      },
      "spriteSourceSize": {
        "h": 41,
        "w": 43,
        "x": 0,
        "y": 1
      },
      "trimmed": true
    },
    {
      "filename": "star03_dr_00004.png",
      "frame": {
        "h": 41,
        "w": 43,
        "x": 2,
        "y": 131
      },
      "rotated": false,
      "scale": {
        "x": 1.0,
        "y": 1.0,
        "z": 1.0
      },
      "sourceSize": {
        "h": 43,
        "w": 43
      },
      "spriteSourceSize": {
        "h": 41,
        "w": 43,
        "x": 0,
        "y": 1
      },
      "trimmed": true
    },
    {
      "filename": "star03_dr_00005.png",
      "frame": {
        "h": 41,
        "w": 43,
        "x": 2,
        "y": 88
      },
      "rotated": false,
      "scale": {
        "x": 1.0,
        "y": 1.0,
        "z": 1.0
      },
      "sourceSize": {
        "h": 43,
        "w": 43
      },
      "spriteSourceSize": {
        "h": 41,
        "w": 43,
        "x": 0,
        "y": 1
      },
      "trimmed": true
    },
    {
      "filename": "star03_dr_00006.png",
      "frame": {
        "h": 41,
        "w": 43,
        "x": 2,
        "y": 45
      },
      "rotated": false,
      "scale": {
        "x": 1.0,
        "y": 1.0,
        "z": 1.0
      },
      "sourceSize": {
        "h": 43,
        "w": 43
      },
      "spriteSourceSize": {
        "h": 41,
        "w": 43,
        "x": 0,
        "y": 1
      },
      "trimmed": true
    },
    {
      "filename": "star03_dr_00007.png",
      "frame": {
        "h": 41,
        "w": 43,
        "x": 182,
        "y": 2
      },
      "rotated": false,
      "scale": {
        "x": 1.0,
        "y": 1.0,
        "z": 1.0
      },
      "sourceSize": {
        "h": 43,
        "w": 43
      },
      "spriteSourceSize": {
        "h": 41,
        "w": 43,
        "x": 0,
        "y": 1
      },
      "trimmed": true
    },
    {
      "filename": "star03_dr_00008.png",
      "frame": {
        "h": 41,
        "w": 43,
        "x": 137,
        "y": 2
      },
      "rotated": false,
      "scale": {
        "x": 1.0,
        "y": 1.0,
        "z": 1.0
      },
      "sourceSize": {
        "h": 43,
        "w": 43
      },
      "spriteSourceSize": {
        "h": 41,
        "w": 43,
        "x": 0,
        "y": 1
      },
      "trimmed": true
    },
    {
      "filename": "star03_dr_00009.png",
      "frame": {
        "h": 41,
        "w": 43,
        "x": 92,
        "y": 2
      },
      "rotated": false,
      "scale": {
        "x": 1.0,
        "y": 1.0,
        "z": 1.0
      },
      "sourceSize": {
        "h": 43,
        "w": 43
      },
      "spriteSourceSize": {
        "h": 41,
        "w": 43,
        "x": 0,
        "y": 1
      },
      "trimmed": true
    },
    {
      "filename": "star03_dr_00010.png",
      "frame": {
        "h": 41,
        "w": 43,
        "x": 47,
        "y": 2
      },
      "rotated": false,
      "scale": {
        "x": 1.0,
        "y": 1.0,
        "z": 1.0
      },
      "sourceSize": {
        "h": 43,
        "w": 43
      },
      "spriteSourceSize": {
        "h": 41,
        "w": 43,
        "x": 0,
        "y": 1
      },
      "trimmed": true
    },
    {
      "filename": "star03_dr_00011.png",
      "frame": {
        "h": 41,
        "w": 43,
        "x": 2,
        "y": 2
      },
      "rotated": false,
      "scale": {
        "x": 1.0,
        "y": 1.0,
        "z": 1.0
      },
      "sourceSize": {
        "h": 43,
        "w": 43
      },
      "spriteSourceSize": {
        "h": 41,
        "w": 43,
        "x": 0,
        "y": 1
      },
      "trimmed": true
    }
  ],
  "meta": {
    "app": "http://www.texturepacker.com",
    "format": "RGBA8888",
    "image": "sg_zq_star_03.png",
    "scale": "1",
    "size": {
      "h": 256,
      "w": 256
    },
    "smartupdate": "$TexturePacker:SmartUpdate:796c7b46dd4b2a243e5011f3ebeda1e9$",
    "version": "1.0"
  }
}