{
  "frames": [
    {
      "filename": "long2_00000.png",
      "frame": {
        "h": 128,
        "w": 128,
        "x": 384,
        "y": 384
      },
      "rotated": false,
      "scale": {
        "x": 1.0,
        "y": 1.0,
        "z": 1.0
      },
      "sourceSize": {
        "h": 128,
        "w": 128
      },
      "spriteSourceSize": {
        "h": 128,
        "w": 128,
        "x": 0,
        "y": 0
      },
      "trimmed": false
    },
    {
      "filename": "long2_00001.png",
      "frame": {
        "h": 128,
        "w": 128,
        "x": 384,
        "y": 256
      },
      "rotated": false,
      "scale": {
        "x": 1.0,
        "y": 1.0,
        "z": 1.0
      },
      "sourceSize": {
        "h": 128,
        "w": 128
      },
      "spriteSourceSize": {
        "h": 128,
        "w": 128,
        "x": 0,
        "y": 0
      },
      "trimmed": false
    },
    {
      "filename": "long2_00002.png",
      "frame": {
        "h": 128,
        "w": 128,
        "x": 256,
        "y": 384
      },
      "rotated": false,
      "scale": {
        "x": 1.0,
        "y": 1.0,
        "z": 1.0
      },
      "sourceSize": {
        "h": 128,
        "w": 128
      },
      "spriteSourceSize": {
        "h": 128,
        "w": 128,
        "x": 0,
        "y": 0
      },
      "trimmed": false
    },
    {
      "filename": "long2_00003.png",
      "frame": {
        "h": 128,
        "w": 128,
        "x": 256,
        "y": 256
      },
      "rotated": false,
      "scale": {
        "x": 1.0,
        "y": 1.0,
        "z": 1.0
      },
      "sourceSize": {
        "h": 128,
        "w": 128
      },
      "spriteSourceSize": {
        "h": 128,
        "w": 128,
        "x": 0,
        "y": 0
      },
      "trimmed": false
    },
    {
      "filename": "long2_00004.png",
      "frame": {
        "h": 128,
        "w": 128,
        "x": 384,
        "y": 128
      },
      "rotated": false,
      "scale": {
        "x": 1.0,
        "y": 1.0,
        "z": 1.0
      },
      "sourceSize": {
        "h": 128,
        "w": 128
      },
      "spriteSourceSize": {
        "h": 128,
        "w": 128,
        "x": 0,
        "y": 0
      },
      "trimmed": false
    },
    {
      "filename": "long2_00005.png",
      "frame": {
        "h": 128,
        "w": 128,
        "x": 256,
        "y": 128
      },
      "rotated": false,
      "scale": {
        "x": 1.0,
        "y": 1.0,
        "z": 1.0
      },
      "sourceSize": {
        "h": 128,
        "w": 128
      },
      "spriteSourceSize": {
        "h": 128,
        "w": 128,
        "x": 0,
        "y": 0
      },
      "trimmed": false
    },
    {
      "filename": "long2_00006.png",
      "frame": {
        "h": 128,
        "w": 128,
        "x": 128,
        "y": 384
      },
      "rotated": false,
      "scale": {
        "x": 1.0,
        "y": 1.0,
        "z": 1.0
      },
      "sourceSize": {
        "h": 128,
        "w": 128
      },
      "spriteSourceSize": {
        "h": 128,
        "w": 128,
        "x": 0,
        "y": 0
      },
      "trimmed": false
    },
    {
      "filename": "long2_00007.png",
      "frame": {
        "h": 128,
        "w": 128,
        "x": 128,
        "y": 256
      },
      "rotated": false,
      "scale": {
        "x": 1.0,
        "y": 1.0,
        "z": 1.0
      },
      "sourceSize": {
        "h": 128,
        "w": 128
      },
      "spriteSourceSize": {
        "h": 128,
        "w": 128,
        "x": 0,
        "y": 0
      },
      "trimmed": false
    },
    {
      "filename": "long2_00008.png",
      "frame": {
        "h": 128,
        "w": 128,
        "x": 128,
        "y": 128
      },
      "rotated": false,
      "scale": {
        "x": 1.0,
        "y": 1.0,
        "z": 1.0
      },
      "sourceSize": {
        "h": 128,
        "w": 128
      },
      "spriteSourceSize": {
        "h": 128,
        "w": 128,
        "x": 0,
        "y": 0
      },
      "trimmed": false
    },
    {
      "filename": "long2_00009.png",
      "frame": {
        "h": 128,
        "w": 128,
        "x": 384,
        "y": 0
      },
      "rotated": false,
      "scale": {
        "x": 1.0,
        "y": 1.0,
        "z": 1.0
      },
      "sourceSize": {
        "h": 128,
        "w": 128
      },
      "spriteSourceSize": {
        "h": 128,
        "w": 128,
        "x": 0,
        "y": 0
      },
      "trimmed": false
    },
    {
      "filename": "long2_00010.png",
      "frame": {
        "h": 128,
        "w": 128,
        "x": 256,
        "y": 0
      },
      "rotated": false,
      "scale": {
        "x": 1.0,
        "y": 1.0,
        "z": 1.0
      },
      "sourceSize": {
        "h": 128,
        "w": 128
      },
      "spriteSourceSize": {
        "h": 128,
        "w": 128,
        "x": 0,
        "y": 0
      },
      "trimmed": false
    },
    {
      "filename": "long2_00011.png",
      "frame": {
        "h": 128,
        "w": 128,
        "x": 128,
        "y": 0
      },
      "rotated": false,
      "scale": {
        "x": 1.0,
        "y": 1.0,
        "z": 1.0
      },
      "sourceSize": {
        "h": 128,
        "w": 128
      },
      "spriteSourceSize": {
        "h": 128,
        "w": 128,
        "x": 0,
        "y": 0
      },
      "trimmed": false
    },
    {
      "filename": "long2_00012.png",
      "frame": {
        "h": 128,
        "w": 128,
        "x": 0,
        "y": 384
      },
      "rotated": false,
      "scale": {
        "x": 1.0,
        "y": 1.0,
        "z": 1.0
      },
      "sourceSize": {
        "h": 128,
        "w": 128
      },
      "spriteSourceSize": {
        "h": 128,
        "w": 128,
        "x": 0,
        "y": 0
      },
      "trimmed": false
    },
    {
      "filename": "long2_00013.png",
      "frame": {
        "h": 128,
        "w": 128,
        "x": 0,
        "y": 256
      },
      "rotated": false,
      "scale": {
        "x": 1.0,
        "y": 1.0,
        "z": 1.0
      },
      "sourceSize": {
        "h": 128,
        "w": 128
      },
      "spriteSourceSize": {
        "h": 128,
        "w": 128,
        "x": 0,
        "y": 0
      },
      "trimmed": false
    },
    {
      "filename": "long2_00014.png",
      "frame": {
        "h": 128,
        "w": 128,
        "x": 0,
        "y": 128
      },
      "rotated": false,
      "scale": {
        "x": 1.0,
        "y": 1.0,
        "z": 1.0
      },
      "sourceSize": {
        "h": 128,
        "w": 128
      },
      "spriteSourceSize": {
        "h": 128,
        "w": 128,
        "x": 0,
        "y": 0
      },
      "trimmed": false
    },
    {
      "filename": "long2_00015.png",
      "frame": {
        "h": 128,
        "w": 128,
        "x": 0,
        "y": 0
      },
      "rotated": false,
      "scale": {
        "x": 1.0,
        "y": 1.0,
        "z": 1.0
      },
      "sourceSize": {
        "h": 128,
        "w": 128
      },
      "spriteSourceSize": {
        "h": 128,
        "w": 128,
        "x": 0,
        "y": 0
      },
      "trimmed": false
    }
  ],
  "meta": {
    "app": "http://www.texturepacker.com",
    "format": "RGBA8888",
    "image": "sg_zy_ylfz07_jin.png",
    "scale": "1",
    "size": {
      "h": 512,
      "w": 512
    },
    "smartupdate": "$TexturePacker:SmartUpdate:c8547c6964b243d08c4a16401881018e$",
    "version": "1.0"
  }
}