{
  "frames": [
    {
      "filename": "01 \u5408\u6210 1_00000.png",
      "frame": {
        "h": 32,
        "w": 32,
        "x": 96,
        "y": 96
      },
      "rotated": false,
      "sourceSize": {
        "h": 32,
        "w": 32
      },
      "spriteSourceSize": {
        "h": 32,
        "w": 32,
        "x": 0,
        "y": 0
      },
      "trimmed": false
    },
    {
      "filename": "01 \u5408\u6210 1_00001.png",
      "frame": {
        "h": 32,
        "w": 32,
        "x": 96,
        "y": 64
      },
      "rotated": false,
      "sourceSize": {
        "h": 32,
        "w": 32
      },
      "spriteSourceSize": {
        "h": 32,
        "w": 32,
        "x": 0,
        "y": 0
      },
      "trimmed": false
    },
    {
      "filename": "01 \u5408\u6210 1_00002.png",
      "frame": {
        "h": 32,
        "w": 32,
        "x": 64,
        "y": 96
      },
      "rotated": false,
      "sourceSize": {
        "h": 32,
        "w": 32
      },
      "spriteSourceSize": {
        "h": 32,
        "w": 32,
        "x": 0,
        "y": 0
      },
      "trimmed": false
    },
    {
      "filename": "01 \u5408\u6210 1_00003.png",
      "frame": {
        "h": 32,
        "w": 32,
        "x": 64,
        "y": 64
      },
      "rotated": false,
      "sourceSize": {
        "h": 32,
        "w": 32
      },
      "spriteSourceSize": {
        "h": 32,
        "w": 32,
        "x": 0,
        "y": 0
      },
      "trimmed": false
    },
    {
      "filename": "01 \u5408\u6210 1_00004.png",
      "frame": {
        "h": 32,
        "w": 32,
        "x": 96,
        "y": 32
      },
      "rotated": false,
      "sourceSize": {
        "h": 32,
        "w": 32
      },
      "spriteSourceSize": {
        "h": 32,
        "w": 32,
        "x": 0,
        "y": 0
      },
      "trimmed": false
    },
    {
      "filename": "01 \u5408\u6210 1_00005.png",
      "frame": {
        "h": 32,
        "w": 32,
        "x": 64,
        "y": 32
      },
      "rotated": false,
      "sourceSize": {
        "h": 32,
        "w": 32
      },
      "spriteSourceSize": {
        "h": 32,
        "w": 32,
        "x": 0,
        "y": 0
      },
      "trimmed": false
    },
    {
      "filename": "01 \u5408\u6210 1_00006.png",
      "frame": {
        "h": 32,
        "w": 32,
        "x": 32,
        "y": 96
      },
      "rotated": false,
      "sourceSize": {
        "h": 32,
        "w": 32
      },
      "spriteSourceSize": {
        "h": 32,
        "w": 32,
        "x": 0,
        "y": 0
      },
      "trimmed": false
    },
    {
      "filename": "01 \u5408\u6210 1_00007.png",
      "frame": {
        "h": 32,
        "w": 32,
        "x": 32,
        "y": 64
      },
      "rotated": false,
      "sourceSize": {
        "h": 32,
        "w": 32
      },
      "spriteSourceSize": {
        "h": 32,
        "w": 32,
        "x": 0,
        "y": 0
      },
      "trimmed": false
    },
    {
      "filename": "01 \u5408\u6210 1_00008.png",
      "frame": {
        "h": 32,
        "w": 32,
        "x": 32,
        "y": 32
      },
      "rotated": false,
      "sourceSize": {
        "h": 32,
        "w": 32
      },
      "spriteSourceSize": {
        "h": 32,
        "w": 32,
        "x": 0,
        "y": 0
      },
      "trimmed": false
    },
    {
      "filename": "01 \u5408\u6210 1_00009.png",
      "frame": {
        "h": 32,
        "w": 32,
        "x": 96,
        "y": 0
      },
      "rotated": false,
      "sourceSize": {
        "h": 32,
        "w": 32
      },
      "spriteSourceSize": {
        "h": 32,
        "w": 32,
        "x": 0,
        "y": 0
      },
      "trimmed": false
    },
    {
      "filename": "01 \u5408\u6210 1_00010.png",
      "frame": {
        "h": 32,
        "w": 32,
        "x": 64,
        "y": 0
      },
      "rotated": false,
      "sourceSize": {
        "h": 32,
        "w": 32
      },
      "spriteSourceSize": {
        "h": 32,
        "w": 32,
        "x": 0,
        "y": 0
      },
      "trimmed": false
    },
    {
      "filename": "01 \u5408\u6210 1_00011.png",
      "frame": {
        "h": 32,
        "w": 32,
        "x": 32,
        "y": 0
      },
      "rotated": false,
      "sourceSize": {
        "h": 32,
        "w": 32
      },
      "spriteSourceSize": {
        "h": 32,
        "w": 32,
        "x": 0,
        "y": 0
      },
      "trimmed": false
    },
    {
      "filename": "01 \u5408\u6210 1_00012.png",
      "frame": {
        "h": 32,
        "w": 32,
        "x": 0,
        "y": 96
      },
      "rotated": false,
      "sourceSize": {
        "h": 32,
        "w": 32
      },
      "spriteSourceSize": {
        "h": 32,
        "w": 32,
        "x": 0,
        "y": 0
      },
      "trimmed": false
    },
    {
      "filename": "01 \u5408\u6210 1_00013.png",
      "frame": {
        "h": 32,
        "w": 32,
        "x": 0,
        "y": 64
      },
      "rotated": false,
      "sourceSize": {
        "h": 32,
        "w": 32
      },
      "spriteSourceSize": {
        "h": 32,
        "w": 32,
        "x": 0,
        "y": 0
      },
      "trimmed": false
    },
    {
      "filename": "01 \u5408\u6210 1_00014.png",
      "frame": {
        "h": 32,
        "w": 32,
        "x": 0,
        "y": 32
      },
      "rotated": false,
      "sourceSize": {
        "h": 32,
        "w": 32
      },
      "spriteSourceSize": {
        "h": 32,
        "w": 32,
        "x": 0,
        "y": 0
      },
      "trimmed": false
    },
    {
      "filename": "01 \u5408\u6210 1_00015.png",
      "frame": {
        "h": 32,
        "w": 32,
        "x": 0,
        "y": 0
      },
      "rotated": false,
      "sourceSize": {
        "h": 32,
        "w": 32
      },
      "spriteSourceSize": {
        "h": 32,
        "w": 32,
        "x": 0,
        "y": 0
      },
      "trimmed": false
    }
  ],
  "meta": {
    "app": "http://www.texturepacker.com",
    "format": "RGBA8888",
    "image": "01.png",
    "scale": "1",
    "size": {
      "h": 128,
      "w": 128
    },
    "smartupdate": "$TexturePacker:SmartUpdate:6a0eca6deb28e66622bf19457c0c6676$",
    "version": "1.0"
  }
}