{
    "post_process":{
        "pass_array":[
            {
                "render_target":{
                    "width":1.0,
                    "height":1.0
                },
                "material":"threashold_pick"
            }
            ,
            {
                "render_target":{
                    "width":0.5,
                    "height":0.5
                }
                ,
                "material":"daul_blur_down"
            }
            ,
            {
                "render_target":{
                    "width":0.25,
                    "height":0.25
                }
                ,
                "material":"daul_blur_down"
            }
            ,
            {
                "render_target":{
                    "width":0.125,
                    "height":0.125
                }
                ,
                "material":"daul_blur_down"
            }
            ,
            {
                "render_target":{
                    "width":0.0625,
                    "height":0.0625
                }
                ,
                "material":"daul_blur_down"
            }
            ,
            {
                "render_target":{
                    "width":0.125,
                    "height":0.125
                }
                ,
                "material":"daul_blur_up"
            }
            ,
            {
                "render_target":{
                    "width":0.25,
                    "height":0.25
                }
                ,
                
                "material":"daul_blur_up"
            }
            ,
            {
                "render_target":{
                    "width":0.5,
                    "height":0.5
                }
                ,
                
                "material":"daul_blur_up"
            }
            ,
            {
                "render_target":{
                    "width":1.0,
                    "height":1.0
                }
                ,
                
                "material":"daul_blur_up_blend"
            }
        ]
    }
}