{
  "format_version": "1.8.0",
  "animations": {
    "animation.agent.move": {
      "loop": true,
      "bones": {
        "body": {
          "position": [ 0.0, "variable.agent.easein * (Math.sin(global.life_time * 114.6 * variable.agent.movespeedscalar) + 1.0) * 1.12", 0.0 ]
        },
        "leftArm": {
          "rotation": [ "((-0.2 + 1.5 * (Math.abs(Math.mod(global.anim_pos, 13) - 6.5) - 3.25) / 3.25) * global.anim_speed) * 57.3 - variable.Agent.ArmXRotationFactor", 0.0, "-variable.Agent.ArmZRotation" ]
        },
        "rightArm": {
          "rotation": [ "((-0.2 - 1.5 * (Math.abs(Math.mod(global.anim_pos, 13) - 6.5) - 3.25) / 3.25) * global.anim_speed) * 57.3 + variable.Agent.ArmXRotationFactor", 0.0, "variable.Agent.ArmZRotation" ]
        },
        "leftLeg": {
          "rotation": [ "((-1.5 * (Math.abs(Math.mod(global.anim_pos, 13) - 6.5) - 3.25) / 3.25) * global.anim_speed) * 57.3 + (variable.agent.ishovering * variable.Agent.LegXRotationFactor)", 0.0, 0.0 ]
        },
        "rightLeg": {
          "rotation": [ "((1.5 * (Math.abs(Math.mod(global.anim_pos, 13) - 6.5) - 3.25) / 3.25) * global.anim_speed) * 57.3 - (variable.agent.ishovering * variable.Agent.LegXRotationFactor)", 0.0, 0.0 ]
        }
      }
    },
    "animation.agent.swing_arms": {
      "loop": true,
      "bones": {
        "rightArm": {
          "rotation": [ "(-2.0 + 1.5 * (Math.abs(Math.mod(variable.agent.swinganimationtick - global.frame_alpha, variable.agent.swinganimationduration) - variable.agent.swinganimationduration * 0.5) - variable.agent.swinganimationduration * 0.25) / (variable.agent.swinganimationduration * 0.25)) * 57.3", 0.0, 0.0 ]
        }
      }
    }
  }
}