{
  "format_version": "1.8.0",
  "animations": {
    "animation.snowgolem.move.v1.8": {
      "loop": true,
      "bones": {
        "piece1": { "rotation": [ 0.0, "query.target_y_rotation * 0.25", 0.0 ] }
      }
    }
  }
}