{"frames": [

{
	"filename": "pen_00000.png",
	"frame": {"x":0,"y":0,"w":64,"h":128},
	"rotated": false,
	"trimmed": false,
	"spriteSourceSize": {"x":0,"y":0,"w":64,"h":128},
	"sourceSize": {"w":64,"h":128}
},
{
	"filename": "pen_00001.png",
	"frame": {"x":64,"y":0,"w":64,"h":128},
	"rotated": false,
	"trimmed": false,
	"spriteSourceSize": {"x":0,"y":0,"w":64,"h":128},
	"sourceSize": {"w":64,"h":128}
},
{
	"filename": "pen_00002.png",
	"frame": {"x":128,"y":0,"w":64,"h":128},
	"rotated": false,
	"trimmed": false,
	"spriteSourceSize": {"x":0,"y":0,"w":64,"h":128},
	"sourceSize": {"w":64,"h":128}
},
{
	"filename": "pen_00003.png",
	"frame": {"x":192,"y":0,"w":64,"h":128},
	"rotated": false,
	"trimmed": false,
	"spriteSourceSize": {"x":0,"y":0,"w":64,"h":128},
	"sourceSize": {"w":64,"h":128}
},
{
	"filename": "pen_00004.png",
	"frame": {"x":256,"y":0,"w":64,"h":128},
	"rotated": false,
	"trimmed": false,
	"spriteSourceSize": {"x":0,"y":0,"w":64,"h":128},
	"sourceSize": {"w":64,"h":128}
},
{
	"filename": "pen_00005.png",
	"frame": {"x":320,"y":0,"w":64,"h":128},
	"rotated": false,
	"trimmed": false,
	"spriteSourceSize": {"x":0,"y":0,"w":64,"h":128},
	"sourceSize": {"w":64,"h":128}
},
{
	"filename": "pen_00006.png",
	"frame": {"x":384,"y":0,"w":64,"h":128},
	"rotated": false,
	"trimmed": false,
	"spriteSourceSize": {"x":0,"y":0,"w":64,"h":128},
	"sourceSize": {"w":64,"h":128}
},
{
	"filename": "pen_00007.png",
	"frame": {"x":448,"y":0,"w":64,"h":128},
	"rotated": false,
	"trimmed": false,
	"spriteSourceSize": {"x":0,"y":0,"w":64,"h":128},
	"sourceSize": {"w":64,"h":128}
}],
"meta": {
	"app": "http://www.texturepacker.com",
	"version": "1.0",
	"image": "cs_yxjjzuoqi_02_0_penshe_sk.png",
	"format": "RGBA8888",
	"size": {"w":512,"h":128},
	"scale": "1",
	"smartupdate": "$TexturePacker:SmartUpdate:c70f87a656c4915022b19262a2363f93$"
}
}
