{
	"geometry.cs_xcm_skinc": {
		"texturewidth": 64,
		"textureheight": 64,
		"visible_bounds_width": 3,
		"visible_bounds_height": 3.5,
		"visible_bounds_offset": [0, 1.25, 0],
		"bones": [
			{
				"name": "body",
				"pivot": [0, 19, 0],
				"cubes": [
					{"origin": [-3, 8, -2], "size": [6, 11, 4], "uv": [37, 41]}
				]
			},
			{
				"name": "jacket",
				"parent": "body",
				"pivot": [0, 19, 0],
				"cubes": [
					{"origin": [-3, 8, -2], "size": [6, 11, 4], "uv": [37, 19], "inflate": 0.25}
				]
			},
			{
				"name": "waist",
				"parent": "body",
				"pivot": [0, 12, 0]
			},
			{
				"name": "head",
				"pivot": [0, 20.5, 0],
				"cubes": [
					{"origin": [-1, 22, -5], "size": [2, 1, 1], "uv": [0, 0]},
					{"origin": [4, 21.9992, -2.0008], "size": [1, 3, 1], "uv": [0, 2]},
					{"origin": [-4.9992, 22, -2.0008], "size": [1, 3, 1], "uv": [0, 2], "mirror": true},
					{"origin": [-4, 19, -4], "size": [8, 9, 8], "uv": [0, 0]}
				]
			},
			{
				"name": "hat",
				"parent": "head",
				"pivot": [0, 20.5, 0]
			},
			{
				"name": "leftArm",
				"pivot": [3.5, 17, 0],
				"cubes": [
					{"origin": [3, 7, -1], "size": [3, 11, 3], "uv": [19, 49]}
				]
			},
			{
				"name": "leftSleeve",
				"parent": "leftArm",
				"pivot": [3.5, 17, 0]
			},
			{
				"name": "leftItem",
				"parent": "leftArm",
				"pivot": [5, 10, 0]
			},
			{
				"name": "rightArm",
				"pivot": [-3.5, 17, 0],
				"cubes": [
					{"origin": [-6, 7, -1], "size": [3, 11, 3], "uv": [19, 49], "mirror": true}
				]
			},
			{
				"name": "rightSleeve",
				"parent": "rightArm",
				"pivot": [-3.5, 17, 0]
			},
			{
				"name": "rightItem",
				"parent": "rightArm",
				"pivot": [-5, 10, 0]
			},
			{
				"name": "leftLeg",
				"pivot": [2, 12, 0],
				"cubes": [
					{"origin": [0, -0.0008, -2.0008], "size": [3, 8, 4], "uv": [19, 21], "mirror": true}
				]
			},
			{
				"name": "leftPants",
				"parent": "leftLeg",
				"pivot": [1.9, 12, 0],
				"cubes": [
					{"origin": [-0.1, 0, -2], "size": [3, 8, 4], "uv": [2, 21], "inflate": 0.25, "mirror": true}
				]
			},
			{
				"name": "rightLeg",
				"pivot": [-2, 12, 0],
				"cubes": [
					{"origin": [-3, -0.0008, -2.0008], "size": [3, 8, 4], "uv": [19, 35]}
				]
			},
			{
				"name": "rightPants",
				"parent": "rightLeg",
				"pivot": [-1.9, 12, 0],
				"cubes": [
					{"origin": [-2.9, 0, -2], "size": [3, 8, 4], "uv": [2, 35], "inflate": 0.25}
				]
			}
		]
	}
}