{
  "geometry.cs_zhuge_skinB": {
    "bones": [
      {
        "pivot": [
          0.0,
          24.0,
          0.0
        ],
        "rotation": [
          0.0,
          0.0,
          0.0
        ],
        "cubes": [
          {
            "origin": [
              -4.0,
              12.0,
              -2.0
            ],
            "size": [
              8.0,
              12.0,
              4.0
            ],
            "uv": [
              16.0,
              32.0
            ],
            "inflate": 0.0,
            "mirror": false
          },
          {
            "origin": [
              -2.0,
              13.0008,
              -2.5
            ],
            "size": [
              1.0,
              2.0,
              1.0
            ],
            "uv": [
              31.0,
              2.0
            ],
            "inflate": 0.0,
            "mirror": false
          },
          {
            "origin": [
              -2.4992,
              11.9992,
              -2.5
            ],
            "size": [
              1.0,
              1.0,
              1.0
            ],
            "uv": [
              12.0,
              18.0
            ],
            "inflate": 0.0,
            "mirror": false
          },
          {
            "origin": [
              -1.5,
              21.9992,
              -2.5
            ],
            "size": [
              3.0,
              1.0,
              1.0
            ],
            "uv": [
              0.0,
              0.0
            ],
            "inflate": 0.0,
            "mirror": false
          },
          {
            "origin": [
              1.0008,
              11.9992,
              -2.5
            ],
            "size": [
              2.0,
              1.0,
              1.0
            ],
            "uv": [
              0.0,
              47.0
            ],
            "inflate": 0.0,
            "mirror": false
          },
          {
            "origin": [
              1.9992,
              12.9992,
              -2.5
            ],
            "size": [
              2.4992,
              1.0,
              5.0
            ],
            "uv": [
              0.0,
              35.0
            ],
            "inflate": 0.0,
            "mirror": false
          },
          {
            "origin": [
              1.0,
              14.0008,
              -2.5
            ],
            "size": [
              1.0,
              1.0,
              1.0
            ],
            "uv": [
              36.0,
              6.0
            ],
            "inflate": 0.0,
            "mirror": false
          },
          {
            "origin": [
              2.5,
              11.4992,
              1.5
            ],
            "size": [
              1.0,
              1.0,
              1.0
            ],
            "uv": [
              16.0,
              34.0
            ],
            "inflate": 0.0,
            "mirror": false
          },
          {
            "origin": [
              1.5008,
              11.9992,
              1.5
            ],
            "size": [
              1.0,
              1.0,
              1.0
            ],
            "uv": [
              16.0,
              28.0
            ],
            "inflate": 0.0,
            "mirror": false
          },
          {
            "origin": [
              -2.5008,
              11.9992,
              1.5
            ],
            "size": [
              1.0,
              1.0,
              1.0
            ],
            "uv": [
              16.0,
              18.0
            ],
            "inflate": 0.0,
            "mirror": false
          },
          {
            "origin": [
              -1.0008,
              11.9992,
              -2.5
            ],
            "size": [
              2.0,
              4.0,
              1.0
            ],
            "uv": [
              24.0,
              3.0
            ],
            "inflate": 0.0,
            "mirror": false
          },
          {
            "origin": [
              -1.4992,
              11.9992,
              1.5
            ],
            "size": [
              3.0,
              1.0,
              1.0
            ],
            "uv": [
              56.0,
              48.0
            ],
            "inflate": 0.0,
            "mirror": false
          }
        ],
        "META_BoneType": "base",
        "name": "body",
        "parent": null
      },
      {
        "pivot": [
          0.0,
          24.0,
          0.0
        ],
        "rotation": [
          0.0,
          0.0,
          0.0
        ],
        "cubes": [
          {
            "origin": [
              -4.0,
              12.5,
              -2.0
            ],
            "size": [
              8.0,
              2.0,
              4.0
            ],
            "uv": [
              40.0,
              42.0
            ],
            "inflate": 0.25,
            "mirror": false
          }
        ],
        "META_BoneType": "clothing",
        "name": "jacket",
        "parent": "body"
      },
      {
        "pivot": [
          0.0,
          12.0,
          0.0
        ],
        "rotation": [
          0.0,
          0.0,
          0.0
        ],
        "cubes": [],
        "META_BoneType": null,
        "name": "waist",
        "parent": "body"
      },
      {
        "pivot": [
          0.0,
          24.0,
          0.0
        ],
        "rotation": [
          0.0,
          0.0,
          0.0
        ],
        "cubes": [
          {
            "origin": [
              -4.0,
              24.0,
              -4.0
            ],
            "size": [
              8.0,
              8.0,
              8.0
            ],
            "uv": [
              0.0,
              0.0
            ],
            "inflate": 0.0,
            "mirror": false
          },
          {
            "origin": [
              1.5008,
              33.0,
              1.9992
            ],
            "size": [
              2.4992,
              1.0,
              1.0
            ],
            "uv": [
              57.0,
              34.0
            ],
            "inflate": 0.0,
            "mirror": false
          },
          {
            "origin": [
              -4.5,
              32.5,
              1.9992
            ],
            "size": [
              2.0,
              2.0,
              1.0
            ],
            "uv": [
              46.0,
              39.0
            ],
            "inflate": 0.0,
            "mirror": false
          },
          {
            "origin": [
              -5.4992,
              33.0008,
              1.9992
            ],
            "size": [
              1.0,
              1.0,
              1.0
            ],
            "uv": [
              60.0,
              30.0
            ],
            "inflate": 0.0,
            "mirror": false
          },
          {
            "origin": [
              -0.5,
              13.5,
              3.9992
            ],
            "size": [
              1.0,
              5.0,
              1.0
            ],
            "uv": [
              0.0,
              34.0
            ],
            "inflate": 0.0,
            "mirror": false
          },
          {
            "origin": [
              -2.4992,
              33.0,
              1.9992
            ],
            "size": [
              1.0,
              1.0,
              1.0
            ],
            "uv": [
              54.0,
              33.0
            ],
            "inflate": 0.0,
            "mirror": false
          },
          {
            "origin": [
              -0.5,
              20.0,
              4.0
            ],
            "size": [
              1.0,
              7.0,
              2.0
            ],
            "uv": [
              32.0,
              17.0
            ],
            "inflate": 0.0,
            "mirror": false
          },
          {
            "origin": [
              -1.0,
              17.0,
              3.9992
            ],
            "size": [
              2.0,
              3.0,
              1.0
            ],
            "uv": [
              58.0,
              0.0
            ],
            "inflate": 0.0,
            "mirror": false
          },
          {
            "origin": [
              4.0008,
              33.0008,
              -2.0
            ],
            "size": [
              1.0,
              1.0,
              1.0
            ],
            "uv": [
              4.0,
              6.0
            ],
            "inflate": 0.0,
            "mirror": false
          },
          {
            "origin": [
              3.0,
              33.0008,
              -2.9992
            ],
            "size": [
              2.0,
              1.0,
              1.0
            ],
            "uv": [
              24.0,
              0.0
            ],
            "inflate": 0.0,
            "mirror": false
          },
          {
            "origin": [
              1.9992,
              34.4992,
              -2.0
            ],
            "size": [
              1.0,
              1.0,
              3.0
            ],
            "uv": [
              56.0,
              38.0
            ],
            "inflate": 0.0,
            "mirror": false
          },
          {
            "origin": [
              -5.0008,
              33.0008,
              -2.0
            ],
            "size": [
              1.0,
              1.0,
              1.0
            ],
            "uv": [
              4.0,
              6.0
            ],
            "inflate": 0.0,
            "mirror": true
          },
          {
            "origin": [
              -5.0,
              33.0008,
              -2.9992
            ],
            "size": [
              2.0,
              1.0,
              1.0
            ],
            "uv": [
              24.0,
              0.0
            ],
            "inflate": 0.0,
            "mirror": true
          },
          {
            "origin": [
              -2.9992,
              34.4992,
              -2.0
            ],
            "size": [
              1.0,
              1.0,
              3.0
            ],
            "uv": [
              56.0,
              38.0
            ],
            "inflate": 0.0,
            "mirror": true
          },
          {
            "origin": [
              -1.5,
              35.0,
              4.0
            ],
            "size": [
              3.0,
              1.0,
              1.0
            ],
            "uv": [
              40.0,
              36.0
            ],
            "inflate": 0.0,
            "mirror": false
          },
          {
            "origin": [
              -2.0008,
              31.0,
              4.0008
            ],
            "size": [
              4.0,
              4.0,
              3.0
            ],
            "uv": [
              38.0,
              17.0
            ],
            "inflate": 0.0,
            "mirror": false
          },
          {
            "origin": [
              -1.5008,
              27.0,
              4.0
            ],
            "size": [
              3.0,
              4.0,
              3.0
            ],
            "uv": [
              49.0,
              24.0
            ],
            "inflate": 0.0,
            "mirror": false
          },
          {
            "origin": [
              -1.5,
              32.0,
              1.9992
            ],
            "size": [
              3.0,
              4.0,
              2.0
            ],
            "uv": [
              54.0,
              18.0
            ],
            "inflate": 0.0,
            "mirror": false
          },
          {
            "origin": [
              1.9992,
              31.5,
              -3.0
            ],
            "size": [
              1.0,
              4.0,
              1.0
            ],
            "uv": [
              0.0,
              3.0
            ],
            "inflate": 0.0,
            "mirror": false
          },
          {
            "origin": [
              -2.9992,
              31.5,
              -2.9992
            ],
            "size": [
              1.0,
              4.0,
              1.0
            ],
            "uv": [
              0.0,
              3.0
            ],
            "inflate": 0.0,
            "mirror": true
          },
          {
            "origin": [
              -1.4992,
              31.9992,
              1.0
            ],
            "size": [
              3.0,
              3.0,
              1.0
            ],
            "uv": [
              41.0,
              26.0
            ],
            "inflate": 0.0,
            "mirror": false
          }
        ],
        "META_BoneType": "base",
        "name": "head",
        "parent": null
      },
      {
        "pivot": [
          0.0,
          24.0,
          0.0
        ],
        "rotation": [
          0.0,
          0.0,
          0.0
        ],
        "cubes": [
          {
            "origin": [
              -4.0,
              23.0,
              -4.0
            ],
            "size": [
              8.0,
              9.0,
              8.0
            ],
            "uv": [
              32.0,
              0.0
            ],
            "inflate": 0.5,
            "mirror": true
          }
        ],
        "META_BoneType": "clothing",
        "name": "hat",
        "parent": "head"
      },
      {
        "pivot": [
          5.0,
          22.0,
          0.0
        ],
        "rotation": [
          0.0,
          0.0,
          0.0
        ],
        "cubes": [
          {
            "origin": [
              4.0,
              12.0,
              -2.0
            ],
            "size": [
              4.0,
              12.0,
              4.0
            ],
            "uv": [
              32.0,
              48.0
            ],
            "inflate": 0.0,
            "mirror": false
          }
        ],
        "META_BoneType": "base",
        "name": "leftArm",
        "parent": null
      },
      {
        "pivot": [
          5.0,
          22.0,
          0.0
        ],
        "rotation": [
          0.0,
          0.0,
          0.0
        ],
        "cubes": [],
        "META_BoneType": "clothing",
        "name": "leftSleeve",
        "parent": "leftArm"
      },
      {
        "pivot": [
          6.0,
          15.0,
          1.0
        ],
        "rotation": [
          0.0,
          0.0,
          0.0
        ],
        "cubes": [],
        "META_BoneType": null,
        "name": "leftItem",
        "parent": "leftArm"
      },
      {
        "pivot": [
          -5.0,
          22.0,
          0.0
        ],
        "rotation": [
          0.0,
          0.0,
          0.0
        ],
        "cubes": [
          {
            "origin": [
              -8.0,
              12.0,
              -2.0
            ],
            "size": [
              4.0,
              12.0,
              4.0
            ],
            "uv": [
              16.0,
              16.0
            ],
            "inflate": 0.0,
            "mirror": false
          }
        ],
        "META_BoneType": "base",
        "name": "rightArm",
        "parent": null
      },
      {
        "pivot": [
          -5.0,
          22.0,
          0.0
        ],
        "rotation": [
          0.0,
          0.0,
          0.0
        ],
        "cubes": [],
        "META_BoneType": "clothing",
        "name": "rightSleeve",
        "parent": "rightArm"
      },
      {
        "pivot": [
          -6.0,
          15.0,
          1.0
        ],
        "rotation": [
          0.0,
          0.0,
          0.0
        ],
        "cubes": [],
        "META_BoneType": null,
        "name": "rightItem",
        "parent": "rightArm"
      },
      {
        "pivot": [
          1.9,
          12.0,
          0.0
        ],
        "rotation": [
          0.0,
          0.0,
          0.0
        ],
        "cubes": [
          {
            "origin": [
              4.0,
              -0.0008,
              -2.0008
            ],
            "size": [
              1.0,
              2.0,
              4.0
            ],
            "uv": [
              0.0,
              51.0
            ],
            "inflate": 0.0,
            "mirror": false
          },
          {
            "origin": [
              2.4992,
              9.9992,
              -2.5
            ],
            "size": [
              2.4992,
              1.0,
              5.0
            ],
            "uv": [
              49.0,
              56.0
            ],
            "inflate": 0.0,
            "mirror": true
          },
          {
            "origin": [
              1.4992,
              11.0008,
              -2.5
            ],
            "size": [
              3.0,
              1.0,
              5.0
            ],
            "uv": [
              0.0,
              41.0
            ],
            "inflate": 0.0,
            "mirror": false
          },
          {
            "origin": [
              3.5,
              2.0008,
              -1.4992
            ],
            "size": [
              1.0,
              1.0,
              3.0
            ],
            "uv": [
              48.0,
              48.0
            ],
            "inflate": 0.0,
            "mirror": false
          },
          {
            "origin": [
              2.9992,
              0.0008,
              -2.5
            ],
            "size": [
              2.0,
              1.0,
              1.0
            ],
            "uv": [
              58.0,
              62.0
            ],
            "inflate": 0.0,
            "mirror": false
          },
          {
            "origin": [
              3.9992,
              0.0008,
              2.0
            ],
            "size": [
              1.0,
              1.0,
              1.0
            ],
            "uv": [
              0.0,
              49.0
            ],
            "inflate": 0.0,
            "mirror": false
          },
          {
            "origin": [
              -0.0008,
              0.0008,
              -2.0
            ],
            "size": [
              4.0,
              12.0,
              4.0
            ],
            "uv": [
              16.0,
              48.0
            ],
            "inflate": 0.0,
            "mirror": false
          },
          {
            "origin": [
              3.5,
              2.4992,
              -1.0
            ],
            "size": [
              1.0,
              1.0,
              2.0
            ],
            "uv": [
              10.0,
              60.0
            ],
            "inflate": 0.0,
            "mirror": false
          },
          {
            "origin": [
              4.0,
              0.5,
              1.5
            ],
            "size": [
              1.0,
              1.0,
              2.0
            ],
            "uv": [
              10.0,
              57.0
            ],
            "inflate": 0.0,
            "mirror": false
          }
        ],
        "META_BoneType": "base",
        "name": "leftLeg",
        "parent": null
      },
      {
        "pivot": [
          1.9,
          12.0,
          0.0
        ],
        "rotation": [
          0.0,
          0.0,
          0.0
        ],
        "cubes": [
          {
            "origin": [
              0.9,
              3.5,
              -2.0
            ],
            "size": [
              2.0,
              7.0,
              1.0
            ],
            "uv": [
              48.0,
              52.0
            ],
            "inflate": 0.25,
            "mirror": false
          }
        ],
        "META_BoneType": "clothing",
        "name": "leftPants",
        "parent": "leftLeg"
      },
      {
        "pivot": [
          -1.9,
          12.0,
          0.0
        ],
        "rotation": [
          0.0,
          0.0,
          0.0
        ],
        "cubes": [
          {
            "origin": [
              -4.5008,
              11.0008,
              -2.5
            ],
            "size": [
              3.0,
              1.0,
              5.0
            ],
            "uv": [
              36.0,
              30.0
            ],
            "inflate": 0.0,
            "mirror": false
          },
          {
            "origin": [
              -4.9992,
              9.9992,
              -2.5
            ],
            "size": [
              2.4992,
              1.0,
              5.0
            ],
            "uv": [
              49.0,
              56.0
            ],
            "inflate": 0.0,
            "mirror": false
          },
          {
            "origin": [
              -5.0,
              1.0,
              -0.9992
            ],
            "size": [
              1.0,
              1.0,
              3.0
            ],
            "uv": [
              0.0,
              58.0
            ],
            "inflate": 0.0,
            "mirror": false
          },
          {
            "origin": [
              -4.5,
              2.0008,
              -1.0008
            ],
            "size": [
              1.0,
              1.0,
              2.0
            ],
            "uv": [
              28.0,
              49.0
            ],
            "inflate": 0.0,
            "mirror": false
          },
          {
            "origin": [
              -4.4992,
              1.0,
              -2.0
            ],
            "size": [
              1.0,
              1.0,
              1.0
            ],
            "uv": [
              16.0,
              32.0
            ],
            "inflate": 0.0,
            "mirror": false
          },
          {
            "origin": [
              -4.5008,
              0.5008,
              -2.5
            ],
            "size": [
              1.5008,
              1.0,
              1.0
            ],
            "uv": [
              11.0,
              43.0
            ],
            "inflate": 0.0,
            "mirror": false
          },
          {
            "origin": [
              -5.0,
              -0.0008,
              -2.5
            ],
            "size": [
              2.0,
              1.0,
              1.0
            ],
            "uv": [
              57.0,
              5.0
            ],
            "inflate": 0.0,
            "mirror": false
          },
          {
            "origin": [
              -5.0,
              -0.0008,
              -1.5008
            ],
            "size": [
              1.0,
              1.0,
              5.0
            ],
            "uv": [
              3.0,
              58.0
            ],
            "inflate": 0.0,
            "mirror": false
          },
          {
            "origin": [
              -3.9992,
              0.0008,
              -2.0
            ],
            "size": [
              4.0,
              12.0,
              4.0
            ],
            "uv": [
              0.0,
              16.0
            ],
            "inflate": 0.0,
            "mirror": false
          }
        ],
        "META_BoneType": "base",
        "name": "rightLeg",
        "parent": null
      },
      {
        "pivot": [
          -1.9,
          12.0,
          0.0
        ],
        "rotation": [
          0.0,
          0.0,
          0.0
        ],
        "cubes": [],
        "META_BoneType": "clothing",
        "name": "rightPants",
        "parent": "rightLeg"
      }
    ],
    "texturewidth": 64,
    "textureheight": 64,
    "META_ModelVersion": "1.0.6",
    "rigtype": "normal",
    "animationArmsDown": false,
    "animationArmsOutFront": false,
    "animationStatueOfLibertyArms": false,
    "animationSingleArmAnimation": false,
    "animationStationaryLegs": false,
    "animationSingleLegAnimation": false,
    "animationNoHeadBob": false,
    "animationDontShowArmor": false,
    "animationUpsideDown": false,
    "animationInvertedCrouch": false
  }
}