{
  "geometry.ss_carnival_skin": {
    "bones": [
      {
        "pivot": [
          0.0,
          24.0,
          0.0
        ],
        "rotation": [
          0.0,
          0.0,
          0.0
        ],
        "cubes": [
          {
            "origin": [
              -4.0,
              12.0,
              -1.5
            ],
            "size": [
              8.0,
              12.0,
              3.0
            ],
            "uv": [
              0.0,
              16.0
            ],
            "inflate": 0.0,
            "mirror": false
          }
        ],
        "META_BoneType": "base",
        "name": "body",
        "parent": null
      },
      {
        "pivot": [
          0.0,
          24.0,
          0.0
        ],
        "rotation": [
          0.0,
          0.0,
          0.0
        ],
        "cubes": [
          {
            "origin": [
              -4.0,
              24.0,
              -4.0
            ],
            "size": [
              8.0,
              8.0,
              8.0
            ],
            "uv": [
              0.0,
              0.0
            ],
            "inflate": 0.0,
            "mirror": false
          }
        ],
        "META_BoneType": "base",
        "name": "head",
        "parent": null
      },
      {
        "pivot": [
          0.0,
          24.0,
          0.0
        ],
        "rotation": [
          0.0,
          0.0,
          0.0
        ],
        "cubes": [
          {
            "origin": [
              -4.0,
              24.0,
              -4.0
            ],
            "size": [
              8.0,
              8.0,
              8.0
            ],
            "uv": [
              32.0,
              0.0
            ],
            "inflate": 0.5,
            "mirror": false
          }
        ],
        "META_BoneType": "clothing",
        "name": "hat",
        "parent": "head"
      },
      {
        "pivot": [
          5.0,
          21.5,
          0.0
        ],
        "rotation": [
          0.0,
          0.0,
          0.0
        ],
        "cubes": [
          {
            "origin": [
              4.0,
              10.0,
              -1.5
            ],
            "size": [
              3.0,
              14.0,
              3.0
            ],
            "uv": [
              12.0,
              31.0
            ],
            "inflate": 0.0,
            "mirror": false
          }
        ],
        "META_BoneType": "base",
        "name": "leftArm",
        "parent": null
      },
      {
        "pivot": [
          -5.0,
          21.5,
          0.0
        ],
        "rotation": [
          0.0,
          0.0,
          0.0
        ],
        "cubes": [
          {
            "origin": [
              -7.0,
              10.0,
              -1.5
            ],
            "size": [
              3.0,
              14.0,
              3.0
            ],
            "uv": [
              0.0,
              31.0
            ],
            "inflate": 0.0,
            "mirror": false
          }
        ],
        "META_BoneType": "base",
        "name": "rightArm",
        "parent": null
      },
      {
        "pivot": [
          5.0,
          21.5,
          0.0
        ],
        "rotation": [
          0.0,
          0.0,
          0.0
        ],
        "cubes": [
          {
            "origin": [
              4.0,
              10.0,
              -1.5
            ],
            "size": [
              3.0,
              14.0,
              3.0
            ],
            "uv": [
              23.0,
              16.0
            ],
            "inflate": 0.25,
            "mirror": false
          }
        ],
        "META_BoneType": "clothing",
        "name": "leftSleeve",
        "parent": "leftArm"
      },
      {
        "pivot": [
          -5.0,
          21.5,
          0.0
        ],
        "rotation": [
          0.0,
          0.0,
          0.0
        ],
        "cubes": [
          {
            "origin": [
              -7.0,
              10.0,
              -1.5
            ],
            "size": [
              3.0,
              14.0,
              3.0
            ],
            "uv": [
              35.0,
              16.0
            ],
            "inflate": 0.25,
            "mirror": false
          }
        ],
        "META_BoneType": "clothing",
        "name": "rightSleeve",
        "parent": "rightArm"
      },
      {
        "pivot": [
          1.9,
          12.0,
          0.0
        ],
        "rotation": [
          0.0,
          0.0,
          0.0
        ],
        "cubes": [
          {
            "origin": [
              -0.1,
              0.0,
              -1.5
            ],
            "size": [
              4.0,
              12.0,
              3.0
            ],
            "uv": [
              30.0,
              49.0
            ],
            "inflate": 0.0,
            "mirror": false
          }
        ],
        "META_BoneType": "base",
        "name": "leftLeg",
        "parent": null
      },
      {
        "pivot": [
          -1.9,
          12.0,
          0.0
        ],
        "rotation": [
          0.0,
          0.0,
          0.0
        ],
        "cubes": [
          {
            "origin": [
              -3.9,
              0.0,
              -1.5
            ],
            "size": [
              4.0,
              12.0,
              3.0
            ],
            "uv": [
              45.0,
              49.0
            ],
            "inflate": 0.0,
            "mirror": false
          }
        ],
        "META_BoneType": "base",
        "name": "rightLeg",
        "parent": null
      },
      {
        "pivot": [
          1.9,
          12.0,
          0.0
        ],
        "rotation": [
          0.0,
          0.0,
          0.0
        ],
        "cubes": [
          {
            "origin": [
              -0.1,
              0.0,
              -1.5
            ],
            "size": [
              4.0,
              12.0,
              3.0
            ],
            "uv": [
              0.0,
              49.0
            ],
            "inflate": 0.25,
            "mirror": false
          }
        ],
        "META_BoneType": "clothing",
        "name": "leftPants",
        "parent": "leftLeg"
      },
      {
        "pivot": [
          -1.9,
          12.0,
          0.0
        ],
        "rotation": [
          0.0,
          0.0,
          0.0
        ],
        "cubes": [
          {
            "origin": [
              -3.9,
              0.0,
              -1.5
            ],
            "size": [
              4.0,
              12.0,
              3.0
            ],
            "uv": [
              15.0,
              49.0
            ],
            "inflate": 0.25,
            "mirror": false
          }
        ],
        "META_BoneType": "clothing",
        "name": "rightPants",
        "parent": "rightLeg"
      },
      {
        "pivot": [
          0.0,
          24.0,
          0.0
        ],
        "rotation": [
          0.0,
          0.0,
          0.0
        ],
        "cubes": [
          {
            "origin": [
              -4.0,
              12.0,
              -1.5
            ],
            "size": [
              8.0,
              12.0,
              3.0
            ],
            "uv": [
              25.0,
              33.0
            ],
            "inflate": 0.25,
            "mirror": false
          }
        ],
        "META_BoneType": "clothing",
        "name": "jacket",
        "parent": "body"
      },
      {
        "pivot": [
          0.0,
          12.0,
          0.0
        ],
        "rotation": [
          0.0,
          0.0,
          0.0
        ],
        "cubes": [],
        "META_BoneType": "base_offset",
        "name": "waist",
        "parent": "body"
      },
      {
        "pivot": [
          -6.0,
          15.0,
          1.0
        ],
        "rotation": [
          0.0,
          0.0,
          0.0
        ],
        "cubes": [],
        "META_BoneType": "item",
        "name": "rightItem",
        "parent": "rightArm"
      },
      {
        "pivot": [
          6.0,
          15.0,
          1.0
        ],
        "rotation": [
          0.0,
          0.0,
          0.0
        ],
        "cubes": [],
        "META_BoneType": "item",
        "name": "leftItem",
        "parent": "leftArm"
      }
    ],
    "texturewidth": 64,
    "textureheight": 64,
    "META_ModelVersion": "1.0.6",
    "rigtype": "slim",
    "animationArmsDown": false,
    "animationArmsOutFront": false,
    "animationStatueOfLibertyArms": false,
    "animationSingleArmAnimation": false,
    "animationStationaryLegs": false,
    "animationSingleLegAnimation": false,
    "animationNoHeadBob": false,
    "animationDontShowArmor": false,
    "animationUpsideDown": false,
    "animationInvertedCrouch": false
  }
}