{
	"geometry.ss_xcm_skinb": {
		"texturewidth": 64,
		"textureheight": 64,
		"visible_bounds_width": 3,
		"visible_bounds_height": 3.5,
		"visible_bounds_offset": [0, 1.25, 0],
		"bones": [
			{
				"name": "body",
				"pivot": [0, 29, 0],
				"cubes": [
					{"origin": [-7, 7, -6], "size": [14, 12, 10], "uv": [0, 42]},
					{"origin": [-5.9992, 19, -5], "size": [12, 10, 9], "uv": [0, 22]},
					{"origin": [-1.0008, 10.0008, 4], "size": [2, 2, 1], "uv": [1, 4]}
				]
			},
			{
				"name": "jacket",
				"parent": "body",
				"pivot": [0, 24, 0]
			},
			{
				"name": "waist",
				"parent": "body",
				"pivot": [0, 12, 0]
			},
			{
				"name": "head",
				"pivot": [0, 28, -0.9],
				"cubes": [
					{"origin": [-4, 26, -6], "size": [8, 6, 8], "uv": [0, 0]},
					{"origin": [-3.0008, 32, -6.0008], "size": [6, 3, 7], "uv": [26, 11]},
					{"origin": [-1, 31.0008, -7], "size": [2, 1, 1], "uv": [58, 30]},
					{"origin": [1.9992, 34, -3], "size": [1, 2, 1], "uv": [2, 0]},
					{"origin": [-2.9992, 34, -2.9992], "size": [1, 2, 1], "uv": [2, 0]}
				]
			},
			{
				"name": "hat",
				"parent": "head",
				"pivot": [0, 28, -0.9]
			},
			{
				"name": "leftArm",
				"pivot": [7, 26.1, -0.3],
				"cubes": [
					{"origin": [6, 11, -3], "size": [4, 17, 5], "uv": [44, 28]},
					{"origin": [10, 11.0008, -2.9992], "size": [1, 10, 5], "uv": [52, 12]},
					{"origin": [5.9992, 28, -2.9992], "size": [3, 1, 5], "uv": [33, 24]}
				]
			},
			{
				"name": "leftSleeve",
				"parent": "leftArm",
				"pivot": [7, 26.1, -0.3]
			},
			{
				"name": "leftItem",
				"parent": "leftArm",
				"pivot": [8, 13, 0]
			},
			{
				"name": "rightArm",
				"pivot": [-7, 26.1, -0.3],
				"cubes": [
					{"origin": [-10, 11, -3], "size": [4, 17, 5], "uv": [44, 28], "mirror": true},
					{"origin": [-8.9992, 28, -2.9992], "size": [3, 1, 5], "uv": [33, 24], "mirror": true},
					{"origin": [-11, 11.0008, -2.9992], "size": [1, 10, 5], "uv": [52, 12], "mirror": true}
				]
			},
			{
				"name": "rightSleeve",
				"parent": "rightArm",
				"pivot": [-7, 26.1, -0.3]
			},
			{
				"name": "rightItem",
				"parent": "rightArm",
				"pivot": [-8, 13, 0]
			},
			{
				"name": "leftLeg",
				"pivot": [2.9, 13, -0.1],
				"cubes": [
					{"origin": [1, -0.0008, -2.0008], "size": [4, 7, 4], "uv": [47, 0]},
					{"origin": [1.0008, 3.9992, -3], "size": [4, 3, 1], "uv": [50, 51]},
					{"origin": [1.0008, -0.0008, -4], "size": [4, 1, 2], "uv": [50, 57]}
				]
			},
			{
				"name": "leftPants",
				"parent": "leftLeg",
				"pivot": [1.9, 12, 0]
			},
			{
				"name": "rightLeg",
				"pivot": [-2.9, 13, -0.1],
				"cubes": [
					{"origin": [-5, -0.0008, -2.0008], "size": [4, 7, 4], "uv": [47, 0], "mirror": true},
					{"origin": [-5.0008, 3.9992, -3], "size": [4, 3, 1], "uv": [50, 51], "mirror": true},
					{"origin": [-5.0008, -0.0008, -4], "size": [4, 1, 2], "uv": [50, 57], "mirror": true}
				]
			},
			{
				"name": "rightPants",
				"parent": "rightLeg",
				"pivot": [-1.9, 12, 0]
			}
		]
	}
}