{
    "frames": [
        {
            "filename": "weiba1_00000.png",
            "frame": {
                "h": 64,
                "w": 64,
                "x": 64,
                "y": 192
            },
            "rotated": false,
            "scale": {
                "x": 1.0,
                "y": 1.0,
                "z": 1.0
            },
            "sourceSize": {
                "h": 64,
                "w": 64
            },
            "spriteSourceSize": {
                "h": 64,
                "w": 64,
                "x": 0,
                "y": 0
            },
            "trimmed": false
        },
        {
            "filename": "weiba1_00001.png",
            "frame": {
                "h": 64,
                "w": 64,
                "x": 64,
                "y": 128
            },
            "rotated": false,
            "scale": {
                "x": 1.0,
                "y": 1.0,
                "z": 1.0
            },
            "sourceSize": {
                "h": 64,
                "w": 64
            },
            "spriteSourceSize": {
                "h": 64,
                "w": 64,
                "x": 0,
                "y": 0
            },
            "trimmed": false
        },
        {
            "filename": "weiba1_00002.png",
            "frame": {
                "h": 64,
                "w": 64,
                "x": 0,
                "y": 192
            },
            "rotated": false,
            "scale": {
                "x": 1.0,
                "y": 1.0,
                "z": 1.0
            },
            "sourceSize": {
                "h": 64,
                "w": 64
            },
            "spriteSourceSize": {
                "h": 64,
                "w": 64,
                "x": 0,
                "y": 0
            },
            "trimmed": false
        },
        {
            "filename": "weiba1_00003.png",
            "frame": {
                "h": 64,
                "w": 64,
                "x": 0,
                "y": 128
            },
            "rotated": false,
            "scale": {
                "x": 1.0,
                "y": 1.0,
                "z": 1.0
            },
            "sourceSize": {
                "h": 64,
                "w": 64
            },
            "spriteSourceSize": {
                "h": 64,
                "w": 64,
                "x": 0,
                "y": 0
            },
            "trimmed": false
        },
        {
            "filename": "weiba1_00004.png",
            "frame": {
                "h": 64,
                "w": 64,
                "x": 64,
                "y": 64
            },
            "rotated": false,
            "scale": {
                "x": 1.0,
                "y": 1.0,
                "z": 1.0
            },
            "sourceSize": {
                "h": 64,
                "w": 64
            },
            "spriteSourceSize": {
                "h": 64,
                "w": 64,
                "x": 0,
                "y": 0
            },
            "trimmed": false
        },
        {
            "filename": "weiba1_00005.png",
            "frame": {
                "h": 64,
                "w": 64,
                "x": 0,
                "y": 64
            },
            "rotated": false,
            "scale": {
                "x": 1.0,
                "y": 1.0,
                "z": 1.0
            },
            "sourceSize": {
                "h": 64,
                "w": 64
            },
            "spriteSourceSize": {
                "h": 64,
                "w": 64,
                "x": 0,
                "y": 0
            },
            "trimmed": false
        },
        {
            "filename": "weiba1_00006.png",
            "frame": {
                "h": 64,
                "w": 64,
                "x": 64,
                "y": 0
            },
            "rotated": false,
            "scale": {
                "x": 1.0,
                "y": 1.0,
                "z": 1.0
            },
            "sourceSize": {
                "h": 64,
                "w": 64
            },
            "spriteSourceSize": {
                "h": 64,
                "w": 64,
                "x": 0,
                "y": 0
            },
            "trimmed": false
        },
        {
            "filename": "weiba1_00007.png",
            "frame": {
                "h": 64,
                "w": 64,
                "x": 0,
                "y": 0
            },
            "rotated": false,
            "scale": {
                "x": 1.0,
                "y": 1.0,
                "z": 1.0
            },
            "sourceSize": {
                "h": 64,
                "w": 64
            },
            "spriteSourceSize": {
                "h": 64,
                "w": 64,
                "x": 0,
                "y": 0
            },
            "trimmed": false
        }
    ],
    "meta": {
        "app": "http://www.texturepacker.com",
        "format": "RGBA8888",
        "image": "cs_dragon_horseA02_weiba2.png",
        "scale": "1",
        "size": {
            "h": 256,
            "w": 128
        },
        "smartupdate": "$TexturePacker:SmartUpdate:dc21f562779b1dafd24248d68fa60cd1$",
        "version": "1.0"
    }
}