{
    "frames": [
        {
            "filename": "2_00000.png",
            "frame": {
                "h": 256,
                "w": 256,
                "x": 0,
                "y": 0
            },
            "rotated": false,
            "scale": {
                "x": 1.0,
                "y": 1.0,
                "z": 1.0
            },
            "sourceSize": {
                "h": 256,
                "w": 256
            },
            "spriteSourceSize": {
                "h": 256,
                "w": 256,
                "x": 0,
                "y": 0
            },
            "trimmed": false
        },
        {
            "filename": "2_00001.png",
            "frame": {
                "h": 256,
                "w": 256,
                "x": 256,
                "y": 0
            },
            "rotated": false,
            "scale": {
                "x": 1.0,
                "y": 1.0,
                "z": 1.0
            },
            "sourceSize": {
                "h": 256,
                "w": 256
            },
            "spriteSourceSize": {
                "h": 256,
                "w": 256,
                "x": 0,
                "y": 0
            },
            "trimmed": false
        },
        {
            "filename": "2_00002.png",
            "frame": {
                "h": 256,
                "w": 256,
                "x": 512,
                "y": 0
            },
            "rotated": false,
            "scale": {
                "x": 1.0,
                "y": 1.0,
                "z": 1.0
            },
            "sourceSize": {
                "h": 256,
                "w": 256
            },
            "spriteSourceSize": {
                "h": 256,
                "w": 256,
                "x": 0,
                "y": 0
            },
            "trimmed": false
        },
        {
            "filename": "2_00003.png",
            "frame": {
                "h": 256,
                "w": 256,
                "x": 768,
                "y": 0
            },
            "rotated": false,
            "scale": {
                "x": 1.0,
                "y": 1.0,
                "z": 1.0
            },
            "sourceSize": {
                "h": 256,
                "w": 256
            },
            "spriteSourceSize": {
                "h": 256,
                "w": 256,
                "x": 0,
                "y": 0
            },
            "trimmed": false
        },
        {
            "filename": "2_00004.png",
            "frame": {
                "h": 256,
                "w": 256,
                "x": 0,
                "y": 256
            },
            "rotated": false,
            "scale": {
                "x": 1.0,
                "y": 1.0,
                "z": 1.0
            },
            "sourceSize": {
                "h": 256,
                "w": 256
            },
            "spriteSourceSize": {
                "h": 256,
                "w": 256,
                "x": 0,
                "y": 0
            },
            "trimmed": false
        },
        {
            "filename": "2_00005.png",
            "frame": {
                "h": 256,
                "w": 256,
                "x": 256,
                "y": 256
            },
            "rotated": false,
            "scale": {
                "x": 1.0,
                "y": 1.0,
                "z": 1.0
            },
            "sourceSize": {
                "h": 256,
                "w": 256
            },
            "spriteSourceSize": {
                "h": 256,
                "w": 256,
                "x": 0,
                "y": 0
            },
            "trimmed": false
        },
        {
            "filename": "2_00006.png",
            "frame": {
                "h": 256,
                "w": 256,
                "x": 512,
                "y": 256
            },
            "rotated": false,
            "scale": {
                "x": 1.0,
                "y": 1.0,
                "z": 1.0
            },
            "sourceSize": {
                "h": 256,
                "w": 256
            },
            "spriteSourceSize": {
                "h": 256,
                "w": 256,
                "x": 0,
                "y": 0
            },
            "trimmed": false
        },
        {
            "filename": "2_00007.png",
            "frame": {
                "h": 256,
                "w": 256,
                "x": 768,
                "y": 256
            },
            "rotated": false,
            "scale": {
                "x": 1.0,
                "y": 1.0,
                "z": 1.0
            },
            "sourceSize": {
                "h": 256,
                "w": 256
            },
            "spriteSourceSize": {
                "h": 256,
                "w": 256,
                "x": 0,
                "y": 0
            },
            "trimmed": false
        },
        {
            "filename": "2_00008.png",
            "frame": {
                "h": 256,
                "w": 256,
                "x": 0,
                "y": 512
            },
            "rotated": false,
            "scale": {
                "x": 1.0,
                "y": 1.0,
                "z": 1.0
            },
            "sourceSize": {
                "h": 256,
                "w": 256
            },
            "spriteSourceSize": {
                "h": 256,
                "w": 256,
                "x": 0,
                "y": 0
            },
            "trimmed": false
        },
        {
            "filename": "2_00009.png",
            "frame": {
                "h": 256,
                "w": 256,
                "x": 256,
                "y": 512
            },
            "rotated": false,
            "scale": {
                "x": 1.0,
                "y": 1.0,
                "z": 1.0
            },
            "sourceSize": {
                "h": 256,
                "w": 256
            },
            "spriteSourceSize": {
                "h": 256,
                "w": 256,
                "x": 0,
                "y": 0
            },
            "trimmed": false
        },
        {
            "filename": "2_00010.png",
            "frame": {
                "h": 256,
                "w": 256,
                "x": 512,
                "y": 512
            },
            "rotated": false,
            "scale": {
                "x": 1.0,
                "y": 1.0,
                "z": 1.0
            },
            "sourceSize": {
                "h": 256,
                "w": 256
            },
            "spriteSourceSize": {
                "h": 256,
                "w": 256,
                "x": 0,
                "y": 0
            },
            "trimmed": false
        },
        {
            "filename": "2_00011.png",
            "frame": {
                "h": 256,
                "w": 256,
                "x": 768,
                "y": 512
            },
            "rotated": false,
            "scale": {
                "x": 1.0,
                "y": 1.0,
                "z": 1.0
            },
            "sourceSize": {
                "h": 256,
                "w": 256
            },
            "spriteSourceSize": {
                "h": 256,
                "w": 256,
                "x": 0,
                "y": 0
            },
            "trimmed": false
        },
        {
            "filename": "2_00012.png",
            "frame": {
                "h": 256,
                "w": 256,
                "x": 0,
                "y": 768
            },
            "rotated": false,
            "scale": {
                "x": 1.0,
                "y": 1.0,
                "z": 1.0
            },
            "sourceSize": {
                "h": 256,
                "w": 256
            },
            "spriteSourceSize": {
                "h": 256,
                "w": 256,
                "x": 0,
                "y": 0
            },
            "trimmed": false
        },
        {
            "filename": "2_00013.png",
            "frame": {
                "h": 256,
                "w": 256,
                "x": 256,
                "y": 768
            },
            "rotated": false,
            "scale": {
                "x": 1.0,
                "y": 1.0,
                "z": 1.0
            },
            "sourceSize": {
                "h": 256,
                "w": 256
            },
            "spriteSourceSize": {
                "h": 256,
                "w": 256,
                "x": 0,
                "y": 0
            },
            "trimmed": false
        },
        {
            "filename": "2_00014.png",
            "frame": {
                "h": 256,
                "w": 256,
                "x": 512,
                "y": 768
            },
            "rotated": false,
            "scale": {
                "x": 1.0,
                "y": 1.0,
                "z": 1.0
            },
            "sourceSize": {
                "h": 256,
                "w": 256
            },
            "spriteSourceSize": {
                "h": 256,
                "w": 256,
                "x": 0,
                "y": 0
            },
            "trimmed": false
        },
        {
            "filename": "2_00015.png",
            "frame": {
                "h": 256,
                "w": 256,
                "x": 768,
                "y": 768
            },
            "rotated": false,
            "scale": {
                "x": 1.0,
                "y": 1.0,
                "z": 1.0
            },
            "sourceSize": {
                "h": 256,
                "w": 256
            },
            "spriteSourceSize": {
                "h": 256,
                "w": 256,
                "x": 0,
                "y": 0
            },
            "trimmed": false
        },
        {
            "filename": "2_00016.png",
            "frame": {
                "h": 256,
                "w": 256,
                "x": 0,
                "y": 1024
            },
            "rotated": false,
            "scale": {
                "x": 1.0,
                "y": 1.0,
                "z": 1.0
            },
            "sourceSize": {
                "h": 256,
                "w": 256
            },
            "spriteSourceSize": {
                "h": 256,
                "w": 256,
                "x": 0,
                "y": 0
            },
            "trimmed": false
        }
    ],
    "meta": {
        "app": "https://www.codeandweb.com/texturepacker",
        "format": "RGBA8888",
        "image": "cs_story_weapon_hit_dg_gg.png",
        "scale": "1",
        "size": {
            "h": 1280,
            "w": 1024
        },
        "smartupdate": "$TexturePacker:SmartUpdate:f797294d0b74bcb8696d76af45722379:d7640f8dcd32add69b21a1849dc083d3:3d293bc82896598603b0a651a354923c$",
        "version": "1.0"
    }
}