{
    "frames": [
        {
            "filename": "刀光亮色_00000.png",
            "frame": {
                "h": 128,
                "w": 128,
                "x": 0,
                "y": 0
            },
            "rotated": false,
            "scale": {
                "x": 1.0,
                "y": 1.0,
                "z": 1.0
            },
            "sourceSize": {
                "h": 128,
                "w": 128
            },
            "spriteSourceSize": {
                "h": 128,
                "w": 128,
                "x": 0,
                "y": 0
            },
            "trimmed": false
        },
        {
            "filename": "刀光亮色_00001.png",
            "frame": {
                "h": 128,
                "w": 128,
                "x": 128,
                "y": 0
            },
            "rotated": false,
            "scale": {
                "x": 1.0,
                "y": 1.0,
                "z": 1.0
            },
            "sourceSize": {
                "h": 128,
                "w": 128
            },
            "spriteSourceSize": {
                "h": 128,
                "w": 128,
                "x": 0,
                "y": 0
            },
            "trimmed": false
        },
        {
            "filename": "刀光亮色_00002.png",
            "frame": {
                "h": 128,
                "w": 128,
                "x": 256,
                "y": 0
            },
            "rotated": false,
            "scale": {
                "x": 1.0,
                "y": 1.0,
                "z": 1.0
            },
            "sourceSize": {
                "h": 128,
                "w": 128
            },
            "spriteSourceSize": {
                "h": 128,
                "w": 128,
                "x": 0,
                "y": 0
            },
            "trimmed": false
        },
        {
            "filename": "刀光亮色_00003.png",
            "frame": {
                "h": 128,
                "w": 128,
                "x": 384,
                "y": 0
            },
            "rotated": false,
            "scale": {
                "x": 1.0,
                "y": 1.0,
                "z": 1.0
            },
            "sourceSize": {
                "h": 128,
                "w": 128
            },
            "spriteSourceSize": {
                "h": 128,
                "w": 128,
                "x": 0,
                "y": 0
            },
            "trimmed": false
        },
        {
            "filename": "刀光亮色_00004.png",
            "frame": {
                "h": 128,
                "w": 128,
                "x": 0,
                "y": 128
            },
            "rotated": false,
            "scale": {
                "x": 1.0,
                "y": 1.0,
                "z": 1.0
            },
            "sourceSize": {
                "h": 128,
                "w": 128
            },
            "spriteSourceSize": {
                "h": 128,
                "w": 128,
                "x": 0,
                "y": 0
            },
            "trimmed": false
        },
        {
            "filename": "刀光亮色_00005.png",
            "frame": {
                "h": 128,
                "w": 128,
                "x": 128,
                "y": 128
            },
            "rotated": false,
            "scale": {
                "x": 1.0,
                "y": 1.0,
                "z": 1.0
            },
            "sourceSize": {
                "h": 128,
                "w": 128
            },
            "spriteSourceSize": {
                "h": 128,
                "w": 128,
                "x": 0,
                "y": 0
            },
            "trimmed": false
        },
        {
            "filename": "刀光亮色_00006.png",
            "frame": {
                "h": 128,
                "w": 128,
                "x": 256,
                "y": 128
            },
            "rotated": false,
            "scale": {
                "x": 1.0,
                "y": 1.0,
                "z": 1.0
            },
            "sourceSize": {
                "h": 128,
                "w": 128
            },
            "spriteSourceSize": {
                "h": 128,
                "w": 128,
                "x": 0,
                "y": 0
            },
            "trimmed": false
        },
        {
            "filename": "刀光亮色_00007.png",
            "frame": {
                "h": 128,
                "w": 128,
                "x": 384,
                "y": 128
            },
            "rotated": false,
            "scale": {
                "x": 1.0,
                "y": 1.0,
                "z": 1.0
            },
            "sourceSize": {
                "h": 128,
                "w": 128
            },
            "spriteSourceSize": {
                "h": 128,
                "w": 128,
                "x": 0,
                "y": 0
            },
            "trimmed": false
        },
        {
            "filename": "刀光亮色_00008.png",
            "frame": {
                "h": 128,
                "w": 128,
                "x": 0,
                "y": 256
            },
            "rotated": false,
            "scale": {
                "x": 1.0,
                "y": 1.0,
                "z": 1.0
            },
            "sourceSize": {
                "h": 128,
                "w": 128
            },
            "spriteSourceSize": {
                "h": 128,
                "w": 128,
                "x": 0,
                "y": 0
            },
            "trimmed": false
        },
        {
            "filename": "刀光亮色_00009.png",
            "frame": {
                "h": 128,
                "w": 128,
                "x": 128,
                "y": 256
            },
            "rotated": false,
            "scale": {
                "x": 1.0,
                "y": 1.0,
                "z": 1.0
            },
            "sourceSize": {
                "h": 128,
                "w": 128
            },
            "spriteSourceSize": {
                "h": 128,
                "w": 128,
                "x": 0,
                "y": 0
            },
            "trimmed": false
        },
        {
            "filename": "刀光亮色_00010.png",
            "frame": {
                "h": 128,
                "w": 128,
                "x": 256,
                "y": 256
            },
            "rotated": false,
            "scale": {
                "x": 1.0,
                "y": 1.0,
                "z": 1.0
            },
            "sourceSize": {
                "h": 128,
                "w": 128
            },
            "spriteSourceSize": {
                "h": 128,
                "w": 128,
                "x": 0,
                "y": 0
            },
            "trimmed": false
        },
        {
            "filename": "刀光亮色_00011.png",
            "frame": {
                "h": 128,
                "w": 128,
                "x": 384,
                "y": 256
            },
            "rotated": false,
            "scale": {
                "x": 1.0,
                "y": 1.0,
                "z": 1.0
            },
            "sourceSize": {
                "h": 128,
                "w": 128
            },
            "spriteSourceSize": {
                "h": 128,
                "w": 128,
                "x": 0,
                "y": 0
            },
            "trimmed": false
        },
        {
            "filename": "刀光亮色_00012.png",
            "frame": {
                "h": 128,
                "w": 128,
                "x": 0,
                "y": 384
            },
            "rotated": false,
            "scale": {
                "x": 1.0,
                "y": 1.0,
                "z": 1.0
            },
            "sourceSize": {
                "h": 128,
                "w": 128
            },
            "spriteSourceSize": {
                "h": 128,
                "w": 128,
                "x": 0,
                "y": 0
            },
            "trimmed": false
        },
        {
            "filename": "刀光亮色_00013.png",
            "frame": {
                "h": 128,
                "w": 128,
                "x": 128,
                "y": 384
            },
            "rotated": false,
            "scale": {
                "x": 1.0,
                "y": 1.0,
                "z": 1.0
            },
            "sourceSize": {
                "h": 128,
                "w": 128
            },
            "spriteSourceSize": {
                "h": 128,
                "w": 128,
                "x": 0,
                "y": 0
            },
            "trimmed": false
        },
        {
            "filename": "刀光亮色_00014.png",
            "frame": {
                "h": 128,
                "w": 128,
                "x": 256,
                "y": 384
            },
            "rotated": false,
            "scale": {
                "x": 1.0,
                "y": 1.0,
                "z": 1.0
            },
            "sourceSize": {
                "h": 128,
                "w": 128
            },
            "spriteSourceSize": {
                "h": 128,
                "w": 128,
                "x": 0,
                "y": 0
            },
            "trimmed": false
        },
        {
            "filename": "刀光亮色_00015.png",
            "frame": {
                "h": 128,
                "w": 128,
                "x": 384,
                "y": 384
            },
            "rotated": false,
            "scale": {
                "x": 1.0,
                "y": 1.0,
                "z": 1.0
            },
            "sourceSize": {
                "h": 128,
                "w": 128
            },
            "spriteSourceSize": {
                "h": 128,
                "w": 128,
                "x": 0,
                "y": 0
            },
            "trimmed": false
        }
    ],
    "meta": {
        "app": "https://www.codeandweb.com/texturepacker",
        "format": "RGBA8888",
        "image": "ss_worldleaf_weapon_attack_03.png",
        "scale": "1",
        "size": {
            "h": 512,
            "w": 512
        },
        "smartupdate": "$TexturePacker:SmartUpdate:293edc8a00ad66f7bafa7bcc5fa5168a:52c6efd66e64a12d4eedeca443838193:4ae4b399b3d728b7eec66fa426d02965$",
        "version": "1.0"
    }
}