{
  "particleeffect": {
    "blend": {
      "name": "add"
    },
    "colorfade": [
      {
        "color": "1.000000 0.674510 0.886275 0.000000",
        "time": "0.0"
      },
      {
        "color": "1.000000 0.364706 0.800000 0.794643",
        "time": "0.0735"
      },
      {
        "color": "1.000000 0.631373 0.792157 1.000000",
        "time": "0.24499999999999997"
      },
      {
        "color": "0.898039 0.368627 1.000000 0.723214",
        "time": "0.39071052631578945"
      },
      {
        "color": "1.000000 0.623529 0.572549 0.000000",
        "time": "0.48999999999999994"
      }
    ],
    "depthtest": {
      "enable": "true"
    },
    "direction": {
      "max": "0.0 0.0 1.0",
      "min": "0.0 0.0 0.0",
      "value": "Direction"
    },
    "emissionrate": {
      "max": "5.0",
      "min": "5.0"
    },
    "emitterscale": [

    ],
    "emittersize": {
      "value": "0.5 0.0 0.0"
    },
    "emittertype": {
      "value": "Sphere"
    },
    "faceCameraMode": {
      "value": "Direction Horizontal"
    },
    "numparticles": {
      "value": "5"
    },
    "particlesize": {
      "max": "0.06 0.06",
      "min": "0.04 0.04"
    },
    "relative": {
      "enable": "false"
    },
    "rotation": {
      "max": "0.0",
      "min": "0.0"
    },
    "texture": {
      "name": "textures/sfxs/2021s2/fk"
    },
    "thickness": {
      "value": "0.0"
    },
    "timetolive": {
      "max": "0.7",
      "min": "0.5"
    },
    "velocity": {
      "max": "1.0",
      "min": "1.0"
    }
  }
}