{
  "particleeffect": {
    "colorfade": [
      {
        "color": "1.000000 0.666667 1.000000 1.000000",
        "time": "0.0"
      },
      {
        "color": "0.666667 0.666667 1.000000 1.000000",
        "time": "0.18"
      },
      {
        "color": "0.666667 1.000000 1.000000 1.000000",
        "time": "0.36"
      }
    ],
    "depthtest": {
      "enable": "true"
    },
    "direction": {
      "max": "0.0 -1.0 0.0",
      "min": "0.0 0.0 0.0",
      "value": "Direction"
    },
    "emissionrate": {
      "max": "4.0",
      "min": "8.0"
    },
    "emitterscale": [

    ],
    "emittersize": {
      "value": "0.8 0.0 0.2"
    },
    "emittertype": {
      "value": "Sphere"
    },
    "enableloop": {
      "enable": "true"
    },
    "numparticles": {
      "value": "5"
    },
    "particlesize": {
      "max": "0.02 0.02",
      "min": "0.03 0.03"
    },
    "relative": {
      "enable": "true"
    },
    "rotationspeed": {
      "max": "-30.0",
      "min": "30.0"
    },
    "texture": {
      "name": "textures/sfxs/2021s2/fk"
    },
    "thickness": {
      "value": "0.0"
    },
    "timetolive": {
      "max": "0.6",
      "min": "0.4"
    },
    "velocity": {
      "max": "0.3",
      "min": "0.2"
    }
  }
}