{
  "particleeffect": {
    "blend": {
      "name": "add"
    },
    "colorfade": [
      {
        "color": "0.000000 1.000000 0.784314 0.366071",
        "time": "0.0"
      },
      {
        "color": "0.192157 0.650980 1.000000 0.919643",
        "time": "0.0037894736842105266"
      },
      {
        "color": "0.349020 1.000000 0.501961 0.892857",
        "time": "0.020631578947368424"
      },
      {
        "color": "0.490196 0.713725 1.000000 0.616071",
        "time": "0.037894736842105266"
      },
      {
        "color": "0.254902 0.713725 1.000000 0.276786",
        "time": "0.16000000000000003"
      }
    ],
    "depthtest": {
      "enable": "true"
    },
    "direction": {
      "max": "0.0 0.0 0.1",
      "min": "0.0 0.0 0.0",
      "value": "Direction"
    },
    "emissionrate": {
      "max": "3.0",
      "min": "3.0"
    },
    "emitterscale": [

    ],
    "emittersize": {
      "value": "0.6 0.2 0.45"
    },
    "emittertype": {
      "value": "Sphere"
    },
    "enableloop": {
      "enable": "true"
    },
    "faceCameraMode": {
      "value": "Direction"
    },
    "layer": 2,
    "numparticles": {
      "value": "3"
    },
    "particlesize": {
      "max": "0.1 0.1",
      "min": "0.08 0.08"
    },
    "relative": {
      "enable": "false"
    },
    "texture": {
      "ani": {
        "fps": "15",
        "name": "",
        "shuffle": false
      },
      "name": "textures/sfxs/2021s2/lizi_02_00000"
    },
    "thickness": {
      "value": "0.0"
    },
    "timetolive": {
      "max": "0.4",
      "min": "0.4"
    },
    "velocity": {
      "max": "0.7",
      "min": "0.6"
    }
  }
}