{
  "particleeffect": {
    "blend": {
      "name": "add"
    },
    "colorfade": [
      {
        "color": "0.000000 0.600000 1.000000 0.776786",
        "time": "0.0"
      },
      {
        "color": "0.000000 1.000000 0.886275 0.750000",
        "time": "0.000568421052631579"
      },
      {
        "color": "0.000000 1.000000 0.886275 0.776786",
        "time": "0.001105263157894737"
      },
      {
        "color": "0.000000 0.533333 1.000000 0.714286",
        "time": "0.0024000000000000002"
      },
      {
        "color": "0.000000 0.701961 1.000000 0.741071",
        "time": "0.012"
      }
    ],
    "depthtest": {
      "enable": "true"
    },
    "direction": {
      "max": "0.0 0.0 0.1",
      "min": "0.0 -0.01 0.1",
      "value": "Direction"
    },
    "emissionrate": {
      "max": "3.0",
      "min": "30.0"
    },
    "emitterscale": [

    ],
    "emittersize": {
      "value": "0.6 0.3 0.0"
    },
    "emittertype": {
      "value": "Box"
    },
    "enableloop": {
      "enable": "true"
    },
    "faceCameraMode": {
      "value": "Direction"
    },
    "numparticles": {
      "value": "3"
    },
    "particlesize": {
      "max": "0.05 0.05",
      "min": "0.03 0.03"
    },
    "relative": {
      "enable": "false"
    },
    "texture": {
      "ani": {
        "fps": "10",
        "name": "",
        "shuffle": false
      },
      "name": "textures/sfxs/2021s2/m_mc_star02"
    },
    "thickness": {
      "value": "0.0"
    },
    "timetolive": {
      "max": "0.2",
      "min": "0.3"
    },
    "velocity": {
      "max": "1.5",
      "min": "1.5"
    }
  }
}