{
  "frameeffect": {
    "cylinder_enable": false,
    "depth_test": true,
    "face_camera": false,
    "fps": 12,
    "loop": true,
    "rot_speed": [
      0,
      0,
      0
    ],
    "scale": [
      0.3,
      0.3,
      0.3
    ],
    "shuffle": false,
    "tex_repeat_num": [
      1,
      1
    ],
    "texture": "textures/sfxs/2021s2/m_mc_liuguang_23"
  }
}