{
  "particleeffect": {
    "blend": {
      "name": "add"
    },
    "colorfade": [
      {
        "color": "0.000000 0.666667 1.000000 1.000000",
        "time": "0.0"
      },
      {
        "color": "0.000000 1.000000 1.000000 1.000000",
        "time": "0.010547368421052632"
      },
      {
        "color": "0.666667 1.000000 1.000000 0.044643",
        "time": "0.024"
      }
    ],
    "depthtest": {
      "enable": "true"
    },
    "direction": {
      "max": "0.0 0.0 -1.0",
      "min": "0.0 -0.0 0.0",
      "value": "Direction"
    },
    "emissionrate": {
      "max": "10.0",
      "min": "6.0"
    },
    "emitterscale": [

    ],
    "emittersize": {
      "value": "0.0 0.5 0.0"
    },
    "emittertype": {
      "value": "Sphere"
    },
    "enableloop": {
      "enable": "true"
    },
    "faceCameraMode": {
      "value": "Direction"
    },
    "particlesize": {
      "max": "0.02 0.02",
      "min": "0.04 0.04"
    },
    "relative": {
      "enable": "false"
    },
    "texture": {
      "name": "textures/sfxs/2021s2/lklz_00000"
    },
    "thickness": {
      "value": "0.0"
    },
    "timetolive": {
      "max": "0.1",
      "min": "0.2"
    },
    "velocity": {
      "max": "0.3",
      "min": "0.2"
    }
  }
}