{
  "billboard": {
    "vertexShader": "shaders/sfx.vertex",
    "fragmentShader": "shaders/sfx.fragment",

    "vertexFields": [
      { "field": "Position" },
      { "field": "UV0" }
    ],

    "samplerStates": [
      {
        "samplerIndex": 0,
        "textureWrap": "Clamp",
        "textureFilter": "Bilinear"
      }
    ],

    "msaaSupport": "Both"
  },

  "sequence_depthtest:billboard": {
    "states": [
      "DisableCulling",
      "Blending",
      "DisableDepthWrite"
    ],
    "msaaSupport": "Both"
  },

  "sequence_disabledepthtest:billboard": {
    "states": [
      "DisableCulling",
      "Blending",
      "DisableDepthWrite",
      "DisableDepthTest"
    ],
    "msaaSupport": "Both"
  }
}