{"frames": [

{
	"filename": "xy_dragon_fp_longxi_00000.png",
	"frame": {"x":0,"y":0,"w":32,"h":32},
	"rotated": false,
	"trimmed": false,
	"spriteSourceSize": {"x":0,"y":0,"w":32,"h":32},
	"sourceSize": {"w":32,"h":32}
},
{
	"filename": "xy_dragon_fp_longxi_00001.png",
	"frame": {"x":32,"y":0,"w":32,"h":32},
	"rotated": false,
	"trimmed": false,
	"spriteSourceSize": {"x":0,"y":0,"w":32,"h":32},
	"sourceSize": {"w":32,"h":32}
},
{
	"filename": "xy_dragon_fp_longxi_00002.png",
	"frame": {"x":64,"y":0,"w":32,"h":32},
	"rotated": false,
	"trimmed": false,
	"spriteSourceSize": {"x":0,"y":0,"w":32,"h":32},
	"sourceSize": {"w":32,"h":32}
},
{
	"filename": "xy_dragon_fp_longxi_00003.png",
	"frame": {"x":96,"y":0,"w":32,"h":32},
	"rotated": false,
	"trimmed": false,
	"spriteSourceSize": {"x":0,"y":0,"w":32,"h":32},
	"sourceSize": {"w":32,"h":32}
},
{
	"filename": "xy_dragon_fp_longxi_00004.png",
	"frame": {"x":0,"y":32,"w":32,"h":32},
	"rotated": false,
	"trimmed": false,
	"spriteSourceSize": {"x":0,"y":0,"w":32,"h":32},
	"sourceSize": {"w":32,"h":32}
},
{
	"filename": "xy_dragon_fp_longxi_00005.png",
	"frame": {"x":32,"y":32,"w":32,"h":32},
	"rotated": false,
	"trimmed": false,
	"spriteSourceSize": {"x":0,"y":0,"w":32,"h":32},
	"sourceSize": {"w":32,"h":32}
},
{
	"filename": "xy_dragon_fp_longxi_00006.png",
	"frame": {"x":64,"y":32,"w":32,"h":32},
	"rotated": false,
	"trimmed": false,
	"spriteSourceSize": {"x":0,"y":0,"w":32,"h":32},
	"sourceSize": {"w":32,"h":32}
},
{
	"filename": "xy_dragon_fp_longxi_00007.png",
	"frame": {"x":96,"y":32,"w":32,"h":32},
	"rotated": false,
	"trimmed": false,
	"spriteSourceSize": {"x":0,"y":0,"w":32,"h":32},
	"sourceSize": {"w":32,"h":32}
}],
"meta": {
	"app": "https://www.codeandweb.com/texturepacker",
	"version": "1.0",
	"image": "xy_dragon_fp_longxi.png",
	"format": "RGBA8888",
	"size": {"w":128,"h":64},
	"scale": "1",
	"smartupdate": "$TexturePacker:SmartUpdate:9a414dceff541a46648b241ba5ae0a4d:04a4b08214144d95e6be7af053686030:081bbc5fe280a79466ac85bcb86fb08b$"
}
}
