{
  "particleeffect": {
    "activetime": {
      "value": "0.2"
    },
    "animlodbias": {
      "value": "0.0"
    },
    "blend": {
      "name": "blend"
    },
    "colorfade": [],
    "constantforce": {
      "value": "0.0 0.0 0.0"
    },
    "dampingforce": {
      "value": "4.0"
    },
    "direction": {
      "max": "0.0 -0.5 0.0",
      "min": "0.0 -0.5 0.0"
    },
    "emissionrate": {
      "max": "10.0",
      "min": "10.0"
    },
    "emittersize": {
      "value": "0.0 0.0 0.0"
    },
    "emittertype": {
      "value": "Sphere"
    },
    "enablecolor": {
      "enable": "false"
    },
    "enableloop": {
      "enable": "false"
    },
    "faceCameraMode": {
      "value": "Rotate XYZ"
    },
    "fixedscreensize": {
      "enable": "false"
    },
    "inactivetime": {
      "value": "1.0"
    },
    "material": {
      "name": "materials/particles.material"
    },
    "numparticles": {
      "value": "1"
    },
    "particlesize": {
      "max": "1.1 1.0",
      "min": "1.1 1.0"
    },
    "relative": {
      "enable": "true"
    },
    "rotation": {
      "max": "0.0",
      "min": "0.0"
    },
    "rotationspeed": {
      "max": "0.0",
      "min": "0.0"
    },
    "scaled": {
      "enable": "true"
    },
    "sizedelta": {
      "add": "0.0",
      "mul": "1.1"
    },
    "sorted": {
      "enable": "false"
    },
    "texture": {
      "ani": {
        "fps": "20.0",
        "name": "textures/sfxs/pet/XQ_smoke01"
      },
      "name": "textures/sfxs/pet/XQ_smoke01"
    },
    "timetolive": {
      "max": "0.5",
      "min": "0.5"
    },
    "velocity": {
      "max": "5.0",
      "min": "5.0"
    }
  }
}