{
    "particleeffect": {
        "activetime": {
            "value": "1.0"
        },
        "colorfade": [
            {
                "color": "1.000000 0.243137 0.254902 1.000000",
                "time": "0.0"
            },
            {
                "color": "1.000000 0.243137 0.254902 1.000000",
                "time": "0.3429999999999999"
            }
        ],
        "dampingforce": {
            "value": "3.0"
        },
        "depthtest": {
            "enable": "true"
        },
        "direction": {
            "max": "-1.0 0.0 -1.0",
            "min": "1.0 0.0 1.0",
            "value": "Direction"
        },
        "emissionrate": {
            "max": "2.0",
            "min": "2.0"
        },
        "emitterscale": [

        ],
        "emittersize": {
            "value": "2.5 0.0 2.5"
        },
        "emittertype": {
            "value": "Sphere"
        },
        "enableloop": {
            "enable": "true"
        },
        "inactivetime": {
            "value": "1.0"
        },
        "numparticles": {
            "value": "2"
        },
        "particlesize": {
            "max": "0.08 0.08",
            "min": "0.1 0.1"
        },
        "relative": {
            "enable": "true"
        },
        "rotation": {
            "max": "-90.0",
            "min": "-90.0"
        },
        "rotationspeed": {
            "max": "5.0",
            "min": "0.5"
        },
        "texture": {
            "ani": {
                "fps": "20",
                "name": "",
                "shuffle": false
            },
            "name": "textures/particle/pet/zgbys_lizi_1"
        },
        "thickness": {
            "value": "0.0"
        },
        "timetolive": {
            "max": "0.7",
            "min": "0.7"
        },
        "velocity": {
            "max": "0.2",
            "min": "1.0"
        }
    }
}