{
  "particleeffect": {
    "blend": {
      "name": "add"
    },
    "colorfade": [
      {
        "color": "1.000000 1.000000 1.000000 0.000000",
        "time": "0.0"
      },
      {
        "color": "0.650980 0.984314 1.000000 1.000000",
        "time": "0.45592105263157895"
      },
      {
        "color": "0.447059 0.788235 1.000000 0.000000",
        "time": "2.25"
      }
    ],
    "direction": {
      "max": "0.0 0.0 1.0",
      "min": "0.0 0.0 0.0",
      "value": "Direction"
    },
    "emissionrate": {
      "max": "10.0",
      "min": "1.0"
    },
    "emitterscale": [

    ],
    "emittersize": {
      "value": "0.3 0.3 0.3"
    },
    "emittertype": {
      "value": "Sphere"
    },
    "layer": 9,
    "numparticles": {
      "value": "2"
    },
    "particlesize": {
      "max": "0.15 0.15",
      "min": "0.06 0.06"
    },
    "relative": {
      "enable": "true"
    },
    "rotation": {
      "max": "360.0",
      "min": "-360.0"
    },
    "rotationspeed": {
      "max": "70.0",
      "min": "-70.0"
    },
    "sizedelta": [
      {
        "scale": "1.0 1.0",
        "time": "0.0"
      },
      {
        "scale": "0.0 0.0",
        "time": "3.0"
      }
    ],
    "texture": {
      "name": "textures/particle/pet/bingxuewang_02"
    },
    "thickness": {
      "value": "0.0"
    },
    "timetolive": {
      "max": "1.5",
      "min": "1.0"
    },
    "velocity": {
      "max": "0.5",
      "min": "0.3"
    }
  }
}