{
  "particleeffect": {
    "blend": {
      "name": "add"
    },
    "colorfade": [
      {
        "color": "1.000000 1.000000 1.000000 0.000000",
        "time": "0.0"
      },
      {
        "color": "1.000000 0.654902 0.094118 0.312500",
        "time": "0.4842105263157895"
      },
      {
        "color": "1.000000 1.000000 0.240000 0.000000",
        "time": "2.0"
      }
    ],
    "direction": {
      "max": "0.0 0.0 0.0",
      "min": "0.0 0.0 0.0",
      "value": "Direction"
    },
    "emissionrate": {
      "max": "4.0",
      "min": "1.0"
    },
    "emitterscale": [

    ],
    "emittersize": {
      "value": "0.0 0.0 0.0"
    },
    "emittertype": {
      "value": "Sphere"
    },
    "numparticles": {
      "value": "5"
    },
    "particlesize": {
      "max": "0.25 0.25",
      "min": "0.15 0.15"
    },
    "relative": {
      "enable": "true"
    },
    "sizedelta": [
      {
        "scale": "1.0 1.0",
        "time": "0.0"
      },
      {
        "scale": "1.5 1.5",
        "time": "2.0"
      },
      {
        "scale": "1.5 1.5",
        "time": "2.0"
      }
    ],
    "texture": {
      "name": "textures/sfxs/pet/sun"
    },
    "thickness": {
      "value": "0.0"
    },
    "timetolive": {
      "max": "2.0",
      "min": "1.5"
    },
    "velocity": {
      "max": "0.0",
      "min": "0.0"
    }
  }
}