{
    "frames": [
        {
            "filename": "pingmu_00.png",
            "frame": {
                "h": 256,
                "w": 256,
                "x": 0,
                "y": 0
            },
            "rotated": false,
            "scale": {
                "x": 1.0,
                "y": 1.0,
                "z": 1.0
            },
            "sourceSize": {
                "h": 256,
                "w": 256
            },
            "spriteSourceSize": {
                "h": 256,
                "w": 256,
                "x": 0,
                "y": 0
            },
            "trimmed": false
        },
        {
            "filename": "pingmu_01.png",
            "frame": {
                "h": 256,
                "w": 256,
                "x": 256,
                "y": 0
            },
            "rotated": false,
            "scale": {
                "x": 1.0,
                "y": 1.0,
                "z": 1.0
            },
            "sourceSize": {
                "h": 256,
                "w": 256
            },
            "spriteSourceSize": {
                "h": 256,
                "w": 256,
                "x": 0,
                "y": 0
            },
            "trimmed": false
        },
        {
            "filename": "pingmu_02.png",
            "frame": {
                "h": 256,
                "w": 256,
                "x": 512,
                "y": 0
            },
            "rotated": false,
            "scale": {
                "x": 1.0,
                "y": 1.0,
                "z": 1.0
            },
            "sourceSize": {
                "h": 256,
                "w": 256
            },
            "spriteSourceSize": {
                "h": 256,
                "w": 256,
                "x": 0,
                "y": 0
            },
            "trimmed": false
        },
        {
            "filename": "pingmu_03.png",
            "frame": {
                "h": 256,
                "w": 256,
                "x": 768,
                "y": 0
            },
            "rotated": false,
            "scale": {
                "x": 1.0,
                "y": 1.0,
                "z": 1.0
            },
            "sourceSize": {
                "h": 256,
                "w": 256
            },
            "spriteSourceSize": {
                "h": 256,
                "w": 256,
                "x": 0,
                "y": 0
            },
            "trimmed": false
        },
        {
            "filename": "pingmu_04.png",
            "frame": {
                "h": 256,
                "w": 256,
                "x": 0,
                "y": 256
            },
            "rotated": false,
            "scale": {
                "x": 1.0,
                "y": 1.0,
                "z": 1.0
            },
            "sourceSize": {
                "h": 256,
                "w": 256
            },
            "spriteSourceSize": {
                "h": 256,
                "w": 256,
                "x": 0,
                "y": 0
            },
            "trimmed": false
        },
        {
            "filename": "pingmu_05.png",
            "frame": {
                "h": 256,
                "w": 256,
                "x": 256,
                "y": 256
            },
            "rotated": false,
            "scale": {
                "x": 1.0,
                "y": 1.0,
                "z": 1.0
            },
            "sourceSize": {
                "h": 256,
                "w": 256
            },
            "spriteSourceSize": {
                "h": 256,
                "w": 256,
                "x": 0,
                "y": 0
            },
            "trimmed": false
        },
        {
            "filename": "pingmu_06.png",
            "frame": {
                "h": 256,
                "w": 256,
                "x": 512,
                "y": 256
            },
            "rotated": false,
            "scale": {
                "x": 1.0,
                "y": 1.0,
                "z": 1.0
            },
            "sourceSize": {
                "h": 256,
                "w": 256
            },
            "spriteSourceSize": {
                "h": 256,
                "w": 256,
                "x": 0,
                "y": 0
            },
            "trimmed": false
        },
        {
            "filename": "pingmu_07.png",
            "frame": {
                "h": 256,
                "w": 256,
                "x": 768,
                "y": 256
            },
            "rotated": false,
            "scale": {
                "x": 1.0,
                "y": 1.0,
                "z": 1.0
            },
            "sourceSize": {
                "h": 256,
                "w": 256
            },
            "spriteSourceSize": {
                "h": 256,
                "w": 256,
                "x": 0,
                "y": 0
            },
            "trimmed": false
        },
        {
            "filename": "pingmu_08.png",
            "frame": {
                "h": 256,
                "w": 256,
                "x": 0,
                "y": 512
            },
            "rotated": false,
            "scale": {
                "x": 1.0,
                "y": 1.0,
                "z": 1.0
            },
            "sourceSize": {
                "h": 256,
                "w": 256
            },
            "spriteSourceSize": {
                "h": 256,
                "w": 256,
                "x": 0,
                "y": 0
            },
            "trimmed": false
        },
        {
            "filename": "pingmu_09.png",
            "frame": {
                "h": 256,
                "w": 256,
                "x": 256,
                "y": 512
            },
            "rotated": false,
            "scale": {
                "x": 1.0,
                "y": 1.0,
                "z": 1.0
            },
            "sourceSize": {
                "h": 256,
                "w": 256
            },
            "spriteSourceSize": {
                "h": 256,
                "w": 256,
                "x": 0,
                "y": 0
            },
            "trimmed": false
        },
        {
            "filename": "pingmu_10.png",
            "frame": {
                "h": 256,
                "w": 256,
                "x": 512,
                "y": 512
            },
            "rotated": false,
            "scale": {
                "x": 1.0,
                "y": 1.0,
                "z": 1.0
            },
            "sourceSize": {
                "h": 256,
                "w": 256
            },
            "spriteSourceSize": {
                "h": 256,
                "w": 256,
                "x": 0,
                "y": 0
            },
            "trimmed": false
        },
        {
            "filename": "pingmu_11.png",
            "frame": {
                "h": 256,
                "w": 256,
                "x": 512,
                "y": 512
            },
            "rotated": false,
            "scale": {
                "x": 1.0,
                "y": 1.0,
                "z": 1.0
            },
            "sourceSize": {
                "h": 256,
                "w": 256
            },
            "spriteSourceSize": {
                "h": 256,
                "w": 256,
                "x": 0,
                "y": 0
            },
            "trimmed": false
        },
        {
            "filename": "pingmu_12.png",
            "frame": {
                "h": 256,
                "w": 256,
                "x": 512,
                "y": 512
            },
            "rotated": false,
            "scale": {
                "x": 1.0,
                "y": 1.0,
                "z": 1.0
            },
            "sourceSize": {
                "h": 256,
                "w": 256
            },
            "spriteSourceSize": {
                "h": 256,
                "w": 256,
                "x": 0,
                "y": 0
            },
            "trimmed": false
        },
        {
            "filename": "pingmu_13.png",
            "frame": {
                "h": 256,
                "w": 256,
                "x": 512,
                "y": 512
            },
            "rotated": false,
            "scale": {
                "x": 1.0,
                "y": 1.0,
                "z": 1.0
            },
            "sourceSize": {
                "h": 256,
                "w": 256
            },
            "spriteSourceSize": {
                "h": 256,
                "w": 256,
                "x": 0,
                "y": 0
            },
            "trimmed": false
        },
        {
            "filename": "pingmu_14.png",
            "frame": {
                "h": 256,
                "w": 256,
                "x": 512,
                "y": 512
            },
            "rotated": false,
            "scale": {
                "x": 1.0,
                "y": 1.0,
                "z": 1.0
            },
            "sourceSize": {
                "h": 256,
                "w": 256
            },
            "spriteSourceSize": {
                "h": 256,
                "w": 256,
                "x": 0,
                "y": 0
            },
            "trimmed": false
        },
        {
            "filename": "pingmu_15.png",
            "frame": {
                "h": 256,
                "w": 256,
                "x": 512,
                "y": 512
            },
            "rotated": false,
            "scale": {
                "x": 1.0,
                "y": 1.0,
                "z": 1.0
            },
            "sourceSize": {
                "h": 256,
                "w": 256
            },
            "spriteSourceSize": {
                "h": 256,
                "w": 256,
                "x": 0,
                "y": 0
            },
            "trimmed": false
        }
    ],
    "meta": {
        "app": "https://www.codeandweb.com/texturepacker",
        "format": "RGBA8888",
        "image": "cs_game_skina_bianshen_007.png",
        "scale": "1",
        "size": {
            "h": 1024,
            "w": 1024
        },
        "smartupdate": "$TexturePacker:SmartUpdate:293ea15fcb6240ba4e9a32e091e94dc3:2bc6e197d362487540c5a4df4db43c13:0f98d5212de0971c098192e583d9d15c$",
        "version": "1.0"
    }
}