{
    "frames": [
        {
            "filename": "合成 512_00.png",
            "frame": {
                "h": 512,
                "w": 512,
                "x": 0,
                "y": 0
            },
            "rotated": false,
            "scale": {
                "x": 1.0,
                "y": 1.0,
                "z": 1.0
            },
            "sourceSize": {
                "h": 512,
                "w": 512
            },
            "spriteSourceSize": {
                "h": 512,
                "w": 512,
                "x": 0,
                "y": 0
            },
            "trimmed": false
        },
        {
            "filename": "合成 512_01.png",
            "frame": {
                "h": 512,
                "w": 512,
                "x": 512,
                "y": 0
            },
            "rotated": false,
            "scale": {
                "x": 1.0,
                "y": 1.0,
                "z": 1.0
            },
            "sourceSize": {
                "h": 512,
                "w": 512
            },
            "spriteSourceSize": {
                "h": 512,
                "w": 512,
                "x": 0,
                "y": 0
            },
            "trimmed": false
        },
        {
            "filename": "合成 512_02.png",
            "frame": {
                "h": 512,
                "w": 512,
                "x": 1024,
                "y": 0
            },
            "rotated": false,
            "scale": {
                "x": 1.0,
                "y": 1.0,
                "z": 1.0
            },
            "sourceSize": {
                "h": 512,
                "w": 512
            },
            "spriteSourceSize": {
                "h": 512,
                "w": 512,
                "x": 0,
                "y": 0
            },
            "trimmed": false
        },
        {
            "filename": "合成 512_03.png",
            "frame": {
                "h": 512,
                "w": 512,
                "x": 1536,
                "y": 0
            },
            "rotated": false,
            "scale": {
                "x": 1.0,
                "y": 1.0,
                "z": 1.0
            },
            "sourceSize": {
                "h": 512,
                "w": 512
            },
            "spriteSourceSize": {
                "h": 512,
                "w": 512,
                "x": 0,
                "y": 0
            },
            "trimmed": false
        },
        {
            "filename": "合成 512_04.png",
            "frame": {
                "h": 512,
                "w": 512,
                "x": 0,
                "y": 512
            },
            "rotated": false,
            "scale": {
                "x": 1.0,
                "y": 1.0,
                "z": 1.0
            },
            "sourceSize": {
                "h": 512,
                "w": 512
            },
            "spriteSourceSize": {
                "h": 512,
                "w": 512,
                "x": 0,
                "y": 0
            },
            "trimmed": false
        },
        {
            "filename": "合成 512_05.png",
            "frame": {
                "h": 512,
                "w": 512,
                "x": 512,
                "y": 512
            },
            "rotated": false,
            "scale": {
                "x": 1.0,
                "y": 1.0,
                "z": 1.0
            },
            "sourceSize": {
                "h": 512,
                "w": 512
            },
            "spriteSourceSize": {
                "h": 512,
                "w": 512,
                "x": 0,
                "y": 0
            },
            "trimmed": false
        },
        {
            "filename": "合成 512_06.png",
            "frame": {
                "h": 512,
                "w": 512,
                "x": 1024,
                "y": 512
            },
            "rotated": false,
            "scale": {
                "x": 1.0,
                "y": 1.0,
                "z": 1.0
            },
            "sourceSize": {
                "h": 512,
                "w": 512
            },
            "spriteSourceSize": {
                "h": 512,
                "w": 512,
                "x": 0,
                "y": 0
            },
            "trimmed": false
        },
        {
            "filename": "合成 512_07.png",
            "frame": {
                "h": 512,
                "w": 512,
                "x": 1536,
                "y": 512
            },
            "rotated": false,
            "scale": {
                "x": 1.0,
                "y": 1.0,
                "z": 1.0
            },
            "sourceSize": {
                "h": 512,
                "w": 512
            },
            "spriteSourceSize": {
                "h": 512,
                "w": 512,
                "x": 0,
                "y": 0
            },
            "trimmed": false
        },
        {
            "filename": "合成 512_08.png",
            "frame": {
                "h": 512,
                "w": 512,
                "x": 0,
                "y": 1024
            },
            "rotated": false,
            "scale": {
                "x": 1.0,
                "y": 1.0,
                "z": 1.0
            },
            "sourceSize": {
                "h": 512,
                "w": 512
            },
            "spriteSourceSize": {
                "h": 512,
                "w": 512,
                "x": 0,
                "y": 0
            },
            "trimmed": false
        },
        {
            "filename": "合成 512_09.png",
            "frame": {
                "h": 512,
                "w": 512,
                "x": 512,
                "y": 1024
            },
            "rotated": false,
            "scale": {
                "x": 1.0,
                "y": 1.0,
                "z": 1.0
            },
            "sourceSize": {
                "h": 512,
                "w": 512
            },
            "spriteSourceSize": {
                "h": 512,
                "w": 512,
                "x": 0,
                "y": 0
            },
            "trimmed": false
        },
        {
            "filename": "合成 512_10.png",
            "frame": {
                "h": 512,
                "w": 512,
                "x": 1024,
                "y": 1024
            },
            "rotated": false,
            "scale": {
                "x": 1.0,
                "y": 1.0,
                "z": 1.0
            },
            "sourceSize": {
                "h": 512,
                "w": 512
            },
            "spriteSourceSize": {
                "h": 512,
                "w": 512,
                "x": 0,
                "y": 0
            },
            "trimmed": false
        },
        {
            "filename": "合成 512_11.png",
            "frame": {
                "h": 512,
                "w": 512,
                "x": 1536,
                "y": 1024
            },
            "rotated": false,
            "scale": {
                "x": 1.0,
                "y": 1.0,
                "z": 1.0
            },
            "sourceSize": {
                "h": 512,
                "w": 512
            },
            "spriteSourceSize": {
                "h": 512,
                "w": 512,
                "x": 0,
                "y": 0
            },
            "trimmed": false
        },
        {
            "filename": "合成 512_12.png",
            "frame": {
                "h": 512,
                "w": 512,
                "x": 0,
                "y": 1536
            },
            "rotated": false,
            "scale": {
                "x": 1.0,
                "y": 1.0,
                "z": 1.0
            },
            "sourceSize": {
                "h": 512,
                "w": 512
            },
            "spriteSourceSize": {
                "h": 512,
                "w": 512,
                "x": 0,
                "y": 0
            },
            "trimmed": false
        },
        {
            "filename": "合成 512_13.png",
            "frame": {
                "h": 512,
                "w": 512,
                "x": 512,
                "y": 1536
            },
            "rotated": false,
            "scale": {
                "x": 1.0,
                "y": 1.0,
                "z": 1.0
            },
            "sourceSize": {
                "h": 512,
                "w": 512
            },
            "spriteSourceSize": {
                "h": 512,
                "w": 512,
                "x": 0,
                "y": 0
            },
            "trimmed": false
        },
        {
            "filename": "合成 512_14.png",
            "frame": {
                "h": 512,
                "w": 512,
                "x": 1024,
                "y": 1536
            },
            "rotated": false,
            "scale": {
                "x": 1.0,
                "y": 1.0,
                "z": 1.0
            },
            "sourceSize": {
                "h": 512,
                "w": 512
            },
            "spriteSourceSize": {
                "h": 512,
                "w": 512,
                "x": 0,
                "y": 0
            },
            "trimmed": false
        },
        {
            "filename": "合成 512_15.png",
            "frame": {
                "h": 512,
                "w": 512,
                "x": 1536,
                "y": 1536
            },
            "rotated": false,
            "scale": {
                "x": 1.0,
                "y": 1.0,
                "z": 1.0
            },
            "sourceSize": {
                "h": 512,
                "w": 512
            },
            "spriteSourceSize": {
                "h": 512,
                "w": 512,
                "x": 0,
                "y": 0
            },
            "trimmed": false
        }
    ],
    "meta": {
        "app": "https://www.codeandweb.com/texturepacker",
        "format": "RGBA8888",
        "image": "999.png",
        "scale": "1",
        "size": {
            "h": 2048,
            "w": 2048
        },
        "smartupdate": "$TexturePacker:SmartUpdate:1ca54b75033fb4d6667328dd9c375783:62315341c133f789a232ed8c51205c8c:25836391d47a40ef31d62cb4186f2932$",
        "version": "1.0"
    }
}