{
    "frames": [
        {
            "filename": "合成 1_00.png",
            "frame": {
                "h": 512,
                "w": 512,
                "x": 0,
                "y": 0
            },
            "rotated": false,
            "scale": {
                "x": 1.05,
                "y": 1.05,
                "z": 1.05
            },
            "sourceSize": {
                "h": 512,
                "w": 512
            },
            "spriteSourceSize": {
                "h": 512,
                "w": 512,
                "x": 0,
                "y": 0
            },
            "trimmed": false
        },
        {
            "filename": "合成 1_01.png",
            "frame": {
                "h": 512,
                "w": 512,
                "x": 512,
                "y": 0
            },
            "rotated": false,
            "scale": {
                "x": 1.1,
                "y": 1.1,
                "z": 1.1
            },
            "sourceSize": {
                "h": 512,
                "w": 512
            },
            "spriteSourceSize": {
                "h": 512,
                "w": 512,
                "x": 0,
                "y": 0
            },
            "trimmed": false
        },
        {
            "filename": "合成 1_02.png",
            "frame": {
                "h": 512,
                "w": 512,
                "x": 1024,
                "y": 0
            },
            "rotated": false,
            "scale": {
                "x": 1.1600000000000001,
                "y": 1.1600000000000001,
                "z": 1.1600000000000001
            },
            "sourceSize": {
                "h": 512,
                "w": 512
            },
            "spriteSourceSize": {
                "h": 512,
                "w": 512,
                "x": 0,
                "y": 0
            },
            "trimmed": false
        },
        {
            "filename": "合成 1_03.png",
            "frame": {
                "h": 512,
                "w": 512,
                "x": 1536,
                "y": 0
            },
            "rotated": false,
            "scale": {
                "x": 1.2,
                "y": 1.2,
                "z": 1.2
            },
            "sourceSize": {
                "h": 512,
                "w": 512
            },
            "spriteSourceSize": {
                "h": 512,
                "w": 512,
                "x": 0,
                "y": 0
            },
            "trimmed": false
        },
        {
            "filename": "合成 1_04.png",
            "frame": {
                "h": 512,
                "w": 512,
                "x": 0,
                "y": 512
            },
            "rotated": false,
            "scale": {
                "x": 1.25,
                "y": 1.25,
                "z": 1.25
            },
            "sourceSize": {
                "h": 512,
                "w": 512
            },
            "spriteSourceSize": {
                "h": 512,
                "w": 512,
                "x": 0,
                "y": 0
            },
            "trimmed": false
        },
        {
            "filename": "合成 1_05.png",
            "frame": {
                "h": 512,
                "w": 512,
                "x": 512,
                "y": 512
            },
            "rotated": false,
            "scale": {
                "x": 1.3,
                "y": 1.3,
                "z": 1.3
            },
            "sourceSize": {
                "h": 512,
                "w": 512
            },
            "spriteSourceSize": {
                "h": 512,
                "w": 512,
                "x": 0,
                "y": 0
            },
            "trimmed": false
        },
        {
            "filename": "合成 1_06.png",
            "frame": {
                "h": 512,
                "w": 512,
                "x": 1024,
                "y": 512
            },
            "rotated": false,
            "scale": {
                "x": 1.35,
                "y": 1.35,
                "z": 1.35
            },
            "sourceSize": {
                "h": 512,
                "w": 512
            },
            "spriteSourceSize": {
                "h": 512,
                "w": 512,
                "x": 0,
                "y": 0
            },
            "trimmed": false
        },
        {
            "filename": "合成 1_07.png",
            "frame": {
                "h": 512,
                "w": 512,
                "x": 1536,
                "y": 512
            },
            "rotated": false,
            "scale": {
                "x": 1.37,
                "y": 1.37,
                "z": 1.37
            },
            "sourceSize": {
                "h": 512,
                "w": 512
            },
            "spriteSourceSize": {
                "h": 512,
                "w": 512,
                "x": 0,
                "y": 0
            },
            "trimmed": false
        },
        {
            "filename": "合成 1_08.png",
            "frame": {
                "h": 512,
                "w": 512,
                "x": 0,
                "y": 1024
            },
            "rotated": false,
            "scale": {
                "x": 1.39,
                "y": 1.39,
                "z": 1.39
            },
            "sourceSize": {
                "h": 512,
                "w": 512
            },
            "spriteSourceSize": {
                "h": 512,
                "w": 512,
                "x": 0,
                "y": 0
            },
            "trimmed": false
        },
        {
            "filename": "合成 1_09.png",
            "frame": {
                "h": 512,
                "w": 512,
                "x": 512,
                "y": 1024
            },
            "rotated": false,
            "scale": {
                "x": 1.41,
                "y": 1.41,
                "z": 1.41
            },
            "sourceSize": {
                "h": 512,
                "w": 512
            },
            "spriteSourceSize": {
                "h": 512,
                "w": 512,
                "x": 0,
                "y": 0
            },
            "trimmed": false
        },
        {
            "filename": "合成 1_10.png",
            "frame": {
                "h": 512,
                "w": 512,
                "x": 1024,
                "y": 1024
            },
            "rotated": false,
            "scale": {
                "x": 1.43,
                "y": 1.43,
                "z": 1.43
            },
            "sourceSize": {
                "h": 512,
                "w": 512
            },
            "spriteSourceSize": {
                "h": 512,
                "w": 512,
                "x": 0,
                "y": 0
            },
            "trimmed": false
        },
        {
            "filename": "合成 1_11.png",
            "frame": {
                "h": 512,
                "w": 512,
                "x": 1536,
                "y": 1024
            },
            "rotated": false,
            "scale": {
                "x": 1.45,
                "y": 1.45,
                "z": 1.45
            },
            "sourceSize": {
                "h": 512,
                "w": 512
            },
            "spriteSourceSize": {
                "h": 512,
                "w": 512,
                "x": 0,
                "y": 0
            },
            "trimmed": false
        },
        {
            "filename": "合成 1_12.png",
            "frame": {
                "h": 512,
                "w": 512,
                "x": 0,
                "y": 1536
            },
            "rotated": false,
            "scale": {
                "x": 1.47,
                "y": 1.47,
                "z": 1.47
            },
            "sourceSize": {
                "h": 512,
                "w": 512
            },
            "spriteSourceSize": {
                "h": 512,
                "w": 512,
                "x": 0,
                "y": 0
            },
            "trimmed": false
        },
        {
            "filename": "合成 1_13.png",
            "frame": {
                "h": 512,
                "w": 512,
                "x": 512,
                "y": 1536
            },
            "rotated": false,
            "scale": {
                "x": 1.51,
                "y": 1.51,
                "z": 1.51
            },
            "sourceSize": {
                "h": 512,
                "w": 512
            },
            "spriteSourceSize": {
                "h": 512,
                "w": 512,
                "x": 0,
                "y": 0
            },
            "trimmed": false
        },
        {
            "filename": "合成 1_14.png",
            "frame": {
                "h": 512,
                "w": 512,
                "x": 1024,
                "y": 1536
            },
            "rotated": false,
            "scale": {
                "x": 1.53,
                "y": 1.53,
                "z": 1.53
            },
            "sourceSize": {
                "h": 512,
                "w": 512
            },
            "spriteSourceSize": {
                "h": 512,
                "w": 512,
                "x": 0,
                "y": 0
            },
            "trimmed": false
        },
        {
            "filename": "合成 1_15.png",
            "frame": {
                "h": 512,
                "w": 512,
                "x": 1536,
                "y": 1536
            },
            "rotated": false,
            "scale": {
                "x": 1.55,
                "y": 1.55,
                "z": 1.55
            },
            "sourceSize": {
                "h": 512,
                "w": 512
            },
            "spriteSourceSize": {
                "h": 512,
                "w": 512,
                "x": 0,
                "y": 0
            },
            "trimmed": false
        }
    ],
    "meta": {
        "app": "https://www.codeandweb.com/texturepacker",
        "format": "RGBA8888",
        "image": "4.png",
        "scale": "1",
        "size": {
            "h": 2048,
            "w": 2048
        },
        "smartupdate": "$TexturePacker:SmartUpdate:92777340cad71d21523ef6636a62c046:632d683521b0f461e1ec623cf3d72e13:5969e3cdce764dec8974e89b279b41c5$",
        "version": "1.0"
    }
}