{
    "frames": [
        {
            "filename": "合成 1_00.png",
            "frame": {
                "h": 512,
                "w": 512,
                "x": 0,
                "y": 0
            },
            "rotated": false,
            "scale": {
                "x": 1.0,
                "y": 1.0,
                "z": 1.0
            },
            "sourceSize": {
                "h": 512,
                "w": 512
            },
            "spriteSourceSize": {
                "h": 512,
                "w": 512,
                "x": 0,
                "y": 0
            },
            "trimmed": false
        },
        {
            "filename": "合成 1_01.png",
            "frame": {
                "h": 512,
                "w": 512,
                "x": 512,
                "y": 0
            },
            "rotated": false,
            "scale": {
                "x": 1.0,
                "y": 1.0,
                "z": 1.0
            },
            "sourceSize": {
                "h": 512,
                "w": 512
            },
            "spriteSourceSize": {
                "h": 512,
                "w": 512,
                "x": 0,
                "y": 0
            },
            "trimmed": false
        },
        {
            "filename": "合成 1_02.png",
            "frame": {
                "h": 512,
                "w": 512,
                "x": 1024,
                "y": 0
            },
            "rotated": false,
            "scale": {
                "x": 1.0,
                "y": 1.0,
                "z": 1.0
            },
            "sourceSize": {
                "h": 512,
                "w": 512
            },
            "spriteSourceSize": {
                "h": 512,
                "w": 512,
                "x": 0,
                "y": 0
            },
            "trimmed": false
        },
        {
            "filename": "合成 1_03.png",
            "frame": {
                "h": 512,
                "w": 512,
                "x": 1536,
                "y": 0
            },
            "rotated": false,
            "scale": {
                "x": 1.0,
                "y": 1.0,
                "z": 1.0
            },
            "sourceSize": {
                "h": 512,
                "w": 512
            },
            "spriteSourceSize": {
                "h": 512,
                "w": 512,
                "x": 0,
                "y": 0
            },
            "trimmed": false
        },
        {
            "filename": "合成 1_04.png",
            "frame": {
                "h": 512,
                "w": 512,
                "x": 0,
                "y": 512
            },
            "rotated": false,
            "scale": {
                "x": 1.0,
                "y": 1.0,
                "z": 1.0
            },
            "sourceSize": {
                "h": 512,
                "w": 512
            },
            "spriteSourceSize": {
                "h": 512,
                "w": 512,
                "x": 0,
                "y": 0
            },
            "trimmed": false
        },
        {
            "filename": "合成 1_05.png",
            "frame": {
                "h": 512,
                "w": 512,
                "x": 512,
                "y": 512
            },
            "rotated": false,
            "scale": {
                "x": 1.0,
                "y": 1.0,
                "z": 1.0
            },
            "sourceSize": {
                "h": 512,
                "w": 512
            },
            "spriteSourceSize": {
                "h": 512,
                "w": 512,
                "x": 0,
                "y": 0
            },
            "trimmed": false
        },
        {
            "filename": "合成 1_06.png",
            "frame": {
                "h": 512,
                "w": 512,
                "x": 1024,
                "y": 512
            },
            "rotated": false,
            "scale": {
                "x": 1.0,
                "y": 1.0,
                "z": 1.0
            },
            "sourceSize": {
                "h": 512,
                "w": 512
            },
            "spriteSourceSize": {
                "h": 512,
                "w": 512,
                "x": 0,
                "y": 0
            },
            "trimmed": false
        },
        {
            "filename": "合成 1_07.png",
            "frame": {
                "h": 512,
                "w": 512,
                "x": 1536,
                "y": 512
            },
            "rotated": false,
            "scale": {
                "x": 1.0,
                "y": 1.0,
                "z": 1.0
            },
            "sourceSize": {
                "h": 512,
                "w": 512
            },
            "spriteSourceSize": {
                "h": 512,
                "w": 512,
                "x": 0,
                "y": 0
            },
            "trimmed": false
        },
        {
            "filename": "合成 1_08.png",
            "frame": {
                "h": 512,
                "w": 512,
                "x": 0,
                "y": 1024
            },
            "rotated": false,
            "scale": {
                "x": 1.0,
                "y": 1.0,
                "z": 1.0
            },
            "sourceSize": {
                "h": 512,
                "w": 512
            },
            "spriteSourceSize": {
                "h": 512,
                "w": 512,
                "x": 0,
                "y": 0
            },
            "trimmed": false
        },
        {
            "filename": "合成 1_09.png",
            "frame": {
                "h": 512,
                "w": 512,
                "x": 512,
                "y": 1024
            },
            "rotated": false,
            "scale": {
                "x": 1.0,
                "y": 1.0,
                "z": 1.0
            },
            "sourceSize": {
                "h": 512,
                "w": 512
            },
            "spriteSourceSize": {
                "h": 512,
                "w": 512,
                "x": 0,
                "y": 0
            },
            "trimmed": false
        },
        {
            "filename": "合成 1_10.png",
            "frame": {
                "h": 512,
                "w": 512,
                "x": 1024,
                "y": 1024
            },
            "rotated": false,
            "scale": {
                "x": 1.0,
                "y": 1.0,
                "z": 1.0
            },
            "sourceSize": {
                "h": 512,
                "w": 512
            },
            "spriteSourceSize": {
                "h": 512,
                "w": 512,
                "x": 0,
                "y": 0
            },
            "trimmed": false
        },
        {
            "filename": "合成 1_11.png",
            "frame": {
                "h": 512,
                "w": 512,
                "x": 1536,
                "y": 1024
            },
            "rotated": false,
            "scale": {
                "x": 1.0,
                "y": 1.0,
                "z": 1.0
            },
            "sourceSize": {
                "h": 512,
                "w": 512
            },
            "spriteSourceSize": {
                "h": 512,
                "w": 512,
                "x": 0,
                "y": 0
            },
            "trimmed": false
        },
        {
            "filename": "合成 1_12.png",
            "frame": {
                "h": 512,
                "w": 512,
                "x": 0,
                "y": 1536
            },
            "rotated": false,
            "scale": {
                "x": 1.0,
                "y": 1.0,
                "z": 1.0
            },
            "sourceSize": {
                "h": 512,
                "w": 512
            },
            "spriteSourceSize": {
                "h": 512,
                "w": 512,
                "x": 0,
                "y": 0
            },
            "trimmed": false
        },
        {
            "filename": "合成 1_13.png",
            "frame": {
                "h": 512,
                "w": 512,
                "x": 512,
                "y": 1536
            },
            "rotated": false,
            "scale": {
                "x": 1.0,
                "y": 1.0,
                "z": 1.0
            },
            "sourceSize": {
                "h": 512,
                "w": 512
            },
            "spriteSourceSize": {
                "h": 512,
                "w": 512,
                "x": 0,
                "y": 0
            },
            "trimmed": false
        },
        {
            "filename": "合成 1_14.png",
            "frame": {
                "h": 512,
                "w": 512,
                "x": 1024,
                "y": 1536
            },
            "rotated": false,
            "scale": {
                "x": 1.0,
                "y": 1.0,
                "z": 1.0
            },
            "sourceSize": {
                "h": 512,
                "w": 512
            },
            "spriteSourceSize": {
                "h": 512,
                "w": 512,
                "x": 0,
                "y": 0
            },
            "trimmed": false
        },
        {
            "filename": "合成 1_15.png",
            "frame": {
                "h": 512,
                "w": 512,
                "x": 1536,
                "y": 1536
            },
            "rotated": false,
            "scale": {
                "x": 1.0,
                "y": 1.0,
                "z": 1.0
            },
            "sourceSize": {
                "h": 512,
                "w": 512
            },
            "spriteSourceSize": {
                "h": 512,
                "w": 512,
                "x": 0,
                "y": 0
            },
            "trimmed": false
        }
    ],
    "meta": {
        "app": "https://www.codeandweb.com/texturepacker",
        "format": "RGBA8888",
        "image": "777.png",
        "scale": "1",
        "size": {
            "h": 2048,
            "w": 2048
        },
        "smartupdate": "$TexturePacker:SmartUpdate:131ee87c8f6d7141fdbb0ba3c4f0f382:9e3c0f5bd4042e8e6a6d807a795ea973:1aa6e90a0c99d7990e17ee8433a9373d$",
        "version": "1.0"
    }
}