{
    "frames": [
        {
            "filename": "环状序列_00.png",
            "frame": {
                "h": 64,
                "w": 256,
                "x": 0,
                "y": 0
            },
            "rotated": false,
            "scale": {
                "x": 1.0,
                "y": 1.0,
                "z": 1.0
            },
            "sourceSize": {
                "h": 64,
                "w": 256
            },
            "spriteSourceSize": {
                "h": 64,
                "w": 256,
                "x": 0,
                "y": 0
            },
            "trimmed": false
        },
        {
            "filename": "环状序列_01.png",
            "frame": {
                "h": 64,
                "w": 256,
                "x": 256,
                "y": 0
            },
            "rotated": false,
            "scale": {
                "x": 1.0,
                "y": 1.0,
                "z": 1.0
            },
            "sourceSize": {
                "h": 64,
                "w": 256
            },
            "spriteSourceSize": {
                "h": 64,
                "w": 256,
                "x": 0,
                "y": 0
            },
            "trimmed": false
        },
        {
            "filename": "环状序列_02.png",
            "frame": {
                "h": 64,
                "w": 256,
                "x": 0,
                "y": 64
            },
            "rotated": false,
            "scale": {
                "x": 1.0,
                "y": 1.0,
                "z": 1.0
            },
            "sourceSize": {
                "h": 64,
                "w": 256
            },
            "spriteSourceSize": {
                "h": 64,
                "w": 256,
                "x": 0,
                "y": 0
            },
            "trimmed": false
        },
        {
            "filename": "环状序列_03.png",
            "frame": {
                "h": 64,
                "w": 256,
                "x": 256,
                "y": 64
            },
            "rotated": false,
            "scale": {
                "x": 1.0,
                "y": 1.0,
                "z": 1.0
            },
            "sourceSize": {
                "h": 64,
                "w": 256
            },
            "spriteSourceSize": {
                "h": 64,
                "w": 256,
                "x": 0,
                "y": 0
            },
            "trimmed": false
        },
        {
            "filename": "环状序列_04.png",
            "frame": {
                "h": 64,
                "w": 256,
                "x": 0,
                "y": 128
            },
            "rotated": false,
            "scale": {
                "x": 1.0,
                "y": 1.0,
                "z": 1.0
            },
            "sourceSize": {
                "h": 64,
                "w": 256
            },
            "spriteSourceSize": {
                "h": 64,
                "w": 256,
                "x": 0,
                "y": 0
            },
            "trimmed": false
        },
        {
            "filename": "环状序列_05.png",
            "frame": {
                "h": 64,
                "w": 256,
                "x": 256,
                "y": 128
            },
            "rotated": false,
            "scale": {
                "x": 1.0,
                "y": 1.0,
                "z": 1.0
            },
            "sourceSize": {
                "h": 64,
                "w": 256
            },
            "spriteSourceSize": {
                "h": 64,
                "w": 256,
                "x": 0,
                "y": 0
            },
            "trimmed": false
        },
        {
            "filename": "环状序列_06.png",
            "frame": {
                "h": 64,
                "w": 256,
                "x": 0,
                "y": 192
            },
            "rotated": false,
            "scale": {
                "x": 1.0,
                "y": 1.0,
                "z": 1.0
            },
            "sourceSize": {
                "h": 64,
                "w": 256
            },
            "spriteSourceSize": {
                "h": 64,
                "w": 256,
                "x": 0,
                "y": 0
            },
            "trimmed": false
        },
        {
            "filename": "环状序列_07.png",
            "frame": {
                "h": 64,
                "w": 256,
                "x": 256,
                "y": 192
            },
            "rotated": false,
            "scale": {
                "x": 1.0,
                "y": 1.0,
                "z": 1.0
            },
            "sourceSize": {
                "h": 64,
                "w": 256
            },
            "spriteSourceSize": {
                "h": 64,
                "w": 256,
                "x": 0,
                "y": 0
            },
            "trimmed": false
        },
        {
            "filename": "环状序列_08.png",
            "frame": {
                "h": 64,
                "w": 256,
                "x": 0,
                "y": 256
            },
            "rotated": false,
            "scale": {
                "x": 1.0,
                "y": 1.0,
                "z": 1.0
            },
            "sourceSize": {
                "h": 64,
                "w": 256
            },
            "spriteSourceSize": {
                "h": 64,
                "w": 256,
                "x": 0,
                "y": 0
            },
            "trimmed": false
        },
        {
            "filename": "环状序列_09.png",
            "frame": {
                "h": 64,
                "w": 256,
                "x": 256,
                "y": 256
            },
            "rotated": false,
            "scale": {
                "x": 1.0,
                "y": 1.0,
                "z": 1.0
            },
            "sourceSize": {
                "h": 64,
                "w": 256
            },
            "spriteSourceSize": {
                "h": 64,
                "w": 256,
                "x": 0,
                "y": 0
            },
            "trimmed": false
        },
        {
            "filename": "环状序列_10.png",
            "frame": {
                "h": 64,
                "w": 256,
                "x": 0,
                "y": 320
            },
            "rotated": false,
            "scale": {
                "x": 1.0,
                "y": 1.0,
                "z": 1.0
            },
            "sourceSize": {
                "h": 64,
                "w": 256
            },
            "spriteSourceSize": {
                "h": 64,
                "w": 256,
                "x": 0,
                "y": 0
            },
            "trimmed": false
        },
        {
            "filename": "环状序列_11.png",
            "frame": {
                "h": 64,
                "w": 256,
                "x": 256,
                "y": 320
            },
            "rotated": false,
            "scale": {
                "x": 1.0,
                "y": 1.0,
                "z": 1.0
            },
            "sourceSize": {
                "h": 64,
                "w": 256
            },
            "spriteSourceSize": {
                "h": 64,
                "w": 256,
                "x": 0,
                "y": 0
            },
            "trimmed": false
        },
        {
            "filename": "环状序列_12.png",
            "frame": {
                "h": 64,
                "w": 256,
                "x": 0,
                "y": 384
            },
            "rotated": false,
            "scale": {
                "x": 1.0,
                "y": 1.0,
                "z": 1.0
            },
            "sourceSize": {
                "h": 64,
                "w": 256
            },
            "spriteSourceSize": {
                "h": 64,
                "w": 256,
                "x": 0,
                "y": 0
            },
            "trimmed": false
        },
        {
            "filename": "环状序列_13.png",
            "frame": {
                "h": 64,
                "w": 256,
                "x": 256,
                "y": 384
            },
            "rotated": false,
            "scale": {
                "x": 1.0,
                "y": 1.0,
                "z": 1.0
            },
            "sourceSize": {
                "h": 64,
                "w": 256
            },
            "spriteSourceSize": {
                "h": 64,
                "w": 256,
                "x": 0,
                "y": 0
            },
            "trimmed": false
        },
        {
            "filename": "环状序列_14.png",
            "frame": {
                "h": 64,
                "w": 256,
                "x": 0,
                "y": 448
            },
            "rotated": false,
            "scale": {
                "x": 1.0,
                "y": 1.0,
                "z": 1.0
            },
            "sourceSize": {
                "h": 64,
                "w": 256
            },
            "spriteSourceSize": {
                "h": 64,
                "w": 256,
                "x": 0,
                "y": 0
            },
            "trimmed": false
        },
        {
            "filename": "环状序列_15.png",
            "frame": {
                "h": 64,
                "w": 256,
                "x": 256,
                "y": 448
            },
            "rotated": false,
            "scale": {
                "x": 1.0,
                "y": 1.0,
                "z": 1.0
            },
            "sourceSize": {
                "h": 64,
                "w": 256
            },
            "spriteSourceSize": {
                "h": 64,
                "w": 256,
                "x": 0,
                "y": 0
            },
            "trimmed": false
        }
    ],
    "meta": {
        "app": "https://www.codeandweb.com/texturepacker",
        "format": "RGBA8888",
        "image": "ss_scifi_armor_xl_01.png",
        "scale": "1",
        "size": {
            "h": 512,
            "w": 512
        },
        "smartupdate": "$TexturePacker:SmartUpdate:98d58982cf78687508217b840a36b9b4:c6b2aadb459778edaa9c9d57fc3e285a:b9d080e7a719f6accffca5f967974e59$",
        "version": "1.0"
    }
}