{
  "type": "crafting_shaped",
  "tags": [ "crafting_table" ],
  "group": "wood",
  "pattern": [
    "##",
	"##"
  ],
  "key": {
    "#": {
      "item": "minecraft:log2",
      "data": 0
    }
  },
  "result": {
    "item": "minecraft:wood",
    "data": 4,
    "count": 3
  }
}