{
  "type": "crafting_shaped",
  "tags": [ "crafting_table" ],
  "group": "wooden_stairs",
  "pattern": [
    "#  ",
    "## ",
    "###"
  ],
  "key": {
    "#": {
      "item": "minecraft:planks",
      "data": 4
    }
  },
  "result": {
    "item": "minecraft:acacia_stairs",
    "count": 4
  }
}