{
  "type": "crafting_shaped",
  "tags": [ "crafting_table" ],
  "group": "wooden_fence_gate",
  "pattern": [
    "#W#",
    "#W#"
  ],
  "key": {
    "#": {
      "item": "minecraft:stick"
    },
    "W": {
      "item": "minecraft:planks",
      "data": 2
    }
  },
  "result": {
    "item": "minecraft:birch_fence_gate"
  }
}