{
  "type": "crafting_shaped",
  "tags": [ "crafting_table" ],
  "pattern": [
    " #X",
    "# X",
    " #X"
  ],
  "key": {
    "#": {
      "item": "minecraft:stick"
    },
    "X": {
      "item": "minecraft:string"
    }
  },
  "result": {
    "item": "minecraft:bow"
  }
}