{
  "type": "crafting_shaped",
  "tags": [ "crafting_table" ],
  "pattern": [
    "A",
    "B"
  ],
  "key": {
    "A": {
      "item": "minecraft:chest"
    },
    "B": {
      "item": "minecraft:minecart"
    }
  },
  "result": {
    "item": "minecraft:chest_minecart"
  }
}