{
  "type": "crafting_shaped",
  "tags": [ "crafting_table" ],
  "group": "planks",
  "pattern": [
    "#"
  ],
  "key": {
    "#": {
      "item": "minecraft:log2",
      "data": 1
    }
  },
  "result": {
    "item": "minecraft:planks",
    "data": 5,
    "count": 4
  }
}