{
  "type": "crafting_shaped",
  "tags": [ "crafting_table" ],
  "pattern": [
    "###",
    "# #",
    "#R#"
  ],
  "key": {
    "R": {
      "item": "minecraft:redstone"
    },
    "#": {
      "item": "minecraft:cobblestone"
    }
  },
  "result": {
    "item": "minecraft:dropper",
    "data": 3
  }
}