{
  "type": "crafting_shaped",
  "tags": [ "crafting_table" ],
  "pattern": [
    "###",
    "###"
  ],
  "key": {
    "#": {
      "item": "minecraft:end_bricks"
    }
  },
  "result": {
    "item": "minecraft:cobblestone_wall",
    "data": 10,
    "count": 6
  }
}