{
  "type": "crafting_shapeless",
  "tags": [ "crafting_table" ],
  "ingredients": [
    {
      "item": "minecraft:iron_ingot"
    },
    {
      "item": "minecraft:flint"
    }
  ],
  "result": {
    "item": "minecraft:flint_and_steel"
  }
}