{
  "type": "crafting_shaped",
  "tags": [ "crafting_table" ],
  "pattern": [
    "###",
    "#X#",
    "###"
  ],
  "key": {
    "#": {
      "item": "minecraft:gold_nugget"
    },
    "X": {
      "item": "minecraft:carrot"
    }
  },
  "result": {
    "item": "minecraft:golden_carrot"
  }
}