{
  "type": "crafting_shaped",
  "tags": [ "crafting_table" ],
  "group": "banner",
  "pattern": [
    "###",
    "###",
    " | "
  ],
  "key": {
    "#": {
      "item": "minecraft:wool",
      "data": 7
    },
    "|": {
      "item": "minecraft:stick"
    }
  },
  "result": {
    "item": "minecraft:banner",
    "data": 8
  }
}