{
  "type": "crafting_shaped",
  "tags": [ "crafting_table" ],
  "group": "stained_hardened_clay",
  "pattern": [
    "###",
    "#X#",
    "###"
  ],
  "key": {
    "#": {
      "item": "minecraft:hardened_clay"
    },
    "X": {
      "item": "minecraft:dye",
      "data": 2
    }
  },
  "result": {
    "item": "minecraft:stained_hardened_clay",
    "data": 13,
    "count": 8
  }
}