{
  "type": "crafting_shaped",
  "tags": [ "crafting_table" ],
  "group": "stained_glass_pane",
  "pattern": [
    "###",
    "###"
  ],
  "key": {
    "#": {
      "item": "minecraft:stained_glass",
      "data": 13
    }
  },
  "result": {
    "item": "minecraft:stained_glass_pane",
    "data": 13,
    "count": 16
  }
}