{
  "type": "crafting_shaped",
  "tags": [ "crafting_table" ],
  "pattern": [
    "I I",
    "ICI",
    " I "
  ],
  "key": {
    "C": {
      "item": "minecraft:chest"
    },
    "I": {
      "item": "minecraft:iron_ingot"
    }
  },
  "result": {
    "item": "minecraft:hopper"
  }
}