{
  "type": "crafting_shaped",
  "tags": [ "crafting_table" ],
  "pattern": [
    "###",
    "###"
  ],
  "key": {
    "#": {
      "item": "minecraft:iron_ingot"
    }
  },
  "result": {
    "item": "minecraft:iron_bars",
    "count": 16
  }
}