{
  "type": "crafting_shaped",
  "tags": [ "crafting_table" ],
  "pattern": [
    "XXX",
    " # ",
    " # "
  ],
  "key": {
    "#": {
      "item": "minecraft:stick"
    },
    "X": {
      "item": "minecraft:iron_ingot"
    }
  },
  "result": {
    "item": "minecraft:iron_pickaxe"
  }
}