{
  "type": "crafting_shaped",
  "tags": [ "crafting_table" ],
  "pattern": [
    "###",
    "###",
    "###"
  ],
  "key": {
    "#": {
      "item": "minecraft:dye",
      "data": 4
    }
  },
  "result": {
    "item": "minecraft:lapis_block"
  }
}