{
  "type": "crafting_shapeless",
  "tags": [ "crafting_table" ],
  "group": "light_gray_dye",
  "ingredients": [
    {
      "item": "minecraft:red_flower",
      "data": 6
    }
  ],
  "result": {
    "item": "minecraft:dye",
    "data": 7
  }
}