{
  "type": "crafting_shapeless",
  "tags": [ "crafting_table" ],
  "priority": 1,
  "ingredients": [
    {
      "item": "minecraft:dye",
      "data": 2
    },
    {
      "item": "minecraft:dye",
      "data": 15
    }
  ],
  "result": {
    "item": "minecraft:dye",
    "data": 10,
    "count": 2
  }
}