{
  "type": "crafting_shapeless",
  "tags": [ "crafting_table" ],
  "group": "magenta_dye",
  "priority": 2,
  "ingredients": [
    {
      "item": "minecraft:dye",
      "data": 18
    },
    {
      "item": "minecraft:dye",
      "data": 1
    },
    {
      "item": "minecraft:dye",
      "data": 9
    }
  ],
  "result": {
    "item": "minecraft:dye",
    "data": 13,
    "count": 3
  }
}