{
  "type": "crafting_shapeless",
  "tags": [ "crafting_table" ],
  "ingredients": [
    {
      "item": "minecraft:brown_mushroom"
    },
    {
      "item": "minecraft:red_mushroom"
    },
    {
      "item": "minecraft:bowl"
    }
  ],
  "result": {
    "item": "minecraft:mushroom_stew"
  }
}