{
  "type": "crafting_shapeless",
  "tags": [ "crafting_table" ],
  "group": "pink_dye",
  "ingredients": [
    {
      "item": "minecraft:dye",
      "data": 1
    },
    {
      "item": "minecraft:dye",
      "data": 19
    }
  ],
  "result": {
    "item": "minecraft:dye",
    "data": 9,
    "count": 2
  }
}