{
  "type": "crafting_shaped",
  "tags": [ "crafting_table" ],
  "pattern": [
    "SS",
    "SS"
  ],
  "key": {
    "S": {
      "item": "minecraft:stone",
      "data": 5
    }
  },
  "result": {
    "item": "minecraft:stone",
    "data": 6,
    "count": 4
  }
}