{
  "type": "crafting_shapeless",
  "tags": [ "crafting_table" ],
  "ingredients": [
    {
      "item": "minecraft:pumpkin"
    },
    {
      "item": "minecraft:sugar"
    },
    {
      "item": "minecraft:egg"
    }
  ],
  "result": {
    "item": "minecraft:pumpkin_pie"
  }
}