{
  "type": "crafting_shaped",
  "tags": [ "crafting_table" ],
  "group": "carpet",
  "pattern": [
    "###",
    "#X#",
    "###"
  ],
  "key": {
    "#": {
      "item": "minecraft:carpet",
      "data": 0
    },
    "X": {
      "item": "minecraft:dye",
      "data": 1
    }
  },
  "result": {
    "item": "minecraft:carpet",
    "data": 14,
    "count": 8
  }
}