{
  "type": "crafting_shaped",
  "tags": [ "crafting_table" ],
  "pattern": [
    "X",
    "#"
  ],
  "key": {
    "#": {
      "item": "minecraft:stick"
    },
    "X": {
      "item": "minecraft:redstone"
    }
  },
  "result": {
    "item": "minecraft:redstone_torch"
  }
}