{
  "type": "crafting_shaped",
  "tags": [ "crafting_table" ],
  "pattern": [
    "##",
    "##"
  ],
  "key": {
    "#": {
      "item": "minecraft:snowball"
    }
  },
  "result": {
    "item": "minecraft:snow"
  }
}