{
  "type": "crafting_shaped",
  "tags": [ "crafting_table" ],
  "pattern": [
    "#P#",
    "###"
  ],
  "key": {
    "P": {
        "item": "minecraft:wooden_shovel"
    },
    "#": {
      "item": "minecraft:planks",
      "data": 1
    }
  },
  "result": {
    "item": "minecraft:boat",
    "data": 1
  }
}