{
  "type": "crafting_shaped",
  "tags": [ "crafting_table" ],
  "group": "wooden_slab",
  "pattern": [
    "###"
  ],
  "key": {
    "#": {
      "item": "minecraft:planks",
      "data": 1
    }
  },
  "result": {
    "item": "minecraft:wooden_slab",
    "data": 1,
    "count": 6
  }
}