{
  "type": "crafting_shapeless",
  "tags": [ "stonecutter" ],
  "priority": 2,
  "ingredients": [
    {
      "item": "minecraft:stone",
      "data": 1
    }
  ],
  "result": {
    "item": "minecraft:cobblestone_wall",
    "data": 2,
    "count": 1
  }
}
