{
  "type": "crafting_shapeless",
  "tags": [ "stonecutter" ],
  "priority": 0,
  "ingredients": [
    {
      "item": "minecraft:sandstone",
      "data": 3
    }
  ],
  "result": {
    "item": "minecraft:double_stone_slab2",
    "data": 6,
    "count": 2
  }
}
