{
  "type": "crafting_shapeless",
  "tags": [ "stonecutter" ],
  "priority": 1,
  "ingredients": [
    {
      "item": "minecraft:stone",
      "data": 5
    }
  ],
  "result": {
    "item": "minecraft:andesite_stairs",
    "data": 0,
    "count": 1
  }
}
