{
  "type": "crafting_shapeless",
  "tags": [ "stonecutter" ],
  "priority": 4,
  "ingredients": [
    {
      "item": "minecraft:stone",
      "data": 0
    }
  ],
  "result": {
    "item": "minecraft:stonebrick",
    "data": 0,
    "count": 1
  }
}
