{
  "type": "crafting_shapeless",
  "tags": [ "stonecutter" ],
  "priority": 1,
  "ingredients": [
    {
      "item": "minecraft:stonebrick",
      "data": 1
    }
  ],
  "result": {
    "item": "minecraft:mossy_stone_brick_stairs",
    "data": 0,
    "count": 1
  }
}
