{
    "particleeffect": {
        "activetime": {
            "value": "1.0"
        },
        "dampingforce": {
            "value": "20.0"
        },
        "delay": 1.2,
        "direction": {
            "max": "1.0 0.0 0.0",
            "min": "1.0 0.0 0.0",
            "value": "Direction"
        },
        "emissionrate": {
            "max": "50.0",
            "min": "50.0"
        },
        "faceCameraMode": {
            "value": "Direction Horizontal"
        },
        "numparticles": {
            "value": "1"
        },
        "particlesize": {
            "max": "0.35 0.35",
            "min": "0.35 0.35"
        },
        "pointFiltering": true,
        "relative": {
            "enable": "true"
        },
        "rotationRange": {
            "max": "160.0 -75.0 210.0",
            "min": "160.0 -75.0 210.0"
        },
        "texture": {
            "ani": {
                "fps": "16",
                "name": "textures/sfxs/2023s4/cs_game_skina_klptw_01",
                "shuffle": false
            },
            "name": "textures/sfxs/2023s4/cs_game_skina_klptw_01"
        },
        "timetolive": {
            "max": "2.0",
            "min": "2.0"
        },
        "velocity": {
            "max": "0.0",
            "min": "0.1"
        }
    }
}