{
    "particleeffect": {
        "activetime": {
            "value": "1.0"
        },
        "dampingforce": {
            "value": "20.0"
        },
        "delay": 1.2,
        "direction": {
            "max": "1.0 0.0 0.0",
            "min": "1.0 0.0 0.0",
            "value": "Direction"
        },
        "emissionrate": {
            "max": "50.0",
            "min": "50.0"
        },
        "faceCameraMode": {
            "value": "Direction Horizontal"
        },
        "layer": 2,
        "numparticles": {
            "value": "1"
        },
        "particlesize": {
            "max": "0.5 0.5",
            "min": "0.5 0.5"
        },
        "pointFiltering": true,
        "relative": {
            "enable": "true"
        },
        "rotationRange": {
            "max": "125.0 90.0 180.0",
            "min": "125.0 90.0 180.0"
        },
        "rotationSpeedRange": {
            "max": "-90.0 0.0 0.0",
            "min": "-90.0 0.0 0.0"
        },
        "texture": {
            "ani": {
                "fps": "16",
                "name": "textures/sfxs/2023s4/cs_game_skina_pingmu_klp",
                "shuffle": false
            },
            "name": "textures/sfxs/2023s4/cs_game_skina_pingmu_klp"
        },
        "timetolive": {
            "max": "2.0",
            "min": "2.0"
        },
        "velocity": {
            "max": "0.0",
            "min": "0.1"
        }
    }
}