{
  "format_version": "1.8.0",
  "particles": {
    "minecraft:basic_flame_particle": {
      "basic_render_parameters": {
        "material": "particles_alpha",
        "texture": "textures/particle/particles"
      },
      "components": {
        "minecraft:emitter_rate_manual": {
          "max_particles": 100
        },
        "minecraft:emitter_lifetime_expression": {
          "activation_expression": 1,
          "expiration_expression": 0
        },
        "minecraft:emitter_shape_sphere": {
          "radius": 0.025,
          "direction": [ 0, 0, 0 ]
        },
        "minecraft:particle_lifetime_expression": {
          "max_lifetime": "Math.random(0.6, 2.0)"
        },
        "minecraft:particle_appearance_billboard": {
          "size": [
            "(0.1 + variable.ParticleRandom1*0.1) - (0.1 * variable.ParticleAge)",
            "(0.1 + variable.ParticleRandom1*0.1) - (0.1 * variable.ParticleAge)"
          ],
          "facing_camera_mode": "lookat_xyz",
          "uv": {
            "texturewidth": 128,
            "textureheight": 128,
            "uv": [ 0, 24 ],
            "uv_size": [ 8, 8 ]
          }
        }
      }
    }
  }
}