{
  "frameeffect": {
    "cylinder_enable": false,
    "depth_test": true,
    "face_camera": false,
    "fps": 7,
    "loop": true,
    "rot_speed": [
      0,
      0,
      0
    ],
    "scale": [
      0.23,
      0.23,
      0.23
    ],
    "shuffle": false,
    "tex_repeat_num": [
      1,
      1
    ],
    "texture": "textures/sfxs/pet_mtr/m_mc_huo04"
  }
}