{
    "skeleton": [
        {
            "name": "Bone021",
            "parent": "Bone021",
            "initpos": [
                -2695.6875,
                0.0,
                -778.5301513671875
            ],
            "initquaternion": [
                0.5136234164237976,
                -0.48599496483802798,
                0.48599493503570559,
                0.5136232972145081
            ],
            "initscale": [
                1.0,
                1.0,
                1.0
            ],
            "offmtx": [
                [
                    1.0,
                    0.0,
                    0.0,
                    0.0
                ],
                [
                    0.0,
                    1.0,
                    0.0,
                    0.0
                ],
                [
                    0.0,
                    0.0,
                    1.0,
                    0.0
                ]
            ]
        },
        {
            "name": "Bone022",
            "parent": "Bone021",
            "initpos": [
                142.24371337890626,
                0.002197265625,
                -0.0
            ],
            "initquaternion": [
                0.0,
                0.0,
                0.0,
                1.0
            ],
            "initscale": [
                1.0,
                1.0,
                1.0
            ],
            "offmtx": [
                [
                    0.05523570626974106,
                    0.0,
                    0.9984733462333679,
                    783.99609375
                ],
                [
                    -0.9984733462333679,
                    0.0,
                    0.05523570626974106,
                    -2648.571533203125
                ],
                [
                    -6.11388579851501e-17,
                    -1.0,
                    0.0,
                    -1.621782135668992e-13
                ]
            ]
        }
    ],
    "boundingbox": [
        [
            -3051.11572265625,
            28.30501365661621,
            1409.9761962890626
        ],
        [
            -3051.093017578125,
            558.4453125,
            3061.340576171875
        ]
    ]
}