{
    "skeleton": [
        {
            "name": "Bone025",
            "parent": "Bone025",
            "initpos": [
                -291.609375,
                0.0,
                -1392.4969482421876
            ],
            "initquaternion": [
                0.492326021194458,
                0.5075579881668091,
                -0.5075579881668091,
                0.4923259913921356
            ],
            "initscale": [
                1.0,
                1.0,
                1.0
            ],
            "offmtx": [
                [
                    -0.030460577458143235,
                    0.0,
                    -0.9995359778404236,
                    -1400.7333984375
                ],
                [
                    0.9995359778404236,
                    -2.220446049250313e-16,
                    -0.030460577458143235,
                    249.05780029296876
                ],
                [
                    -1.8366861257937276e-16,
                    -1.0,
                    0.0,
                    -5.0962242103191546e-14
                ]
            ]
        }
    ],
    "boundingbox": [
        [
            -111.2760238647461,
            -212.5132598876953,
            361.27679443359377
        ],
        [
            136.25270080566407,
            62.86219787597656,
            1336.545654296875
        ]
    ]
}