{
    "skeleton": [
        {
            "name": "Bone013",
            "parent": "Bone013",
            "initpos": [
                2767.39599609375,
                0.0,
                -20.835643768310548
            ],
            "initquaternion": [
                0.5092413425445557,
                -0.4905846118927002,
                0.4905845820903778,
                0.5092413425445557
            ],
            "initscale": [
                1.0,
                1.0,
                1.0
            ],
            "offmtx": [
                [
                    0.037307027727365497,
                    -4.656612873077393e-10,
                    0.9993037581443787,
                    -82.422119140625
                ],
                [
                    -0.9993038773536682,
                    0.0,
                    0.0373070202767849,
                    2766.24658203125
                ],
                [
                    1.4901161193847657e-8,
                    -1.0,
                    1.7053025658242405e-13,
                    -0.000030517578125
                ]
            ]
        }
    ],
    "boundingbox": [
        [
            2646.780029296875,
            -455.0362548828125,
            358.0480041503906
        ],
        [
            2763.98291015625,
            209.6446533203125,
            907.0643310546875
        ]
    ]
}