{
    "skeleton": [
        {
            "name": "root",
            "parent": "root",
            "initpos": [
                0.0,
                0.0,
                -0.0
            ],
            "initquaternion": [
                0.7071067690849304,
                0.0,
                0.0,
                0.7071067690849304
            ],
            "initscale": [
                1.0,
                1.0,
                1.0
            ],
            "offmtx": [
                [
                    1.0,
                    0.0,
                    0.0,
                    0.0
                ],
                [
                    0.0,
                    1.0,
                    0.0,
                    0.0
                ],
                [
                    0.0,
                    0.0,
                    1.0,
                    0.0
                ]
            ]
        },
        {
            "name": "body-013",
            "parent": "root",
            "initpos": [
                -48.43771743774414,
                -131.04052734375,
                -11.283029556274414
            ],
            "initquaternion": [
                0.1139603853225708,
                0.6978632211685181,
                0.7066211104393005,
                0.026201482862234117
            ],
            "initscale": [
                2.5,
                2.5,
                2.5
            ],
            "offmtx": [
                [
                    -0.38906121253967287,
                    -0.049793414771556857,
                    0.07843469828367233,
                    -8.005291938781739
                ],
                [
                    0.04881139472126961,
                    -0.39688870310783389,
                    -0.009840305894613266,
                    5.552940845489502
                ],
                [
                    0.07904956489801407,
                    6.484985703991697e-8,
                    0.3921111524105072,
                    55.21144104003906
                ]
            ]
        },
        {
            "name": "head-014",
            "parent": "body-013",
            "initpos": [
                -1.5772829055786133,
                -1.541581630706787,
                -0.000003814697265625
            ],
            "initquaternion": [
                0.00019286763563286513,
                0.000013599991689261515,
                1.0,
                -0.00005562964724958874
            ],
            "initscale": [
                1.0,
                1.0,
                1.0
            ],
            "offmtx": [
                [
                    0.3890862762928009,
                    0.049837641417980197,
                    -0.07828235626220703,
                    6.448516845703125
                ],
                [
                    -0.04885261133313179,
                    0.39688313007354739,
                    0.009859705343842507,
                    -7.093737602233887
                ],
                [
                    0.07890081405639649,
                    -0.00002994824171764776,
                    0.3921411633491516,
                    55.20914840698242
                ]
            ]
        },
        {
            "name": "left-arm-013",
            "parent": "body-013",
            "initpos": [
                -0.010755538940429688,
                -1.5666651725769044,
                1.569000244140625
            ],
            "initquaternion": [
                0.5910859107971191,
                0.5906623005867004,
                0.3885593116283417,
                -0.38827455043792727
            ],
            "initscale": [
                1.0,
                1.0,
                1.0
            ],
            "offmtx": [
                [
                    0.09181570261716843,
                    -0.15739169716835023,
                    0.35608670115470889,
                    52.06584548950195
                ],
                [
                    -0.3890957534313202,
                    -0.04950696602463722,
                    0.0784446969628334,
                    -7.999273777008057
                ],
                [
                    0.01320557575672865,
                    -0.3643856644630432,
                    -0.16446489095687867,
                    -14.740151405334473
                ]
            ]
        },
        {
            "name": "right-arm-011",
            "parent": "body-013",
            "initpos": [
                -0.010755538940429688,
                -1.5666651725769044,
                -1.569091796875
            ],
            "initquaternion": [
                -0.36029085516929629,
                0.36055248975753786,
                0.6081388592720032,
                0.6085717678070068
            ],
            "initscale": [
                0.9999998807907105,
                0.9999998807907105,
                1.000000238418579
            ],
            "offmtx": [
                [
                    -0.046014416962862018,
                    -0.19067618250846864,
                    -0.34860485792160036,
                    -46.38236999511719
                ],
                [
                    0.38909652829170229,
                    0.049509480595588687,
                    -0.07843932509422302,
                    7.999977111816406
                ],
                [
                    0.08053935319185257,
                    -0.3481255769729614,
                    0.17978313565254212,
                    33.5157585144043
                ]
            ]
        },
        {
            "name": "right-leg-014",
            "parent": "body-013",
            "initpos": [
                -0.03598499298095703,
                1.565117359161377,
                -0.7794990539550781
            ],
            "initquaternion": [
                -0.6851504445075989,
                -0.17481973767280579,
                0.17482180893421174,
                0.6851601004600525
            ],
            "initscale": [
                1.0000001192092896,
                1.0,
                0.9999999403953552
            ],
            "offmtx": [
                [
                    -0.3181123435497284,
                    -0.23386244475841523,
                    0.06413167715072632,
                    -5.084399223327637
                ],
                [
                    -0.07904651015996933,
                    -0.000004787444140674779,
                    -0.39211177825927737,
                    -55.990840911865237
                ],
                [
                    0.22925134003162385,
                    -0.3245124816894531,
                    -0.04621121659874916,
                    7.319340705871582
                ]
            ]
        },
        {
            "name": "right-foot-010",
            "parent": "right-leg-014",
            "initpos": [
                2.593268394470215,
                0.0035858154296875,
                0.004683017730712891
            ],
            "initquaternion": [
                -0.49982550740242007,
                0.5032999515533447,
                -0.4993760585784912,
                -0.49748098850250246
            ],
            "initscale": [
                1.0,
                0.9999998211860657,
                0.9999998211860657
            ],
            "offmtx": [
                [
                    0.2314484566450119,
                    -0.32324448227882388,
                    -0.04409804940223694,
                    7.706435680389404
                ],
                [
                    0.31675130128860476,
                    0.23559969663619996,
                    -0.06450898200273514,
                    7.54888391494751
                ],
                [
                    0.07810415327548981,
                    0.0024059752468019726,
                    0.392293244600296,
                    55.95936965942383
                ]
            ]
        },
        {
            "name": "left_leg_014",
            "parent": "body-013",
            "initpos": [
                -0.03598785400390625,
                1.5651183128356934,
                0.779998779296875
            ],
            "initquaternion": [
                -0.29984092712402346,
                -0.6403926610946655,
                0.6405411958694458,
                0.2994990646839142
            ],
            "initscale": [
                1.0,
                1.0,
                1.0
            ],
            "offmtx": [
                [
                    0.28673869371414187,
                    -0.2727900445461273,
                    -0.05802144482731819,
                    8.139492988586426
                ],
                [
                    -0.07920454442501068,
                    0.00013940427743364125,
                    -0.39207983016967776,
                    -54.43577575683594
                ],
                [
                    0.26740893721580508,
                    0.29255008697509768,
                    -0.0539156049489975,
                    3.561997413635254
                ]
            ]
        },
        {
            "name": "left_foot_010",
            "parent": "left_leg_014",
            "initpos": [
                2.5932698249816896,
                -0.004364013671875,
                0.0033173561096191408
            ],
            "initquaternion": [
                0.500091552734375,
                0.5030351281166077,
                0.4993775486946106,
                -0.4974798858165741
            ],
            "initscale": [
                1.0,
                0.9999999403953552,
                1.0
            ],
            "offmtx": [
                [
                    0.2655150592327118,
                    0.29386332631111147,
                    -0.056089889258146289,
                    3.1905908584594728
                ],
                [
                    0.2879441976547241,
                    -0.2713712453842163,
                    -0.058700818568468097,
                    5.505168437957764
                ],
                [
                    -0.0811779797077179,
                    -0.0014120175037533045,
                    -0.39167335629463198,
                    -54.45838165283203
                ]
            ]
        },
        {
            "name": "body-017",
            "parent": "root",
            "initpos": [
                -85.49649047851563,
                -268.9456481933594,
                -30.136051177978517
            ],
            "initquaternion": [
                -0.4999999403953552,
                0.5000001192092896,
                0.4999999403953552,
                -0.5
            ],
            "initscale": [
                2.5000007152557375,
                2.5,
                2.500000476837158
            ],
            "offmtx": [
                [
                    1.0,
                    0.0,
                    0.0,
                    0.0
                ],
                [
                    0.0,
                    1.0,
                    0.0,
                    0.0
                ],
                [
                    0.0,
                    0.0,
                    1.0,
                    0.0
                ]
            ]
        },
        {
            "name": "head-018",
            "parent": "body-017",
            "initpos": [
                -1.5772857666015626,
                -1.5415821075439454,
                -0.0
            ],
            "initquaternion": [
                0.00019287990289740264,
                0.00001360058922728058,
                1.0,
                -0.00005562964724958874
            ],
            "initscale": [
                1.0,
                1.0,
                1.0
            ],
            "offmtx": [
                [
                    -2.0726549611777778e-30,
                    0.0,
                    0.39999985694885256,
                    106.0009536743164
                ],
                [
                    -0.000010805233614519239,
                    0.4000000059604645,
                    1.7763568394002506e-15,
                    -13.59692668914795
                ],
                [
                    -0.3999999463558197,
                    -0.000010805232705024537,
                    -1.5771889003146633e-15,
                    -34.19822311401367
                ]
            ]
        },
        {
            "name": "mouth-009",
            "parent": "head-018",
            "initpos": [
                1.555419921875,
                0.5465965270996094,
                -0.015869140625
            ],
            "initquaternion": [
                -0.00001394370792695554,
                -0.007036913651973009,
                -0.00005564552338910289,
                0.9999752640724182
            ],
            "initscale": [
                0.9999999403953552,
                1.0,
                0.9999999403953552
            ],
            "offmtx": [
                [
                    -0.005783612374216318,
                    7.340101149111433e-8,
                    0.39995813369750979,
                    103.94042205810547
                ],
                [
                    1.9000195194962545e-8,
                    0.4000000059604645,
                    -7.313393979302418e-8,
                    -14.142791748046875
                ],
                [
                    -0.39995813369750979,
                    1.794076176508952e-8,
                    -0.005783613305538893,
                    -35.689945220947269
                ]
            ]
        },
        {
            "name": "chin-009",
            "parent": "head-018",
            "initpos": [
                1.5651168823242188,
                -0.49759674072265627,
                0.002063751220703125
            ],
            "initquaternion": [
                -0.000013671225133293774,
                -0.0010804347693920136,
                -0.00005628146027447656,
                0.9999994039535523
            ],
            "initscale": [
                1.0,
                1.0,
                1.0
            ],
            "offmtx": [
                [
                    -0.0010185851715505124,
                    -3.698609134517028e-7,
                    0.39999857544898989,
                    104.34835815429688
                ],
                [
                    6.572665967041758e-8,
                    0.3999999463558197,
                    3.700296247188817e-7,
                    -13.098478317260743
                ],
                [
                    -0.39999863505363467,
                    6.666869722948832e-8,
                    -0.0010185851715505124,
                    -34.46707534790039
                ]
            ]
        },
        {
            "name": "left-arm-017",
            "parent": "body-017",
            "initpos": [
                -0.0107574462890625,
                -1.5666656494140626,
                1.569000244140625
            ],
            "initquaternion": [
                0.7073536515235901,
                0.7068555355072022,
                0.0017509909812361003,
                -0.0017365061212331057
            ],
            "initscale": [
                1.0,
                1.0,
                1.0
            ],
            "offmtx": [
                [
                    -0.0019728902261704208,
                    -0.39999499917030337,
                    -0.0002816815103869885,
                    13.368753433227539
                ],
                [
                    -0.000007568129149149172,
                    0.00028172219754196703,
                    -0.3999997675418854,
                    -107.57772064208985
                ],
                [
                    0.3999950885772705,
                    -0.001972883939743042,
                    -0.000008957553291111254,
                    35.831932067871097
                ]
            ]
        },
        {
            "name": "right-arm-015",
            "parent": "body-017",
            "initpos": [
                -0.0107574462890625,
                -1.5666656494140626,
                -1.569091796875
            ],
            "initquaternion": [
                -0.001738681341521442,
                0.0017489404417574406,
                0.7068556547164917,
                0.7073535323143005
            ],
            "initscale": [
                0.9999999403953552,
                0.9999998807907105,
                1.000000238418579
            ],
            "offmtx": [
                [
                    0.001972825964912772,
                    -0.39999496936798098,
                    -0.00028156134067103267,
                    13.706128120422364
                ],
                [
                    -0.000005082261395727983,
                    -0.0002815897751133889,
                    0.3999997675418854,
                    107.57662200927735
                ],
                [
                    -0.39999496936798098,
                    -0.0019728215411305429,
                    -0.000006471016149589559,
                    -32.563655853271487
                ]
            ]
        },
        {
            "name": "right-leg-018",
            "parent": "body-017",
            "initpos": [
                -0.03598785400390625,
                1.5651168823242188,
                -0.7795066833496094
            ],
            "initquaternion": [
                -0.5001280903816223,
                -0.4998648464679718,
                0.4998716413974762,
                0.5001354217529297
            ],
            "initscale": [
                1.0000001192092896,
                1.0,
                1.0
            ],
            "offmtx": [
                [
                    2.449290561884008e-17,
                    -0.3999999463558197,
                    -1.7763568394002506e-15,
                    10.489300727844239
                ],
                [
                    0.3999999463558197,
                    2.4475864043860264e-17,
                    0.000005591588433162542,
                    33.42059326171875
                ],
                [
                    -0.00000559158752366784,
                    -1.7763568394002506e-15,
                    0.39999985694885256,
                    107.54176330566406
                ]
            ]
        },
        {
            "name": "right-foot-014",
            "parent": "right-leg-018",
            "initpos": [
                2.5932693481445314,
                0.0035858154296875,
                0.00469207763671875
            ],
            "initquaternion": [
                -0.4998253285884857,
                0.503300130367279,
                -0.4993758201599121,
                -0.49748116731643679
            ],
            "initscale": [
                1.0,
                0.9999998807907105,
                0.9999998807907105
            ],
            "offmtx": [
                [
                    -0.0025112780276685955,
                    0.0019390872912481428,
                    0.39998725056648257,
                    107.28744506835938
                ],
                [
                    0.0006391347269527614,
                    0.39999473094940188,
                    -0.0019351113587617875,
                    -8.362783432006836
                ],
                [
                    -0.39999154210090639,
                    0.0006269656587392092,
                    -0.002514344174414873,
                    -34.1031494140625
                ]
            ]
        },
        {
            "name": "left_leg_018",
            "parent": "body-017",
            "initpos": [
                -0.03598785400390625,
                1.5651168823242188,
                0.7799949645996094
            ],
            "initquaternion": [
                0.5001354813575745,
                0.49987176060676577,
                -0.500127911567688,
                -0.499864786863327
            ],
            "initscale": [
                1.0,
                1.0,
                1.0
            ],
            "offmtx": [
                [
                    2.4492958558399285e-17,
                    -0.4000000059604645,
                    -1.7763568394002506e-15,
                    10.489303588867188
                ],
                [
                    0.3999999463558197,
                    2.45029690981724e-17,
                    -0.00000590001263844897,
                    34.97700500488281
                ],
                [
                    0.00000590001263844897,
                    0.0,
                    0.39999985694885256,
                    107.54277038574219
                ]
            ]
        },
        {
            "name": "left_foot_014",
            "parent": "left_leg_018",
            "initpos": [
                2.593268871307373,
                -0.004364013671875,
                0.00331878662109375
            ],
            "initquaternion": [
                0.5000895857810974,
                0.50303715467453,
                0.4993755519390106,
                -0.4974818527698517
            ],
            "initscale": [
                1.0,
                0.9999999403953552,
                1.0000001192092896
            ],
            "offmtx": [
                [
                    0.002511564875021577,
                    0.0019390585366636515,
                    0.39998728036880495,
                    107.7168960571289
                ],
                [
                    0.0006384255248121917,
                    -0.39999479055404665,
                    0.0019350862130522729,
                    8.472004890441895
                ],
                [
                    0.3999914526939392,
                    0.0006262548267841339,
                    -0.0025146270636469127,
                    34.29243087768555
                ]
            ]
        },
        {
            "name": "body-014",
            "parent": "root",
            "initpos": [
                -88.0911865234375,
                26.381635665893556,
                -9.714930534362793
            ],
            "initquaternion": [
                0.34464171528816225,
                0.7257810235023499,
                0.582717776298523,
                0.12208224087953568
            ],
            "initscale": [
                2.500000238418579,
                2.5,
                2.499999761581421
            ],
            "offmtx": [
                [
                    -0.293054461479187,
                    -0.0897790715098381,
                    0.2570191025733948,
                    -31.72390365600586
                ],
                [
                    0.14319592714309693,
                    -0.3720000386238098,
                    0.0333298034965992,
                    15.348959922790528
                ],
                [
                    0.2315470427274704,
                    0.11642885208129883,
                    0.3046807050704956,
                    11.228178977966309
                ]
            ]
        },
        {
            "name": "head-015",
            "parent": "body-014",
            "initpos": [
                -1.5772857666015626,
                -1.5415821075439454,
                0.0000019073486328125
            ],
            "initquaternion": [
                0.00019337283447384834,
                -1.0358466084881002e-7,
                0.9974841475486755,
                0.07088940590620041
            ],
            "initscale": [
                1.0,
                1.0,
                1.0
            ],
            "offmtx": [
                [
                    0.3104494512081146,
                    0.03631258383393288,
                    -0.24960476160049439,
                    32.23664855957031
                ],
                [
                    -0.10030602663755417,
                    0.3809611201286316,
                    -0.0693347156047821,
                    -12.457076072692871
                ],
                [
                    0.2314300239086151,
                    0.11640450358390808,
                    0.30477890372276308,
                    11.216079711914063
                ]
            ]
        },
        {
            "name": "left-arm-014",
            "parent": "body-014",
            "initpos": [
                -0.010753631591796875,
                -1.5666656494140626,
                1.569000244140625
            ],
            "initquaternion": [
                -0.3391040861606598,
                -0.413021057844162,
                -0.5286846160888672,
                0.6594805121421814
            ],
            "initscale": [
                1.0,
                1.0,
                1.0
            ],
            "offmtx": [
                [
                    0.12016844004392624,
                    0.2514096200466156,
                    0.28697168827056887,
                    -1.4972724914550782
                ],
                [
                    -0.2586679756641388,
                    -0.16747358441352845,
                    0.25503629446029665,
                    -27.530017852783204
                ],
                [
                    0.2804468274116516,
                    -0.2621942162513733,
                    0.112266406416893,
                    25.000364303588868
                ]
            ]
        },
        {
            "name": "right-arm-012",
            "parent": "body-014",
            "initpos": [
                -0.010753631591796875,
                -1.5666656494140626,
                -1.5690889358520508
            ],
            "initquaternion": [
                0.6528404355049133,
                -0.5791985392570496,
                -0.38511136174201968,
                -0.30002954602241518
            ],
            "initscale": [
                0.9999999403953552,
                0.9999999403953552,
                1.000000238418579
            ],
            "offmtx": [
                [
                    -0.28161072731018069,
                    0.09343762695789337,
                    -0.2682627737522125,
                    -20.794681549072267
                ],
                [
                    0.2805933952331543,
                    0.15040884912014008,
                    -0.24216648936271668,
                    29.48656463623047
                ],
                [
                    0.04430406168103218,
                    -0.3586732745170593,
                    -0.17143666744232179,
                    12.399858474731446
                ]
            ]
        },
        {
            "name": "right-leg-015",
            "parent": "body-014",
            "initpos": [
                -0.03598594665527344,
                1.5651168823242188,
                -0.7795009613037109
            ],
            "initquaternion": [
                -0.23290525376796723,
                -0.667643666267395,
                0.6676530241966248,
                0.23290899395942689
            ],
            "initscale": [
                1.0000001192092896,
                1.0,
                1.0
            ],
            "offmtx": [
                [
                    0.3185347020626068,
                    -0.16108542680740357,
                    -0.1805189996957779,
                    33.385738372802737
                ],
                [
                    -0.2315458357334137,
                    -0.11642403900623322,
                    -0.3046834468841553,
                    -12.007532119750977
                ],
                [
                    0.07015830278396607,
                    0.34712672233581545,
                    -0.18595939874649049,
                    8.917071342468262
                ]
            ]
        },
        {
            "name": "right-foot-011",
            "parent": "right-leg-015",
            "initpos": [
                2.5932693481445314,
                0.0035867691040039064,
                0.004683494567871094
            ],
            "initquaternion": [
                -0.4998250901699066,
                0.5033003687858582,
                -0.499375581741333,
                -0.49748140573501589
            ],
            "initscale": [
                1.0,
                0.9999999403953552,
                0.9999998807907105
            ],
            "offmtx": [
                [
                    0.06989437341690064,
                    0.34870997071266177,
                    -0.1830742359161377,
                    8.82182788848877
                ],
                [
                    -0.3192758560180664,
                    0.15903475880622865,
                    0.18102726340293885,
                    -30.85898208618164
                ],
                [
                    0.23060296475887299,
                    0.11449597030878067,
                    0.30612578988075259,
                    11.906827926635743
                ]
            ]
        },
        {
            "name": "left_leg_015",
            "parent": "body-014",
            "initpos": [
                -0.03598594665527344,
                1.5651178359985352,
                0.7799997329711914
            ],
            "initquaternion": [
                -0.6850044131278992,
                -0.17543157935142518,
                0.1757899522781372,
                0.6849018931388855
            ],
            "initscale": [
                1.0,
                1.0,
                1.0
            ],
            "offmtx": [
                [
                    -0.18812885880470277,
                    -0.25774988532066347,
                    0.24118982255458833,
                    -21.152536392211915
                ],
                [
                    -0.2314518243074417,
                    -0.11628890782594681,
                    -0.3048064410686493,
                    -10.437434196472168
                ],
                [
                    0.26652878522872927,
                    -0.28291672468185427,
                    -0.09444840997457504,
                    27.3297061920166
                ]
            ]
        },
        {
            "name": "left_foot_011",
            "parent": "left_leg_015",
            "initpos": [
                2.5932693481445314,
                -0.0043659210205078129,
                0.003314971923828125
            ],
            "initquaternion": [
                0.5000889897346497,
                0.5030377507209778,
                0.49937504529953005,
                -0.49748241901397707
            ],
            "initscale": [
                1.0,
                0.9999999403953552,
                1.0
            ],
            "offmtx": [
                [
                    0.26598140597343447,
                    -0.282387912273407,
                    -0.09752405434846878,
                    27.37518882751465
                ],
                [
                    -0.1870846003293991,
                    -0.2592398524284363,
                    0.24040403962135316,
                    -23.624467849731447
                ],
                [
                    -0.23292326927185059,
                    -0.11424437165260315,
                    -0.3044584393501282,
                    -10.579570770263672
                ]
            ]
        },
        {
            "name": "body-015",
            "parent": "root",
            "initpos": [
                -114.10655975341797,
                40.977806091308597,
                -17.704341888427736
            ],
            "initquaternion": [
                -0.13603036105632783,
                0.6870232224464417,
                0.6852450370788574,
                -0.19983498752117158
            ],
            "initscale": [
                2.5,
                2.5,
                2.5000009536743166
            ],
            "offmtx": [
                [
                    -0.3532494008541107,
                    -0.035261716693639758,
                    -0.18431356549263,
                    -32.13102340698242
                ],
                [
                    0.03478393331170082,
                    -0.3983703851699829,
                    0.009547948837280274,
                    10.630704879760743
                ],
                [
                    -0.18440425395965577,
                    -0.00759585527703166,
                    0.35487642884254458,
                    -35.44931411743164
                ]
            ]
        },
        {
            "name": "head-016",
            "parent": "body-015",
            "initpos": [
                -1.5772838592529297,
                -1.541581153869629,
                -0.0
            ],
            "initquaternion": [
                0.00019288026669528335,
                0.00001359965608571656,
                1.0,
                -0.00005562964724958874
            ],
            "initscale": [
                1.0,
                1.0,
                1.0
            ],
            "offmtx": [
                [
                    0.35317444801330569,
                    0.035303182899951938,
                    0.18444940447807313,
                    30.538713455200197
                ],
                [
                    -0.0348283126950264,
                    0.39836618304252627,
                    -0.009558847174048424,
                    -12.176655769348145
                ],
                [
                    -0.18453958630561829,
                    -0.007620301563292742,
                    0.3548056185245514,
                    -35.46076965332031
                ]
            ]
        },
        {
            "name": "left-arm-015",
            "parent": "body-015",
            "initpos": [
                -0.0107574462890625,
                -1.566664695739746,
                1.5689964294433594
            ],
            "initquaternion": [
                0.59759122133255,
                0.5971632599830627,
                0.37847787141799929,
                -0.3782000243663788
            ],
            "initscale": [
                1.0,
                1.0,
                1.0
            ],
            "offmtx": [
                [
                    -0.151948019862175,
                    -0.17715629935264588,
                    0.32484978437423708,
                    -28.262248992919923
                ],
                [
                    -0.353275865316391,
                    -0.034974370151758197,
                    -0.18431749939918519,
                    -32.129356384277347
                ],
                [
                    0.11003606766462326,
                    -0.35692068934440615,
                    -0.14317692816257478,
                    26.828950881958009
                ]
            ]
        },
        {
            "name": "right-arm-013",
            "parent": "body-015",
            "initpos": [
                -0.010753631591796875,
                -1.5666656494140626,
                -1.569091796875
            ],
            "initquaternion": [
                -0.36287668347358706,
                0.3631402552127838,
                0.6065992712974548,
                0.6070313453674316
            ],
            "initscale": [
                0.9999999403953552,
                0.9999998807907105,
                1.000000238418579
            ],
            "offmtx": [
                [
                    0.17881326377391816,
                    -0.18170787394046784,
                    -0.30823367834091189,
                    35.60984802246094
                ],
                [
                    0.3532732427120209,
                    0.03497668728232384,
                    0.18432247638702393,
                    32.12879943847656
                ],
                [
                    -0.056779615581035617,
                    -0.3546249270439148,
                    0.17611698806285859,
                    -5.294970989227295
                ]
            ]
        },
        {
            "name": "right-leg-016",
            "parent": "body-015",
            "initpos": [
                -0.035984039306640628,
                1.5651168823242188,
                -0.7795028686523438
            ],
            "initquaternion": [
                -0.6860889196395874,
                -0.1710992455482483,
                0.17110127210617066,
                0.6860986948013306
            ],
            "initscale": [
                1.0000001192092896,
                1.0,
                1.0
            ],
            "offmtx": [
                [
                    -0.2955503463745117,
                    -0.21819262206554414,
                    -0.15824668109416963,
                    -24.079822540283204
                ],
                [
                    0.18440692126750947,
                    0.007590996567159891,
                    -0.35487520694732668,
                    34.67013168334961
                ],
                [
                    0.19658105075359345,
                    -0.33516326546669009,
                    0.09498178958892822,
                    23.074159622192384
                ]
            ]
        },
        {
            "name": "right-foot-012",
            "parent": "right-leg-016",
            "initpos": [
                2.5932693481445314,
                0.0035858154296875,
                0.0046844482421875
            ],
            "initquaternion": [
                -0.4998278021812439,
                0.5032975673675537,
                -0.49937838315963747,
                -0.4974786043167114
            ],
            "initscale": [
                1.0,
                0.9999998807907105,
                0.9999998807907105
            ],
            "offmtx": [
                [
                    0.19700761139392854,
                    -0.3340267241001129,
                    0.098052017390728,
                    22.99488639831543
                ],
                [
                    0.29478567838668826,
                    0.2199993133544922,
                    0.15716789662837983,
                    26.604290008544923
                ],
                [
                    -0.18517404794692994,
                    -0.005147339776158333,
                    0.35451942682266238,
                    -34.768821716308597
                ]
            ]
        },
        {
            "name": "left_leg_016",
            "parent": "body-015",
            "initpos": [
                -0.03598785400390625,
                1.5651178359985352,
                0.779998779296875
            ],
            "initquaternion": [
                -0.29676321148872378,
                -0.6418246626853943,
                0.6419715881347656,
                0.2964206635951996
            ],
            "initscale": [
                1.0,
                1.0,
                1.0
            ],
            "offmtx": [
                [
                    0.25553858280181887,
                    -0.2805114984512329,
                    0.12654365599155427,
                    27.724626541137697
                ],
                [
                    0.18426600098609925,
                    0.007739499676972628,
                    -0.3549451529979706,
                    36.21443557739258
                ],
                [
                    0.24646709859371186,
                    0.28504976630210879,
                    0.13416625559329987,
                    18.566068649291993
                ]
            ]
        },
        {
            "name": "left_foot_012",
            "parent": "left_leg_016",
            "initpos": [
                2.5932674407958986,
                -0.004367828369140625,
                0.0033168792724609377
            ],
            "initquaternion": [
                0.5000913739204407,
                0.5030353665351868,
                0.4993773400783539,
                -0.49748003482818606
            ],
            "initscale": [
                1.0,
                0.9999999403953552,
                1.0000001192092896
            ],
            "offmtx": [
                [
                    0.24637611210346223,
                    0.28644829988479617,
                    0.1313246786594391,
                    18.66738510131836
                ],
                [
                    0.25692489743232729,
                    -0.2791207730770111,
                    0.12681174278259278,
                    25.25958251953125
                ],
                [
                    0.1824510097503662,
                    0.006242985837161541,
                    -0.3559107780456543,
                    36.075531005859378
                ]
            ]
        },
        {
            "name": "body-016",
            "parent": "root",
            "initpos": [
                -323.21405029296877,
                -69.29219055175781,
                -17.289474487304689
            ],
            "initquaternion": [
                0.23184606432914735,
                0.6244233846664429,
                0.7420171499252319,
                0.07585056871175766
            ],
            "initscale": [
                2.500000476837158,
                2.5,
                2.500000238418579
            ],
            "offmtx": [
                [
                    -0.35239529609680178,
                    -0.09973671287298203,
                    0.16084209084510804,
                    -101.02961730957031
                ],
                [
                    0.07079017162322998,
                    -0.3847349286079407,
                    -0.08347363770008087,
                    23.74817657470703
                ],
                [
                    0.17551735043525697,
                    -0.045074183493852618,
                    0.35659781098365786,
                    82.21842956542969
                ]
            ]
        },
        {
            "name": "head-017",
            "parent": "body-016",
            "initpos": [
                -1.5772857666015626,
                -1.5415821075439454,
                0.00000762939453125
            ],
            "initquaternion": [
                0.01955738477408886,
                -0.07750952243804932,
                0.9867733120918274,
                -0.1410258263349533
            ],
            "initscale": [
                0.9999999403953552,
                0.9999999403953552,
                1.0
            ],
            "offmtx": [
                [
                    0.32112905383110049,
                    0.2031850665807724,
                    -0.12486784905195236,
                    89.68102264404297
                ],
                [
                    -0.19195124506950379,
                    0.34449583292007449,
                    0.06691310554742813,
                    -64.38846588134766
                ],
                [
                    0.14153048396110536,
                    0.0062020039185881619,
                    0.3740730583667755,
                    71.4258041381836
                ]
            ]
        },
        {
            "name": "mouth-008",
            "parent": "head-017",
            "initpos": [
                1.5554122924804688,
                0.5465927124023438,
                -0.015869140625
            ],
            "initquaternion": [
                0.0009711242164485157,
                -0.00696959812194109,
                0.13990773260593415,
                0.9901395440101624
            ],
            "initscale": [
                0.9999999403953552,
                1.0,
                0.9999999403953552
            ],
            "offmtx": [
                [
                    0.2573392987251282,
                    0.29073837399482729,
                    -0.09616506844758988,
                    67.6827163696289
                ],
                [
                    -0.27341535687446597,
                    0.27471214532852175,
                    0.09888043999671936,
                    -86.81173706054688
                ],
                [
                    0.13791508972644807,
                    0.0021179509349167349,
                    0.3754662871360779,
                    70.4937744140625
                ]
            ]
        },
        {
            "name": "chin-008",
            "parent": "head-017",
            "initpos": [
                1.5651016235351563,
                -0.4976043701171875,
                0.00206756591796875
            ],
            "initquaternion": [
                -0.00008495048678014427,
                -0.0010771614033728839,
                -0.06606176495552063,
                0.997814953327179
            ],
            "initscale": [
                0.9999999403953552,
                1.0,
                1.0
            ],
            "offmtx": [
                [
                    0.3439370393753052,
                    0.15600809454917909,
                    -0.13179083168506623,
                    95.92396545410156
                ],
                [
                    -0.1479436457157135,
                    0.3682757019996643,
                    0.049856919795274737,
                    -51.7183952331543
                ],
                [
                    0.14078357815742494,
                    0.005874924827367067,
                    0.374360054731369,
                    71.21521759033203
                ]
            ]
        },
        {
            "name": "left-arm-016",
            "parent": "body-016",
            "initpos": [
                -0.0107574462890625,
                -1.5666675567626954,
                1.569000244140625
            ],
            "initquaternion": [
                -0.3980157673358917,
                -0.39772436022758486,
                -0.584760308265686,
                0.5843408703804016
            ],
            "initscale": [
                1.0,
                1.0,
                1.0
            ],
            "offmtx": [
                [
                    0.13740931451320649,
                    0.09921301156282425,
                    0.36231955885887148,
                    65.7688980102539
                ],
                [
                    -0.3524474799633026,
                    -0.09945860505104065,
                    0.160899817943573,
                    -101.03764343261719
                ],
                [
                    0.12999789416790009,
                    -0.37451937794685366,
                    0.05325210466980934,
                    53.06431579589844
                ]
            ]
        },
        {
            "name": "right-arm-014",
            "parent": "body-016",
            "initpos": [
                -0.01074981689453125,
                -1.5666675567626954,
                -1.569091796875
            ],
            "initquaternion": [
                -0.6145507097244263,
                0.6149880290031433,
                0.3492419421672821,
                0.3494958281517029
            ],
            "initscale": [
                0.9999998807907105,
                0.9999998807907105,
                1.0000001192092896
            ],
            "offmtx": [
                [
                    -0.1868923306465149,
                    0.2356543391942978,
                    -0.26370128989219668,
                    -84.90282440185547
                ],
                [
                    0.35244473814964297,
                    0.0994618684053421,
                    -0.16090403497219087,
                    101.03640747070313
                ],
                [
                    -0.029223762452602388,
                    -0.3075295090675354,
                    -0.25410932302474978,
                    -21.19333839416504
                ]
            ]
        },
        {
            "name": "right-leg-017",
            "parent": "body-016",
            "initpos": [
                -0.03598785400390625,
                1.5651168823242188,
                -0.7795028686523438
            ],
            "initquaternion": [
                -0.6719339489936829,
                -0.22022214531898499,
                0.22022494673728944,
                0.6719434857368469
            ],
            "initscale": [
                1.0000001192092896,
                1.0,
                1.0
            ],
            "offmtx": [
                [
                    -0.24213159084320069,
                    -0.3081156015396118,
                    0.08023135364055634,
                    -68.27116394042969
                ],
                [
                    -0.17551371455192567,
                    0.04507046565413475,
                    -0.3566000461578369,
                    -82.99687194824219
                ],
                [
                    0.26564496755599978,
                    -0.251064658164978,
                    -0.16247878968715669,
                    77.65966796875
                ]
            ]
        },
        {
            "name": "right-foot-013",
            "parent": "right-leg-017",
            "initpos": [
                2.5932769775390627,
                0.00359344482421875,
                0.0046844482421875
            ],
            "initquaternion": [
                -0.4998258650302887,
                0.5032995343208313,
                -0.4993763566017151,
                -0.497480571269989
            ],
            "initscale": [
                1.0,
                0.9999999403953552,
                0.9999998807907105
            ],
            "offmtx": [
                [
                    0.26803678274154665,
                    -0.2496824413537979,
                    -0.16067060828208924,
                    78.55315399169922
                ],
                [
                    0.24042244255542756,
                    0.30952972173690798,
                    -0.0799279436469078,
                    70.31419372558594
                ],
                [
                    0.17422226071357728,
                    -0.043012961745262149,
                    0.35748639702796938,
                    82.62239837646485
                ]
            ]
        },
        {
            "name": "left_leg_017",
            "parent": "body-016",
            "initpos": [
                -0.03598785400390625,
                1.5651168823242188,
                0.7800064086914063
            ],
            "initquaternion": [
                -0.27289581298828127,
                -0.6523305773735046,
                0.652464747428894,
                0.272548109292984
            ],
            "initscale": [
                1.0,
                1.0,
                1.0
            ],
            "offmtx": [
                [
                    0.2978428602218628,
                    -0.20372506976127625,
                    -0.17258554697036744,
                    86.69171142578125
                ],
                [
                    -0.17567723989486695,
                    0.04517655447125435,
                    -0.3565061092376709,
                    -81.48493194580078
                ],
                [
                    0.20106513798236848,
                    0.3412553369998932,
                    -0.055835846811532977,
                    56.291839599609378
                ]
            ]
        },
        {
            "name": "left_foot_013",
            "parent": "left_leg_017",
            "initpos": [
                2.5932693481445314,
                -0.00435638427734375,
                0.003314971923828125
            ],
            "initquaternion": [
                0.5000890493392944,
                0.503037691116333,
                0.49937498569488528,
                -0.4974824786186218
            ],
            "initscale": [
                1.0,
                0.9999999403953552,
                1.0000001192092896
            ],
            "offmtx": [
                [
                    0.19851498305797578,
                    0.34251469373703005,
                    -0.05723215639591217,
                    55.368717193603519
                ],
                [
                    0.29862406849861147,
                    -0.20202328264713288,
                    -0.17323479056358338,
                    84.28260040283203
                ],
                [
                    -0.177244171500206,
                    0.04324698448181152,
                    -0.35596930980682375,
                    -81.91931915283203
                ]
            ]
        }
    ],
    "boundingbox": [
        [
            -331.4604187011719,
            -0.796331524848938,
            -274.1259460449219
        ],
        [
            -38.240638732910159,
            39.25944519042969,
            50.84531784057617
        ]
    ]
}