{
    "frames": [
        {
            "filename": "klpmb-0.png",
            "frame": {
                "x": 0,
                "y": 0,
                "w": 128,
                "h": 256
            },
            "rotated": false,
            "trimmed": false,
            "spriteSourceSize": {
                "x": 0,
                "y": 0,
                "w": 128,
                "h": 256
            },
            "sourceSize": {
                "w": 128,
                "h": 256
            }
        },
        {
            "filename": "klpmb-1.png",
            "frame": {
                "x": 128,
                "y": 0,
                "w": 128,
                "h": 256
            },
            "rotated": false,
            "trimmed": false,
            "spriteSourceSize": {
                "x": 0,
                "y": 0,
                "w": 128,
                "h": 256
            },
            "sourceSize": {
                "w": 128,
                "h": 256
            }
        },
        {
            "filename": "klpmb-2.png",
            "frame": {
                "x": 256,
                "y": 0,
                "w": 128,
                "h": 256
            },
            "rotated": false,
            "trimmed": false,
            "spriteSourceSize": {
                "x": 0,
                "y": 0,
                "w": 128,
                "h": 256
            },
            "sourceSize": {
                "w": 128,
                "h": 256
            }
        },
        {
            "filename": "klpmb-3.png",
            "frame": {
                "x": 384,
                "y": 0,
                "w": 128,
                "h": 256
            },
            "rotated": false,
            "trimmed": false,
            "spriteSourceSize": {
                "x": 0,
                "y": 0,
                "w": 128,
                "h": 256
            },
            "sourceSize": {
                "w": 128,
                "h": 256
            }
        },
        {
            "filename": "klpmb-4.png",
            "frame": {
                "x": 0,
                "y": 256,
                "w": 128,
                "h": 256
            },
            "rotated": false,
            "trimmed": false,
            "spriteSourceSize": {
                "x": 0,
                "y": 0,
                "w": 128,
                "h": 256
            },
            "sourceSize": {
                "w": 128,
                "h": 256
            }
        },
        {
            "filename": "klpmb-5.png",
            "frame": {
                "x": 128,
                "y": 256,
                "w": 128,
                "h": 256
            },
            "rotated": false,
            "trimmed": false,
            "spriteSourceSize": {
                "x": 0,
                "y": 0,
                "w": 128,
                "h": 256
            },
            "sourceSize": {
                "w": 128,
                "h": 256
            }
        },
        {
            "filename": "klpmb-6.png",
            "frame": {
                "x": 256,
                "y": 256,
                "w": 128,
                "h": 256
            },
            "rotated": false,
            "trimmed": false,
            "spriteSourceSize": {
                "x": 0,
                "y": 0,
                "w": 128,
                "h": 256
            },
            "sourceSize": {
                "w": 128,
                "h": 256
            }
        },
        {
            "filename": "klpmb-7.png",
            "frame": {
                "x": 384,
                "y": 256,
                "w": 128,
                "h": 256
            },
            "rotated": false,
            "trimmed": false,
            "spriteSourceSize": {
                "x": 0,
                "y": 0,
                "w": 128,
                "h": 256
            },
            "sourceSize": {
                "w": 128,
                "h": 256
            }
        }
    ],
    "meta": {
        "app": "http://www.texturepacker.com",
        "version": "1.0",
        "image": "cs_game_skina_emotes_mb.png",
        "format": "RGBA8888",
        "size": {
            "w": 512,
            "h": 512
        },
        "scale": "1",
        "smartupdate": "$TexturePacker:SmartUpdate:b28172d78c2285cfd1e06c6debf73fad$"
    }
}