{
    "frames": [
        {
            "filename": "smoke01.png",
            "frame": {
                "x": 0,
                "y": 0,
                "w": 32,
                "h": 32
            },
            "rotated": false,
            "trimmed": false,
            "spriteSourceSize": {
                "x": 0,
                "y": 0,
                "w": 32,
                "h": 32
            },
            "sourceSize": {
                "w": 32,
                "h": 32
            }
        },
        {
            "filename": "smoke02.png",
            "frame": {
                "x": 32,
                "y": 0,
                "w": 32,
                "h": 32
            },
            "rotated": false,
            "trimmed": false,
            "spriteSourceSize": {
                "x": 0,
                "y": 0,
                "w": 32,
                "h": 32
            },
            "sourceSize": {
                "w": 32,
                "h": 32
            }
        },
        {
            "filename": "smoke03.png",
            "frame": {
                "x": 0,
                "y": 32,
                "w": 32,
                "h": 32
            },
            "rotated": false,
            "trimmed": false,
            "spriteSourceSize": {
                "x": 0,
                "y": 0,
                "w": 32,
                "h": 32
            },
            "sourceSize": {
                "w": 32,
                "h": 32
            }
        },
        {
            "filename": "smoke04.png",
            "frame": {
                "x": 32,
                "y": 32,
                "w": 32,
                "h": 32
            },
            "rotated": false,
            "trimmed": false,
            "spriteSourceSize": {
                "x": 0,
                "y": 0,
                "w": 32,
                "h": 32
            },
            "sourceSize": {
                "w": 32,
                "h": 32
            }
        },
        {
            "filename": "smoke05.png",
            "frame": {
                "x": 0,
                "y": 64,
                "w": 32,
                "h": 32
            },
            "rotated": false,
            "trimmed": false,
            "spriteSourceSize": {
                "x": 0,
                "y": 0,
                "w": 32,
                "h": 32
            },
            "sourceSize": {
                "w": 32,
                "h": 32
            }
        }
    ],
    "meta": {
        "app": "https://www.codeandweb.com/texturepacker",
        "version": "1.0",
        "image": "cs_game_skinb_emotes_smoke.png",
        "format": "RGBA8888",
        "size": {
            "w": 64,
            "h": 96
        },
        "scale": "1",
        "smartupdate": "$TexturePacker:SmartUpdate:be780d084155af9bd679874309fb088d:e76cf091f4121fd7d03e8fbd0fe41193:557cac7724a8d29be5c43a56587d549b$"
    }
}