{
    "frames": [
        {
            "filename": "myr-00.png",
            "frame": {
                "x": 0,
                "y": 0,
                "w": 128,
                "h": 256
            },
            "rotated": false,
            "trimmed": false,
            "spriteSourceSize": {
                "x": 0,
                "y": 0,
                "w": 128,
                "h": 256
            },
            "sourceSize": {
                "w": 128,
                "h": 256
            }
        },
        {
            "filename": "myr-11.png",
            "frame": {
                "x": 128,
                "y": 0,
                "w": 128,
                "h": 256
            },
            "rotated": false,
            "trimmed": false,
            "spriteSourceSize": {
                "x": 0,
                "y": 0,
                "w": 128,
                "h": 256
            },
            "sourceSize": {
                "w": 128,
                "h": 256
            }
        },
        {
            "filename": "myr-22.png",
            "frame": {
                "x": 256,
                "y": 0,
                "w": 128,
                "h": 256
            },
            "rotated": false,
            "trimmed": false,
            "spriteSourceSize": {
                "x": 0,
                "y": 0,
                "w": 128,
                "h": 256
            },
            "sourceSize": {
                "w": 128,
                "h": 256
            }
        },
        {
            "filename": "myr-33.png",
            "frame": {
                "x": 384,
                "y": 0,
                "w": 128,
                "h": 256
            },
            "rotated": false,
            "trimmed": false,
            "spriteSourceSize": {
                "x": 0,
                "y": 0,
                "w": 128,
                "h": 256
            },
            "sourceSize": {
                "w": 128,
                "h": 256
            }
        },
        {
            "filename": "myr-44.png",
            "frame": {
                "x": 0,
                "y": 256,
                "w": 128,
                "h": 256
            },
            "rotated": false,
            "trimmed": false,
            "spriteSourceSize": {
                "x": 0,
                "y": 0,
                "w": 128,
                "h": 256
            },
            "sourceSize": {
                "w": 128,
                "h": 256
            }
        },
        {
            "filename": "myr-55.png",
            "frame": {
                "x": 128,
                "y": 256,
                "w": 128,
                "h": 256
            },
            "rotated": false,
            "trimmed": false,
            "spriteSourceSize": {
                "x": 0,
                "y": 0,
                "w": 128,
                "h": 256
            },
            "sourceSize": {
                "w": 128,
                "h": 256
            }
        },
        {
            "filename": "myr-66.png",
            "frame": {
                "x": 256,
                "y": 256,
                "w": 128,
                "h": 256
            },
            "rotated": false,
            "trimmed": false,
            "spriteSourceSize": {
                "x": 0,
                "y": 0,
                "w": 128,
                "h": 256
            },
            "sourceSize": {
                "w": 128,
                "h": 256
            }
        },
        {
            "filename": "myr-77.png",
            "frame": {
                "x": 384,
                "y": 256,
                "w": 128,
                "h": 256
            },
            "rotated": false,
            "trimmed": false,
            "spriteSourceSize": {
                "x": 0,
                "y": 0,
                "w": 128,
                "h": 256
            },
            "sourceSize": {
                "w": 128,
                "h": 256
            }
        }
    ],
    "meta": {
        "app": "http://www.texturepacker.com",
        "version": "1.0",
        "image": "cs_game_skinb_emotes_qp.png",
        "format": "RGBA8888",
        "size": {
            "w": 512,
            "h": 512
        },
        "scale": "1",
        "smartupdate": "$TexturePacker:SmartUpdate:596efe289679ee2fc6df2d67a9aab401$"
    }
}