{
    "frames": [
        {
            "filename": "ss_tntB_00001.png",
            "frame": {
                "x": 0,
                "y": 0,
                "w": 128,
                "h": 256
            },
            "rotated": false,
            "trimmed": false,
            "spriteSourceSize": {
                "x": 0,
                "y": 0,
                "w": 128,
                "h": 256
            },
            "sourceSize": {
                "w": 128,
                "h": 256
            }
        },
        {
            "filename": "ss_tntB_00002.png",
            "frame": {
                "x": 128,
                "y": 0,
                "w": 128,
                "h": 256
            },
            "rotated": false,
            "trimmed": false,
            "spriteSourceSize": {
                "x": 0,
                "y": 0,
                "w": 128,
                "h": 256
            },
            "sourceSize": {
                "w": 128,
                "h": 256
            }
        },
        {
            "filename": "ss_tntB_00003.png",
            "frame": {
                "x": 256,
                "y": 0,
                "w": 128,
                "h": 256
            },
            "rotated": false,
            "trimmed": false,
            "spriteSourceSize": {
                "x": 0,
                "y": 0,
                "w": 128,
                "h": 256
            },
            "sourceSize": {
                "w": 128,
                "h": 256
            }
        },
        {
            "filename": "ss_tntB_00004.png",
            "frame": {
                "x": 384,
                "y": 0,
                "w": 128,
                "h": 256
            },
            "rotated": false,
            "trimmed": false,
            "spriteSourceSize": {
                "x": 0,
                "y": 0,
                "w": 128,
                "h": 256
            },
            "sourceSize": {
                "w": 128,
                "h": 256
            }
        }
    ],
    "meta": {
        "app": "http://www.texturepacker.com",
        "version": "1.0",
        "image": "ss_tntB_xinyun.png",
        "format": "RGBA8888",
        "size": {
            "w": 512,
            "h": 256
        },
        "scale": "1",
        "smartupdate": "$TexturePacker:SmartUpdate:80e16ca2717a19f59f2da5f874278353$"
    }
}