{
  "/*name*/":{
    "type":{
      "default_value":"image",
      "type":"string"
    },
    "texture":{
      "default_value":"$scroll_background_texture",
      "type":"string"
    },
    "is_new_nine_slice": {
      "default_value":"$is_background_nine_slice",
      "type": "string"
    },
    "nine_slice_top": {
      "default_value":"$background_nine_slice_top",
      "type": "string"
    },
    "nine_slice_buttom": {
      "default_value":"$background_nine_slice_buttom",
      "type": "string"
    },
    "nine_slice_left": {
      "default_value":"$background_nine_slice_left",
      "type": "string"
    },
    "nine_slice_right": {
      "default_value":"$background_nine_slice_right",
      "type": "string"
    },
    "nineslice_size": {
      "default_value": "$background_nineslice_size",
      "type": "string"
    }
  }
}