{
    "skeleton": [
        {
            "name": "root",
            "parent": "root",
            "initpos": [
                0.0,
                0.0,
                -0.0
            ],
            "initquaternion": [
                0.707106,
                0.0,
                0.0,
                0.707106
            ],
            "initscale": [
                1.0,
                1.0,
                1.0
            ],
            "offmtx": [
                [
                    1.0,
                    0.0,
                    0.0,
                    0.0
                ],
                [
                    0.0,
                    1.0,
                    0.0,
                    0.0
                ],
                [
                    0.0,
                    0.0,
                    1.0,
                    0.0
                ]
            ],
            "boundingbox": [
                [
                    0.0,
                    0.0,
                    0.0
                ],
                [
                    0.0,
                    0.0,
                    0.0
                ]
            ]
        },
        {
            "name": "Bone000",
            "parent": "root",
            "initpos": [
                0.0,
                -1.4325,
                -25.6184
            ],
            "initquaternion": [
                0.5,
                -0.499999,
                -0.5,
                -0.499999
            ],
            "initscale": [
                1.0,
                1.0,
                1.0
            ],
            "offmtx": [
                [
                    0.003533,
                    0.999993,
                    0.0,
                    -15.511198
                ],
                [
                    -0.999993,
                    0.003533,
                    -0.000092,
                    -0.054944
                ],
                [
                    -0.000092,
                    2.9802313861182486e-7,
                    0.999999,
                    1.432495
                ]
            ],
            "boundingbox": [
                [
                    0.0,
                    -5.016378,
                    -2.604141
                ],
                [
                    16.914009,
                    5.188058,
                    2.469155
                ]
            ]
        },
        {
            "name": "Bone003",
            "parent": "Bone000",
            "initpos": [
                17.551399,
                0.06202,
                -0.109769
            ],
            "initquaternion": [
                0.0,
                0.0,
                0.0,
                1.0
            ],
            "initscale": [
                1.0,
                1.0,
                1.0
            ],
            "offmtx": [
                [
                    4.126762291889463e-7,
                    0.999999,
                    0.0,
                    -33.062801
                ],
                [
                    -0.999999,
                    4.126762291889463e-7,
                    -0.000033,
                    -0.000061
                ],
                [
                    -0.000033,
                    0.0,
                    0.999999,
                    1.54227
                ]
            ],
            "boundingbox": [
                [
                    0.0,
                    -5.016724,
                    -5.030246
                ],
                [
                    13.776023,
                    5.12832,
                    5.114792
                ]
            ]
        },
        {
            "name": "Bone023",
            "parent": "Bone000",
            "initpos": [
                15.6683,
                6.749677,
                -0.117091
            ],
            "initquaternion": [
                -0.0,
                -5.642599489874556e-7,
                1.0,
                3.1391647326017848e-7
            ],
            "initscale": [
                1.0,
                1.0,
                1.0
            ],
            "offmtx": [
                [
                    2.4167059109458935e-7,
                    -0.999999,
                    0.0,
                    33.010398
                ],
                [
                    0.999999,
                    2.4167059109458935e-7,
                    -3.700841375575692e-7,
                    6.968699
                ],
                [
                    3.700841659792786e-7,
                    0.0,
                    0.999999,
                    1.479562
                ]
            ],
            "boundingbox": [
                [
                    -1.178142,
                    -5.984108,
                    -2.417471
                ],
                [
                    7.195167,
                    0.0,
                    2.376586
                ]
            ]
        },
        {
            "name": "Bone025",
            "parent": "Bone023",
            "initpos": [
                7.746601,
                -3.348616,
                -0.134279
            ],
            "initquaternion": [
                0.0,
                0.0,
                0.0,
                1.0
            ],
            "initscale": [
                1.0,
                1.0,
                1.0
            ],
            "offmtx": [
                [
                    2.2168009650158638e-7,
                    -0.999999,
                    0.0,
                    25.263801
                ],
                [
                    1.0,
                    2.2168013913415053e-7,
                    1.0652001947164536e-7,
                    10.317295
                ],
                [
                    -1.0652000526079064e-7,
                    -0.0,
                    0.999999,
                    1.613838
                ]
            ],
            "boundingbox": [
                [
                    0.0,
                    -2.635519,
                    -2.28319
                ],
                [
                    9.645584,
                    2.158538,
                    2.510866
                ]
            ]
        },
        {
            "name": "Bone035",
            "parent": "Bone025",
            "initpos": [
                -7.734001,
                51.187202,
                3.159834
            ],
            "initquaternion": [
                0.0,
                -0.0,
                1.0,
                1.9470718370939722e-7
            ],
            "initscale": [
                1.0,
                1.0,
                1.0
            ],
            "offmtx": [
                [
                    5.847783199897094e-7,
                    0.999999,
                    0.0,
                    -26.531721
                ],
                [
                    -0.999999,
                    5.847784336765471e-7,
                    -1.9394290973195894e-7,
                    37.76778
                ],
                [
                    -1.939428813102495e-7,
                    0.0,
                    0.999999,
                    0.710784
                ]
            ],
            "boundingbox": [
                [
                    -26.204257,
                    -1.14619,
                    -1.121081
                ],
                [
                    36.410575,
                    1.017574,
                    1.042641
                ]
            ]
        },
        {
            "name": "Bone018",
            "parent": "Bone000",
            "initpos": [
                16.457901,
                -6.750005,
                2.403853
            ],
            "initquaternion": [
                -6.397578431460715e-7,
                -0.0,
                1.0,
                3.1391644483846905e-7
            ],
            "initscale": [
                1.0,
                1.0,
                1.0
            ],
            "offmtx": [
                [
                    2.1954770090815146e-7,
                    -0.999999,
                    0.0,
                    33.010398
                ],
                [
                    0.999999,
                    2.1954771511900618e-7,
                    1.9418065733134427e-7,
                    -6.969297
                ],
                [
                    -1.941806857530537e-7,
                    -0.0,
                    0.999999,
                    1.479551
                ]
            ],
            "boundingbox": [
                [
                    -1.178134,
                    0.0,
                    -2.417476
                ],
                [
                    7.195178,
                    5.871942,
                    2.376579
                ]
            ]
        },
        {
            "name": "Bone002",
            "parent": "Bone018",
            "initpos": [
                7.746501,
                3.348604,
                -0.134293
            ],
            "initquaternion": [
                0.0,
                0.0,
                0.0,
                1.0
            ],
            "initscale": [
                1.0,
                1.0,
                1.0
            ],
            "offmtx": [
                [
                    3.257924277022539e-7,
                    -0.999999,
                    0.0,
                    25.263795
                ],
                [
                    0.999999,
                    3.257924845456728e-7,
                    -1.630687336273695e-7,
                    -10.317909
                ],
                [
                    1.630687336273695e-7,
                    0.0,
                    0.999999,
                    1.613838
                ]
            ],
            "boundingbox": [
                [
                    0.0,
                    -2.270727,
                    -2.283186
                ],
                [
                    9.645586,
                    2.523333,
                    2.51087
                ]
            ]
        }
    ],
    "boundingbox": [
        [
            -12.952817,
            0.327442,
            -6.572354
        ],
        [
            38.913974,
            62.942287,
            3.572346
        ]
    ]
}