{
	"frames": [
		{ "frame": { "h": 101, "w": 123, "x": 0, "y": 0 } },
		{ "frame": { "h": 101, "w": 123, "x": 123, "y": 0 } },
		{ "frame": { "h": 101, "w": 123, "x": 246, "y": 0 } },
		{ "frame": { "h": 101, "w": 123, "x": 0, "y": 101 } },
		{ "frame": { "h": 101, "w": 123, "x": 123, "y": 101 } },
		{ "frame": { "h": 101, "w": 123, "x": 246, "y": 101 } },
		{ "frame": { "h": 101, "w": 123, "x": 0, "y": 202 } },
		{ "frame": { "h": 101, "w": 123, "x": 123, "y": 202 } },
		{ "frame": { "h": 101, "w": 123, "x": 246, "y": 202 } },
		{ "frame": { "h": 101, "w": 123, "x": 0, "y": 303 } },
		{ "frame": { "h": 101, "w": 123, "x": 123, "y": 303 } }
	],
	"meta": {
		"size": { "h": 404, "w": 369 }
	}
}