{
    "particleeffect": {
        "activetime": {
            "value": "0.2"
        },
        "blend": {
            "name": "add"
        },
        "colorfade": [
            {
                "color": "0.9961 1.0000 0.6863 0.2000",
                "time": "0.00"
            },
            {
                "color": "1.0000 1.0000 0.0000 0.5020",
                "time": "0.12"
            },
            {
                "color": "0.6667 1.0000 0.0000 1.0000",
                "time": "0.30"
            },
            {
                "color": "0.0000 1.0000 1.0000 0.5804",
                "time": "0.40"
            },
            {
                "color": "0.6667 0.0000 0.4980 0.0000",
                "time": "0.50"
            }
        ],
        "dampingforce": {
            "value": "0.2"
        },
        "depthtest": {
            "enable": "true"
        },
        "direction": {
            "max": "0.0 0.0 -1.0",
            "min": "0.0 0.0 1.0",
            "value": "Direction"
        },
        "emissionrate": {
            "max": "50.0",
            "min": "30.0"
        },
        "emitterScaleCurve": [

        ],
        "emitterscale": [

        ],
        "emittersize": {
            "value": "1.5 1.5 0.0"
        },
        "emittertype": {
            "value": "Sphere"
        },
        "independent": false,
        "numparticles": {
            "value": "5"
        },
        "particlesize": {
            "max": "0.3 0.3",
            "min": "0.2 0.2"
        },
        "relative": {
            "enable": "true"
        },
        "sizedelta": [
            {
                "scale": "1.0 1.0",
                "time": "0.0%"
            },
            {
                "scale": "0.85 0.85",
                "time": "20.0%"
            },
            {
                "scale": "0.873 0.873",
                "time": "40.0%"
            },
            {
                "scale": "0.869 0.869",
                "time": "60.0%"
            },
            {
                "scale": "0.87 0.87",
                "time": "80.0%"
            },
            {
                "scale": "0.87 0.87",
                "time": "100.0%"
            }
        ],
        "texture": {
            "name": "textures/sfxs/2020s4/2020s4_cs_szdgwqG_bianshen_02_0_03"
        },
        "thickness": {
            "value": "0.0"
        },
        "velocity": {
            "max": "5.5",
            "min": "1.5"
        }
    }
}