{
  "particleeffect": {
    "dampingforce": {
      "value": "5.0"
    },
    "depthtest": {
      "enable": "true"
    },
    "direction": {
      "max": "0.0 -0.05 0.0",
      "min": "0.0 -0.05 0.0",
      "value": "Direction"
    },
    "emitterscale": [

    ],
    "emittersize": {
      "value": "1.0 0.0 0.0"
    },
    "emittertype": {
      "value": "Sphere"
    },
    "enablecolor": {
      "enable": "false"
    },
    "enableloop": {
      "enable": "true"
    },
    "numparticles": {
      "value": "18"
    },
    "particlesize": {
      "max": "0.06 0.06",
      "min": "0.03 0.03"
    },
    "relative": {
      "enable": "false"
    },
    "rotation": {
      "max": "360.0",
      "min": "0.0"
    },
    "texture": {
      "ani": {
        "fps": "15",
        "name": "textures/sfxs/2020s4/xuehua0",
        "shuffle": false
      },
      "name": "textures/sfxs/2020s4/xuehua0"
    },
    "thickness": {
      "value": "0.0"
    },
    "velocity": {
      "max": "4.0",
      "min": "2.0"
    }
  }
}