{
    "particleeffect": {
        "depthtest": {
            "enable": "true"
        },
        "direction": {
            "max": "0.0 0.0 0.0",
            "min": "0.0 -1.0 0.0",
            "value": "Direction"
        },
        "emissionrate": {
            "max": "10.0",
            "min": "5.0"
        },
        "emitterScaleCurve": [

        ],
        "emitterscale": [

        ],
        "emittersize": {
            "value": "0.0 0.0 0.0"
        },
        "emittertype": {
            "value": "Box"
        },
        "enablecolor": {
            "enable": "false"
        },
        "faceCameraMode": {
            "value": "Direction"
        },
        "independent": false,
        "layer": 6,
        "numparticles": {
            "value": "5"
        },
        "particlesize": {
            "max": "0.5 0.5",
            "min": "0.5 0.5"
        },
        "relative": {
            "enable": "false"
        },
        "texture": {
            "ani": {
                "fps": "20",
                "name": "textures/sfxs/2020s4/yx_Q4jiaoyin_keji_B_new2",
                "shuffle": false
            },
            "name": "textures/particle/2020s4/yx_Q4jiaoyin_keji_B_new2"
        },
        "thickness": {
            "value": "0.0"
        },
        "velocity": {
            "max": "0.3",
            "min": "0.0"
        }
    }
}