{
    "frames": [
        {
            "filename": "尾巴3_00000.png",
            "frame": {
                "h": 128,
                "w": 24,
                "x": 0,
                "y": 0
            },
            "rotated": false,
            "scale": {
                "x": 1.0,
                "y": 1.0,
                "z": 1.0
            },
            "sourceSize": {
                "h": 128,
                "w": 24
            },
            "spriteSourceSize": {
                "h": 128,
                "w": 24,
                "x": 0,
                "y": 0
            },
            "trimmed": false
        },
        {
            "filename": "尾巴3_00001.png",
            "frame": {
                "h": 128,
                "w": 24,
                "x": 24,
                "y": 0
            },
            "rotated": false,
            "scale": {
                "x": 1.0,
                "y": 1.0,
                "z": 1.0
            },
            "sourceSize": {
                "h": 128,
                "w": 24
            },
            "spriteSourceSize": {
                "h": 128,
                "w": 24,
                "x": 0,
                "y": 0
            },
            "trimmed": false
        },
        {
            "filename": "尾巴3_00002.png",
            "frame": {
                "h": 128,
                "w": 24,
                "x": 48,
                "y": 0
            },
            "rotated": false,
            "scale": {
                "x": 1.0,
                "y": 1.0,
                "z": 1.0
            },
            "sourceSize": {
                "h": 128,
                "w": 24
            },
            "spriteSourceSize": {
                "h": 128,
                "w": 24,
                "x": 0,
                "y": 0
            },
            "trimmed": false
        },
        {
            "filename": "尾巴3_00003.png",
            "frame": {
                "h": 128,
                "w": 24,
                "x": 72,
                "y": 0
            },
            "rotated": false,
            "scale": {
                "x": 1.0,
                "y": 1.0,
                "z": 1.0
            },
            "sourceSize": {
                "h": 128,
                "w": 24
            },
            "spriteSourceSize": {
                "h": 128,
                "w": 24,
                "x": 0,
                "y": 0
            },
            "trimmed": false
        },
        {
            "filename": "尾巴3_00004.png",
            "frame": {
                "h": 128,
                "w": 24,
                "x": 96,
                "y": 0
            },
            "rotated": false,
            "scale": {
                "x": 1.0,
                "y": 1.0,
                "z": 1.0
            },
            "sourceSize": {
                "h": 128,
                "w": 24
            },
            "spriteSourceSize": {
                "h": 128,
                "w": 24,
                "x": 0,
                "y": 0
            },
            "trimmed": false
        },
        {
            "filename": "尾巴3_00005.png",
            "frame": {
                "h": 128,
                "w": 24,
                "x": 120,
                "y": 0
            },
            "rotated": false,
            "scale": {
                "x": 1.0,
                "y": 1.0,
                "z": 1.0
            },
            "sourceSize": {
                "h": 128,
                "w": 24
            },
            "spriteSourceSize": {
                "h": 128,
                "w": 24,
                "x": 0,
                "y": 0
            },
            "trimmed": false
        },
        {
            "filename": "尾巴3_00006.png",
            "frame": {
                "h": 128,
                "w": 24,
                "x": 144,
                "y": 0
            },
            "rotated": false,
            "scale": {
                "x": 1.0,
                "y": 1.0,
                "z": 1.0
            },
            "sourceSize": {
                "h": 128,
                "w": 24
            },
            "spriteSourceSize": {
                "h": 128,
                "w": 24,
                "x": 0,
                "y": 0
            },
            "trimmed": false
        },
        {
            "filename": "尾巴3_00007.png",
            "frame": {
                "h": 128,
                "w": 24,
                "x": 168,
                "y": 0
            },
            "rotated": false,
            "scale": {
                "x": 1.0,
                "y": 1.0,
                "z": 1.0
            },
            "sourceSize": {
                "h": 128,
                "w": 24
            },
            "spriteSourceSize": {
                "h": 128,
                "w": 24,
                "x": 0,
                "y": 0
            },
            "trimmed": false
        },
        {
            "filename": "尾巴3_00008.png",
            "frame": {
                "h": 128,
                "w": 24,
                "x": 192,
                "y": 0
            },
            "rotated": false,
            "scale": {
                "x": 1.0,
                "y": 1.0,
                "z": 1.0
            },
            "sourceSize": {
                "h": 128,
                "w": 24
            },
            "spriteSourceSize": {
                "h": 128,
                "w": 24,
                "x": 0,
                "y": 0
            },
            "trimmed": false
        },
        {
            "filename": "尾巴3_00009.png",
            "frame": {
                "h": 128,
                "w": 24,
                "x": 216,
                "y": 0
            },
            "rotated": false,
            "scale": {
                "x": 1.0,
                "y": 1.0,
                "z": 1.0
            },
            "sourceSize": {
                "h": 128,
                "w": 24
            },
            "spriteSourceSize": {
                "h": 128,
                "w": 24,
                "x": 0,
                "y": 0
            },
            "trimmed": false
        },
        {
            "filename": "尾巴3_00010.png",
            "frame": {
                "h": 128,
                "w": 24,
                "x": 0,
                "y": 128
            },
            "rotated": false,
            "scale": {
                "x": 1.0,
                "y": 1.0,
                "z": 1.0
            },
            "sourceSize": {
                "h": 128,
                "w": 24
            },
            "spriteSourceSize": {
                "h": 128,
                "w": 24,
                "x": 0,
                "y": 0
            },
            "trimmed": false
        },
        {
            "filename": "尾巴3_00011.png",
            "frame": {
                "h": 128,
                "w": 24,
                "x": 24,
                "y": 128
            },
            "rotated": false,
            "scale": {
                "x": 1.0,
                "y": 1.0,
                "z": 1.0
            },
            "sourceSize": {
                "h": 128,
                "w": 24
            },
            "spriteSourceSize": {
                "h": 128,
                "w": 24,
                "x": 0,
                "y": 0
            },
            "trimmed": false
        }
    ],
    "meta": {
        "app": "http://www.texturepacker.com",
        "format": "RGBA8888",
        "image": "ss_tiger_nianB_weiba3.png",
        "scale": "1",
        "size": {
            "h": 256,
            "w": 256
        },
        "smartupdate": "$TexturePacker:SmartUpdate:1bd9df22c8a7db55d5bb4bb246db2f3a$",
        "version": "1.0"
    }
}