{
  "particleeffect": {
    "activetime": {
      "value": "0.0"
    },
    "animlodbias": {
      "value": "0.0"
    },
    "blend": {
      "name": "add"
    },
    "colorfade": [
      {
        "color": "1.0 1.0 0.776471 0.196078",
        "time": "0.0"
      },
      {
        "color": "1.0 0.984314 0.752941 1.0",
        "time": "0.5"
      },
      {
        "color": "1.0 0.694118 0.321569 0.0",
        "time": "1.5"
      }
    ],
    "constantforce": {
      "value": "0.0 0.0 0.0"
    },
    "dampingforce": {
      "value": "0.0"
    },
    "direction": {
      "max": "0.0 0.0 0.0",
      "min": "0.0 -1.0 0.0"
    },
    "emissionrate": {
      "max": "5.0",
      "min": "5.0"
    },
    "emittersize": {
      "value": "1.0 0.0 0.5"
    },
    "emittertype": {
      "value": "Box"
    },
    "enablecolor": {
      "enable": "true"
    },
    "enableloop": {
      "enable": "false"
    },
    "faceCameraMode": {
      "value": "Rotate XYZ"
    },
    "fixedscreensize": {
      "enable": "false"
    },
    "inactivetime": {
      "value": "0.0"
    },
    "material": {
      "name": "materials/particles.material"
    },
    "numparticles": {
      "value": "5"
    },
    "particlesize": {
      "max": "0.2 0.2",
      "min": "0.1 0.1"
    },
    "relative": {
      "enable": "true"
    },
    "rotation": {
      "max": "180.0",
      "min": "0.0"
    },
    "rotationspeed": {
      "max": "30.0",
      "min": "0.0"
    },
    "scaled": {
      "enable": "true"
    },
    "sizedelta": {
      "add": "0.5",
      "mul": "0.4"
    },
    "sorted": {
      "enable": "false"
    },
    "texture": {
      "ani": {
        "fps": "30.0",
        "name": "0"
      },
      "name": "textures/particle/s4/yx_jiaoyin_huiyuanziyuan_03_lizi02"
    },
    "timetolive": {
      "max": "1.0",
      "min": "1.5"
    },
    "velocity": {
      "max": "1.0",
      "min": "1.0"
    }
  }
}