{
    "frames": [
        {
            "filename": "合成 2_00.png",
            "frame": {
                "h": 128,
                "w": 128,
                "x": 0,
                "y": 0
            },
            "rotated": false,
            "scale": {
                "x": 1.0,
                "y": 1.0,
                "z": 1.0
            },
            "sourceSize": {
                "h": 128,
                "w": 128
            },
            "spriteSourceSize": {
                "h": 128,
                "w": 128,
                "x": 0,
                "y": 0
            },
            "trimmed": false
        }
    ],
    "meta": {
        "app": "https://www.codeandweb.com/texturepacker",
        "format": "RGBA8888",
        "image": "ss_scifi_weapon_yuandianglow.png",
        "scale": "1",
        "size": {
            "h": 128,
            "w": 128
        },
        "smartupdate": "$TexturePacker:SmartUpdate:28e36c48016772fa597b3fc763b3c111:eabc59efe909e502c7c43905a87befae:48d45c2e3460f549c20c12d63ac58396$",
        "version": "1.0"
    }
}