{
    "particleeffect": {
        "colorfade": [
            {
                "color": "1.000000 1.000000 1.000000 0.000000",
                "time": "0%"
            },
            {
                "color": "1.000000 1.000000 1.000000 1.000000",
                "time": "5%"
            },
            {
                "color": "1.000000 1.000000 1.000000 1.000000",
                "time": "90%"
            },
            {
                "color": "1.000000 1.000000 1.000000 0.000000",
                "time": "100%"
            }
        ],
        "depthtest": {
            "enable": "true"
        },
        "direction": {
            "max": "0.0 1.0 0.0",
            "min": "0.0 0.0 0.0",
            "value": "Direction"
        },
        "emissionrate": {
            "max": "25.0",
            "min": "20.0"
        },
        "emitterpath": [
            {
                "offset": "-17.0 0.0 0.0",
                "time": "0.0"
            },
            {
                "offset": "-10.0 0.0 0.0",
                "time": "0.3"
            },
            {
                "offset": "0.0 0.0 0.0",
                "time": "0.35"
            },
            {
                "offset": "0.0 0.0 0.0",
                "time": "0.55"
            },
            {
                "offset": "4.0 0.0 0.0",
                "time": "0.6"
            },
            {
                "offset": "4.0 0.0 0.0",
                "time": "0.75"
            },
            {
                "offset": "24.0 0.0 38.0",
                "time": "0.75"
            },
            {
                "offset": "25.0 0.0 38.0",
                "time": "0.9"
            },
            {
                "offset": "36.0 0.0 26.0",
                "time": "0.9"
            },
            {
                "offset": "36.0 0.0 26.0",
                "time": "1.0"
            }
        ],
        "emittersize": {
            "value": "1.0 0.0 0.0"
        },
        "emittertype": {
            "value": "Sphere"
        },
        "enableloop": {
            "enable": "true"
        },
        "enabletexture": {
            "enable": "true"
        },
        "numparticles": {
            "value": "200"
        },
        "particlesize": {
            "max": "0.12 0.12",
            "min": "0.04 0.04"
        },
        "relative": {
            "enable": "true"
        },
        "texture": {
            "name": "textures/sfxs/home/ass_effect/back_hyfg/0_qipao"
        },
        "thickness": {
            "value": "0.0"
        },
        "timetolive": {
            "max": "7.0",
            "min": "5.0"
        },
        "velocity": {
            "max": "1.0",
            "min": "0.6"
        }
    }
}