{
  "format_version": "1.14.0",
  "sound_definitions": {
    "mob.warden.nearby_close": {
      "category": "hostile",
      "max_distance": 80.0,
      "sounds": [
        "sounds/mob/warden/nearby_close_1",
        "sounds/mob/warden/nearby_close_2",
        "sounds/mob/warden/nearby_close_3",
        "sounds/mob/warden/nearby_close_4"
      ]
    },
    "mob.warden.nearby_closer": {
      "category": "hostile",
      "max_distance": 80.0,
      "sounds": [
        "sounds/mob/warden/nearby_closer_1",
        "sounds/mob/warden/nearby_closer_2",
        "sounds/mob/warden/nearby_closer_3"
      ]
    },
    "mob.warden.nearby_closest": {
      "category": "hostile",
      "max_distance": 80.0,
      "sounds": [
        "sounds/mob/warden/nearby_closest_1",
        "sounds/mob/warden/nearby_closest_2",
        "sounds/mob/warden/nearby_closest_3"
      ]
    },
    "mob.warden.agitated": {
      "category": "hostile",
      "max_distance": 80.0,
      "sounds": [
        "sounds/mob/warden/agitated_1",
        "sounds/mob/warden/agitated_2"
      ]
    },
    "mob.warden.angry": {
      "category": "hostile",
      "max_distance": 80.0,
      "sounds": [
        "sounds/mob/warden/angry_1",
        "sounds/mob/warden/angry_2",
        "sounds/mob/warden/angry_3",
        "sounds/mob/warden/angry_4",
        "sounds/mob/warden/angry_5",
        "sounds/mob/warden/angry_6"
      ]
    },
    "mob.warden.listening": {
      "category": "hostile",
      "max_distance": 160.0,
      "sounds": [
        "sounds/mob/warden/listening_1",
        "sounds/mob/warden/listening_2",
        "sounds/mob/warden/listening_3",
        "sounds/mob/warden/listening_4",
        "sounds/mob/warden/listening_5"
      ]
    },
    "mob.warden.sniff": {
      "category": "hostile",
      "max_distance": 80.0,
      "sounds": [
        "sounds/mob/warden/sniff_1",
        "sounds/mob/warden/sniff_2",
        "sounds/mob/warden/sniff_3",
        "sounds/mob/warden/sniff_4"
      ]
    },
    "mob.warden.dig": {
      "category": "hostile",
      "max_distance": 80.0,
      "sounds": [
        "sounds/mob/warden/dig"
      ]
    },
    "mob.warden.emerge": {
      "category": "hostile",
      "max_distance": 80.0,
      "sounds": [
        "sounds/mob/warden/emerge"
      ]
    },
    "mob.warden.roar": {
      "category": "hostile",
      "max_distance": 48.0,
      "sounds": [
        "sounds/mob/warden/roar_1",
        "sounds/mob/warden/roar_2",
        "sounds/mob/warden/roar_3",
        "sounds/mob/warden/roar_4",
        "sounds/mob/warden/roar_5"
      ]
    },
    "mob.warden.step": {
      "category": "hostile",
      "max_distance": 160.0,
      "sounds": [
        "sounds/mob/warden/step_1",
        "sounds/mob/warden/step_2",
        "sounds/mob/warden/step_3",
        "sounds/mob/warden/step_4"
      ]
    },
    "mob.warden.idle": {
      "category": "hostile",
      "max_distance": 64.0,
      "sounds": [
        "sounds/mob/warden/idle_1",
        "sounds/mob/warden/idle_2",
        "sounds/mob/warden/idle_3",
        "sounds/mob/warden/idle_4",
        "sounds/mob/warden/idle_5",
        "sounds/mob/warden/idle_6",
        "sounds/mob/warden/idle_7",
        "sounds/mob/warden/idle_8",
        "sounds/mob/warden/idle_9",
        "sounds/mob/warden/idle_10",
        "sounds/mob/warden/idle_11",
        "sounds/mob/warden/idle_12"
      ]
    },
    "mob.warden.heartbeat": {
      "category": "hostile",
      "max_distance": 80.0,
      "sounds": [
        "sounds/mob/warden/heartbeat_1",
        "sounds/mob/warden/heartbeat_2",
        "sounds/mob/warden/heartbeat_3",
        "sounds/mob/warden/heartbeat_4"
      ]
    },
    "mob.warden.clicking": {
      "category": "hostile",
      "max_distance": 80.0,
      "sounds": [
        "sounds/block/sculk_sensor/sculk_clicking1",
        "sounds/block/sculk_sensor/sculk_clicking2",
        "sounds/block/sculk_sensor/sculk_clicking3",
        "sounds/block/sculk_sensor/sculk_clicking4",
        "sounds/block/sculk_sensor/sculk_clicking5",
        "sounds/block/sculk_sensor/sculk_clicking6"
      ]
    },
    "mob.warden.attack": {
      "category": "hostile",
      "max_distance": 80.0,
      "sounds": [
        "sounds/mob/warden/attack_impact_1",
        "sounds/mob/warden/attack_impact_2"
      ]
    },
    "use.sculk_sensor": {
      "category": "block",
      "sounds": [
        "sounds/block/sculk_sensor/step1",
        "sounds/block/sculk_sensor/step2",
        "sounds/block/sculk_sensor/step3",
        "sounds/block/sculk_sensor/step4",
        "sounds/block/sculk_sensor/step5",
        "sounds/block/sculk_sensor/step6"
      ]
    },
    "break.sculk_sensor": {
      "category": "block",
      "sounds": [
        "sounds/block/sculk_sensor/break1",
        "sounds/block/sculk_sensor/break2",
        "sounds/block/sculk_sensor/break3",
        "sounds/block/sculk_sensor/break4",
        "sounds/block/sculk_sensor/break5"
      ]
    },
    "place.sculk_sensor": {
      "category": "block",
      "sounds": [
        "sounds/block/sculk_sensor/place1",
        "sounds/block/sculk_sensor/place2",
        "sounds/block/sculk_sensor/place3",
        "sounds/block/sculk_sensor/place4",
        "sounds/block/sculk_sensor/place5"
      ]
    },
    "hit.sculk_sensor": {
      "category": "block",
      "sounds": [
        "sounds/block/sculk_sensor/step1",
        "sounds/block/sculk_sensor/step2",
        "sounds/block/sculk_sensor/step3",
        "sounds/block/sculk_sensor/step4",
        "sounds/block/sculk_sensor/step5",
        "sounds/block/sculk_sensor/step6"
      ]
    },
    "fall.sculk_sensor": {
      "category": "neutral",
      "sounds": [
        "sounds/block/sculk_sensor/step1",
        "sounds/block/sculk_sensor/step2",
        "sounds/block/sculk_sensor/step3",
        "sounds/block/sculk_sensor/step4",
        "sounds/block/sculk_sensor/step5",
        "sounds/block/sculk_sensor/step6"
      ]
    },
    "step.sculk_sensor": {
      "category": "neutral",
      "sounds": [
        "sounds/block/sculk_sensor/step1",
        "sounds/block/sculk_sensor/step2",
        "sounds/block/sculk_sensor/step3",
        "sounds/block/sculk_sensor/step4",
        "sounds/block/sculk_sensor/step5",
        "sounds/block/sculk_sensor/step6"
      ]
    },
    "jump.sculk_sensor": {
      "category": "neutral",
      "sounds": [
        "sounds/block/sculk_sensor/step1",
        "sounds/block/sculk_sensor/step2",
        "sounds/block/sculk_sensor/step3",
        "sounds/block/sculk_sensor/step4",
        "sounds/block/sculk_sensor/step5",
        "sounds/block/sculk_sensor/step6"
      ]
    },
    "land.sculk_sensor": {
      "category": "neutral",
      "sounds": [
        "sounds/block/sculk_sensor/step1",
        "sounds/block/sculk_sensor/step2",
        "sounds/block/sculk_sensor/step3",
        "sounds/block/sculk_sensor/step4",
        "sounds/block/sculk_sensor/step5",
        "sounds/block/sculk_sensor/step6"
      ]
    },
    "power.on.sculk_sensor": {
      "category": "neutral",
      "sounds": [
        "sounds/block/sculk_sensor/sculk_clicking1",
        "sounds/block/sculk_sensor/sculk_clicking2",
        "sounds/block/sculk_sensor/sculk_clicking3",
        "sounds/block/sculk_sensor/sculk_clicking4",
        "sounds/block/sculk_sensor/sculk_clicking5",
        "sounds/block/sculk_sensor/sculk_clicking6"
      ]
    },
    "power.off.sculk_sensor": {
      "category": "neutral",
      "sounds": [
        "sounds/block/sculk_sensor/sculk_clicking_stop1",
        "sounds/block/sculk_sensor/sculk_clicking_stop2",
        "sounds/block/sculk_sensor/sculk_clicking_stop3",
        "sounds/block/sculk_sensor/sculk_clicking_stop4",
        "sounds/block/sculk_sensor/sculk_clicking_stop5"
      ]
    },
    "bloom.sculk_catalyst": {
      "category": "block",
      "sounds": [
        "sounds/particles/soulspeed1",
        "sounds/particles/soulspeed2",
        "sounds/particles/soulspeed3",
        "sounds/particles/soulspeed4",
        "sounds/particles/soulspeed5",
        "sounds/particles/soulspeed6",
        "sounds/particles/soulspeed7",
        "sounds/particles/soulspeed8",
        "sounds/particles/soulspeed9",
        "sounds/particles/soulspeed10",
        "sounds/particles/soulspeed11",
        "sounds/particles/soulspeed12",
        "sounds/particles/soulspeed13"
      ]
    },
    "hit.sculk_catalyst": {
      "category": "block",
      "sounds": [
        "sounds/block/sculk_catalyst/step1",
        "sounds/block/sculk_catalyst/step2",
        "sounds/block/sculk_catalyst/step3",
        "sounds/block/sculk_catalyst/step4",
        "sounds/block/sculk_catalyst/step5",
        "sounds/block/sculk_catalyst/step6"
      ]
    },
    "step.sculk_catalyst": {
      "category": "neutral",
      "sounds": [
        "sounds/block/sculk_catalyst/step1",
        "sounds/block/sculk_catalyst/step2",
        "sounds/block/sculk_catalyst/step3",
        "sounds/block/sculk_catalyst/step4",
        "sounds/block/sculk_catalyst/step5",
        "sounds/block/sculk_catalyst/step6"
      ]
    },
    "place.sculk_catalyst": {
      "category": "block",
      "sounds": [
        "sounds/block/sculk_catalyst/place1",
        "sounds/block/sculk_catalyst/place2",
        "sounds/block/sculk_catalyst/place3",
        "sounds/block/sculk_catalyst/place4",
        "sounds/block/sculk_catalyst/place5"
      ]
    },
    "break.sculk_catalyst": {
      "category": "block",
      "sounds": [
        "sounds/block/sculk_catalyst/break1",
        "sounds/block/sculk_catalyst/break2",
        "sounds/block/sculk_catalyst/break3",
        "sounds/block/sculk_catalyst/break4",
        "sounds/block/sculk_catalyst/break5",
        "sounds/block/sculk_catalyst/break6",
        "sounds/block/sculk_catalyst/break7",
        "sounds/block/sculk_catalyst/break8",
        "sounds/block/sculk_catalyst/break9",
        "sounds/block/sculk_catalyst/break10"
      ]
    },
    "step.sculk_vein": {
      "category": "block",
      "sounds": [
        "sounds/block/sculk/step1",
        "sounds/block/sculk/step2",
        "sounds/block/sculk/step3",
        "sounds/block/sculk/step4",
        "sounds/block/sculk/step5",
        "sounds/block/sculk/step6"
      ]
    },
    "break.sculk_vein": {
      "category": "block",
      "sounds": [
        "sounds/block/sculk_vein/break1",
        "sounds/block/sculk_vein/break2",
        "sounds/block/sculk_vein/break3",
        "sounds/block/sculk_vein/break4",
        "sounds/block/sculk_vein/break5"
      ]
    },
    "spread.sculk": {
      "category": "neutral",
      "sounds": [
        "sounds/block/sculk/spread1",
        "sounds/block/sculk/spread2",
        "sounds/block/sculk/spread3",
        "sounds/block/sculk/spread4",
        "sounds/block/sculk/spread5"
      ]
    },
    "charge.sculk": {
      "category": "neutral",
      "sounds": [
        "sounds/block/sculk/charge1",
        "sounds/block/sculk/charge2",
        "sounds/block/sculk/charge3",
        "sounds/block/sculk/charge4",
        "sounds/block/sculk/charge5"
      ]
    },
    "hit.sculk": {
      "category": "block",
      "sounds": [
        "sounds/block/sculk/step1",
        "sounds/block/sculk/step2",
        "sounds/block/sculk/step3",
        "sounds/block/sculk/step4",
        "sounds/block/sculk/step5",
        "sounds/block/sculk/step6"
      ]
    },
    "step.sculk": {
      "category": "neutral",
      "sounds": [
        "sounds/block/sculk/step1",
        "sounds/block/sculk/step2",
        "sounds/block/sculk/step3",
        "sounds/block/sculk/step4",
        "sounds/block/sculk/step5",
        "sounds/block/sculk/step6"
      ]
    },
    "place.sculk": {
      "category": "block",
      "sounds": [
        "sounds/block/sculk/place1",
        "sounds/block/sculk/place2",
        "sounds/block/sculk/place3",
        "sounds/block/sculk/place4",
        "sounds/block/sculk/place5"
      ]
    },
    "break.sculk": {
      "category": "block",
      "sounds": [
        "sounds/block/sculk/break1",
        "sounds/block/sculk/break2",
        "sounds/block/sculk/break3",
        "sounds/block/sculk/break4",
        "sounds/block/sculk/break5",
        "sounds/block/sculk/break6",
        "sounds/block/sculk/break7",
        "sounds/block/sculk/break8",
        "sounds/block/sculk/break9",
        "sounds/block/sculk/break10",
        "sounds/block/sculk/break11",
        "sounds/block/sculk/break12",
        "sounds/block/sculk/break13",
        "sounds/block/sculk/break14"
      ]
    },
    "fall.sculk_shrieker": {
      "category": "neutral",
      "sounds": [
        "sounds/block/sculk/step1",
        "sounds/block/sculk/step2",
        "sounds/block/sculk/step3",
        "sounds/block/sculk/step4",
        "sounds/block/sculk/step5",
        "sounds/block/sculk/step6"
      ]
    },
    "hit.sculk_shrieker": {
      "category": "block",
      "sounds": [
        "sounds/block/sculk/step1",
        "sounds/block/sculk/step2",
        "sounds/block/sculk/step3",
        "sounds/block/sculk/step4",
        "sounds/block/sculk/step5",
        "sounds/block/sculk/step6"
      ]
    },
    "step.sculk_shrieker": {
      "category": "block",
      "sounds": [
        "sounds/block/sculk/step1",
        "sounds/block/sculk/step2",
        "sounds/block/sculk/step3",
        "sounds/block/sculk/step4",
        "sounds/block/sculk/step5",
        "sounds/block/sculk/step6"
      ]
    },
    "place.sculk_shrieker": {
      "category": "block",
      "sounds": [
        "sounds/block/sculk_shrieker/place1",
        "sounds/block/sculk_shrieker/place2",
        "sounds/block/sculk_shrieker/place3",
        "sounds/block/sculk_shrieker/place4",
        "sounds/block/sculk_shrieker/place5"
      ]
    },
    "break.sculk_shrieker": {
      "category": "block",
      "sounds": [
        "sounds/block/sculk_shrieker/break1",
        "sounds/block/sculk_shrieker/break2",
        "sounds/block/sculk_shrieker/break3",
        "sounds/block/sculk_shrieker/break4",
        "sounds/block/sculk_shrieker/break5",
        "sounds/block/sculk_shrieker/break6"
      ]
    },
    "shriek.sculk_shrieker": {
      "category": "neutral",
      "sounds": [
        "sounds/block/sculk_shrieker/shriek1",
        "sounds/block/sculk_shrieker/shriek2",
        "sounds/block/sculk_shrieker/shriek3",
        "sounds/block/sculk_shrieker/shriek4",
        "sounds/block/sculk_shrieker/shriek5"
      ]
    },
    "mob.frog.death": {
      "category": "neutral",
      "sounds": [
        {
          "name": "sounds/mob/frog/death1",
          "volume": 0.65
        },
        {
          "name": "sounds/mob/frog/death2",
          "volume": 0.65
        },
        {
          "name": "sounds/mob/frog/death3",
          "volume": 0.65
        }
      ]
    },
    "mob.frog.eat": {
      "category": "neutral",
      "sounds": [
        {
          "name": "sounds/mob/frog/eat1"
        },
        {
          "name": "sounds/mob/frog/eat2"
        },
        {
          "name": "sounds/mob/frog/eat3"
        },
        {
          "name": "sounds/mob/frog/eat4"
        }
      ]
    },
    "mob.frog.hurt": {
      "category": "neutral",
      "sounds": [
        {
          "name": "sounds/mob/frog/hurt1",
          "volume": 0.65
        },
        {
          "name": "sounds/mob/frog/hurt2",
          "volume": 0.65
        },
        {
          "name": "sounds/mob/frog/hurt3",
          "volume": 0.65
        },
        {
          "name": "sounds/mob/frog/hurt4",
          "volume": 0.65
        }
      ]
    },
    "mob.frog.ambient": {
      "category": "neutral",
      "sounds": [
        {
          "name": "sounds/mob/frog/idle1",
          "volume": 0.82
        },
        {
          "name": "sounds/mob/frog/idle2",
          "volume": 0.82
        },
        {
          "name": "sounds/mob/frog/idle3",
          "volume": 0.82
        },
        {
          "name": "sounds/mob/frog/idle4",
          "volume": 0.82
        },
        {
          "name": "sounds/mob/frog/idle5",
          "volume": 0.82
        },
        {
          "name": "sounds/mob/frog/idle6",
          "volume": 0.82
        },
        {
          "name": "sounds/mob/frog/idle7",
          "volume": 0.82
        },
        {
          "name": "sounds/mob/frog/idle8",
          "volume": 0.82
        }
      ]
    },
    "mob.frog.jump_to_block": {
      "category": "neutral",
      "sounds": [
        {
          "name": "sounds/mob/frog/long_jump1"
        },
        {
          "name": "sounds/mob/frog/long_jump2"
        },
        {
          "name": "sounds/mob/frog/long_jump3"
        },
        {
          "name": "sounds/mob/frog/long_jump4"
        }
      ]
    },
    "mob.frog.step": {
      "category": "neutral",
      "sounds": [
        {
          "name": "sounds/mob/frog/step1",
          "volume": 1
        },
        {
          "name": "sounds/mob/frog/step2",
          "volume": 1
        },
        {
          "name": "sounds/mob/frog/step3",
          "volume": 1
        },
        {
          "name": "sounds/mob/frog/step4",
          "volume": 1
        }
      ]
    },
    "mob.frog.tongue": {
      "category": "hostile",
      "sounds": [
        {
          "name": "sounds/mob/frog/tongue1",
          "volume": 1
        },
        {
          "name": "sounds/mob/frog/tongue2",
          "volume": 1
        },
        {
          "name": "sounds/mob/frog/tongue3",
          "volume": 1
        },
        {
          "name": "sounds/mob/frog/tongue4",
          "volume": 1
        }
      ]
    },
    "mob.tadpole.death": {
      "category": "neutral",
      "sounds": [
        {
          "name": "sounds/mob/tadpole/death1",
          "volume": 0.65
        },
        {
          "name": "sounds/mob/tadpole/death2",
          "volume": 0.65
        }
      ]
    },
    "mob.tadpole.hurt": {
      "category": "neutral",
      "sounds": [
        {
          "name": "sounds/mob/tadpole/hurt1",
          "volume": 0.65
        },
        {
          "name": "sounds/mob/tadpole/hurt2",
          "volume": 0.65
        },
        {
          "name": "sounds/mob/tadpole/hurt3",
          "volume": 0.65
        },
        {
          "name": "sounds/mob/tadpole/hurt4",
          "volume": 0.65
        }
      ]
    }
  }
}
