{
    "particleeffect": {
        "colorfade": [
            {
                "color": "1.0000 1.0000 1.0000 0.0000",
                "time": "0%"
            },
            {
                "color": "1.0000 1.0000 1.0000 1.0000",
                "time": "40%"
            },
            {
                "color": "1.0000 1.0000 1.0000 1.0000",
                "time": "80%"
            },
            {
                "color": "1.0000 1.0000 1.0000 0.0000",
                "time": "100%"
            }
        ],
        "constantforce": {
            "value": "0.02 0.4 0.0"
        },
        "dampingforce": {
            "value": "0.2"
        },
        "depthtest": {
            "enable": "true"
        },
        "direction": {
            "max": "-0.07 -1.0 0.0",
            "min": "-0.07 -1.0 0.0",
            "value": "Direction"
        },
        "emissionrate": {
            "max": "0.5",
            "min": "0.2"
        },
        "emitterScaleCurve": [

        ],
        "emitterpath": [
            {
                "offset": "2.5 0.0 0.0",
                "time": "0%"
            },
            {
                "offset": "2.5 0.0 0.0",
                "time": "100%"
            }
        ],
        "emitterscale": [

        ],
        "emittersize": {
            "value": "0.0 0.0 0.0"
        },
        "emittertype": {
            "value": "Sphere"
        },
        "independent": false,
        "numparticles": {
            "value": "2"
        },
        "particlesize": {
            "max": "2.5 0.15",
            "min": "2.5 0.15"
        },
        "relative": {
            "enable": "true"
        },
        "scaled": {
            "enable": "false"
        },
        "texture": {
            "name": "textures/sfxs/home/ass_effect/stdj_qiangti_01/0_wave"
        },
        "thickness": {
            "value": "0.0"
        },
        "timetolive": {
            "max": "3.0",
            "min": "2.5"
        },
        "velocity": {
            "max": "0.80",
            "min": "0.75"
        }
    }
}