{
    "particleeffect": {
        "colorfade": [
            {
                "color": "1.0000 1.0000 1.0000 0.0000",
                "time": "0%"
            },
            {
                "color": "1.0000 1.0000 1.0000 1.0000",
                "time": "10%"
            },
            {
                "color": "1.0000 1.0000 1.0000 0.7321",
                "time": "40%"
            },
            {
                "color": "1.0000 1.0000 1.0000 0.9018",
                "time": "80%"
            },
            {
                "color": "1.0000 1.0000 1.0000 0.0000",
                "time": "100%"
            }
        ],
        "depthtest": {
            "enable": "true"
        },
        "direction": {
            "max": "1.0 1.0 1.0",
            "min": "-1.0 -1.0 -1.0",
            "value": "Direction"
        },
        "emittersize": {
            "value": "1.0 4.0 0.0"
        },
        "emittertype": {
            "value": "Sphere"
        },
        "enabletexture": {
            "enable": "true"
        },
        "particlesize": {
            "max": "0.09 0.09",
            "min": "0.05 0.05"
        },
        "relative": {
            "enable": "true"
        },
        "texture": {
            "ani": {
                "fps": "0",
                "name": "textures/sfxs/home/ass_effect/brick_xkfg/0_xingdian",
                "shuffle": true
            },
            "name": "textures/sfxs/home/ass_effect/brick_xkfg/0_xingdian"
        },
        "thickness": {
            "value": "0.0"
        },
        "timetolive": {
            "max": "2.50",
            "min": "1.50"
        },
        "velocity": {
            "max": "0.0",
            "min": "0.0"
        }
    }
}