{
    "frames": [
        {
            "filename": "鬃毛_00000.png",
            "frame": {
                "h": 64,
                "w": 128,
                "x": 0,
                "y": 0
            },
            "rotated": false,
            "scale": {
                "x": 1.0,
                "y": 1.0,
                "z": 1.0
            },
            "sourceSize": {
                "h": 64,
                "w": 128
            },
            "spriteSourceSize": {
                "h": 64,
                "w": 128,
                "x": 0,
                "y": 0
            },
            "trimmed": false
        },
        {
            "filename": "鬃毛_00001.png",
            "frame": {
                "h": 64,
                "w": 128,
                "x": 128,
                "y": 0
            },
            "rotated": false,
            "scale": {
                "x": 1.0,
                "y": 1.0,
                "z": 1.0
            },
            "sourceSize": {
                "h": 64,
                "w": 128
            },
            "spriteSourceSize": {
                "h": 64,
                "w": 128,
                "x": 0,
                "y": 0
            },
            "trimmed": false
        },
        {
            "filename": "鬃毛_00002.png",
            "frame": {
                "h": 64,
                "w": 128,
                "x": 0,
                "y": 64
            },
            "rotated": false,
            "scale": {
                "x": 1.0,
                "y": 1.0,
                "z": 1.0
            },
            "sourceSize": {
                "h": 64,
                "w": 128
            },
            "spriteSourceSize": {
                "h": 64,
                "w": 128,
                "x": 0,
                "y": 0
            },
            "trimmed": false
        },
        {
            "filename": "鬃毛_00003.png",
            "frame": {
                "h": 64,
                "w": 128,
                "x": 128,
                "y": 64
            },
            "rotated": false,
            "scale": {
                "x": 1.0,
                "y": 1.0,
                "z": 1.0
            },
            "sourceSize": {
                "h": 64,
                "w": 128
            },
            "spriteSourceSize": {
                "h": 64,
                "w": 128,
                "x": 0,
                "y": 0
            },
            "trimmed": false
        },
        {
            "filename": "鬃毛_00004.png",
            "frame": {
                "h": 64,
                "w": 128,
                "x": 0,
                "y": 128
            },
            "rotated": false,
            "scale": {
                "x": 1.0,
                "y": 1.0,
                "z": 1.0
            },
            "sourceSize": {
                "h": 64,
                "w": 128
            },
            "spriteSourceSize": {
                "h": 64,
                "w": 128,
                "x": 0,
                "y": 0
            },
            "trimmed": false
        },
        {
            "filename": "鬃毛_00005.png",
            "frame": {
                "h": 64,
                "w": 128,
                "x": 128,
                "y": 128
            },
            "rotated": false,
            "scale": {
                "x": 1.0,
                "y": 1.0,
                "z": 1.0
            },
            "sourceSize": {
                "h": 64,
                "w": 128
            },
            "spriteSourceSize": {
                "h": 64,
                "w": 128,
                "x": 0,
                "y": 0
            },
            "trimmed": false
        },
        {
            "filename": "鬃毛_00006.png",
            "frame": {
                "h": 64,
                "w": 128,
                "x": 0,
                "y": 192
            },
            "rotated": false,
            "scale": {
                "x": 1.0,
                "y": 1.0,
                "z": 1.0
            },
            "sourceSize": {
                "h": 64,
                "w": 128
            },
            "spriteSourceSize": {
                "h": 64,
                "w": 128,
                "x": 0,
                "y": 0
            },
            "trimmed": false
        },
        {
            "filename": "鬃毛_00007.png",
            "frame": {
                "h": 64,
                "w": 128,
                "x": 128,
                "y": 192
            },
            "rotated": false,
            "scale": {
                "x": 1.0,
                "y": 1.0,
                "z": 1.0
            },
            "sourceSize": {
                "h": 64,
                "w": 128
            },
            "spriteSourceSize": {
                "h": 64,
                "w": 128,
                "x": 0,
                "y": 0
            },
            "trimmed": false
        }
    ],
    "meta": {
        "app": "http://www.texturepacker.com",
        "format": "RGBA8888",
        "image": "xy_myth_camera_zongmao.png",
        "scale": "1",
        "size": {
            "h": 256,
            "w": 256
        },
        "smartupdate": "$TexturePacker:SmartUpdate:0004be7de055abaa3579508fe9fd38e1$",
        "version": "1.0"
    }
}