{
    "particleeffect": {
        "colorfade": [

        ],
        "constantforce": {
            "value": "0.0 -2.0 0.0"
        },
        "dampingforce": {
            "value": "2.0"
        },
        "depthtest": {
            "enable": "true"
        },
        "direction": {
            "max": "0.0 0.0 0.0",
            "min": "0.0 0.0 0.0",
            "value": "Direction"
        },
        "emissionrate": {
            "max": "50.0",
            "min": "20.0"
        },
        "emitterScaleCurve": [

        ],
        "emitterscale": [

        ],
        "emittersize": {
            "value": "0.8 0.5 0.8"
        },
        "emittertype": {
            "value": "Sphere"
        },
        "enablecolor": {
            "enable": "false"
        },
        "enableloop": {
            "enable": "true"
        },
        "independent": false,
        "material": {
            "name": "Materials/Particle.xml"
        },
        "numparticles": {
            "value": "8"
        },
        "particlesize": {
            "max": "0.3 0.3",
            "min": "0.3 0.3"
        },
        "relative": {
            "enable": "false"
        },
        "rotationRange": {
            "max": "0.0 0.0 360.0",
            "min": "0.0 0.0 0.0"
        },
        "rotationSpeedRange": {
            "max": "0.0 0.0 60.0",
            "min": "0.0 0.0 0.0"
        },
        "sizedelta": [
            {
                "scale": "1.0 1.0",
                "time": "0.0%"
            },
            {
                "scale": "0.863 0.863",
                "time": "20.0%"
            },
            {
                "scale": "0.881 0.881",
                "time": "40.0%"
            },
            {
                "scale": "0.879 0.879",
                "time": "60.0%"
            },
            {
                "scale": "0.879 0.879",
                "time": "80.0%"
            },
            {
                "scale": "0.879 0.879",
                "time": "100.0%"
            }
        ],
        "texture": {
            "name": "textures/sfxs/s3/xy_2019Q3_fazhen_C_lizi01"
        },
        "thickness": {
            "value": "0"
        },
        "timetolive": {
            "max": "1.0",
            "min": "0.0"
        },
        "velocity": {
            "max": "1.0",
            "min": "0.5"
        }
    }
}