{
  "format_version": "1.8.0",
  "animation_controllers": {
    "controller.animation.endermite.move": {
      "states": {
        "default": {
          "animations": [ { "move": [] } ]
        }
      }
    }
  }
}