{
  "format_version": "1.8.0",
  "animation_controllers": {
    "controller.animation.tripod_camera.base_pose": {
      "states": {
        "default": {
          "animations": [ { "neutral": [] } ]
        }
      }
    }
  }
}