{
  "particleeffect": {
    "sorted": {
      "enable": "false"
    },
    "inactivetime": {
      "value": "1.0"
    },
    "relative": {
      "enable": "false"
    },
    "constantforce": {
      "value": "0.0 0.0 0.0"
    },
    "enablecolor": {
      "enable": "false"
    },
    "activetime": {
      "value": "0.0"
    },
    "rotation": {
      "max": "60.0",
      "min": "-60.0"
    },
    "numparticles": {
      "value": "7"
    },
    "texture": {
      "name": "textures/particle/s1/cube_2"
    },
    "fixedscreensize": {
      "enable": "false"
    },
    "colorfade": [
      {
        "color": "0.0 0.0 0.0 0.0",
        "time": "0.0"
      },
      {
        "color": "0.113725 0.764706 0.764706 1",
        "time": "0.1"
      },
      {
        "color": "0.227451 0.227451 0.227451 1",
        "time": "0.5"
      }
    ],
    "enableloop": {
      "enable": "false"
    },
    "dampingforce": {
      "value": "2.0"
    },
    "velocity": {
      "max": "0.1",
      "min": "0.2"
    },
    "particlesize": {
      "max": "0.1 0.1",
      "min": "0.03 0.03"
    },
    "blend": {
      "name": "add"
    },
    "emittersize": {
      "value": "0.5 0.5 0.5"
    },
    "direction": {
      "max": "0.1 0.0 0.1",
      "min": "-0.1 0.0 -0.1"
    },
    "sizedelta": {
      "add": "0.2",
      "mul": "0.65"
    },
    "faceCameraMode": {
      "value": "Rotate XYZ"
    },
    "timetolive": {
      "max": "1.2",
      "min": "0.5"
    },
    "material": {
      "name": "Materials/Particle.xml"
    },
    "scaled": {
      "enable": "true"
    },
    "rotationspeed": {
      "max": "125.0",
      "min": "-200.0"
    },
    "emissionrate": {
      "max": "8.0",
      "min": "15.0"
    }
  }
}