{
    "frames": [
        {
            "filename": "9_00000.png",
            "frame": {
                "h": 64,
                "w": 64,
                "x": 0,
                "y": 0
            },
            "rotated": false,
            "scale": {
                "x": 1.0,
                "y": 1.0,
                "z": 1.0
            },
            "sourceSize": {
                "h": 64,
                "w": 64
            },
            "spriteSourceSize": {
                "h": 64,
                "w": 64,
                "x": 0,
                "y": 0
            },
            "trimmed": false
        },
        {
            "filename": "9_00001.png",
            "frame": {
                "h": 64,
                "w": 64,
                "x": 64,
                "y": 0
            },
            "rotated": false,
            "scale": {
                "x": 1.0,
                "y": 1.0,
                "z": 1.0
            },
            "sourceSize": {
                "h": 64,
                "w": 64
            },
            "spriteSourceSize": {
                "h": 64,
                "w": 64,
                "x": 0,
                "y": 0
            },
            "trimmed": false
        },
        {
            "filename": "9_00002.png",
            "frame": {
                "h": 64,
                "w": 64,
                "x": 128,
                "y": 0
            },
            "rotated": false,
            "scale": {
                "x": 1.0,
                "y": 1.0,
                "z": 1.0
            },
            "sourceSize": {
                "h": 64,
                "w": 64
            },
            "spriteSourceSize": {
                "h": 64,
                "w": 64,
                "x": 0,
                "y": 0
            },
            "trimmed": false
        },
        {
            "filename": "9_00003.png",
            "frame": {
                "h": 64,
                "w": 64,
                "x": 192,
                "y": 0
            },
            "rotated": false,
            "scale": {
                "x": 1.0,
                "y": 1.0,
                "z": 1.0
            },
            "sourceSize": {
                "h": 64,
                "w": 64
            },
            "spriteSourceSize": {
                "h": 64,
                "w": 64,
                "x": 0,
                "y": 0
            },
            "trimmed": false
        },
        {
            "filename": "9_00004.png",
            "frame": {
                "h": 64,
                "w": 64,
                "x": 0,
                "y": 64
            },
            "rotated": false,
            "scale": {
                "x": 1.0,
                "y": 1.0,
                "z": 1.0
            },
            "sourceSize": {
                "h": 64,
                "w": 64
            },
            "spriteSourceSize": {
                "h": 64,
                "w": 64,
                "x": 0,
                "y": 0
            },
            "trimmed": false
        },
        {
            "filename": "9_00005.png",
            "frame": {
                "h": 64,
                "w": 64,
                "x": 64,
                "y": 64
            },
            "rotated": false,
            "scale": {
                "x": 1.0,
                "y": 1.0,
                "z": 1.0
            },
            "sourceSize": {
                "h": 64,
                "w": 64
            },
            "spriteSourceSize": {
                "h": 64,
                "w": 64,
                "x": 0,
                "y": 0
            },
            "trimmed": false
        },
        {
            "filename": "9_00006.png",
            "frame": {
                "h": 64,
                "w": 64,
                "x": 128,
                "y": 64
            },
            "rotated": false,
            "scale": {
                "x": 1.0,
                "y": 1.0,
                "z": 1.0
            },
            "sourceSize": {
                "h": 64,
                "w": 64
            },
            "spriteSourceSize": {
                "h": 64,
                "w": 64,
                "x": 0,
                "y": 0
            },
            "trimmed": false
        },
        {
            "filename": "9_00007.png",
            "frame": {
                "h": 64,
                "w": 64,
                "x": 192,
                "y": 64
            },
            "rotated": false,
            "scale": {
                "x": 1.0,
                "y": 1.0,
                "z": 1.0
            },
            "sourceSize": {
                "h": 64,
                "w": 64
            },
            "spriteSourceSize": {
                "h": 64,
                "w": 64,
                "x": 0,
                "y": 0
            },
            "trimmed": false
        },
        {
            "filename": "9_00008.png",
            "frame": {
                "h": 64,
                "w": 64,
                "x": 0,
                "y": 128
            },
            "rotated": false,
            "scale": {
                "x": 1.0,
                "y": 1.0,
                "z": 1.0
            },
            "sourceSize": {
                "h": 64,
                "w": 64
            },
            "spriteSourceSize": {
                "h": 64,
                "w": 64,
                "x": 0,
                "y": 0
            },
            "trimmed": false
        },
        {
            "filename": "9_00009.png",
            "frame": {
                "h": 64,
                "w": 64,
                "x": 64,
                "y": 128
            },
            "rotated": false,
            "scale": {
                "x": 1.0,
                "y": 1.0,
                "z": 1.0
            },
            "sourceSize": {
                "h": 64,
                "w": 64
            },
            "spriteSourceSize": {
                "h": 64,
                "w": 64,
                "x": 0,
                "y": 0
            },
            "trimmed": false
        },
        {
            "filename": "9_00010.png",
            "frame": {
                "h": 64,
                "w": 64,
                "x": 128,
                "y": 128
            },
            "rotated": false,
            "scale": {
                "x": 1.0,
                "y": 1.0,
                "z": 1.0
            },
            "sourceSize": {
                "h": 64,
                "w": 64
            },
            "spriteSourceSize": {
                "h": 64,
                "w": 64,
                "x": 0,
                "y": 0
            },
            "trimmed": false
        },
        {
            "filename": "9_00011.png",
            "frame": {
                "h": 64,
                "w": 64,
                "x": 192,
                "y": 128
            },
            "rotated": false,
            "scale": {
                "x": 1.0,
                "y": 1.0,
                "z": 1.0
            },
            "sourceSize": {
                "h": 64,
                "w": 64
            },
            "spriteSourceSize": {
                "h": 64,
                "w": 64,
                "x": 0,
                "y": 0
            },
            "trimmed": false
        },
        {
            "filename": "9_00012.png",
            "frame": {
                "h": 64,
                "w": 64,
                "x": 0,
                "y": 192
            },
            "rotated": false,
            "scale": {
                "x": 1.0,
                "y": 1.0,
                "z": 1.0
            },
            "sourceSize": {
                "h": 64,
                "w": 64
            },
            "spriteSourceSize": {
                "h": 64,
                "w": 64,
                "x": 0,
                "y": 0
            },
            "trimmed": false
        },
        {
            "filename": "9_00013.png",
            "frame": {
                "h": 64,
                "w": 64,
                "x": 64,
                "y": 192
            },
            "rotated": false,
            "scale": {
                "x": 1.0,
                "y": 1.0,
                "z": 1.0
            },
            "sourceSize": {
                "h": 64,
                "w": 64
            },
            "spriteSourceSize": {
                "h": 64,
                "w": 64,
                "x": 0,
                "y": 0
            },
            "trimmed": false
        },
        {
            "filename": "9_00014.png",
            "frame": {
                "h": 64,
                "w": 64,
                "x": 128,
                "y": 192
            },
            "rotated": false,
            "scale": {
                "x": 1.0,
                "y": 1.0,
                "z": 1.0
            },
            "sourceSize": {
                "h": 64,
                "w": 64
            },
            "spriteSourceSize": {
                "h": 64,
                "w": 64,
                "x": 0,
                "y": 0
            },
            "trimmed": false
        },
        {
            "filename": "9_00015.png",
            "frame": {
                "h": 64,
                "w": 64,
                "x": 192,
                "y": 192
            },
            "rotated": false,
            "scale": {
                "x": 1.0,
                "y": 1.0,
                "z": 1.0
            },
            "sourceSize": {
                "h": 64,
                "w": 64
            },
            "spriteSourceSize": {
                "h": 64,
                "w": 64,
                "x": 0,
                "y": 0
            },
            "trimmed": false
        }
    ],
    "meta": {
        "app": "http://www.texturepacker.com",
        "format": "RGBA8888",
        "image": "cs_tiger_skinA_soul_wb_4.png",
        "scale": "1",
        "size": {
            "h": 256,
            "w": 256
        },
        "smartupdate": "$TexturePacker:SmartUpdate:f21f6a76518a2f44408a7ebe8192c288$",
        "version": "1.0"
    }
}