{
    "particleeffect": {
        "depthtest": {
            "enable": "true"
        },
        "direction": {
            "max": "0.0 0.0 0.01",
            "min": "0.0 0.0 0.01",
            "value": "Direction"
        },
        "emissionrate": {
            "max": "5.0",
            "min": "5.0"
        },
        "emitterScaleCurve": [

        ],
        "emitterscale": [

        ],
        "emittersize": {
            "value": "0.7 0.01 0.02"
        },
        "emittertype": {
            "value": "Sphere"
        },
        "enablecolor": {
            "enable": "false"
        },
        "faceCameraMode": {
            "value": "Direction Horizontal"
        },
        "independent": false,
        "layer": 3,
        "numparticles": {
            "value": "5"
        },
        "particlesize": {
            "max": "0.45 0.45",
            "min": "0.35 0.35"
        },
        "relative": {
            "enable": "false"
        },
        "texture": {
            "ani": {
                "fps": "16",
                "name": "textures/particle/2020s1/xy_jiaoyin_fojing_fozhang",
                "shuffle": false
            },
            "name": "textures/particle/2020s1/xy_jiaoyin_fojing_fozhang"
        },
        "thickness": {
            "value": "0.0"
        },
        "velocity": {
            "max": "0.1",
            "min": "0.1"
        }
    }
}