{
    "frameeffect": {
        "blend_mode": 1,
        "cylinder_enable": false,
        "delay": 0.0,
        "depth_test": true,
        "face_camera": false,
        "fade_distance": 0.0,
        "first_person_enable": false,
        "fps": 1,
        "frame_color": [

        ],
        "layer": 1,
        "lerp_scale": true,
        "loop": true,
        "rot_speed": [
            0,
            0,
            0
        ],
        "scale": [
            0.85,
            0.85,
            1.0
        ],
        "shuffle": false,
        "tex_repeat_num": [
            1,
            1
        ],
        "texture": "textures/particle/2020s1/yx_fazhen_fojing_A_neiquan"
    }
}