{
  "particleeffect": {
    "direction": {
      "max": "0.0 0.0 1.0",
      "min": "0.0 0.0 1.0",
      "value": "Direction"
    },
    "emissionrate": {
      "max": "4.0",
      "min": "4.0"
    },
    "emitterscale": [

    ],
    "emittersize": {
      "value": "0.0 0.0 0.0"
    },
    "emittertype": {
      "value": "Sphere"
    },
    "enablecolor": {
      "enable": "false"
    },
    "faceCameraMode": {
      "value": "Direction"
    },
    "numparticles": {
      "value": "5"
    },
    "particlesize": {
      "max": "0.8 0.8",
      "min": "0.8 0.8"
    },
    "relative": {
      "enable": "false"
    },
    "rotation": {
      "max": "180.0",
      "min": "180.0"
    },
    "texture": {
      "ani": {
        "fps": "25",
        "name": "textures/sfxs/2021s1/lujing01",
        "shuffle": false
      },
      "name": "textures/sfxs/2021s1/lujing01"
    },
    "thickness": {
      "value": "0.0"
    },
    "velocity": {
      "max": "0.1",
      "min": "0.1"
    }
  }
}