{
  "particleeffect": {
    "colorfade": [

    ],
    "depthtest": {
      "enable": "true"
    },
    "direction": {
      "max": "0.0 0.0 0.0",
      "min": "0.0 0.0 0.0",
      "value": "Direction"
    },
    "emissionrate": {
      "max": "6.0",
      "min": "5.0"
    },
    "emitterscale": [

    ],
    "emittersize": {
      "value": "0.5 0.0 0.0"
    },
    "emittertype": {
      "value": "Sphere"
    },
    "enableloop": {
      "enable": "true"
    },
    "faceCameraMode": {
      "value": "Horizontal"
    },
    "numparticles": {
      "value": "4"
    },
    "particlesize": {
      "max": "0.4 0.4",
      "min": "0.45 0.45"
    },
    "relative": {
      "enable": "false"
    },
    "sizedelta": [
      {
        "scale": "1.0 1.0",
        "time": "0.0%"
      }
    ],
    "texture": {
      "ani": {
        "fps": "30",
        "name": "textures/sfxs/2021s1/jiaoyingai",
        "shuffle": false
      },
      "name": "textures/sfxs/2021s1/jiaoyingai"
    },
    "thickness": {
      "value": "0.0"
    },
    "timetolive": {
      "max": "0.5",
      "min": "0.5"
    },
    "velocity": {
      "max": "0.0",
      "min": "0.0"
    }
  }
}