{
  "particleeffect": {
    "colorfade": [

    ],
    "dampingforce": {
      "value": "2.0"
    },
    "depthtest": {
      "enable": "true"
    },
    "direction": {
      "max": "1.0 1.0 1.0",
      "min": "0.0 0.0 0.0",
      "value": "Direction"
    },
    "emissionrate": {
      "max": "10.0",
      "min": "5.0"
    },
    "emitterpath": [

    ],
    "emitterscale": [
      {
        "time": "0.0",
        "value": "1.000"
      },
      {
        "time": "0.3",
        "value": "0.000"
      }
    ],
    "emittersize": {
      "value": "0.0 0.0 0.0"
    },
    "emittertype": {
      "value": "Sphere"
    },
    "enableloop": {
      "enable": "true"
    },
    "layer": 2,
    "numparticles": {
      "value": "1"
    },
    "particlesize": {
      "max": "0.15 0.15",
      "min": "0.3 0.3"
    },
    "relative": {
      "enable": "false"
    },
    "rotation": {
      "max": "60.0",
      "min": "0.0"
    },
    "rotationspeed": {
      "max": "540.0",
      "min": "180.0"
    },
    "sizedelta": [
      {
        "scale": "1.0 1.0",
        "time": "0.0"
      },
      {
        "scale": "0.5800000000000001 0.5800000000000001",
        "time": "0.4"
      },
      {
        "scale": "0.28 0.28",
        "time": "0.8"
      },
      {
        "scale": "0.1399999999999999 0.1399999999999999",
        "time": "1.2"
      },
      {
        "scale": "0.06000000000000005 0.06000000000000005",
        "time": "1.6"
      },
      {
        "scale": "0.0 0.0",
        "time": "2.0"
      }
    ],
    "texture": {
      "ani": {
        "fps": "15",
        "name": "textures/sfxs/2021s1/sg_feibiao_01",
        "shuffle": false
      },
      "name": "textures/sfxs/2021s1/sg_feibiao_01"
    },
    "thickness": {
      "value": "0.0"
    },
    "timetolive": {
      "max": "0.6",
      "min": "0.5"
    }
  }
}