{
  "particleeffect": {
    "activetime": {
      "value": "0.0"
    },
    "animlodbias": {
      "value": "0.0"
    },
    "blend": {
      "name": "blend"
    },
    "colorfade": [],
    "constantforce": {
      "value": "0.0 0.0 0.0"
    },
    "dampingforce": {
      "value": "0.0"
    },
    "direction": {
      "max": "1.0 1.0 1.0",
      "min": "-1.0 -1.0 -1.0"
    },
    "emissionrate": {
      "max": "5.0",
      "min": "3.0"
    },
    "emittersize": {
      "value": "1.0 1.0 1.0"
    },
    "emittertype": {
      "value": "Sphere"
    },
    "enablecolor": {
      "enable": "false"
    },
    "enableloop": {
      "enable": "true"
    },
    "faceCameraMode": {
      "value": "Rotate XYZ"
    },
    "fixedscreensize": {
      "enable": "false"
    },
    "inactivetime": {
      "value": "0.0"
    },
    "material": {
      "name": "materials/particles.material"
    },
    "numparticles": {
      "value": "10"
    },
    "particlesize": {
      "max": "0.2 0.2",
      "min": "0.3 0.3"
    },
    "relative": {
      "enable": "true"
    },
    "rotation": {
      "max": "0.0",
      "min": "0.0"
    },
    "rotationspeed": {
      "max": "0.0",
      "min": "0.0"
    },
    "scaled": {
      "enable": "true"
    },
    "sizedelta": {
      "add": "0.0",
      "mul": "1.0"
    },
    "sorted": {
      "enable": "false"
    },
    "texture": {
      "ani": {
        "fps": "20.0",
        "name": "textures/sfxs/2021s1/2021s1/sg_zy_zishen03"
      },
      "name": "textures/sfxs/2021s1/2021s1/sg_zy_zishen03"
    },
    "timetolive": {
      "max": "0.6",
      "min": "0.2"
    },
    "velocity": {
      "max": "0.0",
      "min": "0.0"
    }
  }
}