{
  "particleeffect": {
    "activetime": {
      "value": "0.0"
    },
    "animlodbias": {
      "value": "0.0"
    },
    "blend": {
      "name": "add"
    },
    "colorfade": [
      {
        "color": "0.772549 0.0 0.4 0.0",
        "time": "0.0"
      },
      {
        "color": "0.960784 0.65098 1.0 0.6",
        "time": "0.2"
      },
      {
        "color": "0.933333 0.0 1.0 0.0",
        "time": "0.7"
      }
    ],
    "constantforce": {
      "value": "0.0 0.0 0.0"
    },
    "dampingforce": {
      "value": "0.0"
    },
    "direction": {
      "max": "0.0 -1.0 0.0",
      "min": "0.0 -1.0 0.0"
    },
    "emissionrate": {
      "max": "5.0",
      "min": "5.0"
    },
    "emittersize": {
      "value": "0.0 0.0 0.0"
    },
    "emittertype": {
      "value": "Box"
    },
    "enablecolor": {
      "enable": "true"
    },
    "enableloop": {
      "enable": "false"
    },
    "faceCameraMode": {
      "value": "Rotate XYZ"
    },
    "fixedscreensize": {
      "enable": "false"
    },
    "inactivetime": {
      "value": "0.0"
    },
    "material": {
      "name": "materials/particles.material"
    },
    "numparticles": {
      "value": "10"
    },
    "particlesize": {
      "max": "0.2 0.2",
      "min": "0.2 0.2"
    },
    "relative": {
      "enable": "true"
    },
    "rotation": {
      "max": "0.7",
      "min": "0.7"
    },
    "rotationspeed": {
      "max": "0.0",
      "min": "0.0"
    },
    "scaled": {
      "enable": "true"
    },
    "sizedelta": {
      "add": "0.0",
      "mul": "0.95"
    },
    "sorted": {
      "enable": "false"
    },
    "texture": {
      "name": "textures/sfxs/2021s1/guangyun01"
    },
    "timetolive": {
      "max": "0.7",
      "min": "0.7"
    },
    "velocity": {
      "max": "0.5",
      "min": "0.5"
    }
  }
}