{
  "particleeffect": {
    "colorfade": [
      {
        "color": "1.000000 1.000000 1.000000 0.000000",
        "time": "0.0"
      },
      {
        "color": "0.992157 1.000000 0.349020 0.321429",
        "time": "0.48157894736842105"
      },
      {
        "color": "1.000000 1.000000 1.000000 0.000000",
        "time": "1.0"
      }
    ],
    "depthtest": {
      "enable": "true"
    },
    "direction": {
      "max": "0.0 0.0 0.0",
      "min": "0.0 0.0 0.0",
      "value": "Direction"
    },
    "emissionrate": {
      "max": "3.0",
      "min": "2.0"
    },
    "emitterscale": [

    ],
    "emittersize": {
      "value": "0.0 0.0 0.0"
    },
    "emittertype": {
      "value": "Sphere"
    },
    "enableloop": {
      "enable": "true"
    },
    "numparticles": {
      "value": "3"
    },
    "particlesize": {
      "max": "0.35 0.35",
      "min": "0.35 0.35"
    },
    "relative": {
      "enable": "true"
    },
    "texture": {
      "name": "textures/sfxs/2021s1/m_mc_star03"
    },
    "thickness": {
      "value": "0.0"
    },
    "velocity": {
      "max": "0.0",
      "min": "0.0"
    }
  }
}