{
  "particleeffect": {
    "colorfade": [

    ],
    "direction": {
      "max": "0.0 1.3877787807814457e-16 0.0",
      "min": "0.0 0.0 0.0",
      "value": "Direction"
    },
    "emissionrate": {
      "max": "0.0",
      "min": "0.0"
    },
    "emitterscale": [

    ],
    "emittersize": {
      "value": "0.0 0.0 0.0"
    },
    "emittertype": {
      "value": "Sphere"
    },
    "faceCameraMode": {
      "value": "Horizontal"
    },
    "layer": 0,
    "numparticles": {
      "value": "1"
    },
    "particlesize": {
      "max": "1.5 1.5",
      "min": "1.5 1.5"
    },
    "relative": {
      "enable": "true"
    },
    "rotation": {
      "max": "0.2",
      "min": "0.2"
    },
    "sizedelta": [
      {
        "scale": "0.0 0.0",
        "time": "0.0%"
      },
      {
        "scale": "1.1099999999999999 1.1099999999999999",
        "time": "15.0%"
      },
      {
        "scale": "1.4 1.4",
        "time": "100.0%"
      },
      {
        "scale": "1.4 1.4",
        "time": "100.0%"
      }
    ],
    "texture": {
      "ani": {
        "fps": "35",
        "name": "textures/sfxs/2021s1/sg_zhbq",
        "shuffle": false
      },
      "name": "textures/sfxs/2021s1/sg_zhbq"
    },
    "thickness": {
      "value": "0.0"
    },
    "timetolive": {
      "max": "0.8",
      "min": "0.8"
    },
    "velocity": {
      "max": "0.0",
      "min": "0.0"
    }
  }
}