{
  "frameeffect": {
    "cylinder_enable": false,
    "depth_test": true,
    "face_camera": false,
    "fps": 16,
    "loop": true,
    "rot_speed": [
      0.0,
      0.0,
      0.0
    ],
    "scale": [
      0.9,
      0.9,
      0.9
    ],
    "shuffle": false,
    "tex_repeat_num": [
      1,
      1
    ],
    "texture": "textures/sfxs/2021s1/sg_zy_ylfz01_jin"
  }
}