{
  "particleeffect": {
    "colorfade": [

    ],
    "dampingforce": {
      "value": "3.0"
    },
    "depthtest": {
      "enable": "true"
    },
    "direction": {
      "max": "0.0 0.0 0.0",
      "min": "0.0 -1.0 0.0",
      "value": "Direction"
    },
    "emitterscale": [

    ],
    "emittersize": {
      "value": "0.8 0.4 0.1"
    },
    "emittertype": {
      "value": "Cylinder"
    },
    "enableloop": {
      "enable": "true"
    },
    "numparticles": {
      "value": "50"
    },
    "particlesize": {
      "max": "0.05 0.05",
      "min": "0.03 0.03"
    },
    "relative": {
      "enable": "false"
    },
    "texture": {
      "ani": {
        "fps": "0",
        "name": "textures/sfxs/2021s1/shanguanglz",
        "shuffle": false
      },
      "name": "textures/sfxs/2021s1/lz1_D"
    },
    "thickness": {
      "value": "0.0"
    },
    "timetolive": {
      "max": "0.2",
      "min": "0.1"
    },
    "velocity": {
      "max": "0.4",
      "min": "0.2"
    }
  }
}