{
  "particleeffect": {
    "blend": {
      "name": "add"
    },
    "colorfade": [
      {
        "color": "0.615686 0.078431 1.000000 1.000000",
        "time": "0.0"
      },
      {
        "color": "1.000000 0.419608 0.952941 0.901786",
        "time": "0.009600000000000001"
      },
      {
        "color": "1.000000 0.803922 0.968627 0.098214",
        "time": "0.020463157894736843"
      },
      {
        "color": "1.000000 1.000000 1.000000 0.000000",
        "time": "0.03200000000000001"
      }
    ],
    "depthtest": {
      "enable": "true"
    },
    "direction": {
      "max": "0.0 -1.0 0.0",
      "min": "0.0 -1.0 0.0",
      "value": "Direction"
    },
    "emissionrate": {
      "max": "8.0",
      "min": "5.0"
    },
    "emitterscale": [

    ],
    "emittersize": {
      "value": "1.0 0.0 1.0"
    },
    "emittertype": {
      "value": "Cylinder"
    },
    "enableloop": {
      "enable": "true"
    },
    "particlesize": {
      "max": "0.12 0.12",
      "min": "0.03 0.03"
    },
    "relative": {
      "enable": "true"
    },
    "sizedelta": [
      {
        "scale": "1.15 1.15",
        "time": "0.0"
      },
      {
        "scale": "0.15000000000000013 0.15000000000000013",
        "time": "2.0"
      }
    ],
    "texture": {
      "ani": {
        "fps": "1",
        "name": "",
        "shuffle": true
      },
      "name": "textures/particle/2021s1/lizi001"
    },
    "thickness": {
      "value": "0.0"
    },
    "timetolive": {
      "max": "0.4",
      "min": "0.2"
    }
  }
}