{
    "frameeffect": {
        "blend_mode": 2,
        "cylinder_enable": true,
        "cylinder_frac_num": 4,
        "cylinder_height": 1.0,
        "cylinder_radius_down": 0.3,
        "cylinder_radius_up": 0.3,
        "delay": 0.0,
        "depth_test": true,
        "face_camera": false,
        "fade_distance": 0.0,
        "fps": 15,
        "loop": true,
        "rot_speed": [
            0,
            0,
            0
        ],
        "scale": [
            1.0,
            0.7,
            1.0
        ],
        "shuffle": false,
        "tex_repeat_num": [
            1,
            1
        ],
        "texture": "textures/sfxs/2021s3txz/cs_ocean_horse01_12liudong2"
    }
}