{
	"frames": [
		{ "frame": { "h": 164, "w": 101, "x": 0, "y": 0 } },
		{ "frame": { "h": 164, "w": 101, "x": 103, "y": 0 } },
		{ "frame": { "h": 164, "w": 101, "x": 206, "y": 0 } },
		{ "frame": { "h": 164, "w": 101, "x": 309, "y": 0 } },
		{ "frame": { "h": 164, "w": 101, "x": 0, "y": 166 } },
		{ "frame": { "h": 164, "w": 101, "x": 103, "y": 166 } },
		{ "frame": { "h": 164, "w": 101, "x": 206, "y": 166 } },
		{ "frame": { "h": 164, "w": 101, "x": 309, "y": 166 } },
		{ "frame": { "h": 164, "w": 101, "x": 0, "y": 332 } },
		{ "frame": { "h": 164, "w": 101, "x": 103, "y": 332 } },
		{ "frame": { "h": 164, "w": 101, "x": 206, "y": 332 } },
		{ "frame": { "h": 164, "w": 101, "x": 309, "y": 332 } }
	],
	"meta": {
		"size": { "h": 498, "w": 412 }
	}
}