{
	"frames": [
		{ "frame": { "h": 25, "w": 28, "x": 0, "y": 0 } },
		{ "frame": { "h": 25, "w": 28, "x": 29, "y": 0 } },
		{ "frame": { "h": 25, "w": 28, "x": 58, "y": 0 } },
		{ "frame": { "h": 25, "w": 28, "x": 87, "y": 0 } },
		{ "frame": { "h": 25, "w": 28, "x": 0, "y": 26 } },
		{ "frame": { "h": 25, "w": 28, "x": 29, "y": 26 } },
		{ "frame": { "h": 25, "w": 28, "x": 58, "y": 26 } },
		{ "frame": { "h": 25, "w": 28, "x": 87, "y": 26 } },
		{ "frame": { "h": 25, "w": 28, "x": 0, "y": 52 } },
		{ "frame": { "h": 25, "w": 28, "x": 29, "y": 52 } },
		{ "frame": { "h": 25, "w": 28, "x": 58, "y": 52 } },
		{ "frame": { "h": 25, "w": 28, "x": 87, "y": 52 } },
		{ "frame": { "h": 25, "w": 28, "x": 0, "y": 78 } },
		{ "frame": { "h": 25, "w": 28, "x": 29, "y": 78 } },
		{ "frame": { "h": 25, "w": 28, "x": 58, "y": 78 } },
		{ "frame": { "h": 25, "w": 28, "x": 87, "y": 78 } }
	],
	"meta": {
		"size": { "h": 104, "w": 116 }
	}
}