{
	"frames": [
		{ "frame": { "h": 58, "w": 64, "x": 0, "y": 0 } },
		{ "frame": { "h": 58, "w": 64, "x": 9, "y": 0 } },
		{ "frame": { "h": 58, "w": 64, "x": 18, "y": 0 } },
		{ "frame": { "h": 58, "w": 64, "x": 28, "y": 0 } },
		{ "frame": { "h": 58, "w": 64, "x": 37, "y": 0 } },
		{ "frame": { "h": 58, "w": 64, "x": 46, "y": 0 } },
		{ "frame": { "h": 58, "w": 64, "x": 55, "y": 0 } },
		{ "frame": { "h": 58, "w": 64, "x": 64, "y": 0 } }
	],
	"meta": {
		"size": { "h": 58, "w": 128 }
	}
}