{
    "particleeffect": {
        "blend": {
            "name": "add"
        },
        "depthtest": {
            "enable": "true"
        },
        "direction": {
            "max": "1.0 1.0 1.0",
            "min": "-1.0 -1.0 -1.0",
            "value": "Direction"
        },
        "emitterpath": [
            {
                "offset": "1.35 0.0 -14.55",
                "time": "0.0"
            }
        ],
        "emittersize": {
            "value": "0.0 0.0 0.0"
        },
        "emittertype": {
            "value": "Sphere"
        },
        "enablecolor": {
            "enable": "false"
        },
        "enableloop": {
            "enable": "true"
        },
        "faceCameraMode": {
            "value": "Rotate Y"
        },
        "numparticles": {
            "value": "1"
        },
        "particlesize": {
            "max": "1.8 0.9",
            "min": "1.8 0.9"
        },
        "relative": {
            "enable": "true"
        },
        "texture": {
            "ani": {
                "fps": "5",
                "name": "textures/sfxs/home/ass_effect/back_dyfg/0_spectrum",
                "shuffle": false
            },
            "name": "textures/sfxs/home/ass_effect/back_dyfg/0_spectrum"
        },
        "thickness": {
            "value": "0.0"
        },
        "timetolive": {
            "max": "1000",
            "min": "1000"
        },
        "velocity": {
            "max": "0.0",
            "min": "0.0"
        }
    }
}