{
  "mesa_plateau": {
    "format_version": "1.12.0",

    "minecraft:climate": {
      "downfall": 0.0,
      "snow_accumulation": [ 0.0, 0.125 ],
      "temperature": 2.0
    },
    "minecraft:mesa_surface": {
      "bryce_pillars": false,
      "clay_material": "minecraft:stained_hardened_clay",
      "floor_depth": 7,
      "floor_material": "minecraft:gravel",
      "foundation_material": "minecraft:stone",
      "hard_clay_material": "minecraft:hardened_clay",
      "has_forest": false,
      "mid_material": "minecraft:hardened_clay",
      "top_material": {
        "name": "minecraft:sand",
        "states": {
          "sand_type": "red"
        }
      }
    },
    "minecraft:overworld_height": {
      "noise_type": "highlands"
    },
    "minecraft:world_generation_rules": {
      "hills_transformation": "mesa",
      "mutate_transformation": "mesa_plateau_mutated",
      "generate_for_climates": [
        [ "warm", 1 ]
      ]
    },

    "mesa": {},
    "monster": {},
    "overworld": {},
    "plateau": {},
    "rare": {}
  }
}
