{
    "frames": [
        {
            "filename": "ss_dragon_libao_cebaoshi_00000.png",
            "frame": {
                "h": 32,
                "w": 32,
                "x": 0,
                "y": 0
            },
            "rotated": false,
            "scale": {
                "x": 1.0,
                "y": 1.0,
                "z": 1.0
            },
            "sourceSize": {
                "h": 32,
                "w": 32
            },
            "spriteSourceSize": {
                "h": 32,
                "w": 32,
                "x": 0,
                "y": 0
            },
            "trimmed": false
        },
        {
            "filename": "ss_dragon_libao_cebaoshi_00001.png",
            "frame": {
                "h": 32,
                "w": 32,
                "x": 32,
                "y": 0
            },
            "rotated": false,
            "scale": {
                "x": 1.0,
                "y": 1.0,
                "z": 1.0
            },
            "sourceSize": {
                "h": 32,
                "w": 32
            },
            "spriteSourceSize": {
                "h": 32,
                "w": 32,
                "x": 0,
                "y": 0
            },
            "trimmed": false
        },
        {
            "filename": "ss_dragon_libao_cebaoshi_00002.png",
            "frame": {
                "h": 32,
                "w": 32,
                "x": 64,
                "y": 0
            },
            "rotated": false,
            "scale": {
                "x": 1.0,
                "y": 1.0,
                "z": 1.0
            },
            "sourceSize": {
                "h": 32,
                "w": 32
            },
            "spriteSourceSize": {
                "h": 32,
                "w": 32,
                "x": 0,
                "y": 0
            },
            "trimmed": false
        },
        {
            "filename": "ss_dragon_libao_cebaoshi_00003.png",
            "frame": {
                "h": 32,
                "w": 32,
                "x": 96,
                "y": 0
            },
            "rotated": false,
            "scale": {
                "x": 1.0,
                "y": 1.0,
                "z": 1.0
            },
            "sourceSize": {
                "h": 32,
                "w": 32
            },
            "spriteSourceSize": {
                "h": 32,
                "w": 32,
                "x": 0,
                "y": 0
            },
            "trimmed": false
        },
        {
            "filename": "ss_dragon_libao_cebaoshi_00004.png",
            "frame": {
                "h": 32,
                "w": 32,
                "x": 0,
                "y": 32
            },
            "rotated": false,
            "scale": {
                "x": 1.0,
                "y": 1.0,
                "z": 1.0
            },
            "sourceSize": {
                "h": 32,
                "w": 32
            },
            "spriteSourceSize": {
                "h": 32,
                "w": 32,
                "x": 0,
                "y": 0
            },
            "trimmed": false
        },
        {
            "filename": "ss_dragon_libao_cebaoshi_00005.png",
            "frame": {
                "h": 32,
                "w": 32,
                "x": 32,
                "y": 32
            },
            "rotated": false,
            "scale": {
                "x": 1.0,
                "y": 1.0,
                "z": 1.0
            },
            "sourceSize": {
                "h": 32,
                "w": 32
            },
            "spriteSourceSize": {
                "h": 32,
                "w": 32,
                "x": 0,
                "y": 0
            },
            "trimmed": false
        },
        {
            "filename": "ss_dragon_libao_cebaoshi_00006.png",
            "frame": {
                "h": 32,
                "w": 32,
                "x": 64,
                "y": 32
            },
            "rotated": false,
            "scale": {
                "x": 1.0,
                "y": 1.0,
                "z": 1.0
            },
            "sourceSize": {
                "h": 32,
                "w": 32
            },
            "spriteSourceSize": {
                "h": 32,
                "w": 32,
                "x": 0,
                "y": 0
            },
            "trimmed": false
        },
        {
            "filename": "ss_dragon_libao_cebaoshi_00007.png",
            "frame": {
                "h": 32,
                "w": 32,
                "x": 96,
                "y": 32
            },
            "rotated": false,
            "scale": {
                "x": 1.0,
                "y": 1.0,
                "z": 1.0
            },
            "sourceSize": {
                "h": 32,
                "w": 32
            },
            "spriteSourceSize": {
                "h": 32,
                "w": 32,
                "x": 0,
                "y": 0
            },
            "trimmed": false
        },
        {
            "filename": "ss_dragon_libao_cebaoshi_00008.png",
            "frame": {
                "h": 32,
                "w": 32,
                "x": 0,
                "y": 64
            },
            "rotated": false,
            "scale": {
                "x": 1.0,
                "y": 1.0,
                "z": 1.0
            },
            "sourceSize": {
                "h": 32,
                "w": 32
            },
            "spriteSourceSize": {
                "h": 32,
                "w": 32,
                "x": 0,
                "y": 0
            },
            "trimmed": false
        },
        {
            "filename": "ss_dragon_libao_cebaoshi_00009.png",
            "frame": {
                "h": 32,
                "w": 32,
                "x": 32,
                "y": 64
            },
            "rotated": false,
            "scale": {
                "x": 1.0,
                "y": 1.0,
                "z": 1.0
            },
            "sourceSize": {
                "h": 32,
                "w": 32
            },
            "spriteSourceSize": {
                "h": 32,
                "w": 32,
                "x": 0,
                "y": 0
            },
            "trimmed": false
        },
        {
            "filename": "ss_dragon_libao_cebaoshi_00010.png",
            "frame": {
                "h": 32,
                "w": 32,
                "x": 64,
                "y": 64
            },
            "rotated": false,
            "scale": {
                "x": 1.0,
                "y": 1.0,
                "z": 1.0
            },
            "sourceSize": {
                "h": 32,
                "w": 32
            },
            "spriteSourceSize": {
                "h": 32,
                "w": 32,
                "x": 0,
                "y": 0
            },
            "trimmed": false
        },
        {
            "filename": "ss_dragon_libao_cebaoshi_00011.png",
            "frame": {
                "h": 32,
                "w": 32,
                "x": 96,
                "y": 64
            },
            "rotated": false,
            "scale": {
                "x": 1.0,
                "y": 1.0,
                "z": 1.0
            },
            "sourceSize": {
                "h": 32,
                "w": 32
            },
            "spriteSourceSize": {
                "h": 32,
                "w": 32,
                "x": 0,
                "y": 0
            },
            "trimmed": false
        },
        {
            "filename": "ss_dragon_libao_cebaoshi_00012.png",
            "frame": {
                "h": 32,
                "w": 32,
                "x": 0,
                "y": 96
            },
            "rotated": false,
            "scale": {
                "x": 1.0,
                "y": 1.0,
                "z": 1.0
            },
            "sourceSize": {
                "h": 32,
                "w": 32
            },
            "spriteSourceSize": {
                "h": 32,
                "w": 32,
                "x": 0,
                "y": 0
            },
            "trimmed": false
        },
        {
            "filename": "ss_dragon_libao_cebaoshi_00013.png",
            "frame": {
                "h": 32,
                "w": 32,
                "x": 32,
                "y": 96
            },
            "rotated": false,
            "scale": {
                "x": 1.0,
                "y": 1.0,
                "z": 1.0
            },
            "sourceSize": {
                "h": 32,
                "w": 32
            },
            "spriteSourceSize": {
                "h": 32,
                "w": 32,
                "x": 0,
                "y": 0
            },
            "trimmed": false
        },
        {
            "filename": "ss_dragon_libao_cebaoshi_00014.png",
            "frame": {
                "h": 32,
                "w": 32,
                "x": 64,
                "y": 96
            },
            "rotated": false,
            "scale": {
                "x": 1.0,
                "y": 1.0,
                "z": 1.0
            },
            "sourceSize": {
                "h": 32,
                "w": 32
            },
            "spriteSourceSize": {
                "h": 32,
                "w": 32,
                "x": 0,
                "y": 0
            },
            "trimmed": false
        },
        {
            "filename": "ss_dragon_libao_cebaoshi_00015.png",
            "frame": {
                "h": 32,
                "w": 32,
                "x": 96,
                "y": 96
            },
            "rotated": false,
            "scale": {
                "x": 1.0,
                "y": 1.0,
                "z": 1.0
            },
            "sourceSize": {
                "h": 32,
                "w": 32
            },
            "spriteSourceSize": {
                "h": 32,
                "w": 32,
                "x": 0,
                "y": 0
            },
            "trimmed": false
        }
    ],
    "meta": {
        "app": "https://www.codeandweb.com/texturepacker",
        "format": "RGBA8888",
        "image": "ss_dragon_libao_cebaoshi.png",
        "scale": "1",
        "size": {
            "h": 128,
            "w": 128
        },
        "smartupdate": "$TexturePacker:SmartUpdate:33a382b13d3a8f8e3b961254ed8b4481:a11bc35afb57d9b7fe22f2595de5987c:fa307ce6c0e193a0cc13983716700190$",
        "version": "1.0"
    }
}